[
  {
    "link_thumb": "https://live.staticflickr.com/65535/50021607008_6237d1689d_n.jpg",
    "id_album": "1894617400",
    "description": "Lynx_448718",
    "title": "Lynx_448718",
    "link_img": "https://live.staticflickr.com/65535/50021607008_7a3900ab5f_o.jpg",
    "id_image": "Lynx_448718",
    "count_view": 0
  },
  {
    "link_thumb": "https://live.staticflickr.com/65535/50022789008_ccb82f1978_n.jpg",
    "id_album": "-419757464",
    "description": "SeaLife_155510",
    "title": "SeaLife_155510",
    "link_img": "https://live.staticflickr.com/65535/50022789008_8aaacb1fda_o.jpg",
    "id_image": "SeaLife_155510",
    "count_view": 0
  },
  {
    "link_thumb": "https://live.staticflickr.com/65535/50019744086_b1fd05e140_n.jpg",
    "id_album": "1949822052",
    "description": "Chimpanzee_399594",
    "title": "Chimpanzee_399594",
    "link_img": "https://live.staticflickr.com/65535/50019744086_e9daf33a1e_o.jpg",
    "id_image": "Chimpanzee_399594",
    "count_view": 0
  },
  {
    "link_thumb": "https://live.staticflickr.com/65535/50021424316_96b74d5394_n.jpg",
    "id_album": "-1513987841",
    "description": "Hawk_582932",
    "title": "Hawk_582932",
    "link_img": "https://live.staticflickr.com/65535/50021424316_05ef56776f_o.jpg",
    "id_image": "Hawk_582932",
    "count_view": 0
  },
  {
    "link_thumb": "https://live.staticflickr.com/65535/50352514751_9c37ea1f43_n.jpg",
    "id_album": "-462831703",
    "description": "Cat_428208",
    "title": "Cat_428208",
    "link_img": "https://live.staticflickr.com/65535/50352514751_c4f0cb5cdb_o.jpg",
    "id_image": "Cat_428208",
    "count_view": 0
  },
  {
    "link_thumb": "https://live.staticflickr.com/65535/50016960046_a48892ed38_n.jpg",
    "id_album": "231236068",
    "description": "BaldEagle_528778",
    "title": "BaldEagle_528778",
    "link_img": "https://live.staticflickr.com/65535/50016960046_0ff9d51982_o.jpg",
    "id_image": "BaldEagle_528778",
    "count_view": 0
  },
  {
    "link_thumb": "https://live.staticflickr.com/65535/50020727168_3e27d1331f_n.jpg",
    "id_album": "-462831703",
    "description": "Cat_830167",
    "title": "Cat_830167",
    "link_img": "https://live.staticflickr.com/65535/50020727168_c3c0506898_o.jpg",
    "id_image": "Cat_830167",
    "count_view": 0
  },
  {
    "link_thumb": "https://live.staticflickr.com/65535/50016968966_79863842cd_n.jpg",
    "id_album": "231236068",
    "description": "BaldEagle_787868",
    "title": "BaldEagle_787868",
    "link_img": "https://live.staticflickr.com/65535/50016968966_4c45171499_o.jpg",
    "id_image": "BaldEagle_787868",
    "count_view": 0
  },
  {
    "link_thumb": "https://live.staticflickr.com/65535/50016392133_eae99b5761_n.jpg",
    "id_album": "523598895",
    "description": "Artistic_815242",
    "title": "Artistic_815242",
    "link_img": "https://live.staticflickr.com/65535/50016392133_8e353eaa11_o.jpg",
    "id_image": "Artistic_815242",
    "count_view": 0
  },
  {
    "link_thumb": "https://live.staticflickr.com/65535/50024238292_291902a367_n.jpg",
    "id_album": "702283289",
    "description": "Squirrel_955097",
    "title": "Squirrel_955097",
    "link_img": "https://live.staticflickr.com/65535/50024238292_4e4a9cf053_o.jpg",
    "id_image": "Squirrel_955097",
    "count_view": 0
  },
  {
    "link_thumb": "https://live.staticflickr.com/65535/50021189116_06c404007b_n.jpg",
    "id_album": "-462831704",
    "description": "Cat_708269",
    "title": "Cat_708269",
    "link_img": "https://live.staticflickr.com/65535/50021189116_0673eb4ebc_o.jpg",
    "id_image": "Cat_708269",
    "count_view": 0
  },
  {
    "link_thumb": "https://live.staticflickr.com/65535/50021304291_61ffd15f23_n.jpg",
    "id_album": "-405626519",
    "description": "GermanShepherd_854682",
    "title": "GermanShepherd_854682",
    "link_img": "https://live.staticflickr.com/65535/50021304291_bf31d91472_o.jpg",
    "id_image": "GermanShepherd_854682",
    "count_view": 0
  },
  {
    "link_thumb": "https://live.staticflickr.com/65535/50020727728_e8205b9ac1_n.jpg",
    "id_album": "-462831703",
    "description": "Cat_830505",
    "title": "Cat_830505",
    "link_img": "https://live.staticflickr.com/65535/50020727728_a12b3c8b67_o.jpg",
    "id_image": "Cat_830505",
    "count_view": 0
  },
  {
    "link_thumb": "https://live.staticflickr.com/65535/50017289137_d98765b38c_n.jpg",
    "id_album": "-422187261",
    "description": "Bear_351450",
    "title": "Bear_351450",
    "link_img": "https://live.staticflickr.com/65535/50017289137_b5734f39c6_o.jpg",
    "id_image": "Bear_351450",
    "count_view": 0
  },
  {
    "link_thumb": "https://live.staticflickr.com/65535/50351752133_2c59d1b412_n.jpg",
    "id_album": "-462831703",
    "description": "Cat_270244",
    "title": "Cat_270244",
    "link_img": "https://live.staticflickr.com/65535/50351752133_20736c5959_o.jpg",
    "id_image": "Cat_270244",
    "count_view": 0
  },
  {
    "link_thumb": "https://live.staticflickr.com/65535/50018190877_5d99209758_n.jpg",
    "id_album": "-462831702",
    "description": "Cat_275337",
    "title": "Cat_275337",
    "link_img": "https://live.staticflickr.com/65535/50018190877_4f3a229180_o.jpg",
    "id_image": "Cat_275337",
    "count_view": 0
  },
  {
    "link_thumb": "https://live.staticflickr.com/65535/50016963456_ab71cc50d2_n.jpg",
    "id_album": "231236068",
    "description": "BaldEagle_597063",
    "title": "BaldEagle_597063",
    "link_img": "https://live.staticflickr.com/65535/50016963456_f5caf7fd6f_o.jpg",
    "id_image": "BaldEagle_597063",
    "count_view": 0
  },
  {
    "link_thumb": "https://live.staticflickr.com/65535/50021482837_119bac64a3_n.jpg",
    "id_album": "-462831703",
    "description": "Cat_754113",
    "title": "Cat_754113",
    "link_img": "https://live.staticflickr.com/65535/50021482837_fe081ce2bc_o.jpg",
    "id_image": "Cat_754113",
    "count_view": 0
  },
  {
    "link_thumb": "https://live.staticflickr.com/65535/50020227593_0105d72843_n.jpg",
    "id_album": "1270947998",
    "description": "Elephant_466866",
    "title": "Elephant_466866",
    "link_img": "https://live.staticflickr.com/65535/50020227593_cc2b87f053_o.jpg",
    "id_image": "Elephant_466866",
    "count_view": 0
  },
  {
    "link_thumb": "https://live.staticflickr.com/65535/50019795587_b65bb60b7e_n.jpg",
    "id_album": "-462831703",
    "description": "Cat_969639",
    "title": "Cat_969639",
    "link_img": "https://live.staticflickr.com/65535/50019795587_3eab0795b6_o.jpg",
    "id_image": "Cat_969639",
    "count_view": 0
  },
  {
    "link_thumb": "https://live.staticflickr.com/65535/50020073062_121706a276_n.jpg",
    "id_album": "-1868680171",
    "description": "Cougar_409153",
    "title": "Cougar_409153",
    "link_img": "https://live.staticflickr.com/65535/50020073062_dd9b12b24c_o.jpg",
    "id_image": "Cougar_409153",
    "count_view": 0
  },
  {
    "link_thumb": "https://live.staticflickr.com/65535/50017435707_ce4aef8c95_n.jpg",
    "id_album": "172748811",
    "description": "Beeeater_656560",
    "title": "Beeeater_656560",
    "link_img": "https://live.staticflickr.com/65535/50017435707_3cd11e3bb6_o.jpg",
    "id_image": "Beeeater_656560",
    "count_view": 0
  },
  {
    "link_thumb": "https://live.staticflickr.com/65535/50019457166_b535caa001_n.jpg",
    "id_album": "-462831703",
    "description": "Cat_914566",
    "title": "Cat_914566",
    "link_img": "https://live.staticflickr.com/65535/50019457166_ed7f162893_o.jpg",
    "id_image": "Cat_914566",
    "count_view": 0
  },
  {
    "link_thumb": "https://live.staticflickr.com/65535/50017641126_124897934a_n.jpg",
    "id_album": "-401151552",
    "description": "Butterfly_684016",
    "title": "Butterfly_684016",
    "link_img": "https://live.staticflickr.com/65535/50017641126_75dbc08d56_o.jpg",
    "id_image": "Butterfly_684016",
    "count_view": 0
  },
  {
    "link_thumb": "https://live.staticflickr.com/65535/50021116493_ccefa8d95e_n.jpg",
    "id_album": "1658866795",
    "description": "Insect_215866",
    "title": "Insect_215866",
    "link_img": "https://live.staticflickr.com/65535/50021116493_4152f999fc_o.jpg",
    "id_image": "Insect_215866",
    "count_view": 0
  },
  {
    "link_thumb": "https://live.staticflickr.com/65535/50023346991_9945e93b7a_n.jpg",
    "id_album": "-419757464",
    "description": "SeaLife_693766",
    "title": "SeaLife_693766",
    "link_img": "https://live.staticflickr.com/65535/50023346991_b949116555_o.jpg",
    "id_image": "SeaLife_693766",
    "count_view": 0
  },
  {
    "link_thumb": "https://live.staticflickr.com/65535/50019626882_b973d34946_n.jpg",
    "id_album": "-462831703",
    "description": "Cat_874652",
    "title": "Cat_874652",
    "link_img": "https://live.staticflickr.com/65535/50019626882_d4c24fb7bc_o.jpg",
    "id_image": "Cat_874652",
    "count_view": 0
  },
  {
    "link_thumb": "https://live.staticflickr.com/65535/50018072257_d69eca22a6_n.jpg",
    "id_album": "-462831705",
    "description": "Cat_173552",
    "title": "Cat_173552",
    "link_img": "https://live.staticflickr.com/65535/50018072257_1e56333dfc_o.jpg",
    "id_image": "Cat_173552",
    "count_view": 0
  },
  {
    "link_thumb": "https://live.staticflickr.com/65535/50019087523_a4fee481ee_n.jpg",
    "id_album": "1889777354",
    "description": "CGI_110971",
    "title": "CGI_110971",
    "link_img": "https://live.staticflickr.com/65535/50019087523_e103118995_o.jpg",
    "id_image": "CGI_110971",
    "count_view": 0
  },
  {
    "link_thumb": "https://live.staticflickr.com/65535/50020879148_1f23004e2e_n.jpg",
    "id_album": "-1513987841",
    "description": "Hawk_43258",
    "title": "Hawk_43258",
    "link_img": "https://live.staticflickr.com/65535/50020879148_ccd617f1e6_o.jpg",
    "id_image": "Hawk_43258",
    "count_view": 0
  },
  {
    "link_thumb": "https://live.staticflickr.com/65535/50022326043_fcc3c8bd2b_n.jpg",
    "id_album": "1008910300",
    "description": "PolarBear_924506",
    "title": "PolarBear_924506",
    "link_img": "https://live.staticflickr.com/65535/50022326043_f9d0d79e6f_o.jpg",
    "id_image": "PolarBear_924506",
    "count_view": 0
  },
  {
    "link_thumb": "https://live.staticflickr.com/65535/50022593607_7079074109_n.jpg",
    "id_album": "1015034486",
    "description": "Muteswan_731879",
    "title": "Muteswan_731879",
    "link_img": "https://live.staticflickr.com/65535/50022593607_ce472ecd5b_o.jpg",
    "id_image": "Muteswan_731879",
    "count_view": 0
  },
  {
    "link_thumb": "https://live.staticflickr.com/65535/50020316636_0db28b42dc_n.jpg",
    "id_album": "-149330232",
    "description": "Dog_358696",
    "title": "Dog_358696",
    "link_img": "https://live.staticflickr.com/65535/50020316636_9926a517b7_o.jpg",
    "id_image": "Dog_358696",
    "count_view": 0
  },
  {
    "link_thumb": "https://live.staticflickr.com/65535/50021757321_7e3193f88e_n.jpg",
    "id_album": "665694624",
    "description": "JapaneseMacaque_796862",
    "title": "JapaneseMacaque_796862",
    "link_img": "https://live.staticflickr.com/65535/50021757321_e1dfc03107_o.jpg",
    "id_image": "JapaneseMacaque_796862",
    "count_view": 0
  },
  {
    "link_thumb": "https://live.staticflickr.com/65535/50023230438_e0831cd09f_n.jpg",
    "id_album": "-1082521515",
    "description": "Spider_53867",
    "title": "Spider_53867",
    "link_img": "https://live.staticflickr.com/65535/50023230438_6394bf0885_o.jpg",
    "id_image": "Spider_53867",
    "count_view": 0
  },
  {
    "link_thumb": "https://live.staticflickr.com/65535/50017190326_3dfa11d4d9_n.jpg",
    "id_album": "-1846011410",
    "description": "Bird_104399",
    "title": "Bird_104399",
    "link_img": "https://live.staticflickr.com/65535/50017190326_baf360938e_o.jpg",
    "id_image": "Bird_104399",
    "count_view": 0
  },
  {
    "link_thumb": "https://live.staticflickr.com/65535/50017514978_4e8f957557_n.jpg",
    "id_album": "-462831702",
    "description": "Cat_355922",
    "title": "Cat_355922",
    "link_img": "https://live.staticflickr.com/65535/50017514978_1599fa952e_o.jpg",
    "id_image": "Cat_355922",
    "count_view": 0
  },
  {
    "link_thumb": "https://live.staticflickr.com/65535/50023032051_a4e2b5a5b3_n.jpg",
    "id_album": "-353898617",
    "description": "Puppy_590642",
    "title": "Puppy_590642",
    "link_img": "https://live.staticflickr.com/65535/50023032051_67976785d2_o.jpg",
    "id_image": "Puppy_590642",
    "count_view": 0
  },
  {
    "link_thumb": "https://live.staticflickr.com/65535/50020766878_b5e5e541c9_n.jpg",
    "id_album": "-405626519",
    "description": "GermanShepherd_898719",
    "title": "GermanShepherd_898719",
    "link_img": "https://live.staticflickr.com/65535/50020766878_16e1562c4d_o.jpg",
    "id_image": "GermanShepherd_898719",
    "count_view": 0
  },
  {
    "link_thumb": "https://live.staticflickr.com/65535/50018012762_9dd95faa74_n.jpg",
    "id_album": "-462831705",
    "description": "Cat_111011",
    "title": "Cat_111011",
    "link_img": "https://live.staticflickr.com/65535/50018012762_84da86085a_o.jpg",
    "id_image": "Cat_111011",
    "count_view": 0
  },
  {
    "link_thumb": "https://live.staticflickr.com/65535/50020813456_9ce4c4e3e0_n.jpg",
    "id_album": "822895535",
    "description": "Falcon_436691",
    "title": "Falcon_436691",
    "link_img": "https://live.staticflickr.com/65535/50020813456_c2732c468b_o.jpg",
    "id_image": "Falcon_436691",
    "count_view": 0
  },
  {
    "link_thumb": "https://live.staticflickr.com/65535/50021435836_198e0c73b4_n.jpg",
    "id_album": "1469520430",
    "description": "Hedgehog_747873",
    "title": "Hedgehog_747873",
    "link_img": "https://live.staticflickr.com/65535/50021435836_f2b3b4a351_o.jpg",
    "id_image": "Hedgehog_747873",
    "count_view": 0
  },
  {
    "link_thumb": "https://live.staticflickr.com/65535/50017815846_71768bd5d2_n.jpg",
    "id_album": "-462831705",
    "description": "Cat_178316",
    "title": "Cat_178316",
    "link_img": "https://live.staticflickr.com/65535/50017815846_ff1cc4a5ce_o.jpg",
    "id_image": "Cat_178316",
    "count_view": 0
  },
  {
    "link_thumb": "https://live.staticflickr.com/65535/50019845062_cae4a1f450_n.jpg",
    "id_album": "-1930903528",
    "description": "CatDog_777771",
    "title": "CatDog_777771",
    "link_img": "https://live.staticflickr.com/65535/50019845062_5ff6dca9bc_o.jpg",
    "id_image": "CatDog_777771",
    "count_view": 0
  },
  {
    "link_thumb": "https://live.staticflickr.com/65535/50020438158_81f61aa53a_n.jpg",
    "id_album": "-128218148",
    "description": "Fox_593689",
    "title": "Fox_593689",
    "link_img": "https://live.staticflickr.com/65535/50020438158_7334a79986_o.jpg",
    "id_image": "Fox_593689",
    "count_view": 0
  },
  {
    "link_thumb": "https://live.staticflickr.com/65535/50016897016_6a179545d2_n.jpg",
    "id_album": "523598895",
    "description": "Artistic_332350",
    "title": "Artistic_332350",
    "link_img": "https://live.staticflickr.com/65535/50016897016_350b512945_o.jpg",
    "id_image": "Artistic_332350",
    "count_view": 0
  },
  {
    "link_thumb": "https://live.staticflickr.com/65535/50023771232_8cd0c690eb_n.jpg",
    "id_album": "-800019164",
    "description": "Snail_337516",
    "title": "Snail_337516",
    "link_img": "https://live.staticflickr.com/65535/50023771232_99f6af2dd3_o.jpg",
    "id_image": "Snail_337516",
    "count_view": 0
  },
  {
    "link_thumb": "https://live.staticflickr.com/65535/50016418418_283a1f045a_n.jpg",
    "id_album": "390697200",
    "description": "AustralianShepherd_882990",
    "title": "AustralianShepherd_882990",
    "link_img": "https://live.staticflickr.com/65535/50016418418_9f5be9e975_o.jpg",
    "id_image": "AustralianShepherd_882990",
    "count_view": 0
  },
  {
    "link_thumb": "https://live.staticflickr.com/65535/50019069498_9d4950146e_n.jpg",
    "id_album": "-1930903528",
    "description": "CatDog_991016",
    "title": "CatDog_991016",
    "link_img": "https://live.staticflickr.com/65535/50019069498_09ae97c743_o.jpg",
    "id_image": "CatDog_991016",
    "count_view": 0
  },
  {
    "link_thumb": "https://live.staticflickr.com/65535/50016742423_b4797e0697_n.jpg",
    "id_album": "-1846011410",
    "description": "Bird_356561",
    "title": "Bird_356561",
    "link_img": "https://live.staticflickr.com/65535/50016742423_95484e0058_o.jpg",
    "id_image": "Bird_356561",
    "count_view": 0
  },
  {
    "link_thumb": "https://live.staticflickr.com/65535/50021957493_3337bb0006_n.jpg",
    "id_album": "-1384601601",
    "description": "Owl_913816",
    "title": "Owl_913816",
    "link_img": "https://live.staticflickr.com/65535/50021957493_e7c988a566_o.jpg",
    "id_image": "Owl_913816",
    "count_view": 0
  },
  {
    "link_thumb": "https://live.staticflickr.com/65535/50022592051_621f985ce3_n.jpg",
    "id_album": "-801414987",
    "description": "Peacock_441138",
    "title": "Peacock_441138",
    "link_img": "https://live.staticflickr.com/65535/50022592051_4ec9438947_o.jpg",
    "id_image": "Peacock_441138",
    "count_view": 0
  },
  {
    "link_thumb": "https://live.staticflickr.com/65535/50022508542_8a1fe7b530_n.jpg",
    "id_album": "-784970094",
    "description": "Monkey_390946",
    "title": "Monkey_390946",
    "link_img": "https://live.staticflickr.com/65535/50022508542_6c0d4fd84b_o.jpg",
    "id_image": "Monkey_390946",
    "count_view": 0
  },
  {
    "link_thumb": "https://live.staticflickr.com/65535/50017332067_11fef0a882_n.jpg",
    "id_album": "-422187261",
    "description": "Bear_715265",
    "title": "Bear_715265",
    "link_img": "https://live.staticflickr.com/65535/50017332067_5fe7721696_o.jpg",
    "id_image": "Bear_715265",
    "count_view": 0
  },
  {
    "link_thumb": "https://live.staticflickr.com/65535/50019947942_ab9d3afae4_n.jpg",
    "id_album": "-1481843714",
    "description": "Cheetah_337467",
    "title": "Cheetah_337467",
    "link_img": "https://live.staticflickr.com/65535/50019947942_8212cbb5d0_o.jpg",
    "id_image": "Cheetah_337467",
    "count_view": 0
  },
  {
    "link_thumb": "https://live.staticflickr.com/65535/50020662671_f7edd82daf_n.jpg",
    "id_album": "1168627767",
    "description": "Duck_504647",
    "title": "Duck_504647",
    "link_img": "https://live.staticflickr.com/65535/50020662671_c275689bdb_o.jpg",
    "id_image": "Duck_504647",
    "count_view": 0
  },
  {
    "link_thumb": "https://live.staticflickr.com/65535/50021450967_a3c82cd5ed_n.jpg",
    "id_album": "-462831704",
    "description": "Cat_715225",
    "title": "Cat_715225",
    "link_img": "https://live.staticflickr.com/65535/50021450967_ee5c44475a_o.jpg",
    "id_image": "Cat_715225",
    "count_view": 0
  },
  {
    "link_thumb": "https://live.staticflickr.com/65535/50022173556_0a79a974af_n.jpg",
    "id_album": "1894617400",
    "description": "Lynx_993130",
    "title": "Lynx_993130",
    "link_img": "https://live.staticflickr.com/65535/50022173556_e05b88f012_o.jpg",
    "id_image": "Lynx_993130",
    "count_view": 0
  },
  {
    "link_thumb": "https://live.staticflickr.com/65535/50016354403_ae58896b5e_n.jpg",
    "id_album": "523598895",
    "description": "Artistic_220172",
    "title": "Artistic_220172",
    "link_img": "https://live.staticflickr.com/65535/50016354403_aef33ba737_o.jpg",
    "id_image": "Artistic_220172",
    "count_view": 0
  },
  {
    "link_thumb": "https://live.staticflickr.com/65535/50019132993_a284b05325_n.jpg",
    "id_album": "-766919393",
    "description": "Chameleon_771583",
    "title": "Chameleon_771583",
    "link_img": "https://live.staticflickr.com/65535/50019132993_3bb9087f24_o.jpg",
    "id_image": "Chameleon_771583",
    "count_view": 0
  },
  {
    "link_thumb": "https://live.staticflickr.com/65535/50021050536_fb9f271e20_n.jpg",
    "id_album": "844170697",
    "description": "Frog_173849",
    "title": "Frog_173849",
    "link_img": "https://live.staticflickr.com/65535/50021050536_0331de2784_o.jpg",
    "id_image": "Frog_173849",
    "count_view": 0
  },
  {
    "link_thumb": "https://live.staticflickr.com/65535/50023509568_b54cb7b22d_n.jpg",
    "id_album": "405170427",
    "description": "Tiger_275702",
    "title": "Tiger_275702",
    "link_img": "https://live.staticflickr.com/65535/50023509568_00c671c687_o.jpg",
    "id_image": "Tiger_275702",
    "count_view": 0
  },
  {
    "link_thumb": "https://live.staticflickr.com/65535/50021516452_dbd2aa4a5f_n.jpg",
    "id_album": "-462831703",
    "description": "Cat_816145",
    "title": "Cat_816145",
    "link_img": "https://live.staticflickr.com/65535/50021516452_c87d2db6d0_o.jpg",
    "id_image": "Cat_816145",
    "count_view": 0
  },
  {
    "link_thumb": "https://live.staticflickr.com/65535/50017161087_97e7c78ae1_n.jpg",
    "id_album": "523598895",
    "description": "Artistic_372782",
    "title": "Artistic_372782",
    "link_img": "https://live.staticflickr.com/65535/50017161087_e954dd0747_o.jpg",
    "id_image": "Artistic_372782",
    "count_view": 0
  },
  {
    "link_thumb": "https://live.staticflickr.com/65535/50018215292_c71e9a6efa_n.jpg",
    "id_album": "-462831702",
    "description": "Cat_311172",
    "title": "Cat_311172",
    "link_img": "https://live.staticflickr.com/65535/50018215292_90c1dc0116_o.jpg",
    "id_image": "Cat_311172",
    "count_view": 0
  },
  {
    "link_thumb": "https://live.staticflickr.com/65535/50024329287_1a5c2440f5_n.jpg",
    "id_album": "405170427",
    "description": "Tiger_344201",
    "title": "Tiger_344201",
    "link_img": "https://live.staticflickr.com/65535/50024329287_8c21e0ceec_o.jpg",
    "id_image": "Tiger_344201",
    "count_view": 0
  },
  {
    "link_thumb": "https://live.staticflickr.com/65535/50016964293_41e5e8a1ca_n.jpg",
    "id_album": "782930701",
    "description": "BorderCollie_743265",
    "title": "BorderCollie_743265",
    "link_img": "https://live.staticflickr.com/65535/50016964293_03da480a22_o.jpg",
    "id_image": "BorderCollie_743265",
    "count_view": 0
  },
  {
    "link_thumb": "https://live.staticflickr.com/65535/50023238561_c08257eda4_n.jpg",
    "id_album": "332874268",
    "description": "RedPanda_908990",
    "title": "RedPanda_908990",
    "link_img": "https://live.staticflickr.com/65535/50023238561_af723ee65b_o.jpg",
    "id_image": "RedPanda_908990",
    "count_view": 0
  },
  {
    "link_thumb": "https://live.staticflickr.com/65535/50022859677_0d9e572cfb_n.jpg",
    "id_album": "-801414987",
    "description": "Peacock_716011",
    "title": "Peacock_716011",
    "link_img": "https://live.staticflickr.com/65535/50022859677_562d24783f_o.jpg",
    "id_image": "Peacock_716011",
    "count_view": 0
  },
  {
    "link_thumb": "https://live.staticflickr.com/65535/50352655456_2239ff15ca_n.jpg",
    "id_album": "-462831703",
    "description": "Cat_705413",
    "title": "Cat_705413",
    "link_img": "https://live.staticflickr.com/65535/50352655456_462b0ebd68_o.jpg",
    "id_image": "Cat_705413",
    "count_view": 0
  },
  {
    "link_thumb": "https://live.staticflickr.com/65535/50024242467_37d21eedd2_n.jpg",
    "id_album": "702283289",
    "description": "Squirrel_982522",
    "title": "Squirrel_982522",
    "link_img": "https://live.staticflickr.com/65535/50024242467_a1ca003379_o.jpg",
    "id_image": "Squirrel_982522",
    "count_view": 0
  },
  {
    "link_thumb": "https://live.staticflickr.com/65535/50016931971_4e902b1d29_n.jpg",
    "id_album": "390697200",
    "description": "AustralianShepherd_650869",
    "title": "AustralianShepherd_650869",
    "link_img": "https://live.staticflickr.com/65535/50016931971_5294555c24_o.jpg",
    "id_image": "AustralianShepherd_650869",
    "count_view": 0
  },
  {
    "link_thumb": "https://live.staticflickr.com/65535/50020812471_669b945571_n.jpg",
    "id_album": "822895535",
    "description": "Falcon_425862",
    "title": "Falcon_425862",
    "link_img": "https://live.staticflickr.com/65535/50020812471_2a06e5aa6c_o.jpg",
    "id_image": "Falcon_425862",
    "count_view": 0
  },
  {
    "link_thumb": "https://live.staticflickr.com/65535/50019250383_491257e9f4_n.jpg",
    "id_album": "643379324",
    "description": "Clownfish_300196",
    "title": "Clownfish_300196",
    "link_img": "https://live.staticflickr.com/65535/50019250383_55fc6709f6_o.jpg",
    "id_image": "Clownfish_300196",
    "count_view": 0
  },
  {
    "link_thumb": "https://live.staticflickr.com/65535/50017325317_a2f4c95252_n.jpg",
    "id_album": "-422187261",
    "description": "Bear_662242",
    "title": "Bear_662242",
    "link_img": "https://live.staticflickr.com/65535/50017325317_3f03f2bdd7_o.jpg",
    "id_image": "Bear_662242",
    "count_view": 0
  },
  {
    "link_thumb": "https://live.staticflickr.com/65535/50019488528_de26e2c0a0_n.jpg",
    "id_album": "1903411565",
    "description": "Deer_523579",
    "title": "Deer_523579",
    "link_img": "https://live.staticflickr.com/65535/50019488528_9cda0ec848_o.jpg",
    "id_image": "Deer_523579",
    "count_view": 0
  },
  {
    "link_thumb": "https://live.staticflickr.com/65535/50352630057_7ea83e579f_n.jpg",
    "id_album": "-462831703",
    "description": "Cat_365235",
    "title": "Cat_365235",
    "link_img": "https://live.staticflickr.com/65535/50352630057_10eeeaf07b_o.jpg",
    "id_image": "Cat_365235",
    "count_view": 0
  },
  {
    "link_thumb": "https://live.staticflickr.com/65535/50021287721_845f4c48d2_n.jpg",
    "id_album": "-405626519",
    "description": "GermanShepherd_404740",
    "title": "GermanShepherd_404740",
    "link_img": "https://live.staticflickr.com/65535/50021287721_c25da88a84_o.jpg",
    "id_image": "GermanShepherd_404740",
    "count_view": 0
  },
  {
    "link_thumb": "https://live.staticflickr.com/65535/50023046837_317a17f4d0_n.jpg",
    "id_album": "1008910300",
    "description": "PolarBear_236214",
    "title": "PolarBear_236214",
    "link_img": "https://live.staticflickr.com/65535/50023046837_9fb9cab397_o.jpg",
    "id_image": "PolarBear_236214",
    "count_view": 0
  },
  {
    "link_thumb": "https://live.staticflickr.com/65535/50017377377_681a04de27_n.jpg",
    "id_album": "1699594607",
    "description": "Bee_117634",
    "title": "Bee_117634",
    "link_img": "https://live.staticflickr.com/65535/50017377377_5e707c66b4_o.jpg",
    "id_image": "Bee_117634",
    "count_view": 0
  },
  {
    "link_thumb": "https://live.staticflickr.com/65535/50021368346_f32dc20572_n.jpg",
    "id_album": "2060159334",
    "description": "GoldenRetriever_911240",
    "title": "GoldenRetriever_911240",
    "link_img": "https://live.staticflickr.com/65535/50021368346_cc3d606e82_o.jpg",
    "id_image": "GoldenRetriever_911240",
    "count_view": 0
  },
  {
    "link_thumb": "https://live.staticflickr.com/65535/50017075031_08e9bc732c_n.jpg",
    "id_album": "-422187261",
    "description": "Bear_732408",
    "title": "Bear_732408",
    "link_img": "https://live.staticflickr.com/65535/50017075031_783e227dc2_o.jpg",
    "id_image": "Bear_732408",
    "count_view": 0
  },
  {
    "link_thumb": "https://live.staticflickr.com/65535/50020607688_a1e589fc2a_n.jpg",
    "id_album": "-462831704",
    "description": "Cat_650927",
    "title": "Cat_650927",
    "link_img": "https://live.staticflickr.com/65535/50020607688_0994d4bc27_o.jpg",
    "id_image": "Cat_650927",
    "count_view": 0
  },
  {
    "link_thumb": "https://live.staticflickr.com/65535/50019692627_cf45c0c255_n.jpg",
    "id_album": "-462831703",
    "description": "Cat_909996",
    "title": "Cat_909996",
    "link_img": "https://live.staticflickr.com/65535/50019692627_58f5a76481_o.jpg",
    "id_image": "Cat_909996",
    "count_view": 0
  },
  {
    "link_thumb": "https://live.staticflickr.com/65535/50022144547_8a4c00d727_n.jpg",
    "id_album": "1392348450",
    "description": "Leopard_210492",
    "title": "Leopard_210492",
    "link_img": "https://live.staticflickr.com/65535/50022144547_e9ec26958a_o.jpg",
    "id_image": "Leopard_210492",
    "count_view": 0
  },
  {
    "link_thumb": "https://live.staticflickr.com/65535/50017462786_69061d4b53_n.jpg",
    "id_album": "-530283314",
    "description": "BlueandyellowMacaw_357509",
    "title": "BlueandyellowMacaw_357509",
    "link_img": "https://live.staticflickr.com/65535/50017462786_81f737c044_o.jpg",
    "id_image": "BlueandyellowMacaw_357509",
    "count_view": 0
  },
  {
    "link_thumb": "https://live.staticflickr.com/65535/50017393082_2c477e8921_n.jpg",
    "id_album": "1699594607",
    "description": "Bee_370091",
    "title": "Bee_370091",
    "link_img": "https://live.staticflickr.com/65535/50017393082_3854c3ae12_o.jpg",
    "id_image": "Bee_370091",
    "count_view": 0
  },
  {
    "link_thumb": "https://live.staticflickr.com/65535/50020975846_f5954f70ce_n.jpg",
    "id_album": "-128218148",
    "description": "Fox_548663",
    "title": "Fox_548663",
    "link_img": "https://live.staticflickr.com/65535/50020975846_fc5dd8c202_o.jpg",
    "id_image": "Fox_548663",
    "count_view": 0
  },
  {
    "link_thumb": "https://live.staticflickr.com/65535/50023579427_d0a0706ff5_n.jpg",
    "id_album": "1512228924",
    "description": "ScarletMacaw_277245",
    "title": "ScarletMacaw_277245",
    "link_img": "https://live.staticflickr.com/65535/50023579427_32cb032377_o.jpg",
    "id_image": "ScarletMacaw_277245",
    "count_view": 0
  },
  {
    "link_thumb": "https://live.staticflickr.com/65535/50022100837_c870a94ecf_n.jpg",
    "id_album": "-1882491687",
    "description": "Ladybug_366981",
    "title": "Ladybug_366981",
    "link_img": "https://live.staticflickr.com/65535/50022100837_6606fbdbc3_o.jpg",
    "id_image": "Ladybug_366981",
    "count_view": 0
  },
  {
    "link_thumb": "https://live.staticflickr.com/65535/50020057783_9cd6e09908_n.jpg",
    "id_album": "-54509188",
    "description": "Dolphin_765715",
    "title": "Dolphin_765715",
    "link_img": "https://live.staticflickr.com/65535/50020057783_5d3b8db294_o.jpg",
    "id_image": "Dolphin_765715",
    "count_view": 0
  },
  {
    "link_thumb": "https://live.staticflickr.com/65535/50022529083_df150f3445_n.jpg",
    "id_album": "-353898617",
    "description": "Puppy_919895",
    "title": "Puppy_919895",
    "link_img": "https://live.staticflickr.com/65535/50022529083_0948a3e3f1_o.jpg",
    "id_image": "Puppy_919895",
    "count_view": 0
  },
  {
    "link_thumb": "https://live.staticflickr.com/65535/50018242282_e0cfde8048_n.jpg",
    "id_album": "-462831702",
    "description": "Cat_327789",
    "title": "Cat_327789",
    "link_img": "https://live.staticflickr.com/65535/50018242282_48e1e07c6c_o.jpg",
    "id_image": "Cat_327789",
    "count_view": 0
  },
  {
    "link_thumb": "https://live.staticflickr.com/65535/50021126931_cefcc0f9f8_n.jpg",
    "id_album": "-462831704",
    "description": "Cat_588360",
    "title": "Cat_588360",
    "link_img": "https://live.staticflickr.com/65535/50021126931_33d256f88c_o.jpg",
    "id_image": "Cat_588360",
    "count_view": 0
  },
  {
    "link_thumb": "https://live.staticflickr.com/65535/50352773032_bde8b3a8df_n.jpg",
    "id_album": "-462831703",
    "description": "Cat_575447",
    "title": "Cat_575447",
    "link_img": "https://live.staticflickr.com/65535/50352773032_6a158aac44_o.jpg",
    "id_image": "Cat_575447",
    "count_view": 0
  },
  {
    "link_thumb": "https://live.staticflickr.com/65535/50018617868_abefbcd0d7_n.jpg",
    "id_album": "-462831702",
    "description": "Cat_415138",
    "title": "Cat_415138",
    "link_img": "https://live.staticflickr.com/65535/50018617868_548f07979d_o.jpg",
    "id_image": "Cat_415138",
    "count_view": 0
  },
  {
    "link_thumb": "https://live.staticflickr.com/65535/50020239773_ed1ff82472_n.jpg",
    "id_album": "1270947998",
    "description": "Elephant_598865",
    "title": "Elephant_598865",
    "link_img": "https://live.staticflickr.com/65535/50020239773_be5eb3bdd9_o.jpg",
    "id_image": "Elephant_598865",
    "count_view": 0
  },
  {
    "link_thumb": "https://live.staticflickr.com/65535/50017757277_b8febeee18_n.jpg",
    "id_album": "782930701",
    "description": "BorderCollie_830749",
    "title": "BorderCollie_830749",
    "link_img": "https://live.staticflickr.com/65535/50017757277_50a09200e0_o.jpg",
    "id_image": "BorderCollie_830749",
    "count_view": 0
  },
  {
    "link_thumb": "https://live.staticflickr.com/65535/50017333171_78b428ccb8_n.jpg",
    "id_album": "-1846011410",
    "description": "Bird_436220",
    "title": "Bird_436220",
    "link_img": "https://live.staticflickr.com/65535/50017333171_ffd07a5b98_o.jpg",
    "id_image": "Bird_436220",
    "count_view": 0
  },
  {
    "link_thumb": "https://live.staticflickr.com/65535/50016828881_108f96ecde_n.jpg",
    "id_album": "-229810103",
    "description": "AmericanBison_829903",
    "title": "AmericanBison_829903",
    "link_img": "https://live.staticflickr.com/65535/50016828881_45a697a156_o.jpg",
    "id_image": "AmericanBison_829903",
    "count_view": 0
  },
  {
    "link_thumb": "https://live.staticflickr.com/65535/50019160553_937f50768e_n.jpg",
    "id_album": "-1481843714",
    "description": "Cheetah_329277",
    "title": "Cheetah_329277",
    "link_img": "https://live.staticflickr.com/65535/50019160553_54cc753c96_o.jpg",
    "id_image": "Cheetah_329277",
    "count_view": 0
  },
  {
    "link_thumb": "https://live.staticflickr.com/65535/50017636896_5c4418c263_n.jpg",
    "id_album": "-401151552",
    "description": "Butterfly_609921",
    "title": "Butterfly_609921",
    "link_img": "https://live.staticflickr.com/65535/50017636896_74e1f737f4_o.jpg",
    "id_image": "Butterfly_609921",
    "count_view": 0
  },
  {
    "link_thumb": "https://live.staticflickr.com/65535/50020272781_78c49dcfb9_n.jpg",
    "id_album": "-149330232",
    "description": "Dog_337916",
    "title": "Dog_337916",
    "link_img": "https://live.staticflickr.com/65535/50020272781_08a8644ea4_o.jpg",
    "id_image": "Dog_337916",
    "count_view": 0
  },
  {
    "link_thumb": "https://live.staticflickr.com/65535/50021966186_57b076923a_n.jpg",
    "id_album": "416744915",
    "description": "Lion_113506",
    "title": "Lion_113506",
    "link_img": "https://live.staticflickr.com/65535/50021966186_0b74454d7d_o.jpg",
    "id_image": "Lion_113506",
    "count_view": 0
  },
  {
    "link_thumb": "https://live.staticflickr.com/65535/50020939151_551ca20504_n.jpg",
    "id_album": "-128218148",
    "description": "Fox_250326",
    "title": "Fox_250326",
    "link_img": "https://live.staticflickr.com/65535/50020939151_53848c88b7_o.jpg",
    "id_image": "Fox_250326",
    "count_view": 0
  },
  {
    "link_thumb": "https://live.staticflickr.com/65535/50019086228_cec208e4f6_n.jpg",
    "id_album": "1889777354",
    "description": "CGI_102705",
    "title": "CGI_102705",
    "link_img": "https://live.staticflickr.com/65535/50019086228_d4ee7a898b_o.jpg",
    "id_image": "CGI_102705",
    "count_view": 0
  },
  {
    "link_thumb": "https://live.staticflickr.com/65535/50023587218_07f15b4b9e_n.jpg",
    "id_album": "405170427",
    "description": "Tiger_435260",
    "title": "Tiger_435260",
    "link_img": "https://live.staticflickr.com/65535/50023587218_6226858791_o.jpg",
    "id_image": "Tiger_435260",
    "count_view": 0
  },
  {
    "link_thumb": "https://live.staticflickr.com/65535/50020492977_a31fae7d05_n.jpg",
    "id_album": "-149330232",
    "description": "Dog_313968",
    "title": "Dog_313968",
    "link_img": "https://live.staticflickr.com/65535/50020492977_5f7a1d5e2d_o.jpg",
    "id_image": "Dog_313968",
    "count_view": 0
  },
  {
    "link_thumb": "https://live.staticflickr.com/65535/50023708748_dba5856921_n.jpg",
    "id_album": "405170427",
    "description": "Tiger_978166",
    "title": "Tiger_978166",
    "link_img": "https://live.staticflickr.com/65535/50023708748_ece66c9a97_o.jpg",
    "id_image": "Tiger_978166",
    "count_view": 0
  },
  {
    "link_thumb": "https://live.staticflickr.com/65535/50022107606_447a148b32_n.jpg",
    "id_album": "-656526748",
    "description": "Lizard_328759",
    "title": "Lizard_328759",
    "link_img": "https://live.staticflickr.com/65535/50022107606_866451b525_o.jpg",
    "id_image": "Lizard_328759",
    "count_view": 0
  },
  {
    "link_thumb": "https://live.staticflickr.com/65535/50017002053_e4911cb2f6_n.jpg",
    "id_album": "368532157",
    "description": "Bulldog_864834",
    "title": "Bulldog_864834",
    "link_img": "https://live.staticflickr.com/65535/50017002053_0db36a8243_o.jpg",
    "id_image": "Bulldog_864834",
    "count_view": 0
  },
  {
    "link_thumb": "https://live.staticflickr.com/65535/50021317368_b3ca7735b8_n.jpg",
    "id_album": "-1882491687",
    "description": "Ladybug_679823",
    "title": "Ladybug_679823",
    "link_img": "https://live.staticflickr.com/65535/50021317368_1e50bc9d86_o.jpg",
    "id_image": "Ladybug_679823",
    "count_view": 0
  },
  {
    "link_thumb": "https://live.staticflickr.com/65535/50020239488_9709cee6ef_n.jpg",
    "id_album": "1270947998",
    "description": "Elephant_596625",
    "title": "Elephant_596625",
    "link_img": "https://live.staticflickr.com/65535/50020239488_3d4118a0fb_o.jpg",
    "id_image": "Elephant_596625",
    "count_view": 0
  },
  {
    "link_thumb": "https://live.staticflickr.com/65535/50023571236_9a24b9965c_n.jpg",
    "id_album": "-1182356179",
    "description": "Snake_351335",
    "title": "Snake_351335",
    "link_img": "https://live.staticflickr.com/65535/50023571236_18cf718646_o.jpg",
    "id_image": "Snake_351335",
    "count_view": 0
  },
  {
    "link_thumb": "https://live.staticflickr.com/65535/50024032386_288e58bca6_n.jpg",
    "id_album": "405170427",
    "description": "Tiger_206154",
    "title": "Tiger_206154",
    "link_img": "https://live.staticflickr.com/65535/50024032386_ba0603ca9c_o.jpg",
    "id_image": "Tiger_206154",
    "count_view": 0
  },
  {
    "link_thumb": "https://live.staticflickr.com/65535/50018784378_df804578f9_n.jpg",
    "id_album": "-462831703",
    "description": "Cat_844181",
    "title": "Cat_844181",
    "link_img": "https://live.staticflickr.com/65535/50018784378_70f0390ebb_o.jpg",
    "id_image": "Cat_844181",
    "count_view": 0
  },
  {
    "link_thumb": "https://live.staticflickr.com/65535/50022076397_dfa553d611_n.jpg",
    "id_album": "771796001",
    "description": "Koala_596701",
    "title": "Koala_596701",
    "link_img": "https://live.staticflickr.com/65535/50022076397_4d17be9091_o.jpg",
    "id_image": "Koala_596701",
    "count_view": 0
  },
  {
    "link_thumb": "https://live.staticflickr.com/65535/50021624918_daee1e085f_n.jpg",
    "id_album": "1894617400",
    "description": "Lynx_904215",
    "title": "Lynx_904215",
    "link_img": "https://live.staticflickr.com/65535/50021624918_1a8bc91938_o.jpg",
    "id_image": "Lynx_904215",
    "count_view": 0
  },
  {
    "link_thumb": "https://live.staticflickr.com/65535/50021371667_e571838a1d_n.jpg",
    "id_album": "-462831704",
    "description": "Cat_569334",
    "title": "Cat_569334",
    "link_img": "https://live.staticflickr.com/65535/50021371667_d6ee051ed6_o.jpg",
    "id_image": "Cat_569334",
    "count_view": 0
  },
  {
    "link_thumb": "https://live.staticflickr.com/65535/50017775246_9b35fb249f_n.jpg",
    "id_album": "-462831705",
    "description": "Cat_118417",
    "title": "Cat_118417",
    "link_img": "https://live.staticflickr.com/65535/50017775246_fdf5c13e31_o.jpg",
    "id_image": "Cat_118417",
    "count_view": 0
  },
  {
    "link_thumb": "https://live.staticflickr.com/65535/50020183507_83afed123a_n.jpg",
    "id_album": "1273365283",
    "description": "Cute_277115",
    "title": "Cute_277115",
    "link_img": "https://live.staticflickr.com/65535/50020183507_bd6b4e3cec_o.jpg",
    "id_image": "Cute_277115",
    "count_view": 0
  },
  {
    "link_thumb": "https://live.staticflickr.com/65535/50017454918_c1259f6e45_n.jpg",
    "id_album": "-462831702",
    "description": "Cat_328394",
    "title": "Cat_328394",
    "link_img": "https://live.staticflickr.com/65535/50017454918_af625e4eb5_o.jpg",
    "id_image": "Cat_328394",
    "count_view": 0
  },
  {
    "link_thumb": "https://live.staticflickr.com/65535/50019701791_b4fbbcd3f7_n.jpg",
    "id_album": "-1481843714",
    "description": "Cheetah_390944",
    "title": "Cheetah_390944",
    "link_img": "https://live.staticflickr.com/65535/50019701791_fafa2d236e_o.jpg",
    "id_image": "Cheetah_390944",
    "count_view": 0
  },
  {
    "link_thumb": "https://live.staticflickr.com/65535/50024305352_90c693e40b_n.jpg",
    "id_album": "405170427",
    "description": "Tiger_240651",
    "title": "Tiger_240651",
    "link_img": "https://live.staticflickr.com/65535/50024305352_3c10d37d5e_o.jpg",
    "id_image": "Tiger_240651",
    "count_view": 0
  },
  {
    "link_thumb": "https://live.staticflickr.com/65535/50017855836_4354167037_n.jpg",
    "id_album": "-462831705",
    "description": "Cat_210408",
    "title": "Cat_210408",
    "link_img": "https://live.staticflickr.com/65535/50017855836_c127d1f0e2_o.jpg",
    "id_image": "Cat_210408",
    "count_view": 0
  },
  {
    "link_thumb": "https://live.staticflickr.com/65535/50021665151_780274c590_n.jpg",
    "id_album": "1658866795",
    "description": "Insect_353101",
    "title": "Insect_353101",
    "link_img": "https://live.staticflickr.com/65535/50021665151_f70823b0b0_o.jpg",
    "id_image": "Insect_353101",
    "count_view": 0
  },
  {
    "link_thumb": "https://live.staticflickr.com/65535/50020369697_696403ba8a_n.jpg",
    "id_album": "-149330232",
    "description": "Dog_101881",
    "title": "Dog_101881",
    "link_img": "https://live.staticflickr.com/65535/50020369697_a77feae6b5_o.jpg",
    "id_image": "Dog_101881",
    "count_view": 0
  },
  {
    "link_thumb": "https://live.staticflickr.com/65535/50021288143_c3fd0d2a72_n.jpg",
    "id_album": "1307335982",
    "description": "LabradorRetriever_667685",
    "title": "LabradorRetriever_667685",
    "link_img": "https://live.staticflickr.com/65535/50021288143_c6b6697439_o.jpg",
    "id_image": "LabradorRetriever_667685",
    "count_view": 0
  },
  {
    "link_thumb": "https://live.staticflickr.com/65535/50024438021_ac6cdba97e_n.jpg",
    "id_album": "766572659",
    "description": "WhiteTiger_388459",
    "title": "WhiteTiger_388459",
    "link_img": "https://live.staticflickr.com/65535/50024438021_c97a05dcd1_o.jpg",
    "id_image": "WhiteTiger_388459",
    "count_view": 0
  },
  {
    "link_thumb": "https://live.staticflickr.com/65535/50024333456_1cc3128db2_n.jpg",
    "id_album": "46520366",
    "description": "Turtle_997261",
    "title": "Turtle_997261",
    "link_img": "https://live.staticflickr.com/65535/50024333456_26c1aa1952_o.jpg",
    "id_image": "Turtle_997261",
    "count_view": 0
  },
  {
    "link_thumb": "https://live.staticflickr.com/65535/50020569692_90acfa1a16_n.jpg",
    "id_album": "-149330232",
    "description": "Dog_356769",
    "title": "Dog_356769",
    "link_img": "https://live.staticflickr.com/65535/50020569692_59a1f7775a_o.jpg",
    "id_image": "Dog_356769",
    "count_view": 0
  },
  {
    "link_thumb": "https://live.staticflickr.com/65535/50022767098_4127762a72_n.jpg",
    "id_album": "1926701726",
    "description": "Robin_455644",
    "title": "Robin_455644",
    "link_img": "https://live.staticflickr.com/65535/50022767098_2849a2f6ec_o.jpg",
    "id_image": "Robin_455644",
    "count_view": 0
  },
  {
    "link_thumb": "https://live.staticflickr.com/65535/50352564671_a79996a803_n.jpg",
    "id_album": "-462831703",
    "description": "Cat_494058",
    "title": "Cat_494058",
    "link_img": "https://live.staticflickr.com/65535/50352564671_b3a883838f_o.jpg",
    "id_image": "Cat_494058",
    "count_view": 0
  },
  {
    "link_thumb": "https://live.staticflickr.com/65535/50022137897_3cb0e13fd6_n.jpg",
    "id_album": "1918884325",
    "description": "Lemur_978446",
    "title": "Lemur_978446",
    "link_img": "https://live.staticflickr.com/65535/50022137897_27fe5c9462_o.jpg",
    "id_image": "Lemur_978446",
    "count_view": 0
  },
  {
    "link_thumb": "https://live.staticflickr.com/65535/50020703777_7e7904720b_n.jpg",
    "id_album": "-149330231",
    "description": "Dog_515823",
    "title": "Dog_515823",
    "link_img": "https://live.staticflickr.com/65535/50020703777_884bf0c1d4_o.jpg",
    "id_image": "Dog_515823",
    "count_view": 0
  },
  {
    "link_thumb": "https://live.staticflickr.com/65535/50019790493_0287215c39_n.jpg",
    "id_album": "-149330232",
    "description": "Dog_364104",
    "title": "Dog_364104",
    "link_img": "https://live.staticflickr.com/65535/50019790493_408fa66a68_o.jpg",
    "id_image": "Dog_364104",
    "count_view": 0
  },
  {
    "link_thumb": "https://live.staticflickr.com/65535/50021132491_78973c7698_n.jpg",
    "id_album": "-462831704",
    "description": "Cat_593611",
    "title": "Cat_593611",
    "link_img": "https://live.staticflickr.com/65535/50021132491_8ec4f76af9_o.jpg",
    "id_image": "Cat_593611",
    "count_view": 0
  },
  {
    "link_thumb": "https://live.staticflickr.com/65535/50023913768_f3343b1413_n.jpg",
    "id_album": "-709711865",
    "description": "Wolf_122508",
    "title": "Wolf_122508",
    "link_img": "https://live.staticflickr.com/65535/50023913768_4cf3be36a8_o.jpg",
    "id_image": "Wolf_122508",
    "count_view": 0
  },
  {
    "link_thumb": "https://live.staticflickr.com/65535/50017216868_888b42a6d8_n.jpg",
    "id_album": "-462831705",
    "description": "Cat_101830",
    "title": "Cat_101830",
    "link_img": "https://live.staticflickr.com/65535/50017216868_c3ecde0dd8_o.jpg",
    "id_image": "Cat_101830",
    "count_view": 0
  },
  {
    "link_thumb": "https://live.staticflickr.com/65535/50021843086_e89a78ba31_n.jpg",
    "id_album": "-1882491687",
    "description": "Ladybug_314429",
    "title": "Ladybug_314429",
    "link_img": "https://live.staticflickr.com/65535/50021843086_464ec216d5_o.jpg",
    "id_image": "Ladybug_314429",
    "count_view": 0
  },
  {
    "link_thumb": "https://live.staticflickr.com/65535/50020897002_e1ddea7da7_n.jpg",
    "id_album": "-405058657",
    "description": "Dragonfly_936294",
    "title": "Dragonfly_936294",
    "link_img": "https://live.staticflickr.com/65535/50020897002_aa9f0f7bb8_o.jpg",
    "id_image": "Dragonfly_936294",
    "count_view": 0
  },
  {
    "link_thumb": "https://live.staticflickr.com/65535/50019178551_6cd7f1260f_n.jpg",
    "id_album": "-462831702",
    "description": "Cat_427742",
    "title": "Cat_427742",
    "link_img": "https://live.staticflickr.com/65535/50019178551_8cd597266b_o.jpg",
    "id_image": "Cat_427742",
    "count_view": 0
  },
  {
    "link_thumb": "https://live.staticflickr.com/65535/50024095961_9eb7b1a373_n.jpg",
    "id_album": "405170427",
    "description": "Tiger_376315",
    "title": "Tiger_376315",
    "link_img": "https://live.staticflickr.com/65535/50024095961_a5f07103f0_o.jpg",
    "id_image": "Tiger_376315",
    "count_view": 0
  },
  {
    "link_thumb": "https://live.staticflickr.com/65535/50019319821_6da69f6329_n.jpg",
    "id_album": "-462831703",
    "description": "Cat_851452",
    "title": "Cat_851452",
    "link_img": "https://live.staticflickr.com/65535/50019319821_3aa7a50a36_o.jpg",
    "id_image": "Cat_851452",
    "count_view": 0
  },
  {
    "link_thumb": "https://live.staticflickr.com/65535/50023485178_138d0b2c59_n.jpg",
    "id_album": "405170427",
    "description": "Tiger_191498",
    "title": "Tiger_191498",
    "link_img": "https://live.staticflickr.com/65535/50023485178_fd90a2bf82_o.jpg",
    "id_image": "Tiger_191498",
    "count_view": 0
  },
  {
    "link_thumb": "https://live.staticflickr.com/65535/50017940216_572d6eecdb_n.jpg",
    "id_album": "-462831702",
    "description": "Cat_288099",
    "title": "Cat_288099",
    "link_img": "https://live.staticflickr.com/65535/50017940216_62f5ba6577_o.jpg",
    "id_image": "Cat_288099",
    "count_view": 0
  },
  {
    "link_thumb": "https://live.staticflickr.com/65535/50020889366_01b6491d15_n.jpg",
    "id_album": "-1758557371",
    "description": "Flamingo_386121",
    "title": "Flamingo_386121",
    "link_img": "https://live.staticflickr.com/65535/50020889366_ea5e960ea2_o.jpg",
    "id_image": "Flamingo_386121",
    "count_view": 0
  },
  {
    "link_thumb": "https://live.staticflickr.com/65535/50023018701_d6d6368764_n.jpg",
    "id_album": "-353898617",
    "description": "Puppy_548556",
    "title": "Puppy_548556",
    "link_img": "https://live.staticflickr.com/65535/50023018701_79b50428e4_o.jpg",
    "id_image": "Puppy_548556",
    "count_view": 0
  },
  {
    "link_thumb": "https://live.staticflickr.com/65535/50017843982_db88e9f890_n.jpg",
    "id_album": "-401151552",
    "description": "Butterfly_396867",
    "title": "Butterfly_396867",
    "link_img": "https://live.staticflickr.com/65535/50017843982_2d47620511_o.jpg",
    "id_image": "Butterfly_396867",
    "count_view": 0
  },
  {
    "link_thumb": "https://live.staticflickr.com/65535/50017308697_4462190520_n.jpg",
    "id_album": "-422187261",
    "description": "Bear_442843",
    "title": "Bear_442843",
    "link_img": "https://live.staticflickr.com/65535/50017308697_0b63af0cf4_o.jpg",
    "id_image": "Bear_442843",
    "count_view": 0
  },
  {
    "link_thumb": "https://live.staticflickr.com/65535/50020975967_ab4cbb29f5_n.jpg",
    "id_album": "-39098563",
    "description": "Eagle_641158",
    "title": "Eagle_641158",
    "link_img": "https://live.staticflickr.com/65535/50020975967_eb4f9e6424_o.jpg",
    "id_image": "Eagle_641158",
    "count_view": 0
  },
  {
    "link_thumb": "https://live.staticflickr.com/65535/50017149178_979a3bea7b_n.jpg",
    "id_album": "-401151552",
    "description": "Butterfly_839683",
    "title": "Butterfly_839683",
    "link_img": "https://live.staticflickr.com/65535/50017149178_5a5b29be85_o.jpg",
    "id_image": "Butterfly_839683",
    "count_view": 0
  },
  {
    "link_thumb": "https://live.staticflickr.com/65535/50021660166_3188d8c69a_n.jpg",
    "id_album": "1658866795",
    "description": "Insect_218264",
    "title": "Insect_218264",
    "link_img": "https://live.staticflickr.com/65535/50021660166_2d22477dee_o.jpg",
    "id_image": "Insect_218264",
    "count_view": 0
  },
  {
    "link_thumb": "https://live.staticflickr.com/65535/50017713996_896fd6f570_n.jpg",
    "id_album": "-401151552",
    "description": "Butterfly_935016",
    "title": "Butterfly_935016",
    "link_img": "https://live.staticflickr.com/65535/50017713996_a56b20a34d_o.jpg",
    "id_image": "Butterfly_935016",
    "count_view": 0
  },
  {
    "link_thumb": "https://live.staticflickr.com/65535/50018145931_2cce4ef2b8_n.jpg",
    "id_album": "-462831702",
    "description": "Cat_405116",
    "title": "Cat_405116",
    "link_img": "https://live.staticflickr.com/65535/50018145931_70ae304cde_o.jpg",
    "id_image": "Cat_405116",
    "count_view": 0
  },
  {
    "link_thumb": "https://live.staticflickr.com/65535/50019689067_02a8825178_n.jpg",
    "id_album": "-462831703",
    "description": "Cat_907776",
    "title": "Cat_907776",
    "link_img": "https://live.staticflickr.com/65535/50019689067_b99fd5a3cb_o.jpg",
    "id_image": "Cat_907776",
    "count_view": 0
  },
  {
    "link_thumb": "https://live.staticflickr.com/65535/50020129171_edd4f5f674_n.jpg",
    "id_album": "-149330232",
    "description": "Dog_167232",
    "title": "Dog_167232",
    "link_img": "https://live.staticflickr.com/65535/50020129171_a1da2ee78b_o.jpg",
    "id_image": "Dog_167232",
    "count_view": 0
  },
  {
    "link_thumb": "https://live.staticflickr.com/65535/50019695792_ef764b8d21_n.jpg",
    "id_album": "-462831703",
    "description": "Cat_911991",
    "title": "Cat_911991",
    "link_img": "https://live.staticflickr.com/65535/50019695792_9bfa155906_o.jpg",
    "id_image": "Cat_911991",
    "count_view": 0
  },
  {
    "link_thumb": "https://live.staticflickr.com/65535/50352593607_35ab52ae55_n.jpg",
    "id_album": "-462831703",
    "description": "Cat_236340",
    "title": "Cat_236340",
    "link_img": "https://live.staticflickr.com/65535/50352593607_ac67c9828d_o.jpg",
    "id_image": "Cat_236340",
    "count_view": 0
  },
  {
    "link_thumb": "https://live.staticflickr.com/65535/50017966971_6f738d6f66_n.jpg",
    "id_album": "-462831702",
    "description": "Cat_323679",
    "title": "Cat_323679",
    "link_img": "https://live.staticflickr.com/65535/50017966971_a5fcb6c582_o.jpg",
    "id_image": "Cat_323679",
    "count_view": 0
  },
  {
    "link_thumb": "https://live.staticflickr.com/65535/50020849443_0e3948acae_n.jpg",
    "id_album": "1950225324",
    "description": "Gorilla_373176",
    "title": "Gorilla_373176",
    "link_img": "https://live.staticflickr.com/65535/50020849443_7650f5524a_o.jpg",
    "id_image": "Gorilla_373176",
    "count_view": 0
  },
  {
    "link_thumb": "https://live.staticflickr.com/65535/50020170027_7b4ef44de5_n.jpg",
    "id_album": "-392100404",
    "description": "Crow_760875",
    "title": "Crow_760875",
    "link_img": "https://live.staticflickr.com/65535/50020170027_df3a86a7b3_o.jpg",
    "id_image": "Crow_760875",
    "count_view": 0
  },
  {
    "link_thumb": "https://live.staticflickr.com/65535/50016911158_5f57b97e71_n.jpg",
    "id_album": "-1846011410",
    "description": "Bird_878442",
    "title": "Bird_878442",
    "link_img": "https://live.staticflickr.com/65535/50016911158_720d6d7f0d_o.jpg",
    "id_image": "Bird_878442",
    "count_view": 0
  },
  {
    "link_thumb": "https://live.staticflickr.com/65535/50019521346_1f01de21b6_n.jpg",
    "id_album": "-462831703",
    "description": "Cat_958538",
    "title": "Cat_958538",
    "link_img": "https://live.staticflickr.com/65535/50019521346_d177140f37_o.jpg",
    "id_image": "Cat_958538",
    "count_view": 0
  },
  {
    "link_thumb": "https://live.staticflickr.com/65535/50021850847_f58a595ac5_n.jpg",
    "id_album": "773713550",
    "description": "Hoverfly_706515",
    "title": "Hoverfly_706515",
    "link_img": "https://live.staticflickr.com/65535/50021850847_b54962cd51_o.jpg",
    "id_image": "Hoverfly_706515",
    "count_view": 0
  },
  {
    "link_thumb": "https://live.staticflickr.com/65535/50023336967_bd85e1eb52_n.jpg",
    "id_album": "470794721",
    "description": "Python_559466",
    "title": "Python_559466",
    "link_img": "https://live.staticflickr.com/65535/50023336967_6603fe95bd_o.jpg",
    "id_image": "Python_559466",
    "count_view": 0
  },
  {
    "link_thumb": "https://live.staticflickr.com/65535/50023974912_d9a51a4c6d_n.jpg",
    "id_album": "-359606417",
    "description": "Sparrow_905870",
    "title": "Sparrow_905870",
    "link_img": "https://live.staticflickr.com/65535/50023974912_d5419e8b17_o.jpg",
    "id_image": "Sparrow_905870",
    "count_view": 0
  },
  {
    "link_thumb": "https://live.staticflickr.com/65535/50021242462_7d90c05d54_n.jpg",
    "id_album": "-128218148",
    "description": "Fox_686252",
    "title": "Fox_686252",
    "link_img": "https://live.staticflickr.com/65535/50021242462_1e10c6a729_o.jpg",
    "id_image": "Fox_686252",
    "count_view": 0
  },
  {
    "link_thumb": "https://live.staticflickr.com/65535/50023567196_c65cbe85c6_n.jpg",
    "id_album": "-1182356179",
    "description": "Snake_339650",
    "title": "Snake_339650",
    "link_img": "https://live.staticflickr.com/65535/50023567196_b528d73f10_o.jpg",
    "id_image": "Snake_339650",
    "count_view": 0
  },
  {
    "link_thumb": "https://live.staticflickr.com/65535/50017005853_cf68b8c550_n.jpg",
    "id_album": "-401151552",
    "description": "Butterfly_113008",
    "title": "Butterfly_113008",
    "link_img": "https://live.staticflickr.com/65535/50017005853_cbca620453_o.jpg",
    "id_image": "Butterfly_113008",
    "count_view": 0
  },
  {
    "link_thumb": "https://live.staticflickr.com/65535/50020011193_74260c5cfe_n.jpg",
    "id_album": "-149330231",
    "description": "Dog_918950",
    "title": "Dog_918950",
    "link_img": "https://live.staticflickr.com/65535/50020011193_6ef821c36d_o.jpg",
    "id_image": "Dog_918950",
    "count_view": 0
  },
  {
    "link_thumb": "https://live.staticflickr.com/65535/50351841493_9c4d30bd6b_n.jpg",
    "id_album": "-462831703",
    "description": "Cat_459258",
    "title": "Cat_459258",
    "link_img": "https://live.staticflickr.com/65535/50351841493_39f2b2590e_o.jpg",
    "id_image": "Cat_459258",
    "count_view": 0
  },
  {
    "link_thumb": "https://live.staticflickr.com/65535/50023436923_c1cc238fff_n.jpg",
    "id_album": "702283289",
    "description": "Squirrel_975395",
    "title": "Squirrel_975395",
    "link_img": "https://live.staticflickr.com/65535/50023436923_9ba7972766_o.jpg",
    "id_image": "Squirrel_975395",
    "count_view": 0
  },
  {
    "link_thumb": "https://live.staticflickr.com/65535/50020082387_732da6c570_n.jpg",
    "id_album": "-1868680171",
    "description": "Cougar_647103",
    "title": "Cougar_647103",
    "link_img": "https://live.staticflickr.com/65535/50020082387_605b037d88_o.jpg",
    "id_image": "Cougar_647103",
    "count_view": 0
  },
  {
    "link_thumb": "https://live.staticflickr.com/65535/50020061327_08d60ca64b_n.jpg",
    "id_album": "-1868680171",
    "description": "Cougar_245474",
    "title": "Cougar_245474",
    "link_img": "https://live.staticflickr.com/65535/50020061327_8425b20078_o.jpg",
    "id_image": "Cougar_245474",
    "count_view": 0
  },
  {
    "link_thumb": "https://live.staticflickr.com/65535/50023073051_eb4b267812_n.jpg",
    "id_album": "-353898617",
    "description": "Puppy_943798",
    "title": "Puppy_943798",
    "link_img": "https://live.staticflickr.com/65535/50023073051_a9dd639701_o.jpg",
    "id_image": "Puppy_943798",
    "count_view": 0
  },
  {
    "link_thumb": "https://live.staticflickr.com/65535/50019580001_3293fa1900_n.jpg",
    "id_album": "-1930903528",
    "description": "CatDog_500405",
    "title": "CatDog_500405",
    "link_img": "https://live.staticflickr.com/65535/50019580001_b9164afbf8_o.jpg",
    "id_image": "CatDog_500405",
    "count_view": 0
  },
  {
    "link_thumb": "https://live.staticflickr.com/65535/50019344996_8fae2b18cd_n.jpg",
    "id_album": "-462831703",
    "description": "Cat_866014",
    "title": "Cat_866014",
    "link_img": "https://live.staticflickr.com/65535/50019344996_ab537064a5_o.jpg",
    "id_image": "Cat_866014",
    "count_view": 0
  },
  {
    "link_thumb": "https://live.staticflickr.com/65535/50020519153_b3d03af282_n.jpg",
    "id_album": "844170697",
    "description": "Frog_407341",
    "title": "Frog_407341",
    "link_img": "https://live.staticflickr.com/65535/50020519153_99a0e009b6_o.jpg",
    "id_image": "Frog_407341",
    "count_view": 0
  },
  {
    "link_thumb": "https://live.staticflickr.com/65535/50022874102_efefaedf05_n.jpg",
    "id_album": "1146438617",
    "description": "Pelican_351541",
    "title": "Pelican_351541",
    "link_img": "https://live.staticflickr.com/65535/50022874102_f01832df00_o.jpg",
    "id_image": "Pelican_351541",
    "count_view": 0
  },
  {
    "link_thumb": "https://live.staticflickr.com/65535/50023077401_57532f3117_n.jpg",
    "id_album": "470794721",
    "description": "Python_417666",
    "title": "Python_417666",
    "link_img": "https://live.staticflickr.com/65535/50023077401_3cf7476746_o.jpg",
    "id_image": "Python_417666",
    "count_view": 0
  },
  {
    "link_thumb": "https://live.staticflickr.com/65535/50352674701_d57067db73_n.jpg",
    "id_album": "-462831703",
    "description": "Cat_970838",
    "title": "Cat_970838",
    "link_img": "https://live.staticflickr.com/65535/50352674701_bb6ba15dd0_o.jpg",
    "id_image": "Cat_970838",
    "count_view": 0
  },
  {
    "link_thumb": "https://live.staticflickr.com/65535/50019504287_e0a49d9500_n.jpg",
    "id_album": "-462831704",
    "description": "Cat_478023",
    "title": "Cat_478023",
    "link_img": "https://live.staticflickr.com/65535/50019504287_696f0011bc_o.jpg",
    "id_image": "Cat_478023",
    "count_view": 0
  },
  {
    "link_thumb": "https://live.staticflickr.com/65535/50020065972_000b5b12d1_n.jpg",
    "id_album": "-1868680171",
    "description": "Cougar_364065",
    "title": "Cougar_364065",
    "link_img": "https://live.staticflickr.com/65535/50020065972_f15bd20792_o.jpg",
    "id_image": "Cougar_364065",
    "count_view": 0
  },
  {
    "link_thumb": "https://live.staticflickr.com/65535/50021464196_36c8268671_n.jpg",
    "id_album": "-1933715543",
    "description": "Horse_151482",
    "title": "Horse_151482",
    "link_img": "https://live.staticflickr.com/65535/50021464196_b83078daf4_o.jpg",
    "id_image": "Horse_151482",
    "count_view": 0
  },
  {
    "link_thumb": "https://live.staticflickr.com/65535/50018038417_7f6643a8e6_n.jpg",
    "id_album": "-462831705",
    "description": "Cat_124420",
    "title": "Cat_124420",
    "link_img": "https://live.staticflickr.com/65535/50018038417_94e2db6b4b_o.jpg",
    "id_image": "Cat_124420",
    "count_view": 0
  },
  {
    "link_thumb": "https://live.staticflickr.com/65535/50019787772_3df5817332_n.jpg",
    "id_album": "-462831703",
    "description": "Cat_965285",
    "title": "Cat_965285",
    "link_img": "https://live.staticflickr.com/65535/50019787772_3e1bd9d12b_o.jpg",
    "id_image": "Cat_965285",
    "count_view": 0
  },
  {
    "link_thumb": "https://live.staticflickr.com/65535/50018204487_7f2b4c84d8_n.jpg",
    "id_album": "-462831702",
    "description": "Cat_293392",
    "title": "Cat_293392",
    "link_img": "https://live.staticflickr.com/65535/50018204487_e0c802c8fd_o.jpg",
    "id_image": "Cat_293392",
    "count_view": 0
  },
  {
    "link_thumb": "https://live.staticflickr.com/65535/50016364478_6857fd0289_n.jpg",
    "id_album": "523598895",
    "description": "Artistic_287493",
    "title": "Artistic_287493",
    "link_img": "https://live.staticflickr.com/65535/50016364478_002407f9aa_o.jpg",
    "id_image": "Artistic_287493",
    "count_view": 0
  },
  {
    "link_thumb": "https://live.staticflickr.com/65535/50352496056_29898c7533_n.jpg",
    "id_album": "-462831703",
    "description": "Cat_399015",
    "title": "Cat_399015",
    "link_img": "https://live.staticflickr.com/65535/50352496056_6c35f48536_o.jpg",
    "id_image": "Cat_399015",
    "count_view": 0
  },
  {
    "link_thumb": "https://live.staticflickr.com/65535/50019703748_8fefc35305_n.jpg",
    "id_album": "-149330232",
    "description": "Dog_315358",
    "title": "Dog_315358",
    "link_img": "https://live.staticflickr.com/65535/50019703748_7e7fa769de_o.jpg",
    "id_image": "Dog_315358",
    "count_view": 0
  },
  {
    "link_thumb": "https://live.staticflickr.com/65535/50017430237_afed80a7a8_n.jpg",
    "id_album": "1699594607",
    "description": "Bee_926271",
    "title": "Bee_926271",
    "link_img": "https://live.staticflickr.com/65535/50017430237_d16612c27b_o.jpg",
    "id_image": "Bee_926271",
    "count_view": 0
  },
  {
    "link_thumb": "https://live.staticflickr.com/65535/50352611162_01331085e0_n.jpg",
    "id_album": "-462831703",
    "description": "Cat_275292",
    "title": "Cat_275292",
    "link_img": "https://live.staticflickr.com/65535/50352611162_28a0166574_o.jpg",
    "id_image": "Cat_275292",
    "count_view": 0
  },
  {
    "link_thumb": "https://live.staticflickr.com/65535/50017716822_93d804b242_n.jpg",
    "id_album": "-1561645279",
    "description": "BlackPanther_512018",
    "title": "BlackPanther_512018",
    "link_img": "https://live.staticflickr.com/65535/50017716822_4fdb0af52e_o.jpg",
    "id_image": "BlackPanther_512018",
    "count_view": 0
  },
  {
    "link_thumb": "https://live.staticflickr.com/65535/50022408982_c293cf83eb_n.jpg",
    "id_album": "1894617400",
    "description": "Lynx_522970",
    "title": "Lynx_522970",
    "link_img": "https://live.staticflickr.com/65535/50022408982_d6f2a35ae8_o.jpg",
    "id_image": "Lynx_522970",
    "count_view": 0
  },
  {
    "link_thumb": "https://live.staticflickr.com/65535/50352760832_45c53fabde_n.jpg",
    "id_album": "-462831703",
    "description": "Cat_548975",
    "title": "Cat_548975",
    "link_img": "https://live.staticflickr.com/65535/50352760832_9987c49285_o.jpg",
    "id_image": "Cat_548975",
    "count_view": 0
  },
  {
    "link_thumb": "https://live.staticflickr.com/65535/50020392457_96f6fb39f7_n.jpg",
    "id_album": "-149330232",
    "description": "Dog_177045",
    "title": "Dog_177045",
    "link_img": "https://live.staticflickr.com/65535/50020392457_8a95b16f3f_o.jpg",
    "id_image": "Dog_177045",
    "count_view": 0
  },
  {
    "link_thumb": "https://live.staticflickr.com/65535/50016373443_bea5180161_n.jpg",
    "id_album": "523598895",
    "description": "Artistic_360525",
    "title": "Artistic_360525",
    "link_img": "https://live.staticflickr.com/65535/50016373443_d40368282c_o.jpg",
    "id_image": "Artistic_360525",
    "count_view": 0
  },
  {
    "link_thumb": "https://live.staticflickr.com/65535/50020902833_5ffbd65d43_n.jpg",
    "id_album": "54253492",
    "description": "Heron_479078",
    "title": "Heron_479078",
    "link_img": "https://live.staticflickr.com/65535/50020902833_bc2ff007b3_o.jpg",
    "id_image": "Heron_479078",
    "count_view": 0
  },
  {
    "link_thumb": "https://live.staticflickr.com/65535/50022287806_6a96583f8d_n.jpg",
    "id_album": "1957967135",
    "description": "Mouse_400114",
    "title": "Mouse_400114",
    "link_img": "https://live.staticflickr.com/65535/50022287806_7c4bd0205e_o.jpg",
    "id_image": "Mouse_400114",
    "count_view": 0
  },
  {
    "link_thumb": "https://live.staticflickr.com/65535/50020393822_800edd7317_n.jpg",
    "id_album": "-149330232",
    "description": "Dog_181132",
    "title": "Dog_181132",
    "link_img": "https://live.staticflickr.com/65535/50020393822_a38b764555_o.jpg",
    "id_image": "Dog_181132",
    "count_view": 0
  },
  {
    "link_thumb": "https://live.staticflickr.com/65535/50023728631_39f69344a7_n.jpg",
    "id_album": "-1082521515",
    "description": "Spider_334213",
    "title": "Spider_334213",
    "link_img": "https://live.staticflickr.com/65535/50023728631_7fc2d1105c_o.jpg",
    "id_image": "Spider_334213",
    "count_view": 0
  },
  {
    "link_thumb": "https://live.staticflickr.com/65535/50021952952_d4b9742c0c_n.jpg",
    "id_album": "1658866795",
    "description": "Insect_431055",
    "title": "Insect_431055",
    "link_img": "https://live.staticflickr.com/65535/50021952952_d0d2442546_o.jpg",
    "id_image": "Insect_431055",
    "count_view": 0
  },
  {
    "link_thumb": "https://live.staticflickr.com/65535/50017201957_2780d8096a_n.jpg",
    "id_album": "390697200",
    "description": "AustralianShepherd_865833",
    "title": "AustralianShepherd_865833",
    "link_img": "https://live.staticflickr.com/65535/50017201957_ac4f9fe7b1_o.jpg",
    "id_image": "AustralianShepherd_865833",
    "count_view": 0
  },
  {
    "link_thumb": "https://live.staticflickr.com/65535/50021849032_e58e216b10_n.jpg",
    "id_album": "773713550",
    "description": "Hoverfly_348337",
    "title": "Hoverfly_348337",
    "link_img": "https://live.staticflickr.com/65535/50021849032_c72cb23555_o.jpg",
    "id_image": "Hoverfly_348337",
    "count_view": 0
  },
  {
    "link_thumb": "https://live.staticflickr.com/65535/50022119037_0bf81fd017_n.jpg",
    "id_album": "-1882491687",
    "description": "Ladybug_753252",
    "title": "Ladybug_753252",
    "link_img": "https://live.staticflickr.com/65535/50022119037_55d4992c6c_o.jpg",
    "id_image": "Ladybug_753252",
    "count_view": 0
  },
  {
    "link_thumb": "https://live.staticflickr.com/65535/50017103093_c7c31d4474_n.jpg",
    "id_album": "-401151552",
    "description": "Butterfly_571334",
    "title": "Butterfly_571334",
    "link_img": "https://live.staticflickr.com/65535/50017103093_7881704436_o.jpg",
    "id_image": "Butterfly_571334",
    "count_view": 0
  },
  {
    "link_thumb": "https://live.staticflickr.com/65535/50018395557_61ca8be451_n.jpg",
    "id_album": "-462831702",
    "description": "Cat_397300",
    "title": "Cat_397300",
    "link_img": "https://live.staticflickr.com/65535/50018395557_ce13299f81_o.jpg",
    "id_image": "Cat_397300",
    "count_view": 0
  },
  {
    "link_thumb": "https://live.staticflickr.com/65535/50019557433_5c0b0b06c1_n.jpg",
    "id_album": "297232732",
    "description": "Dinosaur_418780",
    "title": "Dinosaur_418780",
    "link_img": "https://live.staticflickr.com/65535/50019557433_61b9ba40bf_o.jpg",
    "id_image": "Dinosaur_418780",
    "count_view": 0
  },
  {
    "link_thumb": "https://live.staticflickr.com/65535/50020336671_d3f989e777_n.jpg",
    "id_album": "-149330232",
    "description": "Dog_368125",
    "title": "Dog_368125",
    "link_img": "https://live.staticflickr.com/65535/50020336671_a9332cb0e1_o.jpg",
    "id_image": "Dog_368125",
    "count_view": 0
  },
  {
    "link_thumb": "https://live.staticflickr.com/65535/50021921911_ddf4063baa_n.jpg",
    "id_album": "1392348450",
    "description": "Leopard_411122",
    "title": "Leopard_411122",
    "link_img": "https://live.staticflickr.com/65535/50021921911_92a8036d30_o.jpg",
    "id_image": "Leopard_411122",
    "count_view": 0
  },
  {
    "link_thumb": "https://live.staticflickr.com/65535/50017934781_874e4ff9e8_n.jpg",
    "id_album": "-462831702",
    "description": "Cat_278321",
    "title": "Cat_278321",
    "link_img": "https://live.staticflickr.com/65535/50017934781_b1f9f4a2d1_o.jpg",
    "id_image": "Cat_278321",
    "count_view": 0
  },
  {
    "link_thumb": "https://live.staticflickr.com/65535/50352608341_80d853e388_n.jpg",
    "id_album": "-462831703",
    "description": "Cat_564726",
    "title": "Cat_564726",
    "link_img": "https://live.staticflickr.com/65535/50352608341_d84fe0ce96_o.jpg",
    "id_image": "Cat_564726",
    "count_view": 0
  },
  {
    "link_thumb": "https://live.staticflickr.com/65535/50017973852_d3209be0e0_n.jpg",
    "id_album": "-401151552",
    "description": "Butterfly_933156",
    "title": "Butterfly_933156",
    "link_img": "https://live.staticflickr.com/65535/50017973852_692539a549_o.jpg",
    "id_image": "Butterfly_933156",
    "count_view": 0
  },
  {
    "link_thumb": "https://live.staticflickr.com/65535/50020317001_bd3a949892_n.jpg",
    "id_album": "-149330232",
    "description": "Dog_358848",
    "title": "Dog_358848",
    "link_img": "https://live.staticflickr.com/65535/50020317001_b13ffb363e_o.jpg",
    "id_image": "Dog_358848",
    "count_view": 0
  },
  {
    "link_thumb": "https://live.staticflickr.com/65535/50022183946_c381b28384_n.jpg",
    "id_album": "-1720012921",
    "description": "Meerkat_402723",
    "title": "Meerkat_402723",
    "link_img": "https://live.staticflickr.com/65535/50022183946_939780c8af_o.jpg",
    "id_image": "Meerkat_402723",
    "count_view": 0
  },
  {
    "link_thumb": "https://live.staticflickr.com/65535/50021821988_f7458bf759_n.jpg",
    "id_album": "106807275",
    "description": "Otter_329475",
    "title": "Otter_329475",
    "link_img": "https://live.staticflickr.com/65535/50021821988_da4fcf6744_o.jpg",
    "id_image": "Otter_329475",
    "count_view": 0
  },
  {
    "link_thumb": "https://live.staticflickr.com/65535/50021354787_5ca238e1fc_n.jpg",
    "id_album": "-462831704",
    "description": "Cat_543681",
    "title": "Cat_543681",
    "link_img": "https://live.staticflickr.com/65535/50021354787_1f847dfaf2_o.jpg",
    "id_image": "Cat_543681",
    "count_view": 0
  },
  {
    "link_thumb": "https://live.staticflickr.com/65535/50017845357_d464453200_n.jpg",
    "id_album": "-401151552",
    "description": "Butterfly_402484",
    "title": "Butterfly_402484",
    "link_img": "https://live.staticflickr.com/65535/50017845357_23141a9dfd_o.jpg",
    "id_image": "Butterfly_402484",
    "count_view": 0
  },
  {
    "link_thumb": "https://live.staticflickr.com/65535/50024250522_05570662ab_n.jpg",
    "id_album": "1244464375",
    "description": "Starfish_364306",
    "title": "Starfish_364306",
    "link_img": "https://live.staticflickr.com/65535/50024250522_97c518bfaf_o.jpg",
    "id_image": "Starfish_364306",
    "count_view": 0
  },
  {
    "link_thumb": "https://live.staticflickr.com/65535/50352784482_f13dcc610a_n.jpg",
    "id_album": "-462831703",
    "description": "Cat_601797",
    "title": "Cat_601797",
    "link_img": "https://live.staticflickr.com/65535/50352784482_ae3b3805fd_o.jpg",
    "id_image": "Cat_601797",
    "count_view": 0
  },
  {
    "link_thumb": "https://live.staticflickr.com/65535/50019147141_942599e771_n.jpg",
    "id_album": "-462831702",
    "description": "Cat_414891",
    "title": "Cat_414891",
    "link_img": "https://live.staticflickr.com/65535/50019147141_3a486b16dc_o.jpg",
    "id_image": "Cat_414891",
    "count_view": 0
  },
  {
    "link_thumb": "https://live.staticflickr.com/65535/50017506513_9d08c88e9a_n.jpg",
    "id_album": "-462831702",
    "description": "Cat_351405",
    "title": "Cat_351405",
    "link_img": "https://live.staticflickr.com/65535/50017506513_7dc786b69b_o.jpg",
    "id_image": "Cat_351405",
    "count_view": 0
  },
  {
    "link_thumb": "https://live.staticflickr.com/65535/50023175718_285637624b_n.jpg",
    "id_album": "-1082521515",
    "description": "Spider_200305",
    "title": "Spider_200305",
    "link_img": "https://live.staticflickr.com/65535/50023175718_06b0724091_o.jpg",
    "id_image": "Spider_200305",
    "count_view": 0
  },
  {
    "link_thumb": "https://live.staticflickr.com/65535/50018322782_76d635926c_n.jpg",
    "id_album": "-462831702",
    "description": "Cat_363212",
    "title": "Cat_363212",
    "link_img": "https://live.staticflickr.com/65535/50018322782_06954f6d4c_o.jpg",
    "id_image": "Cat_363212",
    "count_view": 0
  },
  {
    "link_thumb": "https://live.staticflickr.com/65535/50018038787_d33cea3a28_n.jpg",
    "id_album": "-462831705",
    "description": "Cat_125504",
    "title": "Cat_125504",
    "link_img": "https://live.staticflickr.com/65535/50018038787_fe33b3cc42_o.jpg",
    "id_image": "Cat_125504",
    "count_view": 0
  },
  {
    "link_thumb": "https://live.staticflickr.com/65535/50020555841_58c38c1b64_n.jpg",
    "id_album": "-149330231",
    "description": "Dog_988580",
    "title": "Dog_988580",
    "link_img": "https://live.staticflickr.com/65535/50020555841_ae89bd985b_o.jpg",
    "id_image": "Dog_988580",
    "count_view": 0
  },
  {
    "link_thumb": "https://live.staticflickr.com/65535/50018048446_7f9a3f98f4_n.jpg",
    "id_album": "-462831702",
    "description": "Cat_358561",
    "title": "Cat_358561",
    "link_img": "https://live.staticflickr.com/65535/50018048446_951289a90a_o.jpg",
    "id_image": "Cat_358561",
    "count_view": 0
  },
  {
    "link_thumb": "https://live.staticflickr.com/65535/50022140137_6172457518_n.jpg",
    "id_album": "1392348450",
    "description": "Leopard_160672",
    "title": "Leopard_160672",
    "link_img": "https://live.staticflickr.com/65535/50022140137_fb3c6bf5b2_o.jpg",
    "id_image": "Leopard_160672",
    "count_view": 0
  },
  {
    "link_thumb": "https://live.staticflickr.com/65535/50017478058_a287a45a21_n.jpg",
    "id_album": "-462831702",
    "description": "Cat_337730",
    "title": "Cat_337730",
    "link_img": "https://live.staticflickr.com/65535/50017478058_baf3b4b45b_o.jpg",
    "id_image": "Cat_337730",
    "count_view": 0
  },
  {
    "link_thumb": "https://live.staticflickr.com/65535/50024840992_e0db227c8a_n.jpg",
    "id_album": "1104421803",
    "description": "Zebra_872092",
    "title": "Zebra_872092",
    "link_img": "https://live.staticflickr.com/65535/50024840992_c71afafb4e_o.jpg",
    "id_image": "Zebra_872092",
    "count_view": 0
  },
  {
    "link_thumb": "https://live.staticflickr.com/65535/50019982138_fdd22a5e65_n.jpg",
    "id_album": "-149330231",
    "description": "Dog_792315",
    "title": "Dog_792315",
    "link_img": "https://live.staticflickr.com/65535/50019982138_00fa7d7564_o.jpg",
    "id_image": "Dog_792315",
    "count_view": 0
  },
  {
    "link_thumb": "https://live.staticflickr.com/65535/50020751911_72c7a7f516_n.jpg",
    "id_album": "1270947998",
    "description": "Elephant_382503",
    "title": "Elephant_382503",
    "link_img": "https://live.staticflickr.com/65535/50020751911_911193fea2_o.jpg",
    "id_image": "Elephant_382503",
    "count_view": 0
  },
  {
    "link_thumb": "https://live.staticflickr.com/65535/50020376492_205db569ea_n.jpg",
    "id_album": "-149330232",
    "description": "Dog_113360",
    "title": "Dog_113360",
    "link_img": "https://live.staticflickr.com/65535/50020376492_691fd2fa9b_o.jpg",
    "id_image": "Dog_113360",
    "count_view": 0
  },
  {
    "link_thumb": "https://live.staticflickr.com/65535/50022201756_ee5a393a39_n.jpg",
    "id_album": "-784970094",
    "description": "Monkey_349149",
    "title": "Monkey_349149",
    "link_img": "https://live.staticflickr.com/65535/50022201756_aca4afa8a4_o.jpg",
    "id_image": "Monkey_349149",
    "count_view": 0
  },
  {
    "link_thumb": "https://live.staticflickr.com/65535/50021425218_4f35e53d3a_n.jpg",
    "id_album": "416744915",
    "description": "Lion_113295",
    "title": "Lion_113295",
    "link_img": "https://live.staticflickr.com/65535/50021425218_e4564cca29_o.jpg",
    "id_image": "Lion_113295",
    "count_view": 0
  },
  {
    "link_thumb": "https://live.staticflickr.com/65535/50017420107_a2bba8fce1_n.jpg",
    "id_album": "1699594607",
    "description": "Bee_738003",
    "title": "Bee_738003",
    "link_img": "https://live.staticflickr.com/65535/50017420107_4c4d84e1fc_o.jpg",
    "id_image": "Bee_738003",
    "count_view": 0
  },
  {
    "link_thumb": "https://live.staticflickr.com/65535/50021400431_1dbe1016ed_n.jpg",
    "id_album": "-1168906494",
    "description": "Grasshopper_390453",
    "title": "Grasshopper_390453",
    "link_img": "https://live.staticflickr.com/65535/50021400431_b93e2d972e_o.jpg",
    "id_image": "Grasshopper_390453",
    "count_view": 0
  },
  {
    "link_thumb": "https://live.staticflickr.com/65535/50020182137_143673472e_n.jpg",
    "id_album": "1273365283",
    "description": "Cute_277093",
    "title": "Cute_277093",
    "link_img": "https://live.staticflickr.com/65535/50020182137_63d456524f_o.jpg",
    "id_image": "Cute_277093",
    "count_view": 0
  },
  {
    "link_thumb": "https://live.staticflickr.com/65535/50352654237_16181bdcb1_n.jpg",
    "id_album": "-462831703",
    "description": "Cat_398043",
    "title": "Cat_398043",
    "link_img": "https://live.staticflickr.com/65535/50352654237_f66d416819_o.jpg",
    "id_image": "Cat_398043",
    "count_view": 0
  },
  {
    "link_thumb": "https://live.staticflickr.com/65535/50016414143_a54cdd2664_n.jpg",
    "id_album": "390697200",
    "description": "AustralianShepherd_861327",
    "title": "AustralianShepherd_861327",
    "link_img": "https://live.staticflickr.com/65535/50016414143_37a5f8cd0a_o.jpg",
    "id_image": "AustralianShepherd_861327",
    "count_view": 0
  },
  {
    "link_thumb": "https://live.staticflickr.com/65535/50022386498_c1aee773c7_n.jpg",
    "id_album": "-356780855",
    "description": "Puffin_749824",
    "title": "Puffin_749824",
    "link_img": "https://live.staticflickr.com/65535/50022386498_832d8d087c_o.jpg",
    "id_image": "Puffin_749824",
    "count_view": 0
  },
  {
    "link_thumb": "https://live.staticflickr.com/65535/50016658378_dc6af01782_n.jpg",
    "id_album": "325287329",
    "description": "Beetle_414132",
    "title": "Beetle_414132",
    "link_img": "https://live.staticflickr.com/65535/50016658378_162a4f360d_o.jpg",
    "id_image": "Beetle_414132",
    "count_view": 0
  },
  {
    "link_thumb": "https://live.staticflickr.com/65535/50022066501_ede21b84dd_n.jpg",
    "id_album": "416744915",
    "description": "Lion_828662",
    "title": "Lion_828662",
    "link_img": "https://live.staticflickr.com/65535/50022066501_31ca8ed01a_o.jpg",
    "id_image": "Lion_828662",
    "count_view": 0
  },
  {
    "link_thumb": "https://live.staticflickr.com/65535/50020100411_2fe9604355_n.jpg",
    "id_album": "297232732",
    "description": "Dinosaur_674302",
    "title": "Dinosaur_674302",
    "link_img": "https://live.staticflickr.com/65535/50020100411_9cf110c1e7_o.jpg",
    "id_image": "Dinosaur_674302",
    "count_view": 0
  },
  {
    "link_thumb": "https://live.staticflickr.com/65535/50017433192_6f846e33a3_n.jpg",
    "id_album": "172748811",
    "description": "Beeeater_416151",
    "title": "Beeeater_416151",
    "link_img": "https://live.staticflickr.com/65535/50017433192_c89f3e7023_o.jpg",
    "id_image": "Beeeater_416151",
    "count_view": 0
  },
  {
    "link_thumb": "https://live.staticflickr.com/65535/50020656248_1e62739912_n.jpg",
    "id_album": "-462831705",
    "description": "Cat_71652",
    "title": "Cat_71652",
    "link_img": "https://live.staticflickr.com/65535/50020656248_4d17a73ce4_o.jpg",
    "id_image": "Cat_71652",
    "count_view": 0
  },
  {
    "link_thumb": "https://live.staticflickr.com/65535/50023440662_6a2f17ef3f_n.jpg",
    "id_album": "-434874555",
    "description": "RainbowLorikeet_930893",
    "title": "RainbowLorikeet_930893",
    "link_img": "https://live.staticflickr.com/65535/50023440662_177744fcf8_o.jpg",
    "id_image": "RainbowLorikeet_930893",
    "count_view": 0
  },
  {
    "link_thumb": "https://live.staticflickr.com/65535/50017800517_c1d6a039ff_n.jpg",
    "id_album": "-401151552",
    "description": "Butterfly_166582",
    "title": "Butterfly_166582",
    "link_img": "https://live.staticflickr.com/65535/50017800517_2e935f2f0e_o.jpg",
    "id_image": "Butterfly_166582",
    "count_view": 0
  },
  {
    "link_thumb": "https://live.staticflickr.com/65535/50021426353_685af8c8d7_n.jpg",
    "id_album": "416744915",
    "description": "Lion_151419",
    "title": "Lion_151419",
    "link_img": "https://live.staticflickr.com/65535/50021426353_e1ba1d2aca_o.jpg",
    "id_image": "Lion_151419",
    "count_view": 0
  }
]