[
  {
    "link_thumb": "https://live.staticflickr.com/65535/50352461361_c27d4bc92f_n.jpg",
    "id_album": "-462831703",
    "description": "Cat_357706",
    "title": "Cat_357706",
    "link_img": "https://live.staticflickr.com/65535/50352461361_534b8a6934_o.jpg",
    "id_image": "Cat_357706",
    "count_view": 0
  },
  {
    "link_thumb": "https://live.staticflickr.com/65535/50017525032_c4de5c5dc2_n.jpg",
    "id_album": "-1846011410",
    "description": "Bird_352266",
    "title": "Bird_352266",
    "link_img": "https://live.staticflickr.com/65535/50017525032_dc04785cda_o.jpg",
    "id_image": "Bird_352266",
    "count_view": 0
  },
  {
    "link_thumb": "https://live.staticflickr.com/65535/50021333312_3e6ab362ea_n.jpg",
    "id_album": "844170697",
    "description": "Frog_856968",
    "title": "Frog_856968",
    "link_img": "https://live.staticflickr.com/65535/50021333312_7e5381ba9d_o.jpg",
    "id_image": "Frog_856968",
    "count_view": 0
  },
  {
    "link_thumb": "https://live.staticflickr.com/65535/50019489478_9f2fe5eef3_n.jpg",
    "id_album": "1903411565",
    "description": "Deer_527302",
    "title": "Deer_527302",
    "link_img": "https://live.staticflickr.com/65535/50019489478_dd09652163_o.jpg",
    "id_image": "Deer_527302",
    "count_view": 0
  },
  {
    "link_thumb": "https://live.staticflickr.com/65535/50352574686_34397fc0d5_n.jpg",
    "id_album": "-462831703",
    "description": "Cat_505008",
    "title": "Cat_505008",
    "link_img": "https://live.staticflickr.com/65535/50352574686_6f9f797914_o.jpg",
    "id_image": "Cat_505008",
    "count_view": 0
  },
  {
    "link_thumb": "https://live.staticflickr.com/65535/50019959286_7292f3deb9_n.jpg",
    "id_album": "1831085598",
    "description": "Dachshund_875892",
    "title": "Dachshund_875892",
    "link_img": "https://live.staticflickr.com/65535/50019959286_d85f2fb4b5_o.jpg",
    "id_image": "Dachshund_875892",
    "count_view": 0
  },
  {
    "link_thumb": "https://live.staticflickr.com/65535/50017415328_13e6efa9e2_n.jpg",
    "id_album": "-462831702",
    "description": "Cat_292803",
    "title": "Cat_292803",
    "link_img": "https://live.staticflickr.com/65535/50017415328_7055abf182_o.jpg",
    "id_image": "Cat_292803",
    "count_view": 0
  },
  {
    "link_thumb": "https://live.staticflickr.com/65535/50023764167_90e28f1f17_n.jpg",
    "id_album": "692487763",
    "description": "SiberianHusky_994869",
    "title": "SiberianHusky_994869",
    "link_img": "https://live.staticflickr.com/65535/50023764167_da673e6a68_o.jpg",
    "id_image": "SiberianHusky_994869",
    "count_view": 0
  },
  {
    "link_thumb": "https://live.staticflickr.com/65535/50021796937_23f6360ef5_n.jpg",
    "id_album": "-1933715543",
    "description": "Horse_592205",
    "title": "Horse_592205",
    "link_img": "https://live.staticflickr.com/65535/50021796937_53a2ae9b5b_o.jpg",
    "id_image": "Horse_592205",
    "count_view": 0
  },
  {
    "link_thumb": "https://live.staticflickr.com/65535/50019715002_db080d6e39_n.jpg",
    "id_album": "-462831705",
    "description": "Cat_91479",
    "title": "Cat_91479",
    "link_img": "https://live.staticflickr.com/65535/50019715002_18f37519d2_o.jpg",
    "id_image": "Cat_91479",
    "count_view": 0
  },
  {
    "link_thumb": "https://live.staticflickr.com/65535/50016835753_716ee6a6ee_n.jpg",
    "id_album": "-1846011410",
    "description": "Bird_543915",
    "title": "Bird_543915",
    "link_img": "https://live.staticflickr.com/65535/50016835753_b06e37522b_o.jpg",
    "id_image": "Bird_543915",
    "count_view": 0
  },
  {
    "link_thumb": "https://live.staticflickr.com/65535/50017424483_2025ba8d82_n.jpg",
    "id_album": "-462831702",
    "description": "Cat_309280",
    "title": "Cat_309280",
    "link_img": "https://live.staticflickr.com/65535/50017424483_a3407dcaca_o.jpg",
    "id_image": "Cat_309280",
    "count_view": 0
  },
  {
    "link_thumb": "https://live.staticflickr.com/65535/50023738297_fda5cd8132_n.jpg",
    "id_album": "-755466332",
    "description": "Sheep_477266",
    "title": "Sheep_477266",
    "link_img": "https://live.staticflickr.com/65535/50023738297_b4f1882435_o.jpg",
    "id_image": "Sheep_477266",
    "count_view": 0
  },
  {
    "link_thumb": "https://live.staticflickr.com/65535/50019991062_2bbf846d7a_n.jpg",
    "id_album": "-1481843714",
    "description": "Cheetah_903598",
    "title": "Cheetah_903598",
    "link_img": "https://live.staticflickr.com/65535/50019991062_705e5665d6_o.jpg",
    "id_image": "Cheetah_903598",
    "count_view": 0
  },
  {
    "link_thumb": "https://live.staticflickr.com/65535/50352592832_c97a8e2ce0_n.jpg",
    "id_album": "-462831703",
    "description": "Cat_235216",
    "title": "Cat_235216",
    "link_img": "https://live.staticflickr.com/65535/50352592832_01a6b85ba3_o.jpg",
    "id_image": "Cat_235216",
    "count_view": 0
  },
  {
    "link_thumb": "https://live.staticflickr.com/65535/50023424941_d54eae377e_n.jpg",
    "id_album": "1961094930",
    "description": "Seal_895303",
    "title": "Seal_895303",
    "link_img": "https://live.staticflickr.com/65535/50023424941_5416456f88_o.jpg",
    "id_image": "Seal_895303",
    "count_view": 0
  },
  {
    "link_thumb": "https://live.staticflickr.com/65535/50017515248_e8d5c117c3_n.jpg",
    "id_album": "-462831702",
    "description": "Cat_355949",
    "title": "Cat_355949",
    "link_img": "https://live.staticflickr.com/65535/50017515248_8a4624a300_o.jpg",
    "id_image": "Cat_355949",
    "count_view": 0
  },
  {
    "link_thumb": "https://live.staticflickr.com/65535/50017903496_2d2cc5b535_n.jpg",
    "id_album": "-462831705",
    "description": "Cat_248728",
    "title": "Cat_248728",
    "link_img": "https://live.staticflickr.com/65535/50017903496_ef56a3c0e9_o.jpg",
    "id_image": "Cat_248728",
    "count_view": 0
  },
  {
    "link_thumb": "https://live.staticflickr.com/65535/50020938726_0637f92721_n.jpg",
    "id_album": "-128218148",
    "description": "Fox_249055",
    "title": "Fox_249055",
    "link_img": "https://live.staticflickr.com/65535/50020938726_e983b7fa03_o.jpg",
    "id_image": "Fox_249055",
    "count_view": 0
  },
  {
    "link_thumb": "https://live.staticflickr.com/65535/50024141582_7bef070052_n.jpg",
    "id_album": "702283289",
    "description": "Squirrel_433279",
    "title": "Squirrel_433279",
    "link_img": "https://live.staticflickr.com/65535/50024141582_d1abfa1733_o.jpg",
    "id_image": "Squirrel_433279",
    "count_view": 0
  },
  {
    "link_thumb": "https://live.staticflickr.com/65535/50021857462_7c8459e8ef_n.jpg",
    "id_album": "2144294979",
    "description": "Hummingbird_346544",
    "title": "Hummingbird_346544",
    "link_img": "https://live.staticflickr.com/65535/50021857462_5ca51bb1d1_o.jpg",
    "id_image": "Hummingbird_346544",
    "count_view": 0
  },
  {
    "link_thumb": "https://live.staticflickr.com/65535/50023917527_3cb982f7b6_n.jpg",
    "id_album": "-1131363127",
    "description": "SnowLeopard_556350",
    "title": "SnowLeopard_556350",
    "link_img": "https://live.staticflickr.com/65535/50023917527_93876899b5_o.jpg",
    "id_image": "SnowLeopard_556350",
    "count_view": 0
  },
  {
    "link_thumb": "https://live.staticflickr.com/65535/50017591873_1c03d56280_n.jpg",
    "id_album": "-462831702",
    "description": "Cat_390242",
    "title": "Cat_390242",
    "link_img": "https://live.staticflickr.com/65535/50017591873_20a771d816_o.jpg",
    "id_image": "Cat_390242",
    "count_view": 0
  },
  {
    "link_thumb": "https://live.staticflickr.com/65535/50020440722_072ab77ceb_n.jpg",
    "id_album": "-149330232",
    "description": "Dog_254120",
    "title": "Dog_254120",
    "link_img": "https://live.staticflickr.com/65535/50020440722_27f76b1f26_o.jpg",
    "id_image": "Dog_254120",
    "count_view": 0
  },
  {
    "link_thumb": "https://live.staticflickr.com/65535/50017599368_858a446ff4_n.jpg",
    "id_album": "-462831702",
    "description": "Cat_394426",
    "title": "Cat_394426",
    "link_img": "https://live.staticflickr.com/65535/50017599368_fd6df74a21_o.jpg",
    "id_image": "Cat_394426",
    "count_view": 0
  },
  {
    "link_thumb": "https://live.staticflickr.com/65535/50022119037_0bf81fd017_n.jpg",
    "id_album": "-1882491687",
    "description": "Ladybug_753252",
    "title": "Ladybug_753252",
    "link_img": "https://live.staticflickr.com/65535/50022119037_55d4992c6c_o.jpg",
    "id_image": "Ladybug_753252",
    "count_view": 0
  },
  {
    "link_thumb": "https://live.staticflickr.com/65535/50019962613_eb5867a30a_n.jpg",
    "id_album": "-149330231",
    "description": "Dog_724552",
    "title": "Dog_724552",
    "link_img": "https://live.staticflickr.com/65535/50019962613_4a6f2da06b_o.jpg",
    "id_image": "Dog_724552",
    "count_view": 0
  },
  {
    "link_thumb": "https://live.staticflickr.com/65535/50021528217_fbeb29bcee_n.jpg",
    "id_album": "-462831703",
    "description": "Cat_840632",
    "title": "Cat_840632",
    "link_img": "https://live.staticflickr.com/65535/50021528217_4c2f861bc8_o.jpg",
    "id_image": "Cat_840632",
    "count_view": 0
  },
  {
    "link_thumb": "https://live.staticflickr.com/65535/50021210681_f28d12092b_n.jpg",
    "id_album": "-462831704",
    "description": "Cat_729700",
    "title": "Cat_729700",
    "link_img": "https://live.staticflickr.com/65535/50021210681_4ffe8afbcf_o.jpg",
    "id_image": "Cat_729700",
    "count_view": 0
  },
  {
    "link_thumb": "https://live.staticflickr.com/65535/50022277731_205b7c510a_n.jpg",
    "id_album": "1610416937",
    "description": "Moth_574400",
    "title": "Moth_574400",
    "link_img": "https://live.staticflickr.com/65535/50022277731_e25c1a1f76_o.jpg",
    "id_image": "Moth_574400",
    "count_view": 0
  },
  {
    "link_thumb": "https://live.staticflickr.com/65535/50017153121_3cfd7ec8fb_n.jpg",
    "id_album": "1699594607",
    "description": "Bee_680498",
    "title": "Bee_680498",
    "link_img": "https://live.staticflickr.com/65535/50017153121_0be7b268b9_o.jpg",
    "id_image": "Bee_680498",
    "count_view": 0
  },
  {
    "link_thumb": "https://live.staticflickr.com/65535/50017607838_f196d79637_n.jpg",
    "id_album": "-462831702",
    "description": "Cat_398816",
    "title": "Cat_398816",
    "link_img": "https://live.staticflickr.com/65535/50017607838_41dd866fd6_o.jpg",
    "id_image": "Cat_398816",
    "count_view": 0
  },
  {
    "link_thumb": "https://live.staticflickr.com/65535/50021865426_18b81908f7_n.jpg",
    "id_album": "-1882491687",
    "description": "Ladybug_801788",
    "title": "Ladybug_801788",
    "link_img": "https://live.staticflickr.com/65535/50021865426_6e2a55ddf6_o.jpg",
    "id_image": "Ladybug_801788",
    "count_view": 0
  },
  {
    "link_thumb": "https://live.staticflickr.com/65535/50018003022_8c8a722fd4_n.jpg",
    "id_album": "-462831703",
    "description": "Cat_1002211",
    "title": "Cat_1002211",
    "link_img": "https://live.staticflickr.com/65535/50018003022_f6716f1e1c_o.jpg",
    "id_image": "Cat_1002211",
    "count_view": 0
  },
  {
    "link_thumb": "https://live.staticflickr.com/65535/50017592456_01cf851971_n.jpg",
    "id_album": "-401151552",
    "description": "Butterfly_426847",
    "title": "Butterfly_426847",
    "link_img": "https://live.staticflickr.com/65535/50017592456_28c1571f15_o.jpg",
    "id_image": "Butterfly_426847",
    "count_view": 0
  },
  {
    "link_thumb": "https://live.staticflickr.com/65535/50020710378_7017420ba5_n.jpg",
    "id_album": "-462831703",
    "description": "Cat_792710",
    "title": "Cat_792710",
    "link_img": "https://live.staticflickr.com/65535/50020710378_1a08d02ed0_o.jpg",
    "id_image": "Cat_792710",
    "count_view": 0
  },
  {
    "link_thumb": "https://live.staticflickr.com/65535/50020631811_a42af0d2de_n.jpg",
    "id_album": "-405058657",
    "description": "Dragonfly_588140",
    "title": "Dragonfly_588140",
    "link_img": "https://live.staticflickr.com/65535/50020631811_e83c7c95ca_o.jpg",
    "id_image": "Dragonfly_588140",
    "count_view": 0
  },
  {
    "link_thumb": "https://live.staticflickr.com/65535/50019774887_bc6f63ac61_n.jpg",
    "id_album": "-462831703",
    "description": "Cat_956664",
    "title": "Cat_956664",
    "link_img": "https://live.staticflickr.com/65535/50019774887_06cc7fa13d_o.jpg",
    "id_image": "Cat_956664",
    "count_view": 0
  },
  {
    "link_thumb": "https://live.staticflickr.com/65535/50019853767_8ab76a56c2_n.jpg",
    "id_album": "-1930903528",
    "description": "CatDog_883607",
    "title": "CatDog_883607",
    "link_img": "https://live.staticflickr.com/65535/50019853767_e49516aa87_o.jpg",
    "id_image": "CatDog_883607",
    "count_view": 0
  },
  {
    "link_thumb": "https://live.staticflickr.com/65535/50020466701_aed9a593d1_n.jpg",
    "id_album": "-149330231",
    "description": "Dog_595666",
    "title": "Dog_595666",
    "link_img": "https://live.staticflickr.com/65535/50020466701_00d0894489_o.jpg",
    "id_image": "Dog_595666",
    "count_view": 0
  },
  {
    "link_thumb": "https://live.staticflickr.com/65535/50017528881_2b1dfb015c_n.jpg",
    "id_album": "368532157",
    "description": "Bulldog_856051",
    "title": "Bulldog_856051",
    "link_img": "https://live.staticflickr.com/65535/50017528881_62d1b358e8_o.jpg",
    "id_image": "Bulldog_856051",
    "count_view": 0
  },
  {
    "link_thumb": "https://live.staticflickr.com/65535/50020483563_6984e51188_n.jpg",
    "id_album": "-128218148",
    "description": "Fox_922541",
    "title": "Fox_922541",
    "link_img": "https://live.staticflickr.com/65535/50020483563_c4a0762792_o.jpg",
    "id_image": "Fox_922541",
    "count_view": 0
  },
  {
    "link_thumb": "https://live.staticflickr.com/65535/50021959541_37d74aa0ae_n.jpg",
    "id_album": "1392348450",
    "description": "Leopard_929685",
    "title": "Leopard_929685",
    "link_img": "https://live.staticflickr.com/65535/50021959541_3c15e02610_o.jpg",
    "id_image": "Leopard_929685",
    "count_view": 0
  },
  {
    "link_thumb": "https://live.staticflickr.com/65535/50023446313_b8bb16a34b_n.jpg",
    "id_album": "1244464375",
    "description": "Starfish_358882",
    "title": "Starfish_358882",
    "link_img": "https://live.staticflickr.com/65535/50023446313_cffe5922c3_o.jpg",
    "id_image": "Starfish_358882",
    "count_view": 0
  },
  {
    "link_thumb": "https://live.staticflickr.com/65535/50019451616_f69b85bc99_n.jpg",
    "id_album": "-462831705",
    "description": "Cat_91397",
    "title": "Cat_91397",
    "link_img": "https://live.staticflickr.com/65535/50019451616_92ebdaf543_o.jpg",
    "id_image": "Cat_91397",
    "count_view": 0
  },
  {
    "link_thumb": "https://live.staticflickr.com/65535/50020862908_9b9f48c276_n.jpg",
    "id_album": "-1168906494",
    "description": "Grasshopper_792883",
    "title": "Grasshopper_792883",
    "link_img": "https://live.staticflickr.com/65535/50020862908_b36db3c444_o.jpg",
    "id_image": "Grasshopper_792883",
    "count_view": 0
  },
  {
    "link_thumb": "https://live.staticflickr.com/65535/50017206748_7cb789f939_n.jpg",
    "id_album": "189994021",
    "description": "Cardinal_591170",
    "title": "Cardinal_591170",
    "link_img": "https://live.staticflickr.com/65535/50017206748_b5363e825d_o.jpg",
    "id_image": "Cardinal_591170",
    "count_view": 0
  },
  {
    "link_thumb": "https://live.staticflickr.com/65535/50019997822_c2f2bf8ee2_n.jpg",
    "id_album": "1949822052",
    "description": "Chimpanzee_282213",
    "title": "Chimpanzee_282213",
    "link_img": "https://live.staticflickr.com/65535/50019997822_f0d03285fd_o.jpg",
    "id_image": "Chimpanzee_282213",
    "count_view": 0
  },
  {
    "link_thumb": "https://live.staticflickr.com/65535/50020688386_d88bba4c53_n.jpg",
    "id_album": "-39098563",
    "description": "Eagle_275813",
    "title": "Eagle_275813",
    "link_img": "https://live.staticflickr.com/65535/50020688386_c96d435a5d_o.jpg",
    "id_image": "Eagle_275813",
    "count_view": 0
  },
  {
    "link_thumb": "https://live.staticflickr.com/65535/50018156576_07963f884a_n.jpg",
    "id_album": "-462831702",
    "description": "Cat_408954",
    "title": "Cat_408954",
    "link_img": "https://live.staticflickr.com/65535/50018156576_408f29bceb_o.jpg",
    "id_image": "Cat_408954",
    "count_view": 0
  },
  {
    "link_thumb": "https://live.staticflickr.com/65535/50020765493_03dbf778de_n.jpg",
    "id_album": "-405626519",
    "description": "GermanShepherd_877593",
    "title": "GermanShepherd_877593",
    "link_img": "https://live.staticflickr.com/65535/50020765493_d2e0617d6c_o.jpg",
    "id_image": "GermanShepherd_877593",
    "count_view": 0
  },
  {
    "link_thumb": "https://live.staticflickr.com/65535/50351741918_ee072f3ae4_n.jpg",
    "id_album": "-462831703",
    "description": "Cat_241449",
    "title": "Cat_241449",
    "link_img": "https://live.staticflickr.com/65535/50351741918_644d9689d4_o.jpg",
    "id_image": "Cat_241449",
    "count_view": 0
  },
  {
    "link_thumb": "https://live.staticflickr.com/65535/50022603773_1be6581276_n.jpg",
    "id_album": "248289288",
    "description": "Raccoon_406307",
    "title": "Raccoon_406307",
    "link_img": "https://live.staticflickr.com/65535/50022603773_2d53a2a19c_o.jpg",
    "id_image": "Raccoon_406307",
    "count_view": 0
  },
  {
    "link_thumb": "https://live.staticflickr.com/65535/50020364266_0fd11ff41c_n.jpg",
    "id_album": "-149330231",
    "description": "Dog_386684",
    "title": "Dog_386684",
    "link_img": "https://live.staticflickr.com/65535/50020364266_8af09d15c8_o.jpg",
    "id_image": "Dog_386684",
    "count_view": 0
  },
  {
    "link_thumb": "https://live.staticflickr.com/65535/50016325468_8f4272561b_n.jpg",
    "id_album": "-834314226",
    "description": "ArcticFox_927994",
    "title": "ArcticFox_927994",
    "link_img": "https://live.staticflickr.com/65535/50016325468_cff22c95a5_o.jpg",
    "id_image": "ArcticFox_927994",
    "count_view": 0
  },
  {
    "link_thumb": "https://live.staticflickr.com/65535/50021914582_88518874a4_n.jpg",
    "id_album": "1658866795",
    "description": "Insect_271466",
    "title": "Insect_271466",
    "link_img": "https://live.staticflickr.com/65535/50021914582_cbb24bd956_o.jpg",
    "id_image": "Insect_271466",
    "count_view": 0
  },
  {
    "link_thumb": "https://live.staticflickr.com/65535/50021340038_c043e60fb5_n.jpg",
    "id_album": "1392348450",
    "description": "Leopard_103119",
    "title": "Leopard_103119",
    "link_img": "https://live.staticflickr.com/65535/50021340038_db07e38560_o.jpg",
    "id_image": "Leopard_103119",
    "count_view": 0
  },
  {
    "link_thumb": "https://live.staticflickr.com/65535/50022051857_3b00d9e78a_n.jpg",
    "id_album": "770105808",
    "description": "Kingfisher_246208",
    "title": "Kingfisher_246208",
    "link_img": "https://live.staticflickr.com/65535/50022051857_77e69136d2_o.jpg",
    "id_image": "Kingfisher_246208",
    "count_view": 0
  },
  {
    "link_thumb": "https://live.staticflickr.com/65535/50019189786_7fddcf63c2_n.jpg",
    "id_album": "-462831702",
    "description": "Cat_433151",
    "title": "Cat_433151",
    "link_img": "https://live.staticflickr.com/65535/50019189786_5fa1b85709_o.jpg",
    "id_image": "Cat_433151",
    "count_view": 0
  },
  {
    "link_thumb": "https://live.staticflickr.com/65535/50021487297_681fbb272e_n.jpg",
    "id_album": "-462831703",
    "description": "Cat_769378",
    "title": "Cat_769378",
    "link_img": "https://live.staticflickr.com/65535/50021487297_119314b58a_o.jpg",
    "id_image": "Cat_769378",
    "count_view": 0
  },
  {
    "link_thumb": "https://live.staticflickr.com/65535/50021164187_ee34eb53f6_n.jpg",
    "id_album": "-1758557371",
    "description": "Flamingo_752405",
    "title": "Flamingo_752405",
    "link_img": "https://live.staticflickr.com/65535/50021164187_bcb3732da5_o.jpg",
    "id_image": "Flamingo_752405",
    "count_view": 0
  },
  {
    "link_thumb": "https://live.staticflickr.com/65535/50020326556_9e91337bb8_n.jpg",
    "id_album": "-149330232",
    "description": "Dog_364866",
    "title": "Dog_364866",
    "link_img": "https://live.staticflickr.com/65535/50020326556_a313e8978e_o.jpg",
    "id_image": "Dog_364866",
    "count_view": 0
  },
  {
    "link_thumb": "https://live.staticflickr.com/65535/50023267147_d5f3d26a33_n.jpg",
    "id_album": "-353898617",
    "description": "Puppy_523342",
    "title": "Puppy_523342",
    "link_img": "https://live.staticflickr.com/65535/50023267147_a9850ed889_o.jpg",
    "id_image": "Puppy_523342",
    "count_view": 0
  },
  {
    "link_thumb": "https://live.staticflickr.com/65535/50017503216_22029e93d5_n.jpg",
    "id_album": "782930701",
    "description": "BorderCollie_870137",
    "title": "BorderCollie_870137",
    "link_img": "https://live.staticflickr.com/65535/50017503216_6a22491a5a_o.jpg",
    "id_image": "BorderCollie_870137",
    "count_view": 0
  },
  {
    "link_thumb": "https://live.staticflickr.com/65535/50021378302_2d89943494_n.jpg",
    "id_album": "-462831704",
    "description": "Cat_584362",
    "title": "Cat_584362",
    "link_img": "https://live.staticflickr.com/65535/50021378302_620d8515d8_o.jpg",
    "id_image": "Cat_584362",
    "count_view": 0
  },
  {
    "link_thumb": "https://live.staticflickr.com/65535/50016321758_370f7bf1bb_n.jpg",
    "id_album": "-834314226",
    "description": "ArcticFox_695593",
    "title": "ArcticFox_695593",
    "link_img": "https://live.staticflickr.com/65535/50016321758_8a6653decd_o.jpg",
    "id_image": "ArcticFox_695593",
    "count_view": 0
  },
  {
    "link_thumb": "https://live.staticflickr.com/65535/50019946993_812ce31a04_n.jpg",
    "id_album": "-149330231",
    "description": "Dog_683721",
    "title": "Dog_683721",
    "link_img": "https://live.staticflickr.com/65535/50019946993_0486aa7581_o.jpg",
    "id_image": "Dog_683721",
    "count_view": 0
  },
  {
    "link_thumb": "https://live.staticflickr.com/65535/50021210937_559e8d12f3_n.jpg",
    "id_album": "-128218148",
    "description": "Fox_382790",
    "title": "Fox_382790",
    "link_img": "https://live.staticflickr.com/65535/50021210937_185dc55d2d_o.jpg",
    "id_image": "Fox_382790",
    "count_view": 0
  },
  {
    "link_thumb": "https://live.staticflickr.com/65535/50022351171_eecd130847_n.jpg",
    "id_album": "588679857",
    "description": "Orangutan_432381",
    "title": "Orangutan_432381",
    "link_img": "https://live.staticflickr.com/65535/50022351171_f118981731_o.jpg",
    "id_image": "Orangutan_432381",
    "count_view": 0
  },
  {
    "link_thumb": "https://live.staticflickr.com/65535/50020471768_ae421cb4fa_n.jpg",
    "id_album": "-128218148",
    "description": "Fox_866312",
    "title": "Fox_866312",
    "link_img": "https://live.staticflickr.com/65535/50020471768_93c1edd947_o.jpg",
    "id_image": "Fox_866312",
    "count_view": 0
  },
  {
    "link_thumb": "https://live.staticflickr.com/65535/50021342617_995bb841b4_n.jpg",
    "id_album": "844170697",
    "description": "Frog_984018",
    "title": "Frog_984018",
    "link_img": "https://live.staticflickr.com/65535/50021342617_8680322724_o.jpg",
    "id_image": "Frog_984018",
    "count_view": 0
  },
  {
    "link_thumb": "https://live.staticflickr.com/65535/50021628526_d9493b7468_n.jpg",
    "id_album": "-712553376",
    "description": "Husky_323269",
    "title": "Husky_323269",
    "link_img": "https://live.staticflickr.com/65535/50021628526_2751516b9f_o.jpg",
    "id_image": "Husky_323269",
    "count_view": 0
  },
  {
    "link_thumb": "https://live.staticflickr.com/65535/50017520323_fcf6d68a01_n.jpg",
    "id_album": "-462831702",
    "description": "Cat_358430",
    "title": "Cat_358430",
    "link_img": "https://live.staticflickr.com/65535/50017520323_ea3ba4c656_o.jpg",
    "id_image": "Cat_358430",
    "count_view": 0
  },
  {
    "link_thumb": "https://live.staticflickr.com/65535/50020582176_8e26b4338c_n.jpg",
    "id_album": "-54509188",
    "description": "Dolphin_528565",
    "title": "Dolphin_528565",
    "link_img": "https://live.staticflickr.com/65535/50020582176_d2fca5a617_o.jpg",
    "id_image": "Dolphin_528565",
    "count_view": 0
  },
  {
    "link_thumb": "https://live.staticflickr.com/65535/50024242451_cb3d3e1ac8_n.jpg",
    "id_album": "405170427",
    "description": "Tiger_921779",
    "title": "Tiger_921779",
    "link_img": "https://live.staticflickr.com/65535/50024242451_69eec45568_o.jpg",
    "id_image": "Tiger_921779",
    "count_view": 0
  },
  {
    "link_thumb": "https://live.staticflickr.com/65535/50018202797_dc4c96a14b_n.jpg",
    "id_album": "-462831702",
    "description": "Cat_292122",
    "title": "Cat_292122",
    "link_img": "https://live.staticflickr.com/65535/50018202797_a4e7d10bf1_o.jpg",
    "id_image": "Cat_292122",
    "count_view": 0
  },
  {
    "link_thumb": "https://live.staticflickr.com/65535/50020540643_4b1259248e_n.jpg",
    "id_album": "844170697",
    "description": "Frog_902731",
    "title": "Frog_902731",
    "link_img": "https://live.staticflickr.com/65535/50020540643_af9ded8819_o.jpg",
    "id_image": "Frog_902731",
    "count_view": 0
  },
  {
    "link_thumb": "https://live.staticflickr.com/65535/50020267187_c117340bcb_n.jpg",
    "id_album": "1903411565",
    "description": "Deer_433321",
    "title": "Deer_433321",
    "link_img": "https://live.staticflickr.com/65535/50020267187_a350c1ffb4_o.jpg",
    "id_image": "Deer_433321",
    "count_view": 0
  },
  {
    "link_thumb": "https://live.staticflickr.com/65535/50021658878_849ee18fb6_n.jpg",
    "id_album": "-784970094",
    "description": "Monkey_337109",
    "title": "Monkey_337109",
    "link_img": "https://live.staticflickr.com/65535/50021658878_f296d3e660_o.jpg",
    "id_image": "Monkey_337109",
    "count_view": 0
  },
  {
    "link_thumb": "https://live.staticflickr.com/65535/50021905676_1a56011c75_n.jpg",
    "id_album": "1392348450",
    "description": "Leopard_361679",
    "title": "Leopard_361679",
    "link_img": "https://live.staticflickr.com/65535/50021905676_a0791a9165_o.jpg",
    "id_image": "Leopard_361679",
    "count_view": 0
  },
  {
    "link_thumb": "https://live.staticflickr.com/65535/50018284817_d2339667d5_n.jpg",
    "id_album": "-462831702",
    "description": "Cat_346944",
    "title": "Cat_346944",
    "link_img": "https://live.staticflickr.com/65535/50018284817_a12065f7e5_o.jpg",
    "id_image": "Cat_346944",
    "count_view": 0
  },
  {
    "link_thumb": "https://live.staticflickr.com/65535/50023813507_321f27bc8a_n.jpg",
    "id_album": "-1182356179",
    "description": "Snake_118827",
    "title": "Snake_118827",
    "link_img": "https://live.staticflickr.com/65535/50023813507_139407110f_o.jpg",
    "id_image": "Snake_118827",
    "count_view": 0
  },
  {
    "link_thumb": "https://live.staticflickr.com/65535/50017945826_4f67e8fa21_n.jpg",
    "id_album": "-462831702",
    "description": "Cat_294060",
    "title": "Cat_294060",
    "link_img": "https://live.staticflickr.com/65535/50017945826_37dc549e99_o.jpg",
    "id_image": "Cat_294060",
    "count_view": 0
  },
  {
    "link_thumb": "https://live.staticflickr.com/65535/50020073998_5e1af3c089_n.jpg",
    "id_album": "-405058657",
    "description": "Dragonfly_284684",
    "title": "Dragonfly_284684",
    "link_img": "https://live.staticflickr.com/65535/50020073998_43d8654f58_o.jpg",
    "id_image": "Dragonfly_284684",
    "count_view": 0
  },
  {
    "link_thumb": "https://live.staticflickr.com/65535/50020975302_ac52d60860_n.jpg",
    "id_album": "-39098563",
    "description": "Eagle_595213",
    "title": "Eagle_595213",
    "link_img": "https://live.staticflickr.com/65535/50020975302_cb14e89f13_o.jpg",
    "id_image": "Eagle_595213",
    "count_view": 0
  },
  {
    "link_thumb": "https://live.staticflickr.com/65535/50022595183_0c4064af68_n.jpg",
    "id_album": "248289288",
    "description": "Raccoon_158745",
    "title": "Raccoon_158745",
    "link_img": "https://live.staticflickr.com/65535/50022595183_67939ea40e_o.jpg",
    "id_image": "Raccoon_158745",
    "count_view": 0
  },
  {
    "link_thumb": "https://live.staticflickr.com/65535/50021296036_5e0bb02cd0_n.jpg",
    "id_album": "-405626519",
    "description": "GermanShepherd_693562",
    "title": "GermanShepherd_693562",
    "link_img": "https://live.staticflickr.com/65535/50021296036_259f8e8887_o.jpg",
    "id_image": "GermanShepherd_693562",
    "count_view": 0
  },
  {
    "link_thumb": "https://live.staticflickr.com/65535/50019147713_281191fb31_n.jpg",
    "id_album": "-1481843714",
    "description": "Cheetah_121343",
    "title": "Cheetah_121343",
    "link_img": "https://live.staticflickr.com/65535/50019147713_8bf538b8ea_o.jpg",
    "id_image": "Cheetah_121343",
    "count_view": 0
  },
  {
    "link_thumb": "https://live.staticflickr.com/65535/50021772842_927bc4bf81_n.jpg",
    "id_album": "-1933715543",
    "description": "Horse_441625",
    "title": "Horse_441625",
    "link_img": "https://live.staticflickr.com/65535/50021772842_f8ae55e58e_o.jpg",
    "id_image": "Horse_441625",
    "count_view": 0
  },
  {
    "link_thumb": "https://live.staticflickr.com/65535/50021901241_6fd94a53a0_n.jpg",
    "id_album": "1392348450",
    "description": "Leopard_347562",
    "title": "Leopard_347562",
    "link_img": "https://live.staticflickr.com/65535/50021901241_6ea6f88510_o.jpg",
    "id_image": "Leopard_347562",
    "count_view": 0
  },
  {
    "link_thumb": "https://live.staticflickr.com/65535/50018257302_c69cfb9313_n.jpg",
    "id_album": "-462831702",
    "description": "Cat_334468",
    "title": "Cat_334468",
    "link_img": "https://live.staticflickr.com/65535/50018257302_0ae30d778d_o.jpg",
    "id_image": "Cat_334468",
    "count_view": 0
  },
  {
    "link_thumb": "https://live.staticflickr.com/65535/50022453848_5f185c9d31_n.jpg",
    "id_album": "-353898617",
    "description": "Puppy_435786",
    "title": "Puppy_435786",
    "link_img": "https://live.staticflickr.com/65535/50022453848_43cd772c09_o.jpg",
    "id_image": "Puppy_435786",
    "count_view": 0
  },
  {
    "link_thumb": "https://live.staticflickr.com/65535/50023903362_a8e846a788_n.jpg",
    "id_album": "-1131363127",
    "description": "SnowLeopard_397432",
    "title": "SnowLeopard_397432",
    "link_img": "https://live.staticflickr.com/65535/50023903362_1e3cfe5187_o.jpg",
    "id_image": "SnowLeopard_397432",
    "count_view": 0
  },
  {
    "link_thumb": "https://live.staticflickr.com/65535/50352673116_e47b3c95ee_n.jpg",
    "id_album": "-462831703",
    "description": "Cat_968609",
    "title": "Cat_968609",
    "link_img": "https://live.staticflickr.com/65535/50352673116_dd413819c5_o.jpg",
    "id_image": "Cat_968609",
    "count_view": 0
  },
  {
    "link_thumb": "https://live.staticflickr.com/65535/50017357556_f4cc6f5d84_n.jpg",
    "id_album": "-1846011410",
    "description": "Bird_528247",
    "title": "Bird_528247",
    "link_img": "https://live.staticflickr.com/65535/50017357556_f58b5fae68_o.jpg",
    "id_image": "Bird_528247",
    "count_view": 0
  },
  {
    "link_thumb": "https://live.staticflickr.com/65535/50022259436_f2112d6393_n.jpg",
    "id_album": "-784970094",
    "description": "Monkey_737411",
    "title": "Monkey_737411",
    "link_img": "https://live.staticflickr.com/65535/50022259436_1be2c11714_o.jpg",
    "id_image": "Monkey_737411",
    "count_view": 0
  },
  {
    "link_thumb": "https://live.staticflickr.com/65535/50017451463_f4b0fec613_n.jpg",
    "id_album": "-462831702",
    "description": "Cat_327112",
    "title": "Cat_327112",
    "link_img": "https://live.staticflickr.com/65535/50017451463_4c764bd3e4_o.jpg",
    "id_image": "Cat_327112",
    "count_view": 0
  },
  {
    "link_thumb": "https://live.staticflickr.com/65535/50022881553_e85a776d03_n.jpg",
    "id_album": "1961094930",
    "description": "Seal_921937",
    "title": "Seal_921937",
    "link_img": "https://live.staticflickr.com/65535/50022881553_727f12332e_o.jpg",
    "id_image": "Seal_921937",
    "count_view": 0
  },
  {
    "link_thumb": "https://live.staticflickr.com/65535/50023045972_3d60bf15ca_n.jpg",
    "id_album": "1008910300",
    "description": "PolarBear_233110",
    "title": "PolarBear_233110",
    "link_img": "https://live.staticflickr.com/65535/50023045972_3bb24660fe_o.jpg",
    "id_image": "PolarBear_233110",
    "count_view": 0
  },
  {
    "link_thumb": "https://live.staticflickr.com/65535/50018828028_03e86f77c8_n.jpg",
    "id_album": "-462831703",
    "description": "Cat_870593",
    "title": "Cat_870593",
    "link_img": "https://live.staticflickr.com/65535/50018828028_b9aa509104_o.jpg",
    "id_image": "Cat_870593",
    "count_view": 0
  },
  {
    "link_thumb": "https://live.staticflickr.com/65535/50021119491_34e9f7c1f8_n.jpg",
    "id_album": "-462831704",
    "description": "Cat_569908",
    "title": "Cat_569908",
    "link_img": "https://live.staticflickr.com/65535/50021119491_321afe698f_o.jpg",
    "id_image": "Cat_569908",
    "count_view": 0
  },
  {
    "link_thumb": "https://live.staticflickr.com/65535/50022146446_401cdf1c53_n.jpg",
    "id_album": "1894617400",
    "description": "Lynx_428210",
    "title": "Lynx_428210",
    "link_img": "https://live.staticflickr.com/65535/50022146446_dafaa14fd5_o.jpg",
    "id_image": "Lynx_428210",
    "count_view": 0
  },
  {
    "link_thumb": "https://live.staticflickr.com/65535/50020721713_02c52c335e_n.jpg",
    "id_album": "-462831703",
    "description": "Cat_817934",
    "title": "Cat_817934",
    "link_img": "https://live.staticflickr.com/65535/50020721713_1b8515c623_o.jpg",
    "id_image": "Cat_817934",
    "count_view": 0
  },
  {
    "link_thumb": "https://live.staticflickr.com/65535/50017621542_b16667e90a_n.jpg",
    "id_album": "-1846011410",
    "description": "Bird_535329",
    "title": "Bird_535329",
    "link_img": "https://live.staticflickr.com/65535/50017621542_cdc363609d_o.jpg",
    "id_image": "Bird_535329",
    "count_view": 0
  },
  {
    "link_thumb": "https://live.staticflickr.com/65535/50019942176_d6268df4de_n.jpg",
    "id_album": "1273365283",
    "description": "Cute_431112",
    "title": "Cute_431112",
    "link_img": "https://live.staticflickr.com/65535/50019942176_8fb8347d63_o.jpg",
    "id_image": "Cute_431112",
    "count_view": 0
  },
  {
    "link_thumb": "https://live.staticflickr.com/65535/50352439251_33706c884e_n.jpg",
    "id_album": "-462831703",
    "description": "Cat_242728",
    "title": "Cat_242728",
    "link_img": "https://live.staticflickr.com/65535/50352439251_ce3f3bb73b_o.jpg",
    "id_image": "Cat_242728",
    "count_view": 0
  },
  {
    "link_thumb": "https://live.staticflickr.com/65535/50017653437_dec4e79b77_n.jpg",
    "id_album": "-1846011410",
    "description": "Bird_616086",
    "title": "Bird_616086",
    "link_img": "https://live.staticflickr.com/65535/50017653437_fe6c54fd50_o.jpg",
    "id_image": "Bird_616086",
    "count_view": 0
  },
  {
    "link_thumb": "https://live.staticflickr.com/65535/50019764717_cdfb2ea654_n.jpg",
    "id_album": "-462831703",
    "description": "Cat_946062",
    "title": "Cat_946062",
    "link_img": "https://live.staticflickr.com/65535/50019764717_919fd66254_o.jpg",
    "id_image": "Cat_946062",
    "count_view": 0
  },
  {
    "link_thumb": "https://live.staticflickr.com/65535/50021466657_606d58661d_n.jpg",
    "id_album": "-462831704",
    "description": "Cat_734396",
    "title": "Cat_734396",
    "link_img": "https://live.staticflickr.com/65535/50021466657_bfea26bed8_o.jpg",
    "id_image": "Cat_734396",
    "count_view": 0
  },
  {
    "link_thumb": "https://live.staticflickr.com/65535/50021737056_01754150d6_n.jpg",
    "id_album": "-843028318",
    "description": "Jaguar_690173",
    "title": "Jaguar_690173",
    "link_img": "https://live.staticflickr.com/65535/50021737056_2aee115368_o.jpg",
    "id_image": "Jaguar_690173",
    "count_view": 0
  },
  {
    "link_thumb": "https://live.staticflickr.com/65535/50017009326_324a2737ba_n.jpg",
    "id_album": "-422187261",
    "description": "Bear_215985",
    "title": "Bear_215985",
    "link_img": "https://live.staticflickr.com/65535/50017009326_acb7c183cb_o.jpg",
    "id_image": "Bear_215985",
    "count_view": 0
  },
  {
    "link_thumb": "https://live.staticflickr.com/65535/50018146057_6404e60244_n.jpg",
    "id_album": "-462831705",
    "description": "Cat_236388",
    "title": "Cat_236388",
    "link_img": "https://live.staticflickr.com/65535/50018146057_c392706aef_o.jpg",
    "id_image": "Cat_236388",
    "count_view": 0
  },
  {
    "link_thumb": "https://live.staticflickr.com/65535/50017797031_e7b726f2ac_n.jpg",
    "id_album": "-462831705",
    "description": "Cat_166883",
    "title": "Cat_166883",
    "link_img": "https://live.staticflickr.com/65535/50017797031_dd5ac7809a_o.jpg",
    "id_image": "Cat_166883",
    "count_view": 0
  },
  {
    "link_thumb": "https://live.staticflickr.com/65535/50020014467_878002ff16_n.jpg",
    "id_album": "791455625",
    "description": "Chipmunk_352160",
    "title": "Chipmunk_352160",
    "link_img": "https://live.staticflickr.com/65535/50020014467_acec436b7e_o.jpg",
    "id_image": "Chipmunk_352160",
    "count_view": 0
  },
  {
    "link_thumb": "https://live.staticflickr.com/65535/50021310497_b25a46f697_n.jpg",
    "id_album": "844170697",
    "description": "Frog_354142",
    "title": "Frog_354142",
    "link_img": "https://live.staticflickr.com/65535/50021310497_618ca5f803_o.jpg",
    "id_image": "Frog_354142",
    "count_view": 0
  },
  {
    "link_thumb": "https://live.staticflickr.com/65535/50021460242_417ae87f72_n.jpg",
    "id_album": "-462831704",
    "description": "Cat_725082",
    "title": "Cat_725082",
    "link_img": "https://live.staticflickr.com/65535/50021460242_8e98bec286_o.jpg",
    "id_image": "Cat_725082",
    "count_view": 0
  },
  {
    "link_thumb": "https://live.staticflickr.com/65535/50020995566_0f0371b8d1_n.jpg",
    "id_album": "-128218148",
    "description": "Fox_727507",
    "title": "Fox_727507",
    "link_img": "https://live.staticflickr.com/65535/50020995566_940491da11_o.jpg",
    "id_image": "Fox_727507",
    "count_view": 0
  },
  {
    "link_thumb": "https://live.staticflickr.com/65535/50019995421_7baf0385e9_n.jpg",
    "id_album": "1903411565",
    "description": "Deer_348182",
    "title": "Deer_348182",
    "link_img": "https://live.staticflickr.com/65535/50019995421_e723fcb732_o.jpg",
    "id_image": "Deer_348182",
    "count_view": 0
  },
  {
    "link_thumb": "https://live.staticflickr.com/65535/50024552477_6940b3bd26_n.jpg",
    "id_album": "901523298",
    "description": "TreeFrog_525409",
    "title": "TreeFrog_525409",
    "link_img": "https://live.staticflickr.com/65535/50024552477_761d5397a7_o.jpg",
    "id_image": "TreeFrog_525409",
    "count_view": 0
  },
  {
    "link_thumb": "https://live.staticflickr.com/65535/50017631141_cb50d1de99_n.jpg",
    "id_album": "-401151552",
    "description": "Butterfly_572454",
    "title": "Butterfly_572454",
    "link_img": "https://live.staticflickr.com/65535/50017631141_c14314113c_o.jpg",
    "id_image": "Butterfly_572454",
    "count_view": 0
  },
  {
    "link_thumb": "https://live.staticflickr.com/65535/50021034857_79dc44538e_n.jpg",
    "id_album": "1270947998",
    "description": "Elephant_659321",
    "title": "Elephant_659321",
    "link_img": "https://live.staticflickr.com/65535/50021034857_454d69386d_o.jpg",
    "id_image": "Elephant_659321",
    "count_view": 0
  },
  {
    "link_thumb": "https://live.staticflickr.com/65535/50022165231_84b489f404_n.jpg",
    "id_album": "1894617400",
    "description": "Lynx_881363",
    "title": "Lynx_881363",
    "link_img": "https://live.staticflickr.com/65535/50022165231_e5da7206fe_o.jpg",
    "id_image": "Lynx_881363",
    "count_view": 0
  },
  {
    "link_thumb": "https://live.staticflickr.com/65535/50023118492_9d8fdb2c3c_n.jpg",
    "id_album": "1008910300",
    "description": "PolarBear_793079",
    "title": "PolarBear_793079",
    "link_img": "https://live.staticflickr.com/65535/50023118492_68d752e52e_o.jpg",
    "id_image": "PolarBear_793079",
    "count_view": 0
  },
  {
    "link_thumb": "https://live.staticflickr.com/65535/50021842632_6c0ba504ce_n.jpg",
    "id_album": "-1933715543",
    "description": "Horse_954523",
    "title": "Horse_954523",
    "link_img": "https://live.staticflickr.com/65535/50021842632_35a5ef892f_o.jpg",
    "id_image": "Horse_954523",
    "count_view": 0
  },
  {
    "link_thumb": "https://live.staticflickr.com/65535/50024841107_2c1b6648ee_n.jpg",
    "id_album": "1104421803",
    "description": "Zebra_872255",
    "title": "Zebra_872255",
    "link_img": "https://live.staticflickr.com/65535/50024841107_a832818c89_o.jpg",
    "id_image": "Zebra_872255",
    "count_view": 0
  },
  {
    "link_thumb": "https://live.staticflickr.com/65535/50018865328_26283a1b1b_n.jpg",
    "id_album": "-462831703",
    "description": "Cat_884512",
    "title": "Cat_884512",
    "link_img": "https://live.staticflickr.com/65535/50018865328_55cd1a70f8_o.jpg",
    "id_image": "Cat_884512",
    "count_view": 0
  },
  {
    "link_thumb": "https://live.staticflickr.com/65535/50022173411_eb3173915f_n.jpg",
    "id_album": "1894617400",
    "description": "Lynx_989601",
    "title": "Lynx_989601",
    "link_img": "https://live.staticflickr.com/65535/50022173411_c860e39d7d_o.jpg",
    "id_image": "Lynx_989601",
    "count_view": 0
  },
  {
    "link_thumb": "https://live.staticflickr.com/65535/50021318976_1fd828f698_n.jpg",
    "id_album": "713572662",
    "description": "Giraffe_306420",
    "title": "Giraffe_306420",
    "link_img": "https://live.staticflickr.com/65535/50021318976_8714104107_o.jpg",
    "id_image": "Giraffe_306420",
    "count_view": 0
  },
  {
    "link_thumb": "https://live.staticflickr.com/65535/50020447233_def3e5c00f_n.jpg",
    "id_album": "-128218148",
    "description": "Fox_692271",
    "title": "Fox_692271",
    "link_img": "https://live.staticflickr.com/65535/50020447233_0df58ec841_o.jpg",
    "id_image": "Fox_692271",
    "count_view": 0
  },
  {
    "link_thumb": "https://live.staticflickr.com/65535/50352646682_c276700a25_n.jpg",
    "id_album": "-462831703",
    "description": "Cat_386087",
    "title": "Cat_386087",
    "link_img": "https://live.staticflickr.com/65535/50352646682_2a010c2369_o.jpg",
    "id_image": "Cat_386087",
    "count_view": 0
  },
  {
    "link_thumb": "https://live.staticflickr.com/65535/50022677287_fbe74a5d02_n.jpg",
    "id_album": "-1384601601",
    "description": "Owl_411477",
    "title": "Owl_411477",
    "link_img": "https://live.staticflickr.com/65535/50022677287_c113ab01a2_o.jpg",
    "id_image": "Owl_411477",
    "count_view": 0
  },
  {
    "link_thumb": "https://live.staticflickr.com/65535/50020758633_01c5492bfb_n.jpg",
    "id_album": "-405626519",
    "description": "GermanShepherd_775638",
    "title": "GermanShepherd_775638",
    "link_img": "https://live.staticflickr.com/65535/50020758633_04db186b45_o.jpg",
    "id_image": "GermanShepherd_775638",
    "count_view": 0
  },
  {
    "link_thumb": "https://live.staticflickr.com/65535/50024537941_8cc4117e3f_n.jpg",
    "id_album": "-709711865",
    "description": "Wolf_709409",
    "title": "Wolf_709409",
    "link_img": "https://live.staticflickr.com/65535/50024537941_1f89e52b14_o.jpg",
    "id_image": "Wolf_709409",
    "count_view": 0
  },
  {
    "link_thumb": "https://live.staticflickr.com/65535/50022427123_e662bdc6e7_n.jpg",
    "id_album": "-353898617",
    "description": "Puppy_364939",
    "title": "Puppy_364939",
    "link_img": "https://live.staticflickr.com/65535/50022427123_3eca631644_o.jpg",
    "id_image": "Puppy_364939",
    "count_view": 0
  },
  {
    "link_thumb": "https://live.staticflickr.com/65535/50017891672_6936b40fd4_n.jpg",
    "id_album": "-401151552",
    "description": "Butterfly_572453",
    "title": "Butterfly_572453",
    "link_img": "https://live.staticflickr.com/65535/50017891672_9a54c21c1d_o.jpg",
    "id_image": "Butterfly_572453",
    "count_view": 0
  },
  {
    "link_thumb": "https://live.staticflickr.com/65535/50021389532_8d7d09c029_n.jpg",
    "id_album": "-462831704",
    "description": "Cat_595968",
    "title": "Cat_595968",
    "link_img": "https://live.staticflickr.com/65535/50021389532_dec06706da_o.jpg",
    "id_image": "Cat_595968",
    "count_view": 0
  },
  {
    "link_thumb": "https://live.staticflickr.com/65535/50021196781_ff751c14d2_n.jpg",
    "id_album": "-462831704",
    "description": "Cat_714294",
    "title": "Cat_714294",
    "link_img": "https://live.staticflickr.com/65535/50021196781_3d5714f538_o.jpg",
    "id_image": "Cat_714294",
    "count_view": 0
  },
  {
    "link_thumb": "https://live.staticflickr.com/65535/50022359332_5feb694fed_n.jpg",
    "id_album": "-656526748",
    "description": "Lizard_207850",
    "title": "Lizard_207850",
    "link_img": "https://live.staticflickr.com/65535/50022359332_0e405496ec_o.jpg",
    "id_image": "Lizard_207850",
    "count_view": 0
  },
  {
    "link_thumb": "https://live.staticflickr.com/65535/50024520031_361cb11b5a_n.jpg",
    "id_album": "-709711865",
    "description": "Wolf_591226",
    "title": "Wolf_591226",
    "link_img": "https://live.staticflickr.com/65535/50024520031_2735fb1bc1_o.jpg",
    "id_image": "Wolf_591226",
    "count_view": 0
  },
  {
    "link_thumb": "https://live.staticflickr.com/65535/50017231857_4a1277db0e_n.jpg",
    "id_album": "231236068",
    "description": "BaldEagle_857183",
    "title": "BaldEagle_857183",
    "link_img": "https://live.staticflickr.com/65535/50017231857_827f6a5ed9_o.jpg",
    "id_image": "BaldEagle_857183",
    "count_view": 0
  },
  {
    "link_thumb": "https://live.staticflickr.com/65535/50020089708_62646ef313_n.jpg",
    "id_album": "-405058657",
    "description": "Dragonfly_432401",
    "title": "Dragonfly_432401",
    "link_img": "https://live.staticflickr.com/65535/50020089708_529f68e464_o.jpg",
    "id_image": "Dragonfly_432401",
    "count_view": 0
  },
  {
    "link_thumb": "https://live.staticflickr.com/65535/50021332843_8fbbe188db_n.jpg",
    "id_album": "1918884325",
    "description": "Lemur_432633",
    "title": "Lemur_432633",
    "link_img": "https://live.staticflickr.com/65535/50021332843_1acc109b31_o.jpg",
    "id_image": "Lemur_432633",
    "count_view": 0
  },
  {
    "link_thumb": "https://live.staticflickr.com/65535/50019646587_de795ed4d5_n.jpg",
    "id_album": "-462831703",
    "description": "Cat_880951",
    "title": "Cat_880951",
    "link_img": "https://live.staticflickr.com/65535/50019646587_771164ec81_o.jpg",
    "id_image": "Cat_880951",
    "count_view": 0
  },
  {
    "link_thumb": "https://live.staticflickr.com/65535/50020067032_4088a4269a_n.jpg",
    "id_album": "-1868680171",
    "description": "Cougar_370158",
    "title": "Cougar_370158",
    "link_img": "https://live.staticflickr.com/65535/50020067032_6fc66cc775_o.jpg",
    "id_image": "Cougar_370158",
    "count_view": 0
  },
  {
    "link_thumb": "https://live.staticflickr.com/65535/50022627457_6ac50c52b3_n.jpg",
    "id_album": "106807275",
    "description": "Otter_432564",
    "title": "Otter_432564",
    "link_img": "https://live.staticflickr.com/65535/50022627457_ef6e488e1c_o.jpg",
    "id_image": "Otter_432564",
    "count_view": 0
  },
  {
    "link_thumb": "https://live.staticflickr.com/65535/50017744176_0ecd92cbf5_n.jpg",
    "id_album": "-462831705",
    "description": "Cat_101552",
    "title": "Cat_101552",
    "link_img": "https://live.staticflickr.com/65535/50017744176_2c34954187_o.jpg",
    "id_image": "Cat_101552",
    "count_view": 0
  },
  {
    "link_thumb": "https://live.staticflickr.com/65535/50022628207_38e00b1372_n.jpg",
    "id_album": "106807275",
    "description": "Otter_464587",
    "title": "Otter_464587",
    "link_img": "https://live.staticflickr.com/65535/50022628207_388e508901_o.jpg",
    "id_image": "Otter_464587",
    "count_view": 0
  },
  {
    "link_thumb": "https://live.staticflickr.com/65535/50020859352_c462449f9d_n.jpg",
    "id_album": "-1859457960",
    "description": "Dove_799631",
    "title": "Dove_799631",
    "link_img": "https://live.staticflickr.com/65535/50020859352_a5eed95728_o.jpg",
    "id_image": "Dove_799631",
    "count_view": 0
  },
  {
    "link_thumb": "https://live.staticflickr.com/65535/50017545342_d90e5a5cb6_n.jpg",
    "id_album": "-1846011410",
    "description": "Bird_370958",
    "title": "Bird_370958",
    "link_img": "https://live.staticflickr.com/65535/50017545342_11dd05cc2d_o.jpg",
    "id_image": "Bird_370958",
    "count_view": 0
  },
  {
    "link_thumb": "https://live.staticflickr.com/65535/50020017078_c33ee1bc38_n.jpg",
    "id_album": "-149330232",
    "description": "Dog_95122",
    "title": "Dog_95122",
    "link_img": "https://live.staticflickr.com/65535/50020017078_bb7d338b91_o.jpg",
    "id_image": "Dog_95122",
    "count_view": 0
  },
  {
    "link_thumb": "https://live.staticflickr.com/65535/50022232757_d201c8a330_n.jpg",
    "id_album": "416744915",
    "description": "Lion_229029",
    "title": "Lion_229029",
    "link_img": "https://live.staticflickr.com/65535/50022232757_68d47c7300_o.jpg",
    "id_image": "Lion_229029",
    "count_view": 0
  },
  {
    "link_thumb": "https://live.staticflickr.com/65535/50352643847_fb81b9c42c_n.jpg",
    "id_album": "-462831703",
    "description": "Cat_380055",
    "title": "Cat_380055",
    "link_img": "https://live.staticflickr.com/65535/50352643847_4dd1b3d064_o.jpg",
    "id_image": "Cat_380055",
    "count_view": 0
  },
  {
    "link_thumb": "https://live.staticflickr.com/65535/50352619012_669cbfd3b2_n.jpg",
    "id_album": "-462831703",
    "description": "Cat_354204",
    "title": "Cat_354204",
    "link_img": "https://live.staticflickr.com/65535/50352619012_47df28df43_o.jpg",
    "id_image": "Cat_354204",
    "count_view": 0
  },
  {
    "link_thumb": "https://live.staticflickr.com/65535/50021298703_6aee7bc83e_n.jpg",
    "id_album": "-1882491687",
    "description": "Ladybug_220246",
    "title": "Ladybug_220246",
    "link_img": "https://live.staticflickr.com/65535/50021298703_51f144ccdb_o.jpg",
    "id_image": "Ladybug_220246",
    "count_view": 0
  },
  {
    "link_thumb": "https://live.staticflickr.com/65535/50018290407_589af99c31_n.jpg",
    "id_album": "-462831702",
    "description": "Cat_349677",
    "title": "Cat_349677",
    "link_img": "https://live.staticflickr.com/65535/50018290407_9921315cbf_o.jpg",
    "id_image": "Cat_349677",
    "count_view": 0
  },
  {
    "link_thumb": "https://live.staticflickr.com/65535/50017431413_222079ce0e_n.jpg",
    "id_album": "-462831702",
    "description": "Cat_315360",
    "title": "Cat_315360",
    "link_img": "https://live.staticflickr.com/65535/50017431413_47375d4e9a_o.jpg",
    "id_image": "Cat_315360",
    "count_view": 0
  },
  {
    "link_thumb": "https://live.staticflickr.com/65535/50022848497_6390be0ca4_n.jpg",
    "id_album": "-801414987",
    "description": "Peacock_430562",
    "title": "Peacock_430562",
    "link_img": "https://live.staticflickr.com/65535/50022848497_e91ee741fa_o.jpg",
    "id_image": "Peacock_430562",
    "count_view": 0
  },
  {
    "link_thumb": "https://live.staticflickr.com/65535/50020618717_9ae66bd886_n.jpg",
    "id_album": "-149330231",
    "description": "Dog_383167",
    "title": "Dog_383167",
    "link_img": "https://live.staticflickr.com/65535/50020618717_273a14ab2f_o.jpg",
    "id_image": "Dog_383167",
    "count_view": 0
  },
  {
    "link_thumb": "https://live.staticflickr.com/65535/50018901138_e5d7ef87dd_n.jpg",
    "id_album": "-462831703",
    "description": "Cat_907279",
    "title": "Cat_907279",
    "link_img": "https://live.staticflickr.com/65535/50018901138_44174773a7_o.jpg",
    "id_image": "Cat_907279",
    "count_view": 0
  },
  {
    "link_thumb": "https://live.staticflickr.com/65535/50021385343_97702781ce_n.jpg",
    "id_album": "1392348450",
    "description": "Leopard_436914",
    "title": "Leopard_436914",
    "link_img": "https://live.staticflickr.com/65535/50021385343_31c0150fd3_o.jpg",
    "id_image": "Leopard_436914",
    "count_view": 0
  },
  {
    "link_thumb": "https://live.staticflickr.com/65535/50352428741_20ea9ce6b3_n.jpg",
    "id_album": "-462831703",
    "description": "Cat_213744",
    "title": "Cat_213744",
    "link_img": "https://live.staticflickr.com/65535/50352428741_0fc71b4f4b_o.jpg",
    "id_image": "Cat_213744",
    "count_view": 0
  },
  {
    "link_thumb": "https://live.staticflickr.com/65535/50017503473_666f054085_n.jpg",
    "id_album": "-462831702",
    "description": "Cat_349719",
    "title": "Cat_349719",
    "link_img": "https://live.staticflickr.com/65535/50017503473_6bd85a9142_o.jpg",
    "id_image": "Cat_349719",
    "count_view": 0
  },
  {
    "link_thumb": "https://live.staticflickr.com/65535/50021262016_10429c8b89_n.jpg",
    "id_album": "-462831705",
    "description": "Cat_81453",
    "title": "Cat_81453",
    "link_img": "https://live.staticflickr.com/65535/50021262016_4261e8a6b0_o.jpg",
    "id_image": "Cat_81453",
    "count_view": 0
  },
  {
    "link_thumb": "https://live.staticflickr.com/65535/50019787781_46b994e82c_n.jpg",
    "id_album": "643379324",
    "description": "Clownfish_829809",
    "title": "Clownfish_829809",
    "link_img": "https://live.staticflickr.com/65535/50019787781_94e3e72c62_o.jpg",
    "id_image": "Clownfish_829809",
    "count_view": 0
  },
  {
    "link_thumb": "https://live.staticflickr.com/65535/50024817022_f80a5bef8f_n.jpg",
    "id_album": "-709711865",
    "description": "Wolf_887024",
    "title": "Wolf_887024",
    "link_img": "https://live.staticflickr.com/65535/50024817022_560c3d5823_o.jpg",
    "id_image": "Wolf_887024",
    "count_view": 0
  },
  {
    "link_thumb": "https://live.staticflickr.com/65535/50022775283_bc0a5ddeb5_n.jpg",
    "id_album": "1926701726",
    "description": "Robin_911632",
    "title": "Robin_911632",
    "link_img": "https://live.staticflickr.com/65535/50022775283_981d12c67f_o.jpg",
    "id_image": "Robin_911632",
    "count_view": 0
  },
  {
    "link_thumb": "https://live.staticflickr.com/65535/50020003612_71bc125efa_n.jpg",
    "id_album": "1949822052",
    "description": "Chimpanzee_649051",
    "title": "Chimpanzee_649051",
    "link_img": "https://live.staticflickr.com/65535/50020003612_b1cb9a45f7_o.jpg",
    "id_image": "Chimpanzee_649051",
    "count_view": 0
  },
  {
    "link_thumb": "https://live.staticflickr.com/65535/50022860482_731a8c2464_n.jpg",
    "id_album": "-801414987",
    "description": "Peacock_727004",
    "title": "Peacock_727004",
    "link_img": "https://live.staticflickr.com/65535/50022860482_4d216eee00_o.jpg",
    "id_image": "Peacock_727004",
    "count_view": 0
  },
  {
    "link_thumb": "https://live.staticflickr.com/65535/50020472122_2dfde1d930_n.jpg",
    "id_album": "-149330232",
    "description": "Dog_275619",
    "title": "Dog_275619",
    "link_img": "https://live.staticflickr.com/65535/50020472122_7bb123cbb4_o.jpg",
    "id_image": "Dog_275619",
    "count_view": 0
  },
  {
    "link_thumb": "https://live.staticflickr.com/65535/50017258308_0d587293de_n.jpg",
    "id_album": "-462831705",
    "description": "Cat_150798",
    "title": "Cat_150798",
    "link_img": "https://live.staticflickr.com/65535/50017258308_606c8dabf1_o.jpg",
    "id_image": "Cat_150798",
    "count_view": 0
  },
  {
    "link_thumb": "https://live.staticflickr.com/65535/50021663678_fe2604882a_n.jpg",
    "id_album": "-784970094",
    "description": "Monkey_353961",
    "title": "Monkey_353961",
    "link_img": "https://live.staticflickr.com/65535/50021663678_607abaa058_o.jpg",
    "id_image": "Monkey_353961",
    "count_view": 0
  },
  {
    "link_thumb": "https://live.staticflickr.com/65535/50017280757_fab490d1ea_n.jpg",
    "id_album": "-422187261",
    "description": "Bear_323272",
    "title": "Bear_323272",
    "link_img": "https://live.staticflickr.com/65535/50017280757_43baedaf0e_o.jpg",
    "id_image": "Bear_323272",
    "count_view": 0
  },
  {
    "link_thumb": "https://live.staticflickr.com/65535/50019805127_7685ed7bef_n.jpg",
    "id_album": "-462831703",
    "description": "Cat_981002",
    "title": "Cat_981002",
    "link_img": "https://live.staticflickr.com/65535/50019805127_585002990f_o.jpg",
    "id_image": "Cat_981002",
    "count_view": 0
  },
  {
    "link_thumb": "https://live.staticflickr.com/65535/50020773333_1b2e63dfba_n.jpg",
    "id_album": "-405626519",
    "description": "GermanShepherd_993606",
    "title": "GermanShepherd_993606",
    "link_img": "https://live.staticflickr.com/65535/50020773333_949e3e5b76_o.jpg",
    "id_image": "GermanShepherd_993606",
    "count_view": 0
  },
  {
    "link_thumb": "https://live.staticflickr.com/65535/50021714631_cba4b8fe92_n.jpg",
    "id_album": "1658866795",
    "description": "Insect_743255",
    "title": "Insect_743255",
    "link_img": "https://live.staticflickr.com/65535/50021714631_515e1071f3_o.jpg",
    "id_image": "Insect_743255",
    "count_view": 0
  },
  {
    "link_thumb": "https://live.staticflickr.com/65535/50020808131_950294c87b_n.jpg",
    "id_album": "822895535",
    "description": "Falcon_352599",
    "title": "Falcon_352599",
    "link_img": "https://live.staticflickr.com/65535/50020808131_fcf8cf6a99_o.jpg",
    "id_image": "Falcon_352599",
    "count_view": 0
  },
  {
    "link_thumb": "https://live.staticflickr.com/65535/50022697903_7ffcabb7b6_n.jpg",
    "id_album": "332874268",
    "description": "RedPanda_931360",
    "title": "RedPanda_931360",
    "link_img": "https://live.staticflickr.com/65535/50022697903_48d7646120_o.jpg",
    "id_image": "RedPanda_931360",
    "count_view": 0
  },
  {
    "link_thumb": "https://live.staticflickr.com/65535/50021401866_426e0a47a6_n.jpg",
    "id_album": "-1168906494",
    "description": "Grasshopper_44351",
    "title": "Grasshopper_44351",
    "link_img": "https://live.staticflickr.com/65535/50021401866_361b20c922_o.jpg",
    "id_image": "Grasshopper_44351",
    "count_view": 0
  },
  {
    "link_thumb": "https://live.staticflickr.com/65535/50023256547_403f729a59_n.jpg",
    "id_album": "-353898617",
    "description": "Puppy_443563",
    "title": "Puppy_443563",
    "link_img": "https://live.staticflickr.com/65535/50023256547_6ff5bf4ca7_o.jpg",
    "id_image": "Puppy_443563",
    "count_view": 0
  },
  {
    "link_thumb": "https://live.staticflickr.com/65535/50021541276_03952673ee_n.jpg",
    "id_album": "-1933715543",
    "description": "Horse_570515",
    "title": "Horse_570515",
    "link_img": "https://live.staticflickr.com/65535/50021541276_2a594c74d6_o.jpg",
    "id_image": "Horse_570515",
    "count_view": 0
  },
  {
    "link_thumb": "https://live.staticflickr.com/65535/50021219827_e615832827_n.jpg",
    "id_album": "-128218148",
    "description": "Fox_433741",
    "title": "Fox_433741",
    "link_img": "https://live.staticflickr.com/65535/50021219827_5fa1db6685_o.jpg",
    "id_image": "Fox_433741",
    "count_view": 0
  },
  {
    "link_thumb": "https://live.staticflickr.com/65535/50019890782_a24719b26f_n.jpg",
    "id_album": "-766919393",
    "description": "Chameleon_106441",
    "title": "Chameleon_106441",
    "link_img": "https://live.staticflickr.com/65535/50019890782_690cc84d85_o.jpg",
    "id_image": "Chameleon_106441",
    "count_view": 0
  },
  {
    "link_thumb": "https://live.staticflickr.com/65535/50352430986_791c8d7489_n.jpg",
    "id_album": "-462831703",
    "description": "Cat_222341",
    "title": "Cat_222341",
    "link_img": "https://live.staticflickr.com/65535/50352430986_ed32c74a68_o.jpg",
    "id_image": "Cat_222341",
    "count_view": 0
  },
  {
    "link_thumb": "https://live.staticflickr.com/65535/50017810911_206a7ee9e5_n.jpg",
    "id_album": "-462831705",
    "description": "Cat_173553",
    "title": "Cat_173553",
    "link_img": "https://live.staticflickr.com/65535/50017810911_7f5ed678de_o.jpg",
    "id_image": "Cat_173553",
    "count_view": 0
  },
  {
    "link_thumb": "https://live.staticflickr.com/65535/50022440298_5d70062053_n.jpg",
    "id_album": "-353898617",
    "description": "Puppy_377272",
    "title": "Puppy_377272",
    "link_img": "https://live.staticflickr.com/65535/50022440298_cdd93c690f_o.jpg",
    "id_image": "Puppy_377272",
    "count_view": 0
  },
  {
    "link_thumb": "https://live.staticflickr.com/65535/50017060393_43bbecf331_n.jpg",
    "id_album": "-401151552",
    "description": "Butterfly_409214",
    "title": "Butterfly_409214",
    "link_img": "https://live.staticflickr.com/65535/50017060393_39fd0d1021_o.jpg",
    "id_image": "Butterfly_409214",
    "count_view": 0
  },
  {
    "link_thumb": "https://live.staticflickr.com/65535/50021180957_2e9bd5d2a6_n.jpg",
    "id_album": "-1694105481",
    "description": "Fly_739214",
    "title": "Fly_739214",
    "link_img": "https://live.staticflickr.com/65535/50021180957_cd35088d10_o.jpg",
    "id_image": "Fly_739214",
    "count_view": 0
  },
  {
    "link_thumb": "https://live.staticflickr.com/65535/50018416777_4472e3b18c_n.jpg",
    "id_album": "-462831702",
    "description": "Cat_408367",
    "title": "Cat_408367",
    "link_img": "https://live.staticflickr.com/65535/50018416777_8bd1c936b6_o.jpg",
    "id_image": "Cat_408367",
    "count_view": 0
  },
  {
    "link_thumb": "https://live.staticflickr.com/65535/50021409636_710a98165e_n.jpg",
    "id_album": "82558972",
    "description": "GuineaPig_667922",
    "title": "GuineaPig_667922",
    "link_img": "https://live.staticflickr.com/65535/50021409636_f11344f5b7_o.jpg",
    "id_image": "GuineaPig_667922",
    "count_view": 0
  },
  {
    "link_thumb": "https://live.staticflickr.com/65535/50018906403_f0d0cc4580_n.jpg",
    "id_album": "-462831703",
    "description": "Cat_910891",
    "title": "Cat_910891",
    "link_img": "https://live.staticflickr.com/65535/50018906403_c66ce61ba8_o.jpg",
    "id_image": "Cat_910891",
    "count_view": 0
  },
  {
    "link_thumb": "https://live.staticflickr.com/65535/50017561893_6a80b6eed8_n.jpg",
    "id_album": "-462831702",
    "description": "Cat_369934",
    "title": "Cat_369934",
    "link_img": "https://live.staticflickr.com/65535/50017561893_bbf30824b6_o.jpg",
    "id_image": "Cat_369934",
    "count_view": 0
  },
  {
    "link_thumb": "https://live.staticflickr.com/65535/50020466113_982e83cfb2_n.jpg",
    "id_album": "-128218148",
    "description": "Fox_812601",
    "title": "Fox_812601",
    "link_img": "https://live.staticflickr.com/65535/50020466113_3af5f67e03_o.jpg",
    "id_image": "Fox_812601",
    "count_view": 0
  },
  {
    "link_thumb": "https://live.staticflickr.com/65535/50017591162_2e3e96e57e_n.jpg",
    "id_album": "-1846011410",
    "description": "Bird_432684",
    "title": "Bird_432684",
    "link_img": "https://live.staticflickr.com/65535/50017591162_3a8de01ea8_o.jpg",
    "id_image": "Bird_432684",
    "count_view": 0
  },
  {
    "link_thumb": "https://live.staticflickr.com/65535/50024779002_c079585bde_n.jpg",
    "id_album": "-709711865",
    "description": "Wolf_570026",
    "title": "Wolf_570026",
    "link_img": "https://live.staticflickr.com/65535/50024779002_bb8329ce8b_o.jpg",
    "id_image": "Wolf_570026",
    "count_view": 0
  },
  {
    "link_thumb": "https://live.staticflickr.com/65535/50020812366_cea30e3a4a_n.jpg",
    "id_album": "822895535",
    "description": "Falcon_425725",
    "title": "Falcon_425725",
    "link_img": "https://live.staticflickr.com/65535/50020812366_9fc3114dc0_o.jpg",
    "id_image": "Falcon_425725",
    "count_view": 0
  },
  {
    "link_thumb": "https://live.staticflickr.com/65535/50022964361_170b7e6dda_n.jpg",
    "id_album": "-353898617",
    "description": "Puppy_357644",
    "title": "Puppy_357644",
    "link_img": "https://live.staticflickr.com/65535/50022964361_38944d67d4_o.jpg",
    "id_image": "Puppy_357644",
    "count_view": 0
  },
  {
    "link_thumb": "https://live.staticflickr.com/65535/50022605883_6eaae015d7_n.jpg",
    "id_album": "248289288",
    "description": "Raccoon_452218",
    "title": "Raccoon_452218",
    "link_img": "https://live.staticflickr.com/65535/50022605883_dc3faa42c9_o.jpg",
    "id_image": "Raccoon_452218",
    "count_view": 0
  },
  {
    "link_thumb": "https://live.staticflickr.com/65535/50017636896_5c4418c263_n.jpg",
    "id_album": "-401151552",
    "description": "Butterfly_609921",
    "title": "Butterfly_609921",
    "link_img": "https://live.staticflickr.com/65535/50017636896_74e1f737f4_o.jpg",
    "id_image": "Butterfly_609921",
    "count_view": 0
  },
  {
    "link_thumb": "https://live.staticflickr.com/65535/50022055462_b75daea02c_n.jpg",
    "id_album": "770105808",
    "description": "Kingfisher_419567",
    "title": "Kingfisher_419567",
    "link_img": "https://live.staticflickr.com/65535/50022055462_291109b382_o.jpg",
    "id_image": "Kingfisher_419567",
    "count_view": 0
  },
  {
    "link_thumb": "https://live.staticflickr.com/65535/50024078771_7491221e04_n.jpg",
    "id_album": "405170427",
    "description": "Tiger_359002",
    "title": "Tiger_359002",
    "link_img": "https://live.staticflickr.com/65535/50024078771_67bb95e1b5_o.jpg",
    "id_image": "Tiger_359002",
    "count_view": 0
  },
  {
    "link_thumb": "https://live.staticflickr.com/65535/50016971506_5dc8846cdf_n.jpg",
    "id_album": "231236068",
    "description": "BaldEagle_900268",
    "title": "BaldEagle_900268",
    "link_img": "https://live.staticflickr.com/65535/50016971506_b8ce5a8fb0_o.jpg",
    "id_image": "BaldEagle_900268",
    "count_view": 0
  },
  {
    "link_thumb": "https://live.staticflickr.com/65535/50020491838_01c246efc7_n.jpg",
    "id_album": "-128218148",
    "description": "Fox_986101",
    "title": "Fox_986101",
    "link_img": "https://live.staticflickr.com/65535/50020491838_4d864a7f89_o.jpg",
    "id_image": "Fox_986101",
    "count_view": 0
  },
  {
    "link_thumb": "https://live.staticflickr.com/65535/50020647513_515e787ebf_n.jpg",
    "id_album": "-462831704",
    "description": "Cat_708292",
    "title": "Cat_708292",
    "link_img": "https://live.staticflickr.com/65535/50020647513_56b1df95ac_o.jpg",
    "id_image": "Cat_708292",
    "count_view": 0
  },
  {
    "link_thumb": "https://live.staticflickr.com/65535/50019993102_48c262bdc6_n.jpg",
    "id_album": "-1481843714",
    "description": "Cheetah_939042",
    "title": "Cheetah_939042",
    "link_img": "https://live.staticflickr.com/65535/50019993102_d831f1bb5d_o.jpg",
    "id_image": "Cheetah_939042",
    "count_view": 0
  },
  {
    "link_thumb": "https://live.staticflickr.com/65535/50016919141_c49772f8b2_n.jpg",
    "id_album": "523598895",
    "description": "Artistic_826389",
    "title": "Artistic_826389",
    "link_img": "https://live.staticflickr.com/65535/50016919141_f7baec0b15_o.jpg",
    "id_image": "Artistic_826389",
    "count_view": 0
  },
  {
    "link_thumb": "https://live.staticflickr.com/65535/50018307262_b30ec0c23e_n.jpg",
    "id_album": "-462831702",
    "description": "Cat_357962",
    "title": "Cat_357962",
    "link_img": "https://live.staticflickr.com/65535/50018307262_1d05bce92b_o.jpg",
    "id_image": "Cat_357962",
    "count_view": 0
  },
  {
    "link_thumb": "https://live.staticflickr.com/65535/50352425371_b7a9274c28_n.jpg",
    "id_album": "-462831703",
    "description": "Cat_208444",
    "title": "Cat_208444",
    "link_img": "https://live.staticflickr.com/65535/50352425371_2e22cdba71_o.jpg",
    "id_image": "Cat_208444",
    "count_view": 0
  },
  {
    "link_thumb": "https://live.staticflickr.com/65535/50018667468_943d326d7f_n.jpg",
    "id_album": "-462831704",
    "description": "Cat_436626",
    "title": "Cat_436626",
    "link_img": "https://live.staticflickr.com/65535/50018667468_82806aba41_o.jpg",
    "id_image": "Cat_436626",
    "count_view": 0
  },
  {
    "link_thumb": "https://live.staticflickr.com/65535/50019561682_83df23c09f_n.jpg",
    "id_album": "-462831704",
    "description": "Cat_534583",
    "title": "Cat_534583",
    "link_img": "https://live.staticflickr.com/65535/50019561682_bdc3e04f83_o.jpg",
    "id_image": "Cat_534583",
    "count_view": 0
  },
  {
    "link_thumb": "https://live.staticflickr.com/65535/50019917808_9e5d3263db_n.jpg",
    "id_album": "-149330231",
    "description": "Dog_524400",
    "title": "Dog_524400",
    "link_img": "https://live.staticflickr.com/65535/50019917808_3fcf108982_o.jpg",
    "id_image": "Dog_524400",
    "count_view": 0
  },
  {
    "link_thumb": "https://live.staticflickr.com/65535/50021598487_f151d2a482_n.jpg",
    "id_album": "-804131074",
    "description": "Goat_724722",
    "title": "Goat_724722",
    "link_img": "https://live.staticflickr.com/65535/50021598487_5f79634eec_o.jpg",
    "id_image": "Goat_724722",
    "count_view": 0
  },
  {
    "link_thumb": "https://live.staticflickr.com/65535/50018094127_014f086a9f_n.jpg",
    "id_album": "-462831705",
    "description": "Cat_188553",
    "title": "Cat_188553",
    "link_img": "https://live.staticflickr.com/65535/50018094127_8973cafcee_o.jpg",
    "id_image": "Cat_188553",
    "count_view": 0
  },
  {
    "link_thumb": "https://live.staticflickr.com/65535/50020926162_698652ab14_n.jpg",
    "id_album": "1168627767",
    "description": "Duck_725470",
    "title": "Duck_725470",
    "link_img": "https://live.staticflickr.com/65535/50020926162_c5bb1858b4_o.jpg",
    "id_image": "Duck_725470",
    "count_view": 0
  },
  {
    "link_thumb": "https://live.staticflickr.com/65535/50019963833_1dbae1cc1a_n.jpg",
    "id_album": "-149330231",
    "description": "Dog_727485",
    "title": "Dog_727485",
    "link_img": "https://live.staticflickr.com/65535/50019963833_25a1356d36_o.jpg",
    "id_image": "Dog_727485",
    "count_view": 0
  },
  {
    "link_thumb": "https://live.staticflickr.com/65535/50021924932_a419c7c565_n.jpg",
    "id_album": "1658866795",
    "description": "Insect_393092",
    "title": "Insect_393092",
    "link_img": "https://live.staticflickr.com/65535/50021924932_15edb4a104_o.jpg",
    "id_image": "Insect_393092",
    "count_view": 0
  },
  {
    "link_thumb": "https://live.staticflickr.com/65535/50021333771_f80b4ffd7f_n.jpg",
    "id_album": "713572662",
    "description": "Giraffe_841091",
    "title": "Giraffe_841091",
    "link_img": "https://live.staticflickr.com/65535/50021333771_321b9e7b37_o.jpg",
    "id_image": "Giraffe_841091",
    "count_view": 0
  },
  {
    "link_thumb": "https://live.staticflickr.com/65535/50018026832_6b25f06bc6_n.jpg",
    "id_album": "-462831705",
    "description": "Cat_117108",
    "title": "Cat_117108",
    "link_img": "https://live.staticflickr.com/65535/50018026832_8f1173897d_o.jpg",
    "id_image": "Cat_117108",
    "count_view": 0
  },
  {
    "link_thumb": "https://live.staticflickr.com/65535/50023467697_88f984f435_n.jpg",
    "id_album": "332874268",
    "description": "RedPanda_402858",
    "title": "RedPanda_402858",
    "link_img": "https://live.staticflickr.com/65535/50023467697_4c3ff461f3_o.jpg",
    "id_image": "RedPanda_402858",
    "count_view": 0
  },
  {
    "link_thumb": "https://live.staticflickr.com/65535/50020680761_22585d3c8c_n.jpg",
    "id_album": "-39098563",
    "description": "Eagle_124146",
    "title": "Eagle_124146",
    "link_img": "https://live.staticflickr.com/65535/50020680761_0f1859f584_o.jpg",
    "id_image": "Eagle_124146",
    "count_view": 0
  },
  {
    "link_thumb": "https://live.staticflickr.com/65535/50022435332_c40060673e_n.jpg",
    "id_album": "-1173056085",
    "description": "Macaw_343851",
    "title": "Macaw_343851",
    "link_img": "https://live.staticflickr.com/65535/50022435332_42e799ef6a_o.jpg",
    "id_image": "Macaw_343851",
    "count_view": 0
  },
  {
    "link_thumb": "https://live.staticflickr.com/65535/50017055051_e5f86805e1_n.jpg",
    "id_album": "-422187261",
    "description": "Bear_535345",
    "title": "Bear_535345",
    "link_img": "https://live.staticflickr.com/65535/50017055051_7941286de7_o.jpg",
    "id_image": "Bear_535345",
    "count_view": 0
  },
  {
    "link_thumb": "https://live.staticflickr.com/65535/50020513328_88dd75d05d_n.jpg",
    "id_album": "844170697",
    "description": "Frog_334564",
    "title": "Frog_334564",
    "link_img": "https://live.staticflickr.com/65535/50020513328_93109d7dde_o.jpg",
    "id_image": "Frog_334564",
    "count_view": 0
  },
  {
    "link_thumb": "https://live.staticflickr.com/65535/50018722198_58ae5d4a63_n.jpg",
    "id_album": "-462831704",
    "description": "Cat_488655",
    "title": "Cat_488655",
    "link_img": "https://live.staticflickr.com/65535/50018722198_2224c66043_o.jpg",
    "id_image": "Cat_488655",
    "count_view": 0
  },
  {
    "link_thumb": "https://live.staticflickr.com/65535/50019761667_cbd752c702_n.jpg",
    "id_album": "-462831705",
    "description": "Cat_94349",
    "title": "Cat_94349",
    "link_img": "https://live.staticflickr.com/65535/50019761667_ac52594caa_o.jpg",
    "id_image": "Cat_94349",
    "count_view": 0
  },
  {
    "link_thumb": "https://live.staticflickr.com/65535/50020779913_7ac22ca80c_n.jpg",
    "id_album": "713572662",
    "description": "Giraffe_361545",
    "title": "Giraffe_361545",
    "link_img": "https://live.staticflickr.com/65535/50020779913_95e4d0b68d_o.jpg",
    "id_image": "Giraffe_361545",
    "count_view": 0
  },
  {
    "link_thumb": "https://live.staticflickr.com/65535/50019585426_a50a64804d_n.jpg",
    "id_album": "-1930903528",
    "description": "CatDog_735590",
    "title": "CatDog_735590",
    "link_img": "https://live.staticflickr.com/65535/50019585426_94c451674f_o.jpg",
    "id_image": "CatDog_735590",
    "count_view": 0
  },
  {
    "link_thumb": "https://live.staticflickr.com/65535/50020876508_b14ebd0ef4_n.jpg",
    "id_album": "-1513987841",
    "description": "Hawk_277987",
    "title": "Hawk_277987",
    "link_img": "https://live.staticflickr.com/65535/50020876508_a92a27ef70_o.jpg",
    "id_image": "Hawk_277987",
    "count_view": 0
  },
  {
    "link_thumb": "https://live.staticflickr.com/65535/50020635246_6c09e958d5_n.jpg",
    "id_album": "-405058657",
    "description": "Dragonfly_680685",
    "title": "Dragonfly_680685",
    "link_img": "https://live.staticflickr.com/65535/50020635246_cdfeefffd4_o.jpg",
    "id_image": "Dragonfly_680685",
    "count_view": 0
  },
  {
    "link_thumb": "https://live.staticflickr.com/65535/50021003171_8b43b4e73f_n.jpg",
    "id_album": "-128218148",
    "description": "Fox_776539",
    "title": "Fox_776539",
    "link_img": "https://live.staticflickr.com/65535/50021003171_dcf8ef9018_o.jpg",
    "id_image": "Fox_776539",
    "count_view": 0
  },
  {
    "link_thumb": "https://live.staticflickr.com/65535/50352660826_834999963e_n.jpg",
    "id_album": "-462831703",
    "description": "Cat_734404",
    "title": "Cat_734404",
    "link_img": "https://live.staticflickr.com/65535/50352660826_69748a96df_o.jpg",
    "id_image": "Cat_734404",
    "count_view": 0
  },
  {
    "link_thumb": "https://live.staticflickr.com/65535/50017294973_e21bbc0a3c_n.jpg",
    "id_album": "-462831705",
    "description": "Cat_181062",
    "title": "Cat_181062",
    "link_img": "https://live.staticflickr.com/65535/50017294973_9a0193e872_o.jpg",
    "id_image": "Cat_181062",
    "count_view": 0
  },
  {
    "link_thumb": "https://live.staticflickr.com/65535/50018374137_43a1695991_n.jpg",
    "id_album": "-462831702",
    "description": "Cat_383861",
    "title": "Cat_383861",
    "link_img": "https://live.staticflickr.com/65535/50018374137_7902141f4c_o.jpg",
    "id_image": "Cat_383861",
    "count_view": 0
  },
  {
    "link_thumb": "https://live.staticflickr.com/65535/50019428962_3e38f37deb_n.jpg",
    "id_album": "-462831702",
    "description": "Cat_426100",
    "title": "Cat_426100",
    "link_img": "https://live.staticflickr.com/65535/50019428962_43ea6c703d_o.jpg",
    "id_image": "Cat_426100",
    "count_view": 0
  },
  {
    "link_thumb": "https://live.staticflickr.com/65535/50022368286_732292deaa_n.jpg",
    "id_album": "106807275",
    "description": "Otter_686481",
    "title": "Otter_686481",
    "link_img": "https://live.staticflickr.com/65535/50022368286_c6e444c285_o.jpg",
    "id_image": "Otter_686481",
    "count_view": 0
  },
  {
    "link_thumb": "https://live.staticflickr.com/65535/50352564122_9491812e85_n.jpg",
    "id_album": "-462831703",
    "description": "Cat_169843",
    "title": "Cat_169843",
    "link_img": "https://live.staticflickr.com/65535/50352564122_39cd4290a3_o.jpg",
    "id_image": "Cat_169843",
    "count_view": 0
  },
  {
    "link_thumb": "https://live.staticflickr.com/65535/50017248607_9146624a24_n.jpg",
    "id_album": "809937717",
    "description": "Beagle_438682",
    "title": "Beagle_438682",
    "link_img": "https://live.staticflickr.com/65535/50017248607_e574e9dea2_o.jpg",
    "id_image": "Beagle_438682",
    "count_view": 0
  },
  {
    "link_thumb": "https://live.staticflickr.com/65535/50019686573_8a592fe1d3_n.jpg",
    "id_album": "-149330232",
    "description": "Dog_277717",
    "title": "Dog_277717",
    "link_img": "https://live.staticflickr.com/65535/50019686573_28ea3bfe33_o.jpg",
    "id_image": "Dog_277717",
    "count_view": 0
  },
  {
    "link_thumb": "https://live.staticflickr.com/65535/50024289416_28c75f08af_n.jpg",
    "id_album": "-1103743486",
    "description": "Toucan_986594",
    "title": "Toucan_986594",
    "link_img": "https://live.staticflickr.com/65535/50024289416_ee33b59591_o.jpg",
    "id_image": "Toucan_986594",
    "count_view": 0
  },
  {
    "link_thumb": "https://live.staticflickr.com/65535/50018730213_4ed3252808_n.jpg",
    "id_album": "-462831704",
    "description": "Cat_499041",
    "title": "Cat_499041",
    "link_img": "https://live.staticflickr.com/65535/50018730213_e0373fbf96_o.jpg",
    "id_image": "Cat_499041",
    "count_view": 0
  },
  {
    "link_thumb": "https://live.staticflickr.com/65535/50023159696_6335751aa6_n.jpg",
    "id_album": "248289288",
    "description": "Raccoon_711401",
    "title": "Raccoon_711401",
    "link_img": "https://live.staticflickr.com/65535/50023159696_91e26c655a_o.jpg",
    "id_image": "Raccoon_711401",
    "count_view": 0
  },
  {
    "link_thumb": "https://live.staticflickr.com/65535/50022520348_eaff2bb3b7_n.jpg",
    "id_album": "-353898617",
    "description": "Puppy_805259",
    "title": "Puppy_805259",
    "link_img": "https://live.staticflickr.com/65535/50022520348_9b81bccb59_o.jpg",
    "id_image": "Puppy_805259",
    "count_view": 0
  },
  {
    "link_thumb": "https://live.staticflickr.com/65535/50018169672_3dab1f02c9_n.jpg",
    "id_album": "-462831705",
    "description": "Cat_258352",
    "title": "Cat_258352",
    "link_img": "https://live.staticflickr.com/65535/50018169672_541c2e4f2c_o.jpg",
    "id_image": "Cat_258352",
    "count_view": 0
  },
  {
    "link_thumb": "https://live.staticflickr.com/65535/50016422228_30b2629208_n.jpg",
    "id_album": "390697200",
    "description": "AustralianShepherd_931574",
    "title": "AustralianShepherd_931574",
    "link_img": "https://live.staticflickr.com/65535/50016422228_d1ffea5b74_o.jpg",
    "id_image": "AustralianShepherd_931574",
    "count_view": 0
  },
  {
    "link_thumb": "https://live.staticflickr.com/65535/50017505221_c22ee974f2_n.jpg",
    "id_album": "782930701",
    "description": "BorderCollie_876143",
    "title": "BorderCollie_876143",
    "link_img": "https://live.staticflickr.com/65535/50017505221_2be93fec47_o.jpg",
    "id_image": "BorderCollie_876143",
    "count_view": 0
  },
  {
    "link_thumb": "https://live.staticflickr.com/65535/50021946686_21ca1e659a_n.jpg",
    "id_album": "1392348450",
    "description": "Leopard_729334",
    "title": "Leopard_729334",
    "link_img": "https://live.staticflickr.com/65535/50021946686_9d4c7b06d3_o.jpg",
    "id_image": "Leopard_729334",
    "count_view": 0
  },
  {
    "link_thumb": "https://live.staticflickr.com/65535/50020253442_ed1e809edd_n.jpg",
    "id_album": "1903411565",
    "description": "Deer_349790",
    "title": "Deer_349790",
    "link_img": "https://live.staticflickr.com/65535/50020253442_c1c7611d12_o.jpg",
    "id_image": "Deer_349790",
    "count_view": 0
  },
  {
    "link_thumb": "https://live.staticflickr.com/65535/50023168591_07abc74a4e_n.jpg",
    "id_album": "248289288",
    "description": "Raccoon_975054",
    "title": "Raccoon_975054",
    "link_img": "https://live.staticflickr.com/65535/50023168591_1db53e9efa_o.jpg",
    "id_image": "Raccoon_975054",
    "count_view": 0
  },
  {
    "link_thumb": "https://live.staticflickr.com/65535/50017917217_d5891c78cd_n.jpg",
    "id_album": "-401151552",
    "description": "Butterfly_728899",
    "title": "Butterfly_728899",
    "link_img": "https://live.staticflickr.com/65535/50017917217_74f27de045_o.jpg",
    "id_image": "Butterfly_728899",
    "count_view": 0
  },
  {
    "link_thumb": "https://live.staticflickr.com/65535/50019412796_55f8865f6c_n.jpg",
    "id_album": "-462831703",
    "description": "Cat_899924",
    "title": "Cat_899924",
    "link_img": "https://live.staticflickr.com/65535/50019412796_ef37b52567_o.jpg",
    "id_image": "Cat_899924",
    "count_view": 0
  },
  {
    "link_thumb": "https://live.staticflickr.com/65535/50021859051_85221f09c6_n.jpg",
    "id_album": "-1882491687",
    "description": "Ladybug_67621",
    "title": "Ladybug_67621",
    "link_img": "https://live.staticflickr.com/65535/50021859051_280ca3bdce_o.jpg",
    "id_image": "Ladybug_67621",
    "count_view": 0
  },
  {
    "link_thumb": "https://live.staticflickr.com/65535/50023417877_02ddbb1ec7_n.jpg",
    "id_album": "248289288",
    "description": "Raccoon_747951",
    "title": "Raccoon_747951",
    "link_img": "https://live.staticflickr.com/65535/50023417877_4a9e54e861_o.jpg",
    "id_image": "Raccoon_747951",
    "count_view": 0
  },
  {
    "link_thumb": "https://live.staticflickr.com/65535/50018889653_07fc014df3_n.jpg",
    "id_album": "-462831703",
    "description": "Cat_902324",
    "title": "Cat_902324",
    "link_img": "https://live.staticflickr.com/65535/50018889653_e904d174ed_o.jpg",
    "id_image": "Cat_902324",
    "count_view": 0
  },
  {
    "link_thumb": "https://live.staticflickr.com/65535/50021836741_b303c6b9c0_n.jpg",
    "id_album": "1307335982",
    "description": "LabradorRetriever_911913",
    "title": "LabradorRetriever_911913",
    "link_img": "https://live.staticflickr.com/65535/50021836741_6e3d669d7a_o.jpg",
    "id_image": "LabradorRetriever_911913",
    "count_view": 0
  },
  {
    "link_thumb": "https://live.staticflickr.com/65535/50021850501_703c83a080_n.jpg",
    "id_album": "-1882491687",
    "description": "Ladybug_429295",
    "title": "Ladybug_429295",
    "link_img": "https://live.staticflickr.com/65535/50021850501_93d68d07b7_o.jpg",
    "id_image": "Ladybug_429295",
    "count_view": 0
  },
  {
    "link_thumb": "https://live.staticflickr.com/65535/50019422547_c9a81f8fa5_n.jpg",
    "id_album": "-462831702",
    "description": "Cat_424044",
    "title": "Cat_424044",
    "link_img": "https://live.staticflickr.com/65535/50019422547_71373495b0_o.jpg",
    "id_image": "Cat_424044",
    "count_view": 0
  },
  {
    "link_thumb": "https://live.staticflickr.com/65535/50022158651_5cf4027a76_n.jpg",
    "id_album": "1894617400",
    "description": "Lynx_743375",
    "title": "Lynx_743375",
    "link_img": "https://live.staticflickr.com/65535/50022158651_2a950206bc_o.jpg",
    "id_image": "Lynx_743375",
    "count_view": 0
  },
  {
    "link_thumb": "https://live.staticflickr.com/65535/50021943876_d31fbd8306_n.jpg",
    "id_album": "1392348450",
    "description": "Leopard_690248",
    "title": "Leopard_690248",
    "link_img": "https://live.staticflickr.com/65535/50021943876_bddc65a2cb_o.jpg",
    "id_image": "Leopard_690248",
    "count_view": 0
  },
  {
    "link_thumb": "https://live.staticflickr.com/65535/50021215052_00ffc2acd3_n.jpg",
    "id_album": "-128218148",
    "description": "Fox_406005",
    "title": "Fox_406005",
    "link_img": "https://live.staticflickr.com/65535/50021215052_049ec52b9d_o.jpg",
    "id_image": "Fox_406005",
    "count_view": 0
  },
  {
    "link_thumb": "https://live.staticflickr.com/65535/50017983922_cf8f56c209_n.jpg",
    "id_album": "-1131161368",
    "description": "Camel_106463",
    "title": "Camel_106463",
    "link_img": "https://live.staticflickr.com/65535/50017983922_662528dc6a_o.jpg",
    "id_image": "Camel_106463",
    "count_view": 0
  },
  {
    "link_thumb": "https://live.staticflickr.com/65535/50017819096_e133783a3c_n.jpg",
    "id_album": "-462831705",
    "description": "Cat_181035",
    "title": "Cat_181035",
    "link_img": "https://live.staticflickr.com/65535/50017819096_f344a9bd22_o.jpg",
    "id_image": "Cat_181035",
    "count_view": 0
  },
  {
    "link_thumb": "https://live.staticflickr.com/65535/50020319582_38acc48d49_n.jpg",
    "id_album": "1903411565",
    "description": "Deer_882828",
    "title": "Deer_882828",
    "link_img": "https://live.staticflickr.com/65535/50020319582_d181aae9c8_o.jpg",
    "id_image": "Deer_882828",
    "count_view": 0
  },
  {
    "link_thumb": "https://live.staticflickr.com/65535/50016859091_597af95dab_n.jpg",
    "id_album": "523598895",
    "description": "Artistic_108418",
    "title": "Artistic_108418",
    "link_img": "https://live.staticflickr.com/65535/50016859091_f5f82506a3_o.jpg",
    "id_image": "Artistic_108418",
    "count_view": 0
  },
  {
    "link_thumb": "https://live.staticflickr.com/65535/50352726252_1f42edc89f_n.jpg",
    "id_album": "-462831703",
    "description": "Cat_494307",
    "title": "Cat_494307",
    "link_img": "https://live.staticflickr.com/65535/50352726252_3eee56ebb9_o.jpg",
    "id_image": "Cat_494307",
    "count_view": 0
  },
  {
    "link_thumb": "https://live.staticflickr.com/65535/50019956457_14508db00e_n.jpg",
    "id_album": "-1481843714",
    "description": "Cheetah_380037",
    "title": "Cheetah_380037",
    "link_img": "https://live.staticflickr.com/65535/50019956457_bdce435739_o.jpg",
    "id_image": "Cheetah_380037",
    "count_view": 0
  },
  {
    "link_thumb": "https://live.staticflickr.com/65535/50021936512_097ea85283_n.jpg",
    "id_album": "1658866795",
    "description": "Insect_403941",
    "title": "Insect_403941",
    "link_img": "https://live.staticflickr.com/65535/50021936512_dc3956edf1_o.jpg",
    "id_image": "Insect_403941",
    "count_view": 0
  },
  {
    "link_thumb": "https://live.staticflickr.com/65535/50023485241_966b34791b_n.jpg",
    "id_album": "-755466332",
    "description": "Sheep_582924",
    "title": "Sheep_582924",
    "link_img": "https://live.staticflickr.com/65535/50023485241_9d7a60754c_o.jpg",
    "id_image": "Sheep_582924",
    "count_view": 0
  },
  {
    "link_thumb": "https://live.staticflickr.com/65535/50019289591_b8e93d36e5_n.jpg",
    "id_album": "-462831704",
    "description": "Cat_526347",
    "title": "Cat_526347",
    "link_img": "https://live.staticflickr.com/65535/50019289591_2805668f7a_o.jpg",
    "id_image": "Cat_526347",
    "count_view": 0
  },
  {
    "link_thumb": "https://live.staticflickr.com/65535/50017429801_57ebb2fbde_n.jpg",
    "id_album": "-1846011410",
    "description": "Bird_825541",
    "title": "Bird_825541",
    "link_img": "https://live.staticflickr.com/65535/50017429801_72e15bc143_o.jpg",
    "id_image": "Bird_825541",
    "count_view": 0
  },
  {
    "link_thumb": "https://live.staticflickr.com/65535/50020575002_5779fc4ffc_n.jpg",
    "id_album": "-149330232",
    "description": "Dog_359730",
    "title": "Dog_359730",
    "link_img": "https://live.staticflickr.com/65535/50020575002_01541ddbe5_o.jpg",
    "id_image": "Dog_359730",
    "count_view": 0
  },
  {
    "link_thumb": "https://live.staticflickr.com/65535/50017104722_0e6ec0f4b8_n.jpg",
    "id_album": "-834314226",
    "description": "ArcticFox_384258",
    "title": "ArcticFox_384258",
    "link_img": "https://live.staticflickr.com/65535/50017104722_8089e97993_o.jpg",
    "id_image": "ArcticFox_384258",
    "count_view": 0
  },
  {
    "link_thumb": "https://live.staticflickr.com/65535/50017350491_74cb30b508_n.jpg",
    "id_album": "-1846011410",
    "description": "Bird_48643",
    "title": "Bird_48643",
    "link_img": "https://live.staticflickr.com/65535/50017350491_856847fb64_o.jpg",
    "id_image": "Bird_48643",
    "count_view": 0
  },
  {
    "link_thumb": "https://live.staticflickr.com/65535/50017929926_30e0a29b68_n.jpg",
    "id_album": "-462831702",
    "description": "Cat_275318",
    "title": "Cat_275318",
    "link_img": "https://live.staticflickr.com/65535/50017929926_5e55ca23d6_o.jpg",
    "id_image": "Cat_275318",
    "count_view": 0
  },
  {
    "link_thumb": "https://live.staticflickr.com/65535/50020561101_c3e1917f30_n.jpg",
    "id_album": "-54509188",
    "description": "Dolphin_172389",
    "title": "Dolphin_172389",
    "link_img": "https://live.staticflickr.com/65535/50020561101_b63b717426_o.jpg",
    "id_image": "Dolphin_172389",
    "count_view": 0
  },
  {
    "link_thumb": "https://live.staticflickr.com/65535/50020831602_bbeb8e09c1_n.jpg",
    "id_album": "-54509188",
    "description": "Dolphin_433600",
    "title": "Dolphin_433600",
    "link_img": "https://live.staticflickr.com/65535/50020831602_57ac9f0df0_o.jpg",
    "id_image": "Dolphin_433600",
    "count_view": 0
  },
  {
    "link_thumb": "https://live.staticflickr.com/65535/50017930707_bd9a7479f6_n.jpg",
    "id_album": "-401151552",
    "description": "Butterfly_793384",
    "title": "Butterfly_793384",
    "link_img": "https://live.staticflickr.com/65535/50017930707_87241c52b6_o.jpg",
    "id_image": "Butterfly_793384",
    "count_view": 0
  },
  {
    "link_thumb": "https://live.staticflickr.com/65535/50018015221_b4c83bea11_n.jpg",
    "id_album": "-462831702",
    "description": "Cat_342714",
    "title": "Cat_342714",
    "link_img": "https://live.staticflickr.com/65535/50018015221_f8a659146d_o.jpg",
    "id_image": "Cat_342714",
    "count_view": 0
  },
  {
    "link_thumb": "https://live.staticflickr.com/65535/50022568337_fafdd26fe6_n.jpg",
    "id_album": "1015034486",
    "description": "Muteswan_325475",
    "title": "Muteswan_325475",
    "link_img": "https://live.staticflickr.com/65535/50022568337_ffed058bb8_o.jpg",
    "id_image": "Muteswan_325475",
    "count_view": 0
  },
  {
    "link_thumb": "https://live.staticflickr.com/65535/50023641417_634488329e_n.jpg",
    "id_album": "1656131695",
    "description": "Seagull_677246",
    "title": "Seagull_677246",
    "link_img": "https://live.staticflickr.com/65535/50023641417_3bed55d134_o.jpg",
    "id_image": "Seagull_677246",
    "count_view": 0
  },
  {
    "link_thumb": "https://live.staticflickr.com/65535/50017996352_d459b8e34d_n.jpg",
    "id_album": "189994021",
    "description": "Cardinal_678096",
    "title": "Cardinal_678096",
    "link_img": "https://live.staticflickr.com/65535/50017996352_179d9648bf_o.jpg",
    "id_image": "Cardinal_678096",
    "count_view": 0
  },
  {
    "link_thumb": "https://live.staticflickr.com/65535/50352702721_9d51cc9293_n.jpg",
    "id_album": "-462831702",
    "description": "Cat_4547",
    "title": "Cat_4547",
    "link_img": "https://live.staticflickr.com/65535/50352702721_60bc229d64_o.jpg",
    "id_image": "Cat_4547",
    "count_view": 0
  },
  {
    "link_thumb": "https://live.staticflickr.com/65535/50017986262_5f27eac250_n.jpg",
    "id_album": "-1131161368",
    "description": "Camel_353355",
    "title": "Camel_353355",
    "link_img": "https://live.staticflickr.com/65535/50017986262_4a1cf0188d_o.jpg",
    "id_image": "Camel_353355",
    "count_view": 0
  },
  {
    "link_thumb": "https://live.staticflickr.com/65535/50022166216_fde3e9b8e0_n.jpg",
    "id_album": "1894617400",
    "description": "Lynx_902175",
    "title": "Lynx_902175",
    "link_img": "https://live.staticflickr.com/65535/50022166216_08f9644597_o.jpg",
    "id_image": "Lynx_902175",
    "count_view": 0
  },
  {
    "link_thumb": "https://live.staticflickr.com/65535/50021306666_64e772643a_n.jpg",
    "id_album": "-405626519",
    "description": "GermanShepherd_876948",
    "title": "GermanShepherd_876948",
    "link_img": "https://live.staticflickr.com/65535/50021306666_2683ec5533_o.jpg",
    "id_image": "GermanShepherd_876948",
    "count_view": 0
  },
  {
    "link_thumb": "https://live.staticflickr.com/65535/50017481847_f93dd5f254_n.jpg",
    "id_album": "-1846011410",
    "description": "Bird_260635",
    "title": "Bird_260635",
    "link_img": "https://live.staticflickr.com/65535/50017481847_ac9e43d583_o.jpg",
    "id_image": "Bird_260635",
    "count_view": 0
  },
  {
    "link_thumb": "https://live.staticflickr.com/65535/50022688872_a03028363d_n.jpg",
    "id_album": "-1384601601",
    "description": "Owl_440758",
    "title": "Owl_440758",
    "link_img": "https://live.staticflickr.com/65535/50022688872_49a9cda447_o.jpg",
    "id_image": "Owl_440758",
    "count_view": 0
  },
  {
    "link_thumb": "https://live.staticflickr.com/65535/50016913028_b882682785_n.jpg",
    "id_album": "-1846011410",
    "description": "Bird_900331",
    "title": "Bird_900331",
    "link_img": "https://live.staticflickr.com/65535/50016913028_657cd86011_o.jpg",
    "id_image": "Bird_900331",
    "count_view": 0
  },
  {
    "link_thumb": "https://live.staticflickr.com/65535/50017426043_646592b120_n.jpg",
    "id_album": "-462831702",
    "description": "Cat_310024",
    "title": "Cat_310024",
    "link_img": "https://live.staticflickr.com/65535/50017426043_caed2e1190_o.jpg",
    "id_image": "Cat_310024",
    "count_view": 0
  },
  {
    "link_thumb": "https://live.staticflickr.com/65535/50024119986_58aa9d6de3_n.jpg",
    "id_album": "405170427",
    "description": "Tiger_406916",
    "title": "Tiger_406916",
    "link_img": "https://live.staticflickr.com/65535/50024119986_6aa27645ec_o.jpg",
    "id_image": "Tiger_406916",
    "count_view": 0
  },
  {
    "link_thumb": "https://live.staticflickr.com/65535/50020607498_1803e1c320_n.jpg",
    "id_album": "-462831704",
    "description": "Cat_650924",
    "title": "Cat_650924",
    "link_img": "https://live.staticflickr.com/65535/50020607498_8a6982045e_o.jpg",
    "id_image": "Cat_650924",
    "count_view": 0
  },
  {
    "link_thumb": "https://live.staticflickr.com/65535/50020761022_77e7ea414c_n.jpg",
    "id_album": "-149330231",
    "description": "Dog_745214",
    "title": "Dog_745214",
    "link_img": "https://live.staticflickr.com/65535/50020761022_229411cd54_o.jpg",
    "id_image": "Dog_745214",
    "count_view": 0
  },
  {
    "link_thumb": "https://live.staticflickr.com/65535/50017523817_ac833467eb_n.jpg",
    "id_album": "-1846011410",
    "description": "Bird_350848",
    "title": "Bird_350848",
    "link_img": "https://live.staticflickr.com/65535/50017523817_a60d021dc6_o.jpg",
    "id_image": "Bird_350848",
    "count_view": 0
  },
  {
    "link_thumb": "https://live.staticflickr.com/65535/50022044632_30cf78a150_n.jpg",
    "id_album": "1562047127",
    "description": "Jellyfish_969355",
    "title": "Jellyfish_969355",
    "link_img": "https://live.staticflickr.com/65535/50022044632_6db393ca9b_o.jpg",
    "id_image": "Jellyfish_969355",
    "count_view": 0
  },
  {
    "link_thumb": "https://live.staticflickr.com/65535/50020075747_ba95d23bcf_n.jpg",
    "id_album": "-1868680171",
    "description": "Cougar_443178",
    "title": "Cougar_443178",
    "link_img": "https://live.staticflickr.com/65535/50020075747_795686df58_o.jpg",
    "id_image": "Cougar_443178",
    "count_view": 0
  },
  {
    "link_thumb": "https://live.staticflickr.com/65535/50019845348_90c0abea81_n.jpg",
    "id_album": "-149330231",
    "description": "Dog_404281",
    "title": "Dog_404281",
    "link_img": "https://live.staticflickr.com/65535/50019845348_9f78604592_o.jpg",
    "id_image": "Dog_404281",
    "count_view": 0
  },
  {
    "link_thumb": "https://live.staticflickr.com/65535/50020241333_03b452438c_n.jpg",
    "id_album": "1270947998",
    "description": "Elephant_637149",
    "title": "Elephant_637149",
    "link_img": "https://live.staticflickr.com/65535/50020241333_6095317ba1_o.jpg",
    "id_image": "Elephant_637149",
    "count_view": 0
  },
  {
    "link_thumb": "https://live.staticflickr.com/65535/50017467177_c14a704185_n.jpg",
    "id_album": "-1846011410",
    "description": "Bird_185461",
    "title": "Bird_185461",
    "link_img": "https://live.staticflickr.com/65535/50017467177_0f18aeb2da_o.jpg",
    "id_image": "Bird_185461",
    "count_view": 0
  },
  {
    "link_thumb": "https://live.staticflickr.com/65535/50021281421_6c2de1eeb3_n.jpg",
    "id_album": "-405626519",
    "description": "GermanShepherd_1001204",
    "title": "GermanShepherd_1001204",
    "link_img": "https://live.staticflickr.com/65535/50021281421_c5a97d3340_o.jpg",
    "id_image": "GermanShepherd_1001204",
    "count_view": 0
  },
  {
    "link_thumb": "https://live.staticflickr.com/65535/50023465067_fb14f11eb2_n.jpg",
    "id_album": "332874268",
    "description": "RedPanda_363140",
    "title": "RedPanda_363140",
    "link_img": "https://live.staticflickr.com/65535/50023465067_43c82cf043_o.jpg",
    "id_image": "RedPanda_363140",
    "count_view": 0
  },
  {
    "link_thumb": "https://live.staticflickr.com/65535/50023650178_7d6633d559_n.jpg",
    "id_album": "405170427",
    "description": "Tiger_705114",
    "title": "Tiger_705114",
    "link_img": "https://live.staticflickr.com/65535/50023650178_122fd92de8_o.jpg",
    "id_image": "Tiger_705114",
    "count_view": 0
  },
  {
    "link_thumb": "https://live.staticflickr.com/65535/50020996601_02ed89d0ea_n.jpg",
    "id_album": "-128218148",
    "description": "Fox_737900",
    "title": "Fox_737900",
    "link_img": "https://live.staticflickr.com/65535/50020996601_d3aac3e900_o.jpg",
    "id_image": "Fox_737900",
    "count_view": 0
  }
]