[
  {
    "link_thumb": "https://live.staticflickr.com/65535/50020778212_eda4ac83fd_n.jpg",
    "id_album": "-149330231",
    "description": "Dog_845412",
    "title": "Dog_845412",
    "link_img": "https://live.staticflickr.com/65535/50020778212_8dd5706f6b_o.jpg",
    "id_image": "Dog_845412",
    "count_view": 0
  },
  {
    "link_thumb": "https://live.staticflickr.com/65535/50023170886_6a4d3db5fa_n.jpg",
    "id_album": "-434874555",
    "description": "RainbowLorikeet_357905",
    "title": "RainbowLorikeet_357905",
    "link_img": "https://live.staticflickr.com/65535/50023170886_cdd39a4c76_o.jpg",
    "id_image": "RainbowLorikeet_357905",
    "count_view": 0
  },
  {
    "link_thumb": "https://live.staticflickr.com/65535/50017750791_7062b9bcca_n.jpg",
    "id_album": "-462831705",
    "description": "Cat_110335",
    "title": "Cat_110335",
    "link_img": "https://live.staticflickr.com/65535/50017750791_840154b1d5_o.jpg",
    "id_image": "Cat_110335",
    "count_view": 0
  },
  {
    "link_thumb": "https://live.staticflickr.com/65535/50020197596_fb317e9b52_n.jpg",
    "id_album": "-149330232",
    "description": "Dog_266727",
    "title": "Dog_266727",
    "link_img": "https://live.staticflickr.com/65535/50020197596_1b0e923acb_o.jpg",
    "id_image": "Dog_266727",
    "count_view": 0
  },
  {
    "link_thumb": "https://live.staticflickr.com/65535/50020299848_e90afa6555_n.jpg",
    "id_album": "-1118073211",
    "description": "Fish_313090",
    "title": "Fish_313090",
    "link_img": "https://live.staticflickr.com/65535/50020299848_1712c2c782_o.jpg",
    "id_image": "Fish_313090",
    "count_view": 0
  },
  {
    "link_thumb": "https://live.staticflickr.com/65535/50018685173_4c1d1be3a6_n.jpg",
    "id_album": "-462831704",
    "description": "Cat_445139",
    "title": "Cat_445139",
    "link_img": "https://live.staticflickr.com/65535/50018685173_715d406583_o.jpg",
    "id_image": "Cat_445139",
    "count_view": 0
  },
  {
    "link_thumb": "https://live.staticflickr.com/65535/50017769632_a78b4a4552_n.jpg",
    "id_album": "782930701",
    "description": "BorderCollie_911362",
    "title": "BorderCollie_911362",
    "link_img": "https://live.staticflickr.com/65535/50017769632_4538260ea8_o.jpg",
    "id_image": "BorderCollie_911362",
    "count_view": 0
  },
  {
    "link_thumb": "https://live.staticflickr.com/65535/50016398128_68446fcab3_n.jpg",
    "id_album": "523598895",
    "description": "Artistic_922020",
    "title": "Artistic_922020",
    "link_img": "https://live.staticflickr.com/65535/50016398128_e34a823944_o.jpg",
    "id_image": "Artistic_922020",
    "count_view": 0
  },
  {
    "link_thumb": "https://live.staticflickr.com/65535/50018062666_fca04b057c_n.jpg",
    "id_album": "-462831702",
    "description": "Cat_363397",
    "title": "Cat_363397",
    "link_img": "https://live.staticflickr.com/65535/50018062666_d6d770a4cd_o.jpg",
    "id_image": "Cat_363397",
    "count_view": 0
  },
  {
    "link_thumb": "https://live.staticflickr.com/65535/50019695238_253251e682_n.jpg",
    "id_album": "-149330232",
    "description": "Dog_291205",
    "title": "Dog_291205",
    "link_img": "https://live.staticflickr.com/65535/50019695238_6ac92c4332_o.jpg",
    "id_image": "Dog_291205",
    "count_view": 0
  },
  {
    "link_thumb": "https://live.staticflickr.com/65535/50017629687_c7808e7df1_n.jpg",
    "id_album": "-1846011410",
    "description": "Bird_564817",
    "title": "Bird_564817",
    "link_img": "https://live.staticflickr.com/65535/50017629687_b86b5ac896_o.jpg",
    "id_image": "Bird_564817",
    "count_view": 0
  },
  {
    "link_thumb": "https://live.staticflickr.com/65535/50022457688_1964087d89_n.jpg",
    "id_album": "-353898617",
    "description": "Puppy_456089",
    "title": "Puppy_456089",
    "link_img": "https://live.staticflickr.com/65535/50022457688_9daf3094e5_o.jpg",
    "id_image": "Puppy_456089",
    "count_view": 0
  },
  {
    "link_thumb": "https://live.staticflickr.com/65535/50017856702_d737c320ef_n.jpg",
    "id_album": "-401151552",
    "description": "Butterfly_432964",
    "title": "Butterfly_432964",
    "link_img": "https://live.staticflickr.com/65535/50017856702_cb90d16028_o.jpg",
    "id_image": "Butterfly_432964",
    "count_view": 0
  },
  {
    "link_thumb": "https://live.staticflickr.com/65535/50018696643_b9ceda2d35_n.jpg",
    "id_album": "-462831704",
    "description": "Cat_456949",
    "title": "Cat_456949",
    "link_img": "https://live.staticflickr.com/65535/50018696643_cbdeeb357f_o.jpg",
    "id_image": "Cat_456949",
    "count_view": 0
  },
  {
    "link_thumb": "https://live.staticflickr.com/65535/50021949232_f0753c243a_n.jpg",
    "id_album": "1658866795",
    "description": "Insect_404936",
    "title": "Insect_404936",
    "link_img": "https://live.staticflickr.com/65535/50021949232_db0aac4408_o.jpg",
    "id_image": "Insect_404936",
    "count_view": 0
  },
  {
    "link_thumb": "https://live.staticflickr.com/65535/50018947748_7992834495_n.jpg",
    "id_album": "-462831703",
    "description": "Cat_927349",
    "title": "Cat_927349",
    "link_img": "https://live.staticflickr.com/65535/50018947748_36cea9747e_o.jpg",
    "id_image": "Cat_927349",
    "count_view": 0
  },
  {
    "link_thumb": "https://live.staticflickr.com/65535/50022680796_4ec2747799_n.jpg",
    "id_album": "392248205",
    "description": "Penguin_207714",
    "title": "Penguin_207714",
    "link_img": "https://live.staticflickr.com/65535/50022680796_293c79c473_o.jpg",
    "id_image": "Penguin_207714",
    "count_view": 0
  },
  {
    "link_thumb": "https://live.staticflickr.com/65535/50017044288_0b8f57af5a_n.jpg",
    "id_album": "-401151552",
    "description": "Butterfly_362085",
    "title": "Butterfly_362085",
    "link_img": "https://live.staticflickr.com/65535/50017044288_5fd8380f22_o.jpg",
    "id_image": "Butterfly_362085",
    "count_view": 0
  },
  {
    "link_thumb": "https://live.staticflickr.com/65535/50019855653_bdb245d82b_n.jpg",
    "id_album": "-149330231",
    "description": "Dog_408292",
    "title": "Dog_408292",
    "link_img": "https://live.staticflickr.com/65535/50019855653_2fc9a98f5c_o.jpg",
    "id_image": "Dog_408292",
    "count_view": 0
  },
  {
    "link_thumb": "https://live.staticflickr.com/65535/50017385781_b6061a7410_n.jpg",
    "id_album": "-1846011410",
    "description": "Bird_597265",
    "title": "Bird_597265",
    "link_img": "https://live.staticflickr.com/65535/50017385781_12220dbf36_o.jpg",
    "id_image": "Bird_597265",
    "count_view": 0
  },
  {
    "link_thumb": "https://live.staticflickr.com/65535/50019654682_291e18a861_n.jpg",
    "id_album": "-462831703",
    "description": "Cat_886925",
    "title": "Cat_886925",
    "link_img": "https://live.staticflickr.com/65535/50019654682_2c5c16fb4a_o.jpg",
    "id_image": "Cat_886925",
    "count_view": 0
  },
  {
    "link_thumb": "https://live.staticflickr.com/65535/50352683012_88f6941627_n.jpg",
    "id_album": "-462831703",
    "description": "Cat_439362",
    "title": "Cat_439362",
    "link_img": "https://live.staticflickr.com/65535/50352683012_b0732f585b_o.jpg",
    "id_image": "Cat_439362",
    "count_view": 0
  },
  {
    "link_thumb": "https://live.staticflickr.com/65535/50023206062_9b16b2323f_n.jpg",
    "id_album": "-1431524681",
    "description": "Pug_385132",
    "title": "Pug_385132",
    "link_img": "https://live.staticflickr.com/65535/50023206062_38668eed60_o.jpg",
    "id_image": "Pug_385132",
    "count_view": 0
  },
  {
    "link_thumb": "https://live.staticflickr.com/65535/50020538951_ae7ee0d408_n.jpg",
    "id_album": "-149330231",
    "description": "Dog_900337",
    "title": "Dog_900337",
    "link_img": "https://live.staticflickr.com/65535/50020538951_e3ce2195f0_o.jpg",
    "id_image": "Dog_900337",
    "count_view": 0
  },
  {
    "link_thumb": "https://live.staticflickr.com/65535/50017322816_a25ed33f6f_n.jpg",
    "id_album": "-1846011410",
    "description": "Bird_422665",
    "title": "Bird_422665",
    "link_img": "https://live.staticflickr.com/65535/50017322816_d3086cc1c6_o.jpg",
    "id_image": "Bird_422665",
    "count_view": 0
  },
  {
    "link_thumb": "https://live.staticflickr.com/65535/50016927328_56671ee3f5_n.jpg",
    "id_album": "-1561645279",
    "description": "BlackPanther_425367",
    "title": "BlackPanther_425367",
    "link_img": "https://live.staticflickr.com/65535/50016927328_02ebb48d19_o.jpg",
    "id_image": "BlackPanther_425367",
    "count_view": 0
  },
  {
    "link_thumb": "https://live.staticflickr.com/65535/50017539501_4a808dd3c7_n.jpg",
    "id_album": "-401151552",
    "description": "Butterfly_168591",
    "title": "Butterfly_168591",
    "link_img": "https://live.staticflickr.com/65535/50017539501_5e9a7f03f7_o.jpg",
    "id_image": "Butterfly_168591",
    "count_view": 0
  },
  {
    "link_thumb": "https://live.staticflickr.com/65535/50351725233_757822c0d7_n.jpg",
    "id_album": "-462831703",
    "description": "Cat_205070",
    "title": "Cat_205070",
    "link_img": "https://live.staticflickr.com/65535/50351725233_7bf9e19aa7_o.jpg",
    "id_image": "Cat_205070",
    "count_view": 0
  },
  {
    "link_thumb": "https://live.staticflickr.com/65535/50023932943_693735c5fd_n.jpg",
    "id_album": "-709711865",
    "description": "Wolf_333991",
    "title": "Wolf_333991",
    "link_img": "https://live.staticflickr.com/65535/50023932943_018f54faff_o.jpg",
    "id_image": "Wolf_333991",
    "count_view": 0
  },
  {
    "link_thumb": "https://live.staticflickr.com/65535/50020184818_1a2bbffda2_n.jpg",
    "id_album": "-39098563",
    "description": "Eagle_596661",
    "title": "Eagle_596661",
    "link_img": "https://live.staticflickr.com/65535/50020184818_0b66c3d4a6_o.jpg",
    "id_image": "Eagle_596661",
    "count_view": 0
  },
  {
    "link_thumb": "https://live.staticflickr.com/65535/50024462382_843c28603f_n.jpg",
    "id_album": "405170427",
    "description": "Tiger_720507",
    "title": "Tiger_720507",
    "link_img": "https://live.staticflickr.com/65535/50024462382_89432bed8d_o.jpg",
    "id_image": "Tiger_720507",
    "count_view": 0
  },
  {
    "link_thumb": "https://live.staticflickr.com/65535/50018296762_11b230a476_n.jpg",
    "id_album": "-462831702",
    "description": "Cat_352630",
    "title": "Cat_352630",
    "link_img": "https://live.staticflickr.com/65535/50018296762_5746a60229_o.jpg",
    "id_image": "Cat_352630",
    "count_view": 0
  },
  {
    "link_thumb": "https://live.staticflickr.com/65535/50018145311_00363fa41b_n.jpg",
    "id_album": "-462831702",
    "description": "Cat_404916",
    "title": "Cat_404916",
    "link_img": "https://live.staticflickr.com/65535/50018145311_cc06672d4e_o.jpg",
    "id_image": "Cat_404916",
    "count_view": 0
  },
  {
    "link_thumb": "https://live.staticflickr.com/65535/50020327146_121b83172b_n.jpg",
    "id_album": "-149330232",
    "description": "Dog_365122",
    "title": "Dog_365122",
    "link_img": "https://live.staticflickr.com/65535/50020327146_6aecf952d1_o.jpg",
    "id_image": "Dog_365122",
    "count_view": 0
  },
  {
    "link_thumb": "https://live.staticflickr.com/65535/50016555753_8dd8e82651_n.jpg",
    "id_album": "-422187261",
    "description": "Bear_792314",
    "title": "Bear_792314",
    "link_img": "https://live.staticflickr.com/65535/50016555753_63c6b3e1ec_o.jpg",
    "id_image": "Bear_792314",
    "count_view": 0
  },
  {
    "link_thumb": "https://live.staticflickr.com/65535/50019891122_3c23b0ca41_n.jpg",
    "id_album": "-766919393",
    "description": "Chameleon_155416",
    "title": "Chameleon_155416",
    "link_img": "https://live.staticflickr.com/65535/50019891122_e179ae6036_o.jpg",
    "id_image": "Chameleon_155416",
    "count_view": 0
  },
  {
    "link_thumb": "https://live.staticflickr.com/65535/50017478277_eb3441b313_n.jpg",
    "id_album": "-1846011410",
    "description": "Bird_232218",
    "title": "Bird_232218",
    "link_img": "https://live.staticflickr.com/65535/50017478277_e30a5a8ff7_o.jpg",
    "id_image": "Bird_232218",
    "count_view": 0
  },
  {
    "link_thumb": "https://live.staticflickr.com/65535/50016590293_52b0f99f43_n.jpg",
    "id_album": "1699594607",
    "description": "Bee_118501",
    "title": "Bee_118501",
    "link_img": "https://live.staticflickr.com/65535/50016590293_62ce669b4f_o.jpg",
    "id_image": "Bee_118501",
    "count_view": 0
  },
  {
    "link_thumb": "https://live.staticflickr.com/65535/50019537417_b28ec36f79_n.jpg",
    "id_album": "-462831704",
    "description": "Cat_519894",
    "title": "Cat_519894",
    "link_img": "https://live.staticflickr.com/65535/50019537417_036ae7f5d5_o.jpg",
    "id_image": "Cat_519894",
    "count_view": 0
  },
  {
    "link_thumb": "https://live.staticflickr.com/65535/50020968827_20d328b051_n.jpg",
    "id_album": "-39098563",
    "description": "Eagle_533733",
    "title": "Eagle_533733",
    "link_img": "https://live.staticflickr.com/65535/50020968827_dd09d18b1e_o.jpg",
    "id_image": "Eagle_533733",
    "count_view": 0
  },
  {
    "link_thumb": "https://live.staticflickr.com/65535/50020464897_19b252e4c4_n.jpg",
    "id_album": "-149330232",
    "description": "Dog_275570",
    "title": "Dog_275570",
    "link_img": "https://live.staticflickr.com/65535/50020464897_f2284d1072_o.jpg",
    "id_image": "Dog_275570",
    "count_view": 0
  },
  {
    "link_thumb": "https://live.staticflickr.com/65535/50020168892_1ed37186d3_n.jpg",
    "id_album": "-392100404",
    "description": "Crow_707196",
    "title": "Crow_707196",
    "link_img": "https://live.staticflickr.com/65535/50020168892_cd134f0a8b_o.jpg",
    "id_image": "Crow_707196",
    "count_view": 0
  },
  {
    "link_thumb": "https://live.staticflickr.com/65535/50016932351_ea3521e8d2_n.jpg",
    "id_album": "390697200",
    "description": "AustralianShepherd_650911",
    "title": "AustralianShepherd_650911",
    "link_img": "https://live.staticflickr.com/65535/50016932351_5f92e7a6af_o.jpg",
    "id_image": "AustralianShepherd_650911",
    "count_view": 0
  },
  {
    "link_thumb": "https://live.staticflickr.com/65535/50019353433_666e6b5122_n.jpg",
    "id_album": "815329026",
    "description": "Crab_981881",
    "title": "Crab_981881",
    "link_img": "https://live.staticflickr.com/65535/50019353433_e4267c06b5_o.jpg",
    "id_image": "Crab_981881",
    "count_view": 0
  },
  {
    "link_thumb": "https://live.staticflickr.com/65535/50022470726_8928bf5f30_n.jpg",
    "id_album": "-1384601601",
    "description": "Owl_727486",
    "title": "Owl_727486",
    "link_img": "https://live.staticflickr.com/65535/50022470726_e0a27e5f5b_o.jpg",
    "id_image": "Owl_727486",
    "count_view": 0
  },
  {
    "link_thumb": "https://live.staticflickr.com/65535/50016338778_70016c96f6_n.jpg",
    "id_album": "523598895",
    "description": "Artistic_116197",
    "title": "Artistic_116197",
    "link_img": "https://live.staticflickr.com/65535/50016338778_3c4f8dd73a_o.jpg",
    "id_image": "Artistic_116197",
    "count_view": 0
  },
  {
    "link_thumb": "https://live.staticflickr.com/65535/50021103411_6586529cf4_n.jpg",
    "id_album": "-462831704",
    "description": "Cat_545352",
    "title": "Cat_545352",
    "link_img": "https://live.staticflickr.com/65535/50021103411_61fca75eef_o.jpg",
    "id_image": "Cat_545352",
    "count_view": 0
  },
  {
    "link_thumb": "https://live.staticflickr.com/65535/50016769288_5aed0d830b_n.jpg",
    "id_album": "-1846011410",
    "description": "Bird_390313",
    "title": "Bird_390313",
    "link_img": "https://live.staticflickr.com/65535/50016769288_80b15f2afb_o.jpg",
    "id_image": "Bird_390313",
    "count_view": 0
  },
  {
    "link_thumb": "https://live.staticflickr.com/65535/50018168497_9cafcd3da2_n.jpg",
    "id_album": "-462831705",
    "description": "Cat_255598",
    "title": "Cat_255598",
    "link_img": "https://live.staticflickr.com/65535/50018168497_3bcd218765_o.jpg",
    "id_image": "Cat_255598",
    "count_view": 0
  },
  {
    "link_thumb": "https://live.staticflickr.com/65535/50017436716_68dd194080_n.jpg",
    "id_album": "-1846011410",
    "description": "Bird_87838",
    "title": "Bird_87838",
    "link_img": "https://live.staticflickr.com/65535/50017436716_71ed532e10_o.jpg",
    "id_image": "Bird_87838",
    "count_view": 0
  },
  {
    "link_thumb": "https://live.staticflickr.com/65535/50022597998_367569f594_n.jpg",
    "id_album": "248289288",
    "description": "Raccoon_289224",
    "title": "Raccoon_289224",
    "link_img": "https://live.staticflickr.com/65535/50022597998_21d11589cc_o.jpg",
    "id_image": "Raccoon_289224",
    "count_view": 0
  },
  {
    "link_thumb": "https://live.staticflickr.com/65535/50352776182_ec260a3957_n.jpg",
    "id_album": "-462831703",
    "description": "Cat_592622",
    "title": "Cat_592622",
    "link_img": "https://live.staticflickr.com/65535/50352776182_b8545816d1_o.jpg",
    "id_image": "Cat_592622",
    "count_view": 0
  },
  {
    "link_thumb": "https://live.staticflickr.com/65535/50351930188_f1dd72d6e4_n.jpg",
    "id_album": "-462831703",
    "description": "Cat_614345",
    "title": "Cat_614345",
    "link_img": "https://live.staticflickr.com/65535/50351930188_785fd184f1_o.jpg",
    "id_image": "Cat_614345",
    "count_view": 0
  },
  {
    "link_thumb": "https://live.staticflickr.com/65535/50017051061_ab6a6b20c3_n.jpg",
    "id_album": "-422187261",
    "description": "Bear_501734",
    "title": "Bear_501734",
    "link_img": "https://live.staticflickr.com/65535/50017051061_a15da489de_o.jpg",
    "id_image": "Bear_501734",
    "count_view": 0
  },
  {
    "link_thumb": "https://live.staticflickr.com/65535/50016345688_916c046fb6_n.jpg",
    "id_album": "523598895",
    "description": "Artistic_168536",
    "title": "Artistic_168536",
    "link_img": "https://live.staticflickr.com/65535/50016345688_82a5683f19_o.jpg",
    "id_image": "Artistic_168536",
    "count_view": 0
  },
  {
    "link_thumb": "https://live.staticflickr.com/65535/50020509751_bbbd1733b1_n.jpg",
    "id_album": "-149330231",
    "description": "Dog_758221",
    "title": "Dog_758221",
    "link_img": "https://live.staticflickr.com/65535/50020509751_0ea56eb4e4_o.jpg",
    "id_image": "Dog_758221",
    "count_view": 0
  },
  {
    "link_thumb": "https://live.staticflickr.com/65535/50021323457_88910cef8f_n.jpg",
    "id_album": "844170697",
    "description": "Frog_593736",
    "title": "Frog_593736",
    "link_img": "https://live.staticflickr.com/65535/50021323457_46f83f383f_o.jpg",
    "id_image": "Frog_593736",
    "count_view": 0
  },
  {
    "link_thumb": "https://live.staticflickr.com/65535/50018243262_ffc5e94bf5_n.jpg",
    "id_album": "-462831702",
    "description": "Cat_328390",
    "title": "Cat_328390",
    "link_img": "https://live.staticflickr.com/65535/50018243262_eb200a7420_o.jpg",
    "id_image": "Cat_328390",
    "count_view": 0
  },
  {
    "link_thumb": "https://live.staticflickr.com/65535/50017951127_1f914c0930_n.jpg",
    "id_album": "-401151552",
    "description": "Butterfly_900676",
    "title": "Butterfly_900676",
    "link_img": "https://live.staticflickr.com/65535/50017951127_e0a01b07db_o.jpg",
    "id_image": "Butterfly_900676",
    "count_view": 0
  },
  {
    "link_thumb": "https://live.staticflickr.com/65535/50020065972_000b5b12d1_n.jpg",
    "id_album": "-1868680171",
    "description": "Cougar_364065",
    "title": "Cougar_364065",
    "link_img": "https://live.staticflickr.com/65535/50020065972_f15bd20792_o.jpg",
    "id_image": "Cougar_364065",
    "count_view": 0
  },
  {
    "link_thumb": "https://live.staticflickr.com/65535/50021610092_5410536c4f_n.jpg",
    "id_album": "2060159334",
    "description": "GoldenRetriever_713631",
    "title": "GoldenRetriever_713631",
    "link_img": "https://live.staticflickr.com/65535/50021610092_b5dc7647df_o.jpg",
    "id_image": "GoldenRetriever_713631",
    "count_view": 0
  },
  {
    "link_thumb": "https://live.staticflickr.com/65535/50019241646_2920aacd9f_n.jpg",
    "id_album": "-462831704",
    "description": "Cat_469152",
    "title": "Cat_469152",
    "link_img": "https://live.staticflickr.com/65535/50019241646_5c28ce826e_o.jpg",
    "id_image": "Cat_469152",
    "count_view": 0
  },
  {
    "link_thumb": "https://live.staticflickr.com/65535/50019678857_6fa0f1698a_n.jpg",
    "id_album": "-462831703",
    "description": "Cat_903147",
    "title": "Cat_903147",
    "link_img": "https://live.staticflickr.com/65535/50019678857_ff4988305d_o.jpg",
    "id_image": "Cat_903147",
    "count_view": 0
  },
  {
    "link_thumb": "https://live.staticflickr.com/65535/50016444663_f0e26c7567_n.jpg",
    "id_album": "231236068",
    "description": "BaldEagle_901173",
    "title": "BaldEagle_901173",
    "link_img": "https://live.staticflickr.com/65535/50016444663_42106732d1_o.jpg",
    "id_image": "BaldEagle_901173",
    "count_view": 0
  },
  {
    "link_thumb": "https://live.staticflickr.com/65535/50019228186_9f4a9a5377_n.jpg",
    "id_album": "-462831704",
    "description": "Cat_458808",
    "title": "Cat_458808",
    "link_img": "https://live.staticflickr.com/65535/50019228186_9ff3184f45_o.jpg",
    "id_image": "Cat_458808",
    "count_view": 0
  },
  {
    "link_thumb": "https://live.staticflickr.com/65535/50023922711_ec33fa5fbf_n.jpg",
    "id_album": "702283289",
    "description": "Squirrel_686841",
    "title": "Squirrel_686841",
    "link_img": "https://live.staticflickr.com/65535/50023922711_31b5d8af08_o.jpg",
    "id_image": "Squirrel_686841",
    "count_view": 0
  },
  {
    "link_thumb": "https://live.staticflickr.com/65535/50017079463_2dcfc260c1_n.jpg",
    "id_album": "-401151552",
    "description": "Butterfly_462814",
    "title": "Butterfly_462814",
    "link_img": "https://live.staticflickr.com/65535/50017079463_da56660545_o.jpg",
    "id_image": "Butterfly_462814",
    "count_view": 0
  },
  {
    "link_thumb": "https://live.staticflickr.com/65535/50017612783_acc25d12d7_n.jpg",
    "id_album": "-462831702",
    "description": "Cat_402048",
    "title": "Cat_402048",
    "link_img": "https://live.staticflickr.com/65535/50017612783_35ec18d0a9_o.jpg",
    "id_image": "Cat_402048",
    "count_view": 0
  },
  {
    "link_thumb": "https://live.staticflickr.com/65535/50023342462_67aee4f6c4_n.jpg",
    "id_album": "470794721",
    "description": "Python_892258",
    "title": "Python_892258",
    "link_img": "https://live.staticflickr.com/65535/50023342462_009269a5e9_o.jpg",
    "id_image": "Python_892258",
    "count_view": 0
  },
  {
    "link_thumb": "https://live.staticflickr.com/65535/50017820537_202d6629d5_n.jpg",
    "id_album": "-401151552",
    "description": "Butterfly_301974",
    "title": "Butterfly_301974",
    "link_img": "https://live.staticflickr.com/65535/50017820537_899da574ed_o.jpg",
    "id_image": "Butterfly_301974",
    "count_view": 0
  },
  {
    "link_thumb": "https://live.staticflickr.com/65535/50021841576_95001bae2c_n.jpg",
    "id_album": "-1882491687",
    "description": "Ladybug_262604",
    "title": "Ladybug_262604",
    "link_img": "https://live.staticflickr.com/65535/50021841576_c63cc73a59_o.jpg",
    "id_image": "Ladybug_262604",
    "count_view": 0
  },
  {
    "link_thumb": "https://live.staticflickr.com/65535/50022180337_4d237029be_n.jpg",
    "id_album": "1392348450",
    "description": "Leopard_421573",
    "title": "Leopard_421573",
    "link_img": "https://live.staticflickr.com/65535/50022180337_eb348ffcf9_o.jpg",
    "id_image": "Leopard_421573",
    "count_view": 0
  },
  {
    "link_thumb": "https://live.staticflickr.com/65535/50020515716_7602ab8225_n.jpg",
    "id_album": "-149330231",
    "description": "Dog_799202",
    "title": "Dog_799202",
    "link_img": "https://live.staticflickr.com/65535/50020515716_9a0c1161f6_o.jpg",
    "id_image": "Dog_799202",
    "count_view": 0
  },
  {
    "link_thumb": "https://live.staticflickr.com/65535/50020290491_788eeedcbe_n.jpg",
    "id_album": "-149330232",
    "description": "Dog_345420",
    "title": "Dog_345420",
    "link_img": "https://live.staticflickr.com/65535/50020290491_442ece38eb_o.jpg",
    "id_image": "Dog_345420",
    "count_view": 0
  },
  {
    "link_thumb": "https://live.staticflickr.com/65535/50021842716_9fe0ca4f89_n.jpg",
    "id_album": "-1882491687",
    "description": "Ladybug_284694",
    "title": "Ladybug_284694",
    "link_img": "https://live.staticflickr.com/65535/50021842716_29b3c1927c_o.jpg",
    "id_image": "Ladybug_284694",
    "count_view": 0
  },
  {
    "link_thumb": "https://live.staticflickr.com/65535/50020925738_6f98a35072_n.jpg",
    "id_album": "-1933715543",
    "description": "Horse_210088",
    "title": "Horse_210088",
    "link_img": "https://live.staticflickr.com/65535/50020925738_5e86fca4ab_o.jpg",
    "id_image": "Horse_210088",
    "count_view": 0
  },
  {
    "link_thumb": "https://live.staticflickr.com/65535/50020619852_740613ca54_n.jpg",
    "id_album": "-149330231",
    "description": "Dog_385106",
    "title": "Dog_385106",
    "link_img": "https://live.staticflickr.com/65535/50020619852_61d91028b5_o.jpg",
    "id_image": "Dog_385106",
    "count_view": 0
  },
  {
    "link_thumb": "https://live.staticflickr.com/65535/50020878642_6dd360ccce_n.jpg",
    "id_album": "-405058657",
    "description": "Dragonfly_413440",
    "title": "Dragonfly_413440",
    "link_img": "https://live.staticflickr.com/65535/50020878642_26b2224d60_o.jpg",
    "id_image": "Dragonfly_413440",
    "count_view": 0
  },
  {
    "link_thumb": "https://live.staticflickr.com/65535/50020256382_0e81c3fec2_n.jpg",
    "id_album": "1903411565",
    "description": "Deer_364507",
    "title": "Deer_364507",
    "link_img": "https://live.staticflickr.com/65535/50020256382_9c314c245a_o.jpg",
    "id_image": "Deer_364507",
    "count_view": 0
  },
  {
    "link_thumb": "https://live.staticflickr.com/65535/50021870581_3ec14c0a17_n.jpg",
    "id_album": "1918884325",
    "description": "Lemur_253207",
    "title": "Lemur_253207",
    "link_img": "https://live.staticflickr.com/65535/50021870581_6fec375365_o.jpg",
    "id_image": "Lemur_253207",
    "count_view": 0
  },
  {
    "link_thumb": "https://live.staticflickr.com/65535/50021966266_649093976b_n.jpg",
    "id_album": "416744915",
    "description": "Lion_113658",
    "title": "Lion_113658",
    "link_img": "https://live.staticflickr.com/65535/50021966266_6965b56a8c_o.jpg",
    "id_image": "Lion_113658",
    "count_view": 0
  },
  {
    "link_thumb": "https://live.staticflickr.com/65535/50020733861_47a73cbf88_n.jpg",
    "id_album": "1270947998",
    "description": "Elephant_203830",
    "title": "Elephant_203830",
    "link_img": "https://live.staticflickr.com/65535/50020733861_2d272dcefe_o.jpg",
    "id_image": "Elephant_203830",
    "count_view": 0
  },
  {
    "link_thumb": "https://live.staticflickr.com/65535/50020587348_75d195e0d7_n.jpg",
    "id_album": "-462831704",
    "description": "Cat_591642",
    "title": "Cat_591642",
    "link_img": "https://live.staticflickr.com/65535/50020587348_4087c65e47_o.jpg",
    "id_image": "Cat_591642",
    "count_view": 0
  },
  {
    "link_thumb": "https://live.staticflickr.com/65535/50020596572_5e63f816d8_n.jpg",
    "id_album": "-149330232",
    "description": "Dog_369496",
    "title": "Dog_369496",
    "link_img": "https://live.staticflickr.com/65535/50020596572_46ea8a6cf4_o.jpg",
    "id_image": "Dog_369496",
    "count_view": 0
  },
  {
    "link_thumb": "https://live.staticflickr.com/65535/50017056711_ae5276dac8_n.jpg",
    "id_album": "-422187261",
    "description": "Bear_546791",
    "title": "Bear_546791",
    "link_img": "https://live.staticflickr.com/65535/50017056711_e83fce3e0b_o.jpg",
    "id_image": "Bear_546791",
    "count_view": 0
  },
  {
    "link_thumb": "https://live.staticflickr.com/65535/50022867587_62c43707fa_n.jpg",
    "id_album": "-801414987",
    "description": "Peacock_868628",
    "title": "Peacock_868628",
    "link_img": "https://live.staticflickr.com/65535/50022867587_18f36cd834_o.jpg",
    "id_image": "Peacock_868628",
    "count_view": 0
  },
  {
    "link_thumb": "https://live.staticflickr.com/65535/50016827861_8a5141dd75_n.jpg",
    "id_album": "-229810103",
    "description": "AmericanBison_764753",
    "title": "AmericanBison_764753",
    "link_img": "https://live.staticflickr.com/65535/50016827861_6776b3a0be_o.jpg",
    "id_image": "AmericanBison_764753",
    "count_view": 0
  },
  {
    "link_thumb": "https://live.staticflickr.com/65535/50022755733_df13cc8e03_n.jpg",
    "id_album": "48367914",
    "description": "Rhino_709785",
    "title": "Rhino_709785",
    "link_img": "https://live.staticflickr.com/65535/50022755733_6e86718138_o.jpg",
    "id_image": "Rhino_709785",
    "count_view": 0
  },
  {
    "link_thumb": "https://live.staticflickr.com/65535/50023565668_c2603a73b1_n.jpg",
    "id_album": "405170427",
    "description": "Tiger_390984",
    "title": "Tiger_390984",
    "link_img": "https://live.staticflickr.com/65535/50023565668_233b3e8bcb_o.jpg",
    "id_image": "Tiger_390984",
    "count_view": 0
  },
  {
    "link_thumb": "https://live.staticflickr.com/65535/50021666747_6853283ce2_n.jpg",
    "id_album": "109779448",
    "description": "Hare_406902",
    "title": "Hare_406902",
    "link_img": "https://live.staticflickr.com/65535/50021666747_51e58592d3_o.jpg",
    "id_image": "Hare_406902",
    "count_view": 0
  },
  {
    "link_thumb": "https://live.staticflickr.com/65535/50022704716_e7e1efbce5_n.jpg",
    "id_album": "392248205",
    "description": "Penguin_519904",
    "title": "Penguin_519904",
    "link_img": "https://live.staticflickr.com/65535/50022704716_8f249ab6dc_o.jpg",
    "id_image": "Penguin_519904",
    "count_view": 0
  },
  {
    "link_thumb": "https://live.staticflickr.com/65535/50352678397_96074e4c29_n.jpg",
    "id_album": "-462831703",
    "description": "Cat_435327",
    "title": "Cat_435327",
    "link_img": "https://live.staticflickr.com/65535/50352678397_be7902e47f_o.jpg",
    "id_image": "Cat_435327",
    "count_view": 0
  },
  {
    "link_thumb": "https://live.staticflickr.com/65535/50019652031_9ecab9ede2_n.jpg",
    "id_album": "-766919393",
    "description": "Chameleon_456077",
    "title": "Chameleon_456077",
    "link_img": "https://live.staticflickr.com/65535/50019652031_2dcc6fa61e_o.jpg",
    "id_image": "Chameleon_456077",
    "count_view": 0
  },
  {
    "link_thumb": "https://live.staticflickr.com/65535/50022432077_2ae2a61446_n.jpg",
    "id_album": "1894617400",
    "description": "Lynx_981877",
    "title": "Lynx_981877",
    "link_img": "https://live.staticflickr.com/65535/50022432077_7f7f2820e7_o.jpg",
    "id_image": "Lynx_981877",
    "count_view": 0
  },
  {
    "link_thumb": "https://live.staticflickr.com/65535/50020531538_e6bd77235c_n.jpg",
    "id_album": "844170697",
    "description": "Frog_738542",
    "title": "Frog_738542",
    "link_img": "https://live.staticflickr.com/65535/50020531538_33554db26d_o.jpg",
    "id_image": "Frog_738542",
    "count_view": 0
  },
  {
    "link_thumb": "https://live.staticflickr.com/65535/50021033558_0911a5b2b4_n.jpg",
    "id_album": "-1933715543",
    "description": "Horse_868092",
    "title": "Horse_868092",
    "link_img": "https://live.staticflickr.com/65535/50021033558_a8d2325ab2_o.jpg",
    "id_image": "Horse_868092",
    "count_view": 0
  },
  {
    "link_thumb": "https://live.staticflickr.com/65535/50352694062_08dfc06be6_n.jpg",
    "id_album": "-462831703",
    "description": "Cat_455718",
    "title": "Cat_455718",
    "link_img": "https://live.staticflickr.com/65535/50352694062_7dcb9dbb0a_o.jpg",
    "id_image": "Cat_455718",
    "count_view": 0
  },
  {
    "link_thumb": "https://live.staticflickr.com/65535/50017113126_e396b0f6e7_n.jpg",
    "id_album": "-422187261",
    "description": "Bear_986585",
    "title": "Bear_986585",
    "link_img": "https://live.staticflickr.com/65535/50017113126_755b546d72_o.jpg",
    "id_image": "Bear_986585",
    "count_view": 0
  },
  {
    "link_thumb": "https://live.staticflickr.com/65535/50021270301_ea57946dc3_n.jpg",
    "id_album": "-462831703",
    "description": "Cat_831480",
    "title": "Cat_831480",
    "link_img": "https://live.staticflickr.com/65535/50021270301_4ffe810e29_o.jpg",
    "id_image": "Cat_831480",
    "count_view": 0
  },
  {
    "link_thumb": "https://live.staticflickr.com/65535/50021279546_165a8db555_n.jpg",
    "id_album": "-34696179",
    "description": "Gecko_649437",
    "title": "Gecko_649437",
    "link_img": "https://live.staticflickr.com/65535/50021279546_76e9fd2e17_o.jpg",
    "id_image": "Gecko_649437",
    "count_view": 0
  },
  {
    "link_thumb": "https://live.staticflickr.com/65535/50021368733_618f5ae02f_n.jpg",
    "id_album": "1392348450",
    "description": "Leopard_373192",
    "title": "Leopard_373192",
    "link_img": "https://live.staticflickr.com/65535/50021368733_88bbf87078_o.jpg",
    "id_image": "Leopard_373192",
    "count_view": 0
  },
  {
    "link_thumb": "https://live.staticflickr.com/65535/50020587583_9fd639ed6e_n.jpg",
    "id_album": "-462831704",
    "description": "Cat_592438",
    "title": "Cat_592438",
    "link_img": "https://live.staticflickr.com/65535/50020587583_d50508e20b_o.jpg",
    "id_image": "Cat_592438",
    "count_view": 0
  },
  {
    "link_thumb": "https://live.staticflickr.com/65535/50019822571_de36ca529a_n.jpg",
    "id_album": "-1868680171",
    "description": "Cougar_570430",
    "title": "Cougar_570430",
    "link_img": "https://live.staticflickr.com/65535/50019822571_3c8d257da5_o.jpg",
    "id_image": "Cougar_570430",
    "count_view": 0
  },
  {
    "link_thumb": "https://live.staticflickr.com/65535/50020414742_ae464c7117_n.jpg",
    "id_album": "-149330232",
    "description": "Dog_216628",
    "title": "Dog_216628",
    "link_img": "https://live.staticflickr.com/65535/50020414742_1d4e4df7b6_o.jpg",
    "id_image": "Dog_216628",
    "count_view": 0
  },
  {
    "link_thumb": "https://live.staticflickr.com/65535/50024005433_2deb903d8d_n.jpg",
    "id_album": "-709711865",
    "description": "Wolf_817436",
    "title": "Wolf_817436",
    "link_img": "https://live.staticflickr.com/65535/50024005433_a3366779f0_o.jpg",
    "id_image": "Wolf_817436",
    "count_view": 0
  },
  {
    "link_thumb": "https://live.staticflickr.com/65535/50021052057_3e722499aa_n.jpg",
    "id_album": "1270947998",
    "description": "Elephant_859468",
    "title": "Elephant_859468",
    "link_img": "https://live.staticflickr.com/65535/50021052057_3f4bc3ff69_o.jpg",
    "id_image": "Elephant_859468",
    "count_view": 0
  },
  {
    "link_thumb": "https://live.staticflickr.com/65535/50017464968_a7d4cb280d_n.jpg",
    "id_album": "-462831702",
    "description": "Cat_333050",
    "title": "Cat_333050",
    "link_img": "https://live.staticflickr.com/65535/50017464968_c28c902322_o.jpg",
    "id_image": "Cat_333050",
    "count_view": 0
  },
  {
    "link_thumb": "https://live.staticflickr.com/65535/50020574117_a96505fdf2_n.jpg",
    "id_album": "-149330232",
    "description": "Dog_359394",
    "title": "Dog_359394",
    "link_img": "https://live.staticflickr.com/65535/50020574117_6a89bdf690_o.jpg",
    "id_image": "Dog_359394",
    "count_view": 0
  },
  {
    "link_thumb": "https://live.staticflickr.com/65535/50020685358_7f6708d8b5_n.jpg",
    "id_album": "-462831703",
    "description": "Cat_749121",
    "title": "Cat_749121",
    "link_img": "https://live.staticflickr.com/65535/50020685358_e8ccfbacd4_o.jpg",
    "id_image": "Cat_749121",
    "count_view": 0
  },
  {
    "link_thumb": "https://live.staticflickr.com/65535/50021129721_055849cdbe_n.jpg",
    "id_album": "-462831704",
    "description": "Cat_592030",
    "title": "Cat_592030",
    "link_img": "https://live.staticflickr.com/65535/50021129721_43b2262462_o.jpg",
    "id_image": "Cat_592030",
    "count_view": 0
  },
  {
    "link_thumb": "https://live.staticflickr.com/65535/50021287571_98286000cd_n.jpg",
    "id_album": "-405626519",
    "description": "GermanShepherd_397302",
    "title": "GermanShepherd_397302",
    "link_img": "https://live.staticflickr.com/65535/50021287571_51179d8f7d_o.jpg",
    "id_image": "GermanShepherd_397302",
    "count_view": 0
  },
  {
    "link_thumb": "https://live.staticflickr.com/65535/50020658617_132029598e_n.jpg",
    "id_album": "-149330231",
    "description": "Dog_421942",
    "title": "Dog_421942",
    "link_img": "https://live.staticflickr.com/65535/50020658617_29ed86824a_o.jpg",
    "id_image": "Dog_421942",
    "count_view": 0
  },
  {
    "link_thumb": "https://live.staticflickr.com/65535/50017192818_bb650c2199_n.jpg",
    "id_album": "-401151552",
    "description": "Butterfly_969782",
    "title": "Butterfly_969782",
    "link_img": "https://live.staticflickr.com/65535/50017192818_632a479f59_o.jpg",
    "id_image": "Butterfly_969782",
    "count_view": 0
  },
  {
    "link_thumb": "https://live.staticflickr.com/65535/50021162361_7fc6d594cd_n.jpg",
    "id_album": "-462831704",
    "description": "Cat_677562",
    "title": "Cat_677562",
    "link_img": "https://live.staticflickr.com/65535/50021162361_201910fefa_o.jpg",
    "id_image": "Cat_677562",
    "count_view": 0
  },
  {
    "link_thumb": "https://live.staticflickr.com/65535/50023930013_a03c7f86d9_n.jpg",
    "id_album": "-709711865",
    "description": "Wolf_324444",
    "title": "Wolf_324444",
    "link_img": "https://live.staticflickr.com/65535/50023930013_0ef078d617_o.jpg",
    "id_image": "Wolf_324444",
    "count_view": 0
  },
  {
    "link_thumb": "https://live.staticflickr.com/65535/50021115328_8a6de66770_n.jpg",
    "id_album": "1658866795",
    "description": "Insect_162073",
    "title": "Insect_162073",
    "link_img": "https://live.staticflickr.com/65535/50021115328_d1ee5797c6_o.jpg",
    "id_image": "Insect_162073",
    "count_view": 0
  },
  {
    "link_thumb": "https://live.staticflickr.com/65535/50017961982_6bf5be7c0f_n.jpg",
    "id_album": "-401151552",
    "description": "Butterfly_926538",
    "title": "Butterfly_926538",
    "link_img": "https://live.staticflickr.com/65535/50017961982_770260c004_o.jpg",
    "id_image": "Butterfly_926538",
    "count_view": 0
  },
  {
    "link_thumb": "https://live.staticflickr.com/65535/50022115957_cf6a876f08_n.jpg",
    "id_album": "-1882491687",
    "description": "Ladybug_691698",
    "title": "Ladybug_691698",
    "link_img": "https://live.staticflickr.com/65535/50022115957_c95d27ed57_o.jpg",
    "id_image": "Ladybug_691698",
    "count_view": 0
  },
  {
    "link_thumb": "https://live.staticflickr.com/65535/50022240412_1f435d0df2_n.jpg",
    "id_album": "416744915",
    "description": "Lion_260669",
    "title": "Lion_260669",
    "link_img": "https://live.staticflickr.com/65535/50022240412_4ae5a0feaa_o.jpg",
    "id_image": "Lion_260669",
    "count_view": 0
  },
  {
    "link_thumb": "https://live.staticflickr.com/65535/50017172091_750f9be4f5_n.jpg",
    "id_album": "172748811",
    "description": "Beeeater_523812",
    "title": "Beeeater_523812",
    "link_img": "https://live.staticflickr.com/65535/50017172091_110a421ac8_o.jpg",
    "id_image": "Beeeater_523812",
    "count_view": 0
  },
  {
    "link_thumb": "https://live.staticflickr.com/65535/50019811593_3741ec5442_n.jpg",
    "id_album": "-149330232",
    "description": "Dog_370626",
    "title": "Dog_370626",
    "link_img": "https://live.staticflickr.com/65535/50019811593_d22f2f6f71_o.jpg",
    "id_image": "Dog_370626",
    "count_view": 0
  },
  {
    "link_thumb": "https://live.staticflickr.com/65535/50021521731_da14948e3e_n.jpg",
    "id_album": "-1933715543",
    "description": "Horse_445322",
    "title": "Horse_445322",
    "link_img": "https://live.staticflickr.com/65535/50021521731_c5808ce2fd_o.jpg",
    "id_image": "Horse_445322",
    "count_view": 0
  },
  {
    "link_thumb": "https://live.staticflickr.com/65535/50019394578_81fb176d03_n.jpg",
    "id_album": "1273365283",
    "description": "Cute_277110",
    "title": "Cute_277110",
    "link_img": "https://live.staticflickr.com/65535/50019394578_5f9949d362_o.jpg",
    "id_image": "Cute_277110",
    "count_view": 0
  },
  {
    "link_thumb": "https://live.staticflickr.com/65535/50019187668_3e704e7332_n.jpg",
    "id_album": "-1481843714",
    "description": "Cheetah_542917",
    "title": "Cheetah_542917",
    "link_img": "https://live.staticflickr.com/65535/50019187668_20d2a29b34_o.jpg",
    "id_image": "Cheetah_542917",
    "count_view": 0
  },
  {
    "link_thumb": "https://live.staticflickr.com/65535/50017085008_5b00d279f4_n.jpg",
    "id_album": "-401151552",
    "description": "Butterfly_477810",
    "title": "Butterfly_477810",
    "link_img": "https://live.staticflickr.com/65535/50017085008_a5cc689801_o.jpg",
    "id_image": "Butterfly_477810",
    "count_view": 0
  },
  {
    "link_thumb": "https://live.staticflickr.com/65535/50019443152_275b7b1fc6_n.jpg",
    "id_album": "-462831702",
    "description": "Cat_431482",
    "title": "Cat_431482",
    "link_img": "https://live.staticflickr.com/65535/50019443152_f39cde85b5_o.jpg",
    "id_image": "Cat_431482",
    "count_view": 0
  },
  {
    "link_thumb": "https://live.staticflickr.com/65535/50023674691_a19db57cb8_n.jpg",
    "id_album": "-1131363127",
    "description": "SnowLeopard_855314",
    "title": "SnowLeopard_855314",
    "link_img": "https://live.staticflickr.com/65535/50023674691_439c186b98_o.jpg",
    "id_image": "SnowLeopard_855314",
    "count_view": 0
  },
  {
    "link_thumb": "https://live.staticflickr.com/65535/50023664396_8ee97317e2_n.jpg",
    "id_album": "-1131363127",
    "description": "SnowLeopard_660925",
    "title": "SnowLeopard_660925",
    "link_img": "https://live.staticflickr.com/65535/50023664396_208795c333_o.jpg",
    "id_image": "SnowLeopard_660925",
    "count_view": 0
  },
  {
    "link_thumb": "https://live.staticflickr.com/65535/50021926512_6d88c0e363_n.jpg",
    "id_album": "1658866795",
    "description": "Insect_393121",
    "title": "Insect_393121",
    "link_img": "https://live.staticflickr.com/65535/50021926512_2b70e7031d_o.jpg",
    "id_image": "Insect_393121",
    "count_view": 0
  },
  {
    "link_thumb": "https://live.staticflickr.com/65535/50020898288_e567dc2ef3_n.jpg",
    "id_album": "1469520430",
    "description": "Hedgehog_949130",
    "title": "Hedgehog_949130",
    "link_img": "https://live.staticflickr.com/65535/50020898288_f415f613d5_o.jpg",
    "id_image": "Hedgehog_949130",
    "count_view": 0
  },
  {
    "link_thumb": "https://live.staticflickr.com/65535/50022211167_689333cf34_n.jpg",
    "id_album": "1392348450",
    "description": "Leopard_870342",
    "title": "Leopard_870342",
    "link_img": "https://live.staticflickr.com/65535/50022211167_8772e9fcde_o.jpg",
    "id_image": "Leopard_870342",
    "count_view": 0
  },
  {
    "link_thumb": "https://live.staticflickr.com/65535/50023423063_c60c900231_n.jpg",
    "id_album": "702283289",
    "description": "Squirrel_914778",
    "title": "Squirrel_914778",
    "link_img": "https://live.staticflickr.com/65535/50023423063_decea1fda3_o.jpg",
    "id_image": "Squirrel_914778",
    "count_view": 0
  },
  {
    "link_thumb": "https://live.staticflickr.com/65535/50020725121_74572acf1c_n.jpg",
    "id_album": "-39098563",
    "description": "Eagle_876679",
    "title": "Eagle_876679",
    "link_img": "https://live.staticflickr.com/65535/50020725121_645149f021_o.jpg",
    "id_image": "Eagle_876679",
    "count_view": 0
  },
  {
    "link_thumb": "https://live.staticflickr.com/65535/50023681592_ecc0549973_n.jpg",
    "id_album": "1961094930",
    "description": "Seal_873370",
    "title": "Seal_873370",
    "link_img": "https://live.staticflickr.com/65535/50023681592_78d85fbf13_o.jpg",
    "id_image": "Seal_873370",
    "count_view": 0
  },
  {
    "link_thumb": "https://live.staticflickr.com/65535/50017886112_8051f731cd_n.jpg",
    "id_album": "-401151552",
    "description": "Butterfly_549955",
    "title": "Butterfly_549955",
    "link_img": "https://live.staticflickr.com/65535/50017886112_964102dd21_o.jpg",
    "id_image": "Butterfly_549955",
    "count_view": 0
  },
  {
    "link_thumb": "https://live.staticflickr.com/65535/50020571033_8a6cd9bc9c_n.jpg",
    "id_album": "-462831704",
    "description": "Cat_555937",
    "title": "Cat_555937",
    "link_img": "https://live.staticflickr.com/65535/50020571033_3418abec87_o.jpg",
    "id_image": "Cat_555937",
    "count_view": 0
  },
  {
    "link_thumb": "https://live.staticflickr.com/65535/50017720127_b39be65d11_n.jpg",
    "id_album": "-1561645279",
    "description": "BlackPanther_887864",
    "title": "BlackPanther_887864",
    "link_img": "https://live.staticflickr.com/65535/50017720127_8d4c3972d8_o.jpg",
    "id_image": "BlackPanther_887864",
    "count_view": 0
  },
  {
    "link_thumb": "https://live.staticflickr.com/65535/50020649027_91e874af06_n.jpg",
    "id_album": "-149330231",
    "description": "Dog_411154",
    "title": "Dog_411154",
    "link_img": "https://live.staticflickr.com/65535/50020649027_db2d37ed12_o.jpg",
    "id_image": "Dog_411154",
    "count_view": 0
  },
  {
    "link_thumb": "https://live.staticflickr.com/65535/50023641962_9da4f0c5f9_n.jpg",
    "id_album": "1656131695",
    "description": "Seagull_679671",
    "title": "Seagull_679671",
    "link_img": "https://live.staticflickr.com/65535/50023641962_5cb535cc83_o.jpg",
    "id_image": "Seagull_679671",
    "count_view": 0
  },
  {
    "link_thumb": "https://live.staticflickr.com/65535/50023958703_91f8853c28_n.jpg",
    "id_album": "-709711865",
    "description": "Wolf_428478",
    "title": "Wolf_428478",
    "link_img": "https://live.staticflickr.com/65535/50023958703_8f7cd5ba3a_o.jpg",
    "id_image": "Wolf_428478",
    "count_view": 0
  },
  {
    "link_thumb": "https://live.staticflickr.com/65535/50020476911_3dc423d1fa_n.jpg",
    "id_album": "-149330231",
    "description": "Dog_679479",
    "title": "Dog_679479",
    "link_img": "https://live.staticflickr.com/65535/50020476911_7caa5e1dd8_o.jpg",
    "id_image": "Dog_679479",
    "count_view": 0
  },
  {
    "link_thumb": "https://live.staticflickr.com/65535/50017468432_d344ff4f47_n.jpg",
    "id_album": "-1846011410",
    "description": "Bird_190940",
    "title": "Bird_190940",
    "link_img": "https://live.staticflickr.com/65535/50017468432_572f185fd5_o.jpg",
    "id_image": "Bird_190940",
    "count_view": 0
  },
  {
    "link_thumb": "https://live.staticflickr.com/65535/50019455571_cfb0a1cb23_n.jpg",
    "id_album": "-462831705",
    "description": "Cat_91441",
    "title": "Cat_91441",
    "link_img": "https://live.staticflickr.com/65535/50019455571_8b1999705a_o.jpg",
    "id_image": "Cat_91441",
    "count_view": 0
  },
  {
    "link_thumb": "https://live.staticflickr.com/65535/50020266787_077cb1c017_n.jpg",
    "id_album": "1903411565",
    "description": "Deer_432328",
    "title": "Deer_432328",
    "link_img": "https://live.staticflickr.com/65535/50020266787_0c7afd6016_o.jpg",
    "id_image": "Deer_432328",
    "count_view": 0
  },
  {
    "link_thumb": "https://live.staticflickr.com/65535/50019455587_22736ef76b_n.jpg",
    "id_album": "-462831704",
    "description": "Cat_436687",
    "title": "Cat_436687",
    "link_img": "https://live.staticflickr.com/65535/50019455587_ee288d1286_o.jpg",
    "id_image": "Cat_436687",
    "count_view": 0
  },
  {
    "link_thumb": "https://live.staticflickr.com/65535/50019994496_7d92917dce_n.jpg",
    "id_album": "1903411565",
    "description": "Deer_342487",
    "title": "Deer_342487",
    "link_img": "https://live.staticflickr.com/65535/50019994496_30b898cc97_o.jpg",
    "id_image": "Deer_342487",
    "count_view": 0
  },
  {
    "link_thumb": "https://live.staticflickr.com/65535/50022926476_d0b1841763_n.jpg",
    "id_album": "-356780855",
    "description": "Puffin_479476",
    "title": "Puffin_479476",
    "link_img": "https://live.staticflickr.com/65535/50022926476_0742bc1a65_o.jpg",
    "id_image": "Puffin_479476",
    "count_view": 0
  },
  {
    "link_thumb": "https://live.staticflickr.com/65535/50017527373_b5bfe6837f_n.jpg",
    "id_album": "-462831702",
    "description": "Cat_361106",
    "title": "Cat_361106",
    "link_img": "https://live.staticflickr.com/65535/50017527373_298623e404_o.jpg",
    "id_image": "Cat_361106",
    "count_view": 0
  },
  {
    "link_thumb": "https://live.staticflickr.com/65535/50019759238_b53fd97620_n.jpg",
    "id_album": "-149330232",
    "description": "Dog_346223",
    "title": "Dog_346223",
    "link_img": "https://live.staticflickr.com/65535/50019759238_33b87e717b_o.jpg",
    "id_image": "Dog_346223",
    "count_view": 0
  },
  {
    "link_thumb": "https://live.staticflickr.com/65535/50022934651_3231e4f36d_n.jpg",
    "id_album": "-356780855",
    "description": "Puffin_874512",
    "title": "Puffin_874512",
    "link_img": "https://live.staticflickr.com/65535/50022934651_2da16f96c7_o.jpg",
    "id_image": "Puffin_874512",
    "count_view": 0
  },
  {
    "link_thumb": "https://live.staticflickr.com/65535/50022178101_8b84ce8b93_n.jpg",
    "id_album": "-1173056085",
    "description": "Macaw_595747",
    "title": "Macaw_595747",
    "link_img": "https://live.staticflickr.com/65535/50022178101_ea07bc3896_o.jpg",
    "id_image": "Macaw_595747",
    "count_view": 0
  },
  {
    "link_thumb": "https://live.staticflickr.com/65535/50020340796_153d06baa1_n.jpg",
    "id_album": "-149330232",
    "description": "Dog_370083",
    "title": "Dog_370083",
    "link_img": "https://live.staticflickr.com/65535/50020340796_ce96106f88_o.jpg",
    "id_image": "Dog_370083",
    "count_view": 0
  },
  {
    "link_thumb": "https://live.staticflickr.com/65535/50022217512_cab7939e61_n.jpg",
    "id_album": "1392348450",
    "description": "Leopard_930438",
    "title": "Leopard_930438",
    "link_img": "https://live.staticflickr.com/65535/50022217512_51d2451738_o.jpg",
    "id_image": "Leopard_930438",
    "count_view": 0
  },
  {
    "link_thumb": "https://live.staticflickr.com/65535/50020608162_ab808280e2_n.jpg",
    "id_album": "-149330232",
    "description": "Dog_375346",
    "title": "Dog_375346",
    "link_img": "https://live.staticflickr.com/65535/50020608162_607b659148_o.jpg",
    "id_image": "Dog_375346",
    "count_view": 0
  },
  {
    "link_thumb": "https://live.staticflickr.com/65535/50020511208_e7657ffdee_n.jpg",
    "id_album": "844170697",
    "description": "Frog_288237",
    "title": "Frog_288237",
    "link_img": "https://live.staticflickr.com/65535/50020511208_9c5c8c7749_o.jpg",
    "id_image": "Frog_288237",
    "count_view": 0
  },
  {
    "link_thumb": "https://live.staticflickr.com/65535/50016962271_ebe19eeca0_n.jpg",
    "id_album": "231236068",
    "description": "BaldEagle_588524",
    "title": "BaldEagle_588524",
    "link_img": "https://live.staticflickr.com/65535/50016962271_9eb582768d_o.jpg",
    "id_image": "BaldEagle_588524",
    "count_view": 0
  },
  {
    "link_thumb": "https://live.staticflickr.com/65535/50023383116_1469e68fc1_n.jpg",
    "id_album": "1656131695",
    "description": "Seagull_600537",
    "title": "Seagull_600537",
    "link_img": "https://live.staticflickr.com/65535/50023383116_90cfcd9078_o.jpg",
    "id_image": "Seagull_600537",
    "count_view": 0
  },
  {
    "link_thumb": "https://live.staticflickr.com/65535/50021299678_14253e5006_n.jpg",
    "id_album": "-1882491687",
    "description": "Ladybug_266240",
    "title": "Ladybug_266240",
    "link_img": "https://live.staticflickr.com/65535/50021299678_dbdb19bc6b_o.jpg",
    "id_image": "Ladybug_266240",
    "count_view": 0
  },
  {
    "link_thumb": "https://live.staticflickr.com/65535/50020874873_475fac6478_n.jpg",
    "id_album": "109779448",
    "description": "Hare_938147",
    "title": "Hare_938147",
    "link_img": "https://live.staticflickr.com/65535/50020874873_ae868c5cbe_o.jpg",
    "id_image": "Hare_938147",
    "count_view": 0
  },
  {
    "link_thumb": "https://live.staticflickr.com/65535/50024567771_fb6cc798f0_n.jpg",
    "id_album": "1104421803",
    "description": "Zebra_312640",
    "title": "Zebra_312640",
    "link_img": "https://live.staticflickr.com/65535/50024567771_992d30d3a1_o.jpg",
    "id_image": "Zebra_312640",
    "count_view": 0
  },
  {
    "link_thumb": "https://live.staticflickr.com/65535/50020278588_b1693d5e2f_n.jpg",
    "id_album": "822895535",
    "description": "Falcon_456272",
    "title": "Falcon_456272",
    "link_img": "https://live.staticflickr.com/65535/50020278588_be0ab4fe38_o.jpg",
    "id_image": "Falcon_456272",
    "count_view": 0
  },
  {
    "link_thumb": "https://live.staticflickr.com/65535/50021062547_646b953a19_n.jpg",
    "id_album": "822895535",
    "description": "Falcon_183545",
    "title": "Falcon_183545",
    "link_img": "https://live.staticflickr.com/65535/50021062547_a91ef2070d_o.jpg",
    "id_image": "Falcon_183545",
    "count_view": 0
  },
  {
    "link_thumb": "https://live.staticflickr.com/65535/50024168271_6f05c8827c_n.jpg",
    "id_album": "-800019164",
    "description": "Snail_385162",
    "title": "Snail_385162",
    "link_img": "https://live.staticflickr.com/65535/50024168271_bb02d0c705_o.jpg",
    "id_image": "Snail_385162",
    "count_view": 0
  },
  {
    "link_thumb": "https://live.staticflickr.com/65535/50019634247_84255db16e_n.jpg",
    "id_album": "-462831703",
    "description": "Cat_877410",
    "title": "Cat_877410",
    "link_img": "https://live.staticflickr.com/65535/50019634247_fcfaf5b563_o.jpg",
    "id_image": "Cat_877410",
    "count_view": 0
  },
  {
    "link_thumb": "https://live.staticflickr.com/65535/50021667952_84f7ecfd80_n.jpg",
    "id_album": "109779448",
    "description": "Hare_433527",
    "title": "Hare_433527",
    "link_img": "https://live.staticflickr.com/65535/50021667952_9228dcf0de_o.jpg",
    "id_image": "Hare_433527",
    "count_view": 0
  },
  {
    "link_thumb": "https://live.staticflickr.com/65535/50019389901_5532a7750e_n.jpg",
    "id_album": "-462831703",
    "description": "Cat_881535",
    "title": "Cat_881535",
    "link_img": "https://live.staticflickr.com/65535/50019389901_51ffc1ac6d_o.jpg",
    "id_image": "Cat_881535",
    "count_view": 0
  },
  {
    "link_thumb": "https://live.staticflickr.com/65535/50020396791_ea63032c79_n.jpg",
    "id_album": "-149330231",
    "description": "Dog_420074",
    "title": "Dog_420074",
    "link_img": "https://live.staticflickr.com/65535/50020396791_d2ed3f4cc1_o.jpg",
    "id_image": "Dog_420074",
    "count_view": 0
  },
  {
    "link_thumb": "https://live.staticflickr.com/65535/50016748133_ee0d5ab326_n.jpg",
    "id_album": "-1846011410",
    "description": "Bird_364093",
    "title": "Bird_364093",
    "link_img": "https://live.staticflickr.com/65535/50016748133_20a21e925a_o.jpg",
    "id_image": "Bird_364093",
    "count_view": 0
  },
  {
    "link_thumb": "https://live.staticflickr.com/65535/50017244777_19b72cbfea_n.jpg",
    "id_album": "809937717",
    "description": "Beagle_167848",
    "title": "Beagle_167848",
    "link_img": "https://live.staticflickr.com/65535/50017244777_19499616af_o.jpg",
    "id_image": "Beagle_167848",
    "count_view": 0
  },
  {
    "link_thumb": "https://live.staticflickr.com/65535/50020539658_76e0bc2fa5_n.jpg",
    "id_album": "844170697",
    "description": "Frog_883781",
    "title": "Frog_883781",
    "link_img": "https://live.staticflickr.com/65535/50020539658_b65248ff9d_o.jpg",
    "id_image": "Frog_883781",
    "count_view": 0
  },
  {
    "link_thumb": "https://live.staticflickr.com/65535/50018352832_ac13d6ac4a_n.jpg",
    "id_album": "-462831702",
    "description": "Cat_370190",
    "title": "Cat_370190",
    "link_img": "https://live.staticflickr.com/65535/50018352832_9b9a2c2ab6_o.jpg",
    "id_image": "Cat_370190",
    "count_view": 0
  },
  {
    "link_thumb": "https://live.staticflickr.com/65535/50022054207_a5be8b86c0_n.jpg",
    "id_album": "770105808",
    "description": "Kingfisher_388627",
    "title": "Kingfisher_388627",
    "link_img": "https://live.staticflickr.com/65535/50022054207_d6f0207510_o.jpg",
    "id_image": "Kingfisher_388627",
    "count_view": 0
  },
  {
    "link_thumb": "https://live.staticflickr.com/65535/50352620596_2d9dba925d_n.jpg",
    "id_album": "-462831703",
    "description": "Cat_595094",
    "title": "Cat_595094",
    "link_img": "https://live.staticflickr.com/65535/50352620596_bb8fd358c2_o.jpg",
    "id_image": "Cat_595094",
    "count_view": 0
  },
  {
    "link_thumb": "https://live.staticflickr.com/65535/50023037956_22bf719e21_n.jpg",
    "id_album": "-353898617",
    "description": "Puppy_593039",
    "title": "Puppy_593039",
    "link_img": "https://live.staticflickr.com/65535/50023037956_19de728a60_o.jpg",
    "id_image": "Puppy_593039",
    "count_view": 0
  },
  {
    "link_thumb": "https://live.staticflickr.com/65535/50023659417_8ddd0168a4_n.jpg",
    "id_album": "1961094930",
    "description": "Seal_277026",
    "title": "Seal_277026",
    "link_img": "https://live.staticflickr.com/65535/50023659417_97bcc3b5f5_o.jpg",
    "id_image": "Seal_277026",
    "count_view": 0
  },
  {
    "link_thumb": "https://live.staticflickr.com/65535/50017378161_46c7c63d2b_n.jpg",
    "id_album": "-1846011410",
    "description": "Bird_590227",
    "title": "Bird_590227",
    "link_img": "https://live.staticflickr.com/65535/50017378161_f92d1389d6_o.jpg",
    "id_image": "Bird_590227",
    "count_view": 0
  },
  {
    "link_thumb": "https://live.staticflickr.com/65535/50020048591_0ff0826972_n.jpg",
    "id_album": "1903411565",
    "description": "Deer_742511",
    "title": "Deer_742511",
    "link_img": "https://live.staticflickr.com/65535/50020048591_af8f3ee7bc_o.jpg",
    "id_image": "Deer_742511",
    "count_view": 0
  },
  {
    "link_thumb": "https://live.staticflickr.com/65535/50024828897_1caf0a171d_n.jpg",
    "id_album": "1104421803",
    "description": "Zebra_325862",
    "title": "Zebra_325862",
    "link_img": "https://live.staticflickr.com/65535/50024828897_e3702be457_o.jpg",
    "id_image": "Zebra_325862",
    "count_view": 0
  },
  {
    "link_thumb": "https://live.staticflickr.com/65535/50017505028_5d998ea100_n.jpg",
    "id_album": "-462831702",
    "description": "Cat_350481",
    "title": "Cat_350481",
    "link_img": "https://live.staticflickr.com/65535/50017505028_912340a071_o.jpg",
    "id_image": "Cat_350481",
    "count_view": 0
  },
  {
    "link_thumb": "https://live.staticflickr.com/65535/50017231026_f731b44177_n.jpg",
    "id_album": "-1846011410",
    "description": "Bird_284904",
    "title": "Bird_284904",
    "link_img": "https://live.staticflickr.com/65535/50017231026_8a5c61a5fb_o.jpg",
    "id_image": "Bird_284904",
    "count_view": 0
  },
  {
    "link_thumb": "https://live.staticflickr.com/65535/50017053488_905b6a7183_n.jpg",
    "id_album": "-401151552",
    "description": "Butterfly_386724",
    "title": "Butterfly_386724",
    "link_img": "https://live.staticflickr.com/65535/50017053488_ee3be24c8c_o.jpg",
    "id_image": "Butterfly_386724",
    "count_view": 0
  },
  {
    "link_thumb": "https://live.staticflickr.com/65535/50020250652_e1da3277a3_n.jpg",
    "id_album": "1903411565",
    "description": "Deer_338631",
    "title": "Deer_338631",
    "link_img": "https://live.staticflickr.com/65535/50020250652_95aaed7007_o.jpg",
    "id_image": "Deer_338631",
    "count_view": 0
  },
  {
    "link_thumb": "https://live.staticflickr.com/65535/50020815092_075a968088_n.jpg",
    "id_album": "-149330231",
    "description": "Dog_998267",
    "title": "Dog_998267",
    "link_img": "https://live.staticflickr.com/65535/50020815092_b4f5399250_o.jpg",
    "id_image": "Dog_998267",
    "count_view": 0
  },
  {
    "link_thumb": "https://live.staticflickr.com/65535/50022622808_5249658caf_n.jpg",
    "id_album": "248289288",
    "description": "Raccoon_867084",
    "title": "Raccoon_867084",
    "link_img": "https://live.staticflickr.com/65535/50022622808_d71f10c6c9_o.jpg",
    "id_image": "Raccoon_867084",
    "count_view": 0
  },
  {
    "link_thumb": "https://live.staticflickr.com/65535/50017684241_e611836223_n.jpg",
    "id_album": "-401151552",
    "description": "Butterfly_870295",
    "title": "Butterfly_870295",
    "link_img": "https://live.staticflickr.com/65535/50017684241_382f8646fe_o.jpg",
    "id_image": "Butterfly_870295",
    "count_view": 0
  },
  {
    "link_thumb": "https://live.staticflickr.com/65535/50020680077_bf9b8c9d4d_n.jpg",
    "id_album": "-149330231",
    "description": "Dog_456973",
    "title": "Dog_456973",
    "link_img": "https://live.staticflickr.com/65535/50020680077_6985eda91f_o.jpg",
    "id_image": "Dog_456973",
    "count_view": 0
  },
  {
    "link_thumb": "https://live.staticflickr.com/65535/50020342236_aeaa1c82bb_n.jpg",
    "id_album": "-149330232",
    "description": "Dog_370196",
    "title": "Dog_370196",
    "link_img": "https://live.staticflickr.com/65535/50020342236_f1a3a9f492_o.jpg",
    "id_image": "Dog_370196",
    "count_view": 0
  },
  {
    "link_thumb": "https://live.staticflickr.com/65535/50023231326_f3280c1640_n.jpg",
    "id_album": "332874268",
    "description": "RedPanda_782384",
    "title": "RedPanda_782384",
    "link_img": "https://live.staticflickr.com/65535/50023231326_41abebebd3_o.jpg",
    "id_image": "RedPanda_782384",
    "count_view": 0
  },
  {
    "link_thumb": "https://live.staticflickr.com/65535/50021836921_1caa5e40f8_n.jpg",
    "id_album": "1307335982",
    "description": "LabradorRetriever_915540",
    "title": "LabradorRetriever_915540",
    "link_img": "https://live.staticflickr.com/65535/50021836921_2b074eac10_o.jpg",
    "id_image": "LabradorRetriever_915540",
    "count_view": 0
  },
  {
    "link_thumb": "https://live.staticflickr.com/65535/50020828738_58d695d50e_n.jpg",
    "id_album": "2060159334",
    "description": "GoldenRetriever_927688",
    "title": "GoldenRetriever_927688",
    "link_img": "https://live.staticflickr.com/65535/50020828738_05ba109767_o.jpg",
    "id_image": "GoldenRetriever_927688",
    "count_view": 0
  },
  {
    "link_thumb": "https://live.staticflickr.com/65535/50019786063_899808e593_n.jpg",
    "id_album": "-149330232",
    "description": "Dog_360344",
    "title": "Dog_360344",
    "link_img": "https://live.staticflickr.com/65535/50019786063_1855bdb694_o.jpg",
    "id_image": "Dog_360344",
    "count_view": 0
  },
  {
    "link_thumb": "https://live.staticflickr.com/65535/50019391041_e1a98c52e3_n.jpg",
    "id_album": "-462831703",
    "description": "Cat_881913",
    "title": "Cat_881913",
    "link_img": "https://live.staticflickr.com/65535/50019391041_f0d2e643e5_o.jpg",
    "id_image": "Cat_881913",
    "count_view": 0
  },
  {
    "link_thumb": "https://live.staticflickr.com/65535/50022174167_780c3e3860_n.jpg",
    "id_album": "1392348450",
    "description": "Leopard_387934",
    "title": "Leopard_387934",
    "link_img": "https://live.staticflickr.com/65535/50022174167_3a97e6f7c1_o.jpg",
    "id_image": "Leopard_387934",
    "count_view": 0
  },
  {
    "link_thumb": "https://live.staticflickr.com/65535/50023578587_998c507606_n.jpg",
    "id_album": "1512228924",
    "description": "ScarletMacaw_240236",
    "title": "ScarletMacaw_240236",
    "link_img": "https://live.staticflickr.com/65535/50023578587_82d0ab1130_o.jpg",
    "id_image": "ScarletMacaw_240236",
    "count_view": 0
  },
  {
    "link_thumb": "https://live.staticflickr.com/65535/50021516977_f3ee9199ec_n.jpg",
    "id_album": "-462831703",
    "description": "Cat_817282",
    "title": "Cat_817282",
    "link_img": "https://live.staticflickr.com/65535/50021516977_90dd6b1c19_o.jpg",
    "id_image": "Cat_817282",
    "count_view": 0
  },
  {
    "link_thumb": "https://live.staticflickr.com/65535/50022155292_3e3f705312_n.jpg",
    "id_album": "1392348450",
    "description": "Leopard_334895",
    "title": "Leopard_334895",
    "link_img": "https://live.staticflickr.com/65535/50022155292_929318245f_o.jpg",
    "id_image": "Leopard_334895",
    "count_view": 0
  },
  {
    "link_thumb": "https://live.staticflickr.com/65535/50019059978_b97064e832_n.jpg",
    "id_album": "-1930903528",
    "description": "CatDog_783616",
    "title": "CatDog_783616",
    "link_img": "https://live.staticflickr.com/65535/50019059978_8a009f18d2_o.jpg",
    "id_image": "CatDog_783616",
    "count_view": 0
  },
  {
    "link_thumb": "https://live.staticflickr.com/65535/50020496762_7b853eae55_n.jpg",
    "id_album": "-149330232",
    "description": "Dog_323392",
    "title": "Dog_323392",
    "link_img": "https://live.staticflickr.com/65535/50020496762_570285a009_o.jpg",
    "id_image": "Dog_323392",
    "count_view": 0
  },
  {
    "link_thumb": "https://live.staticflickr.com/65535/50017471722_ac997eceec_n.jpg",
    "id_album": "-1846011410",
    "description": "Bird_207675",
    "title": "Bird_207675",
    "link_img": "https://live.staticflickr.com/65535/50017471722_5bd40bf8f0_o.jpg",
    "id_image": "Bird_207675",
    "count_view": 0
  },
  {
    "link_thumb": "https://live.staticflickr.com/65535/50020713693_fe00de0322_n.jpg",
    "id_album": "-462831703",
    "description": "Cat_798025",
    "title": "Cat_798025",
    "link_img": "https://live.staticflickr.com/65535/50020713693_970934fbce_o.jpg",
    "id_image": "Cat_798025",
    "count_view": 0
  },
  {
    "link_thumb": "https://live.staticflickr.com/65535/50018399522_24549251b9_n.jpg",
    "id_album": "-462831702",
    "description": "Cat_399047",
    "title": "Cat_399047",
    "link_img": "https://live.staticflickr.com/65535/50018399522_814713f626_o.jpg",
    "id_image": "Cat_399047",
    "count_view": 0
  },
  {
    "link_thumb": "https://live.staticflickr.com/65535/50020766373_d9023d7f9a_n.jpg",
    "id_album": "-405626519",
    "description": "GermanShepherd_885439",
    "title": "GermanShepherd_885439",
    "link_img": "https://live.staticflickr.com/65535/50020766373_bf58de3d1a_o.jpg",
    "id_image": "GermanShepherd_885439",
    "count_view": 0
  },
  {
    "link_thumb": "https://live.staticflickr.com/65535/50017840616_cc0ffdf14e_n.jpg",
    "id_album": "-462831705",
    "description": "Cat_202976",
    "title": "Cat_202976",
    "link_img": "https://live.staticflickr.com/65535/50017840616_96dcabc38f_o.jpg",
    "id_image": "Cat_202976",
    "count_view": 0
  },
  {
    "link_thumb": "https://live.staticflickr.com/65535/50016423363_b974f55898_n.jpg",
    "id_album": "390697200",
    "description": "AustralianShepherd_957122",
    "title": "AustralianShepherd_957122",
    "link_img": "https://live.staticflickr.com/65535/50016423363_873284b846_o.jpg",
    "id_image": "AustralianShepherd_957122",
    "count_view": 0
  },
  {
    "link_thumb": "https://live.staticflickr.com/65535/50016456963_b09f22369f_n.jpg",
    "id_album": "809937717",
    "description": "Beagle_251252",
    "title": "Beagle_251252",
    "link_img": "https://live.staticflickr.com/65535/50016456963_18eca65a1e_o.jpg",
    "id_image": "Beagle_251252",
    "count_view": 0
  },
  {
    "link_thumb": "https://live.staticflickr.com/65535/50016691143_00d3195929_n.jpg",
    "id_album": "-1846011410",
    "description": "Bird_228973",
    "title": "Bird_228973",
    "link_img": "https://live.staticflickr.com/65535/50016691143_034bd1c071_o.jpg",
    "id_image": "Bird_228973",
    "count_view": 0
  },
  {
    "link_thumb": "https://live.staticflickr.com/65535/50020369157_b78f9570fa_n.jpg",
    "id_album": "-149330232",
    "description": "Dog_101799",
    "title": "Dog_101799",
    "link_img": "https://live.staticflickr.com/65535/50020369157_e943789374_o.jpg",
    "id_image": "Dog_101799",
    "count_view": 0
  },
  {
    "link_thumb": "https://live.staticflickr.com/65535/50019696298_37ce0a6fe9_n.jpg",
    "id_album": "-149330232",
    "description": "Dog_293957",
    "title": "Dog_293957",
    "link_img": "https://live.staticflickr.com/65535/50019696298_ef7fd9e2ce_o.jpg",
    "id_image": "Dog_293957",
    "count_view": 0
  },
  {
    "link_thumb": "https://live.staticflickr.com/65535/50023642721_8e8c79f2d9_n.jpg",
    "id_album": "-1131363127",
    "description": "SnowLeopard_393747",
    "title": "SnowLeopard_393747",
    "link_img": "https://live.staticflickr.com/65535/50023642721_64492f7b02_o.jpg",
    "id_image": "SnowLeopard_393747",
    "count_view": 0
  },
  {
    "link_thumb": "https://live.staticflickr.com/65535/50020790116_3c2561f8a9_n.jpg",
    "id_album": "1270947998",
    "description": "Elephant_787297",
    "title": "Elephant_787297",
    "link_img": "https://live.staticflickr.com/65535/50020790116_71169fd3d5_o.jpg",
    "id_image": "Elephant_787297",
    "count_view": 0
  },
  {
    "link_thumb": "https://live.staticflickr.com/65535/50020712482_b88c64bdb1_n.jpg",
    "id_album": "-149330231",
    "description": "Dog_543062",
    "title": "Dog_543062",
    "link_img": "https://live.staticflickr.com/65535/50020712482_a0a3b73510_o.jpg",
    "id_image": "Dog_543062",
    "count_view": 0
  },
  {
    "link_thumb": "https://live.staticflickr.com/65535/50020377403_9140492354_n.jpg",
    "id_album": "-1694105481",
    "description": "Fly_410215",
    "title": "Fly_410215",
    "link_img": "https://live.staticflickr.com/65535/50020377403_a73cd6dba7_o.jpg",
    "id_image": "Fly_410215",
    "count_view": 0
  },
  {
    "link_thumb": "https://live.staticflickr.com/65535/50351895778_7eb7880e2b_n.jpg",
    "id_album": "-462831703",
    "description": "Cat_534025",
    "title": "Cat_534025",
    "link_img": "https://live.staticflickr.com/65535/50351895778_1d2702c44f_o.jpg",
    "id_image": "Cat_534025",
    "count_view": 0
  },
  {
    "link_thumb": "https://live.staticflickr.com/65535/50022918458_cbf7e78cc4_n.jpg",
    "id_album": "-1596347105",
    "description": "Shark_786477",
    "title": "Shark_786477",
    "link_img": "https://live.staticflickr.com/65535/50022918458_b855282463_o.jpg",
    "id_image": "Shark_786477",
    "count_view": 0
  },
  {
    "link_thumb": "https://live.staticflickr.com/65535/50017924722_809fce889a_n.jpg",
    "id_album": "-401151552",
    "description": "Butterfly_773527",
    "title": "Butterfly_773527",
    "link_img": "https://live.staticflickr.com/65535/50017924722_00a38538f1_o.jpg",
    "id_image": "Butterfly_773527",
    "count_view": 0
  },
  {
    "link_thumb": "https://live.staticflickr.com/65535/50351999723_9b6e752603_n.jpg",
    "id_album": "-462831702",
    "description": "Cat_167228",
    "title": "Cat_167228",
    "link_img": "https://live.staticflickr.com/65535/50351999723_dd7f2e73bf_o.jpg",
    "id_image": "Cat_167228",
    "count_view": 0
  },
  {
    "link_thumb": "https://live.staticflickr.com/65535/50023451268_0cf5fa4524_n.jpg",
    "id_album": "1244464375",
    "description": "Starfish_471891",
    "title": "Starfish_471891",
    "link_img": "https://live.staticflickr.com/65535/50023451268_fc7faae412_o.jpg",
    "id_image": "Starfish_471891",
    "count_view": 0
  },
  {
    "link_thumb": "https://live.staticflickr.com/65535/50016495103_55bf29bde7_n.jpg",
    "id_album": "-422187261",
    "description": "Bear_331407",
    "title": "Bear_331407",
    "link_img": "https://live.staticflickr.com/65535/50016495103_7c200301dd_o.jpg",
    "id_image": "Bear_331407",
    "count_view": 0
  },
  {
    "link_thumb": "https://live.staticflickr.com/65535/50024483906_f9420ac878_n.jpg",
    "id_album": "-709711865",
    "description": "Wolf_348076",
    "title": "Wolf_348076",
    "link_img": "https://live.staticflickr.com/65535/50024483906_15c537f429_o.jpg",
    "id_image": "Wolf_348076",
    "count_view": 0
  },
  {
    "link_thumb": "https://live.staticflickr.com/65535/50023407636_9d4a38c523_n.jpg",
    "id_album": "1961094930",
    "description": "Seal_352276",
    "title": "Seal_352276",
    "link_img": "https://live.staticflickr.com/65535/50023407636_89f906236a_o.jpg",
    "id_image": "Seal_352276",
    "count_view": 0
  },
  {
    "link_thumb": "https://live.staticflickr.com/65535/50022897331_831cf342b7_n.jpg",
    "id_album": "191452764",
    "description": "PrayingMantis_588125",
    "title": "PrayingMantis_588125",
    "link_img": "https://live.staticflickr.com/65535/50022897331_e24b1dec42_o.jpg",
    "id_image": "PrayingMantis_588125",
    "count_view": 0
  },
  {
    "link_thumb": "https://live.staticflickr.com/65535/50019620202_5f6a9b6175_n.jpg",
    "id_album": "-462831703",
    "description": "Cat_873097",
    "title": "Cat_873097",
    "link_img": "https://live.staticflickr.com/65535/50019620202_cf0f213117_o.jpg",
    "id_image": "Cat_873097",
    "count_view": 0
  },
  {
    "link_thumb": "https://live.staticflickr.com/65535/50022243783_410d8c787e_n.jpg",
    "id_album": "1008910300",
    "description": "PolarBear_231393",
    "title": "PolarBear_231393",
    "link_img": "https://live.staticflickr.com/65535/50022243783_8793a4e9fd_o.jpg",
    "id_image": "PolarBear_231393",
    "count_view": 0
  },
  {
    "link_thumb": "https://live.staticflickr.com/65535/50019813482_a6589c5c2a_n.jpg",
    "id_album": "-462831703",
    "description": "Cat_985110",
    "title": "Cat_985110",
    "link_img": "https://live.staticflickr.com/65535/50019813482_88afed3a7f_o.jpg",
    "id_image": "Cat_985110",
    "count_view": 0
  },
  {
    "link_thumb": "https://live.staticflickr.com/65535/50016897016_6a179545d2_n.jpg",
    "id_album": "523598895",
    "description": "Artistic_332350",
    "title": "Artistic_332350",
    "link_img": "https://live.staticflickr.com/65535/50016897016_350b512945_o.jpg",
    "id_image": "Artistic_332350",
    "count_view": 0
  },
  {
    "link_thumb": "https://live.staticflickr.com/65535/50022117412_7ac3dcb09c_n.jpg",
    "id_album": "-1882491687",
    "description": "Ladybug_719776",
    "title": "Ladybug_719776",
    "link_img": "https://live.staticflickr.com/65535/50022117412_889772120e_o.jpg",
    "id_image": "Ladybug_719776",
    "count_view": 0
  },
  {
    "link_thumb": "https://live.staticflickr.com/65535/50020983997_845d4a9927_n.jpg",
    "id_album": "1270947998",
    "description": "Elephant_106561",
    "title": "Elephant_106561",
    "link_img": "https://live.staticflickr.com/65535/50020983997_e28684f231_o.jpg",
    "id_image": "Elephant_106561",
    "count_view": 0
  },
  {
    "link_thumb": "https://live.staticflickr.com/65535/50017221808_8707593bae_n.jpg",
    "id_album": "-462831705",
    "description": "Cat_108665",
    "title": "Cat_108665",
    "link_img": "https://live.staticflickr.com/65535/50017221808_c54ed2bd44_o.jpg",
    "id_image": "Cat_108665",
    "count_view": 0
  },
  {
    "link_thumb": "https://live.staticflickr.com/65535/50018158466_dd74545b56_n.jpg",
    "id_album": "-462831702",
    "description": "Cat_409528",
    "title": "Cat_409528",
    "link_img": "https://live.staticflickr.com/65535/50018158466_68ba90f2ed_o.jpg",
    "id_image": "Cat_409528",
    "count_view": 0
  },
  {
    "link_thumb": "https://live.staticflickr.com/65535/50022720988_180d24a9aa_n.jpg",
    "id_album": "48367914",
    "description": "Rhino_222453",
    "title": "Rhino_222453",
    "link_img": "https://live.staticflickr.com/65535/50022720988_61682a3a0c_o.jpg",
    "id_image": "Rhino_222453",
    "count_view": 0
  },
  {
    "link_thumb": "https://live.staticflickr.com/65535/50022545271_63b3fff71a_n.jpg",
    "id_album": "-358592519",
    "description": "Panda_650147",
    "title": "Panda_650147",
    "link_img": "https://live.staticflickr.com/65535/50022545271_5745348b6f_o.jpg",
    "id_image": "Panda_650147",
    "count_view": 0
  },
  {
    "link_thumb": "https://live.staticflickr.com/65535/50018052071_f5268fe270_n.jpg",
    "id_album": "-462831702",
    "description": "Cat_359993",
    "title": "Cat_359993",
    "link_img": "https://live.staticflickr.com/65535/50018052071_91110f74d7_o.jpg",
    "id_image": "Cat_359993",
    "count_view": 0
  },
  {
    "link_thumb": "https://live.staticflickr.com/65535/50021066726_37ffe79dd5_n.jpg",
    "id_album": "844170697",
    "description": "Frog_523731",
    "title": "Frog_523731",
    "link_img": "https://live.staticflickr.com/65535/50021066726_c9fc9363a1_o.jpg",
    "id_image": "Frog_523731",
    "count_view": 0
  },
  {
    "link_thumb": "https://live.staticflickr.com/65535/50016934913_3153130e5e_n.jpg",
    "id_album": "-530283314",
    "description": "BlueandyellowMacaw_311139",
    "title": "BlueandyellowMacaw_311139",
    "link_img": "https://live.staticflickr.com/65535/50016934913_61a26d439b_o.jpg",
    "id_image": "BlueandyellowMacaw_311139",
    "count_view": 0
  },
  {
    "link_thumb": "https://live.staticflickr.com/65535/50021179746_67f45ff632_n.jpg",
    "id_album": "-462831704",
    "description": "Cat_698331",
    "title": "Cat_698331",
    "link_img": "https://live.staticflickr.com/65535/50021179746_ae5c85c381_o.jpg",
    "id_image": "Cat_698331",
    "count_view": 0
  },
  {
    "link_thumb": "https://live.staticflickr.com/65535/50017223961_6aa8047e44_n.jpg",
    "id_album": "-1846011410",
    "description": "Bird_269955",
    "title": "Bird_269955",
    "link_img": "https://live.staticflickr.com/65535/50017223961_2b855fa057_o.jpg",
    "id_image": "Bird_269955",
    "count_view": 0
  },
  {
    "link_thumb": "https://live.staticflickr.com/65535/50023126126_03e3ccdb04_n.jpg",
    "id_album": "-1940643173",
    "description": "Rabbit_783096",
    "title": "Rabbit_783096",
    "link_img": "https://live.staticflickr.com/65535/50023126126_7e51ec9e03_o.jpg",
    "id_image": "Rabbit_783096",
    "count_view": 0
  },
  {
    "link_thumb": "https://live.staticflickr.com/65535/50017571711_29df8397ce_n.jpg",
    "id_album": "-401151552",
    "description": "Butterfly_366108",
    "title": "Butterfly_366108",
    "link_img": "https://live.staticflickr.com/65535/50017571711_76071928af_o.jpg",
    "id_image": "Butterfly_366108",
    "count_view": 0
  },
  {
    "link_thumb": "https://live.staticflickr.com/65535/50020266286_a14ab0faea_n.jpg",
    "id_album": "-149330232",
    "description": "Dog_335432",
    "title": "Dog_335432",
    "link_img": "https://live.staticflickr.com/65535/50020266286_e5d5d7b7d6_o.jpg",
    "id_image": "Dog_335432",
    "count_view": 0
  },
  {
    "link_thumb": "https://live.staticflickr.com/65535/50021584593_4e9a568769_n.jpg",
    "id_album": "-656526748",
    "description": "Lizard_881337",
    "title": "Lizard_881337",
    "link_img": "https://live.staticflickr.com/65535/50021584593_1b4c8ce4fb_o.jpg",
    "id_image": "Lizard_881337",
    "count_view": 0
  },
  {
    "link_thumb": "https://live.staticflickr.com/65535/50017908606_24ed94d112_n.jpg",
    "id_album": "-462831705",
    "description": "Cat_255370",
    "title": "Cat_255370",
    "link_img": "https://live.staticflickr.com/65535/50017908606_69ce553180_o.jpg",
    "id_image": "Cat_255370",
    "count_view": 0
  },
  {
    "link_thumb": "https://live.staticflickr.com/65535/50022867133_f501b6c507_n.jpg",
    "id_album": "1961094930",
    "description": "Seal_397444",
    "title": "Seal_397444",
    "link_img": "https://live.staticflickr.com/65535/50022867133_2e595ddac7_o.jpg",
    "id_image": "Seal_397444",
    "count_view": 0
  },
  {
    "link_thumb": "https://live.staticflickr.com/65535/50016831426_3e7e1c9120_n.jpg",
    "id_album": "-1741290715",
    "description": "Ant_361660",
    "title": "Ant_361660",
    "link_img": "https://live.staticflickr.com/65535/50016831426_60b60b23eb_o.jpg",
    "id_image": "Ant_361660",
    "count_view": 0
  },
  {
    "link_thumb": "https://live.staticflickr.com/65535/50017078067_a53e1cacdf_n.jpg",
    "id_album": "-1473450542",
    "description": "Alpaca_548387",
    "title": "Alpaca_548387",
    "link_img": "https://live.staticflickr.com/65535/50017078067_640ddf9d0a_o.jpg",
    "id_image": "Alpaca_548387",
    "count_view": 0
  },
  {
    "link_thumb": "https://live.staticflickr.com/65535/50017952852_83f2eefb3d_n.jpg",
    "id_album": "-401151552",
    "description": "Butterfly_905669",
    "title": "Butterfly_905669",
    "link_img": "https://live.staticflickr.com/65535/50017952852_350ea2bb42_o.jpg",
    "id_image": "Butterfly_905669",
    "count_view": 0
  },
  {
    "link_thumb": "https://live.staticflickr.com/65535/50024249907_b32e961222_n.jpg",
    "id_album": "1244464375",
    "description": "Starfish_348056",
    "title": "Starfish_348056",
    "link_img": "https://live.staticflickr.com/65535/50024249907_e883a6378a_o.jpg",
    "id_image": "Starfish_348056",
    "count_view": 0
  },
  {
    "link_thumb": "https://live.staticflickr.com/65535/50020952001_c59a69d959_n.jpg",
    "id_album": "-128218148",
    "description": "Fox_355517",
    "title": "Fox_355517",
    "link_img": "https://live.staticflickr.com/65535/50020952001_7f649b69ee_o.jpg",
    "id_image": "Fox_355517",
    "count_view": 0
  },
  {
    "link_thumb": "https://live.staticflickr.com/65535/50021747042_b0932ea9fc_n.jpg",
    "id_album": "-1933715543",
    "description": "Horse_344818",
    "title": "Horse_344818",
    "link_img": "https://live.staticflickr.com/65535/50021747042_2b335e9f8b_o.jpg",
    "id_image": "Horse_344818",
    "count_view": 0
  },
  {
    "link_thumb": "https://live.staticflickr.com/65535/50019771447_620c6dceb3_n.jpg",
    "id_album": "-462831703",
    "description": "Cat_951676",
    "title": "Cat_951676",
    "link_img": "https://live.staticflickr.com/65535/50019771447_0ef6048f73_o.jpg",
    "id_image": "Cat_951676",
    "count_view": 0
  },
  {
    "link_thumb": "https://live.staticflickr.com/65535/50022778353_8e89c7e610_n.jpg",
    "id_album": "1512228924",
    "description": "ScarletMacaw_327616",
    "title": "ScarletMacaw_327616",
    "link_img": "https://live.staticflickr.com/65535/50022778353_1b30a33d96_o.jpg",
    "id_image": "ScarletMacaw_327616",
    "count_view": 0
  },
  {
    "link_thumb": "https://live.staticflickr.com/65535/50019823423_7cf3542d40_n.jpg",
    "id_album": "-149330231",
    "description": "Dog_379696",
    "title": "Dog_379696",
    "link_img": "https://live.staticflickr.com/65535/50019823423_936d4edbbf_o.jpg",
    "id_image": "Dog_379696",
    "count_view": 0
  },
  {
    "link_thumb": "https://live.staticflickr.com/65535/50020079488_fb9bd6173a_n.jpg",
    "id_album": "-405058657",
    "description": "Dragonfly_346252",
    "title": "Dragonfly_346252",
    "link_img": "https://live.staticflickr.com/65535/50020079488_ebb8a68a02_o.jpg",
    "id_image": "Dragonfly_346252",
    "count_view": 0
  },
  {
    "link_thumb": "https://live.staticflickr.com/65535/50022427821_cbe79b1aca_n.jpg",
    "id_album": "-1384601601",
    "description": "Owl_440759",
    "title": "Owl_440759",
    "link_img": "https://live.staticflickr.com/65535/50022427821_80db2c3099_o.jpg",
    "id_image": "Owl_440759",
    "count_view": 0
  },
  {
    "link_thumb": "https://live.staticflickr.com/65535/50022429322_00ca7c2755_n.jpg",
    "id_album": "1894617400",
    "description": "Lynx_936702",
    "title": "Lynx_936702",
    "link_img": "https://live.staticflickr.com/65535/50022429322_ab0f98d59a_o.jpg",
    "id_image": "Lynx_936702",
    "count_view": 0
  },
  {
    "link_thumb": "https://live.staticflickr.com/65535/50020930991_8153ebcf9e_n.jpg",
    "id_album": "-1694105481",
    "description": "Fly_926088",
    "title": "Fly_926088",
    "link_img": "https://live.staticflickr.com/65535/50020930991_c8ba0dc77a_o.jpg",
    "id_image": "Fly_926088",
    "count_view": 0
  },
  {
    "link_thumb": "https://live.staticflickr.com/65535/50017423816_9873a2023b_n.jpg",
    "id_album": "-1846011410",
    "description": "Bird_777173",
    "title": "Bird_777173",
    "link_img": "https://live.staticflickr.com/65535/50017423816_3910c84bc7_o.jpg",
    "id_image": "Bird_777173",
    "count_view": 0
  },
  {
    "link_thumb": "https://live.staticflickr.com/65535/50024445321_3178988505_n.jpg",
    "id_album": "766572659",
    "description": "WhiteTiger_588599",
    "title": "WhiteTiger_588599",
    "link_img": "https://live.staticflickr.com/65535/50024445321_5b329eb6b7_o.jpg",
    "id_image": "WhiteTiger_588599",
    "count_view": 0
  },
  {
    "link_thumb": "https://live.staticflickr.com/65535/50022741798_4885b5846e_n.jpg",
    "id_album": "48367914",
    "description": "Rhino_441009",
    "title": "Rhino_441009",
    "link_img": "https://live.staticflickr.com/65535/50022741798_c763ee4fe5_o.jpg",
    "id_image": "Rhino_441009",
    "count_view": 0
  },
  {
    "link_thumb": "https://live.staticflickr.com/65535/50021253813_e0dd0b244b_n.jpg",
    "id_album": "770105808",
    "description": "Kingfisher_246301",
    "title": "Kingfisher_246301",
    "link_img": "https://live.staticflickr.com/65535/50021253813_593b338c96_o.jpg",
    "id_image": "Kingfisher_246301",
    "count_view": 0
  },
  {
    "link_thumb": "https://live.staticflickr.com/65535/50021999563_3a21a062fb_n.jpg",
    "id_album": "-358592519",
    "description": "Panda_588972",
    "title": "Panda_588972",
    "link_img": "https://live.staticflickr.com/65535/50021999563_edb3532af5_o.jpg",
    "id_image": "Panda_588972",
    "count_view": 0
  },
  {
    "link_thumb": "https://live.staticflickr.com/65535/50020507232_d3ddc051a2_n.jpg",
    "id_album": "-149330232",
    "description": "Dog_329710",
    "title": "Dog_329710",
    "link_img": "https://live.staticflickr.com/65535/50020507232_6da77778ee_o.jpg",
    "id_image": "Dog_329710",
    "count_view": 0
  },
  {
    "link_thumb": "https://live.staticflickr.com/65535/50351959473_dbf07411b1_n.jpg",
    "id_album": "-462831703",
    "description": "Cat_707197",
    "title": "Cat_707197",
    "link_img": "https://live.staticflickr.com/65535/50351959473_20ab977efc_o.jpg",
    "id_image": "Cat_707197",
    "count_view": 0
  },
  {
    "link_thumb": "https://live.staticflickr.com/65535/50024018857_2be96ba4e0_n.jpg",
    "id_album": "-1082521515",
    "description": "Spider_425185",
    "title": "Spider_425185",
    "link_img": "https://live.staticflickr.com/65535/50024018857_6f2a2c883d_o.jpg",
    "id_image": "Spider_425185",
    "count_view": 0
  },
  {
    "link_thumb": "https://live.staticflickr.com/65535/50020727011_4edeb7a5d1_n.jpg",
    "id_album": "-39098563",
    "description": "Eagle_95853",
    "title": "Eagle_95853",
    "link_img": "https://live.staticflickr.com/65535/50020727011_3dc8330f2b_o.jpg",
    "id_image": "Eagle_95853",
    "count_view": 0
  },
  {
    "link_thumb": "https://live.staticflickr.com/65535/50020809703_a19e3928f6_n.jpg",
    "id_album": "2060159334",
    "description": "GoldenRetriever_650885",
    "title": "GoldenRetriever_650885",
    "link_img": "https://live.staticflickr.com/65535/50020809703_f93949f715_o.jpg",
    "id_image": "GoldenRetriever_650885",
    "count_view": 0
  },
  {
    "link_thumb": "https://live.staticflickr.com/65535/50018397137_fa971960ac_n.jpg",
    "id_album": "-462831702",
    "description": "Cat_398164",
    "title": "Cat_398164",
    "link_img": "https://live.staticflickr.com/65535/50018397137_cbd2570a07_o.jpg",
    "id_image": "Cat_398164",
    "count_view": 0
  },
  {
    "link_thumb": "https://live.staticflickr.com/65535/50352518966_be92d9e22e_n.jpg",
    "id_album": "-462831703",
    "description": "Cat_433988",
    "title": "Cat_433988",
    "link_img": "https://live.staticflickr.com/65535/50352518966_a744d5b7d5_o.jpg",
    "id_image": "Cat_433988",
    "count_view": 0
  },
  {
    "link_thumb": "https://live.staticflickr.com/65535/50023521811_5777fb1110_n.jpg",
    "id_album": "-800019164",
    "description": "Snail_407689",
    "title": "Snail_407689",
    "link_img": "https://live.staticflickr.com/65535/50023521811_4d9aa344bd_o.jpg",
    "id_image": "Snail_407689",
    "count_view": 0
  },
  {
    "link_thumb": "https://live.staticflickr.com/65535/50022118632_35d29efcc5_n.jpg",
    "id_album": "-1882491687",
    "description": "Ladybug_744393",
    "title": "Ladybug_744393",
    "link_img": "https://live.staticflickr.com/65535/50022118632_d9773d61f3_o.jpg",
    "id_image": "Ladybug_744393",
    "count_view": 0
  },
  {
    "link_thumb": "https://live.staticflickr.com/65535/50017537736_26b018ae78_n.jpg",
    "id_album": "-401151552",
    "description": "Butterfly_156377",
    "title": "Butterfly_156377",
    "link_img": "https://live.staticflickr.com/65535/50017537736_e9c3a2fe61_o.jpg",
    "id_image": "Butterfly_156377",
    "count_view": 0
  },
  {
    "link_thumb": "https://live.staticflickr.com/65535/50022526086_67a606e82a_n.jpg",
    "id_album": "-358592519",
    "description": "Panda_361515",
    "title": "Panda_361515",
    "link_img": "https://live.staticflickr.com/65535/50022526086_2448430579_o.jpg",
    "id_image": "Panda_361515",
    "count_view": 0
  },
  {
    "link_thumb": "https://live.staticflickr.com/65535/50019740102_5555a1ef07_n.jpg",
    "id_album": "-462831703",
    "description": "Cat_931190",
    "title": "Cat_931190",
    "link_img": "https://live.staticflickr.com/65535/50019740102_7b774e4723_o.jpg",
    "id_image": "Cat_931190",
    "count_view": 0
  },
  {
    "link_thumb": "https://live.staticflickr.com/65535/50022980413_3c325fb777_n.jpg",
    "id_album": "-800019164",
    "description": "Snail_425208",
    "title": "Snail_425208",
    "link_img": "https://live.staticflickr.com/65535/50022980413_7f203ccb2a_o.jpg",
    "id_image": "Snail_425208",
    "count_view": 0
  },
  {
    "link_thumb": "https://live.staticflickr.com/65535/50019623572_536b6d6463_n.jpg",
    "id_album": "-462831703",
    "description": "Cat_873641",
    "title": "Cat_873641",
    "link_img": "https://live.staticflickr.com/65535/50019623572_b6bd1535bb_o.jpg",
    "id_image": "Cat_873641",
    "count_view": 0
  },
  {
    "link_thumb": "https://live.staticflickr.com/65535/50022401467_ba4b89c418_n.jpg",
    "id_album": "1894617400",
    "description": "Lynx_391845",
    "title": "Lynx_391845",
    "link_img": "https://live.staticflickr.com/65535/50022401467_46815a9cff_o.jpg",
    "id_image": "Lynx_391845",
    "count_view": 0
  },
  {
    "link_thumb": "https://live.staticflickr.com/65535/50019364623_c27b2078bf_n.jpg",
    "id_album": "1475096665",
    "description": "Crocodile_541621",
    "title": "Crocodile_541621",
    "link_img": "https://live.staticflickr.com/65535/50019364623_3884c79e02_o.jpg",
    "id_image": "Crocodile_541621",
    "count_view": 0
  },
  {
    "link_thumb": "https://live.staticflickr.com/65535/50023604422_477842a17c_n.jpg",
    "id_album": "-419757464",
    "description": "SeaLife_724520",
    "title": "SeaLife_724520",
    "link_img": "https://live.staticflickr.com/65535/50023604422_a38b802f9c_o.jpg",
    "id_image": "SeaLife_724520",
    "count_view": 0
  },
  {
    "link_thumb": "https://live.staticflickr.com/65535/50022148037_04e55d1016_n.jpg",
    "id_album": "1392348450",
    "description": "Leopard_242949",
    "title": "Leopard_242949",
    "link_img": "https://live.staticflickr.com/65535/50022148037_fd2c224da7_o.jpg",
    "id_image": "Leopard_242949",
    "count_view": 0
  },
  {
    "link_thumb": "https://live.staticflickr.com/65535/50016296218_c1b9f8a8a2_n.jpg",
    "id_album": "-229810103",
    "description": "AmericanBison_543288",
    "title": "AmericanBison_543288",
    "link_img": "https://live.staticflickr.com/65535/50016296218_138aaeaaa6_o.jpg",
    "id_image": "AmericanBison_543288",
    "count_view": 0
  },
  {
    "link_thumb": "https://live.staticflickr.com/65535/50019326046_a718a570f0_n.jpg",
    "id_album": "-462831703",
    "description": "Cat_856268",
    "title": "Cat_856268",
    "link_img": "https://live.staticflickr.com/65535/50019326046_22b541f89c_o.jpg",
    "id_image": "Cat_856268",
    "count_view": 0
  },
  {
    "link_thumb": "https://live.staticflickr.com/65535/50017826842_43e8b49c7a_n.jpg",
    "id_album": "-401151552",
    "description": "Butterfly_343407",
    "title": "Butterfly_343407",
    "link_img": "https://live.staticflickr.com/65535/50017826842_7f3f6b7af4_o.jpg",
    "id_image": "Butterfly_343407",
    "count_view": 0
  },
  {
    "link_thumb": "https://live.staticflickr.com/65535/50017861062_bfcb8d7f5c_n.jpg",
    "id_album": "-401151552",
    "description": "Butterfly_442896",
    "title": "Butterfly_442896",
    "link_img": "https://live.staticflickr.com/65535/50017861062_a88df9b9bb_o.jpg",
    "id_image": "Butterfly_442896",
    "count_view": 0
  },
  {
    "link_thumb": "https://live.staticflickr.com/65535/50021247022_593af962e6_n.jpg",
    "id_album": "-128218148",
    "description": "Fox_714310",
    "title": "Fox_714310",
    "link_img": "https://live.staticflickr.com/65535/50021247022_3e14a527db_o.jpg",
    "id_image": "Fox_714310",
    "count_view": 0
  },
  {
    "link_thumb": "https://live.staticflickr.com/65535/50017101668_61de43cdc4_n.jpg",
    "id_album": "-401151552",
    "description": "Butterfly_568624",
    "title": "Butterfly_568624",
    "link_img": "https://live.staticflickr.com/65535/50017101668_affed14dbf_o.jpg",
    "id_image": "Butterfly_568624",
    "count_view": 0
  },
  {
    "link_thumb": "https://live.staticflickr.com/65535/50017588133_7194268da7_n.jpg",
    "id_album": "-462831702",
    "description": "Cat_386717",
    "title": "Cat_386717",
    "link_img": "https://live.staticflickr.com/65535/50017588133_ab61ca353b_o.jpg",
    "id_image": "Cat_386717",
    "count_view": 0
  },
  {
    "link_thumb": "https://live.staticflickr.com/65535/50019429342_bb3907af28_n.jpg",
    "id_album": "-462831702",
    "description": "Cat_426131",
    "title": "Cat_426131",
    "link_img": "https://live.staticflickr.com/65535/50019429342_5b3e284ff2_o.jpg",
    "id_image": "Cat_426131",
    "count_view": 0
  },
  {
    "link_thumb": "https://live.staticflickr.com/65535/50023182863_4a376db3ec_n.jpg",
    "id_album": "-1082521515",
    "description": "Spider_327801",
    "title": "Spider_327801",
    "link_img": "https://live.staticflickr.com/65535/50023182863_a7aed28d3c_o.jpg",
    "id_image": "Spider_327801",
    "count_view": 0
  },
  {
    "link_thumb": "https://live.staticflickr.com/65535/50022813071_1db0040b8d_n.jpg",
    "id_album": "1008910300",
    "description": "PolarBear_341101",
    "title": "PolarBear_341101",
    "link_img": "https://live.staticflickr.com/65535/50022813071_0540275b18_o.jpg",
    "id_image": "PolarBear_341101",
    "count_view": 0
  },
  {
    "link_thumb": "https://live.staticflickr.com/65535/50020460136_028437e221_n.jpg",
    "id_album": "-149330231",
    "description": "Dog_569759",
    "title": "Dog_569759",
    "link_img": "https://live.staticflickr.com/65535/50020460136_e9f5bca29d_o.jpg",
    "id_image": "Dog_569759",
    "count_view": 0
  },
  {
    "link_thumb": "https://live.staticflickr.com/65535/50352519146_72a335e397_n.jpg",
    "id_album": "-462831703",
    "description": "Cat_434481",
    "title": "Cat_434481",
    "link_img": "https://live.staticflickr.com/65535/50352519146_37a4fed16d_o.jpg",
    "id_image": "Cat_434481",
    "count_view": 0
  },
  {
    "link_thumb": "https://live.staticflickr.com/65535/50352622187_cc0e36eeab_n.jpg",
    "id_album": "-462831703",
    "description": "Cat_360306",
    "title": "Cat_360306",
    "link_img": "https://live.staticflickr.com/65535/50352622187_46094aeb2a_o.jpg",
    "id_image": "Cat_360306",
    "count_view": 0
  },
  {
    "link_thumb": "https://live.staticflickr.com/65535/50016494003_9da9a9ba2b_n.jpg",
    "id_album": "-422187261",
    "description": "Bear_323275",
    "title": "Bear_323275",
    "link_img": "https://live.staticflickr.com/65535/50016494003_e9bf95ba54_o.jpg",
    "id_image": "Bear_323275",
    "count_view": 0
  },
  {
    "link_thumb": "https://live.staticflickr.com/65535/50022111627_391374fd0e_n.jpg",
    "id_album": "-1882491687",
    "description": "Ladybug_523103",
    "title": "Ladybug_523103",
    "link_img": "https://live.staticflickr.com/65535/50022111627_17b95670b9_o.jpg",
    "id_image": "Ladybug_523103",
    "count_view": 0
  },
  {
    "link_thumb": "https://live.staticflickr.com/65535/50023883767_b80b050d64_n.jpg",
    "id_album": "-1131363127",
    "description": "SnowLeopard_253457",
    "title": "SnowLeopard_253457",
    "link_img": "https://live.staticflickr.com/65535/50023883767_c2f6e74e30_o.jpg",
    "id_image": "SnowLeopard_253457",
    "count_view": 0
  },
  {
    "link_thumb": "https://live.staticflickr.com/65535/50020580687_8a3e666d57_n.jpg",
    "id_album": "-149330232",
    "description": "Dog_364171",
    "title": "Dog_364171",
    "link_img": "https://live.staticflickr.com/65535/50020580687_a6380d45c0_o.jpg",
    "id_image": "Dog_364171",
    "count_view": 0
  },
  {
    "link_thumb": "https://live.staticflickr.com/65535/50020198473_61ee8033ca_n.jpg",
    "id_album": "1270947998",
    "description": "Elephant_193054",
    "title": "Elephant_193054",
    "link_img": "https://live.staticflickr.com/65535/50020198473_58eae007d5_o.jpg",
    "id_image": "Elephant_193054",
    "count_view": 0
  },
  {
    "link_thumb": "https://live.staticflickr.com/65535/50022126982_fde7ece9b3_n.jpg",
    "id_album": "1918884325",
    "description": "Lemur_276184",
    "title": "Lemur_276184",
    "link_img": "https://live.staticflickr.com/65535/50022126982_b8040d5f07_o.jpg",
    "id_image": "Lemur_276184",
    "count_view": 0
  },
  {
    "link_thumb": "https://live.staticflickr.com/65535/50019608182_18121e3995_n.jpg",
    "id_album": "-462831703",
    "description": "Cat_867390",
    "title": "Cat_867390",
    "link_img": "https://live.staticflickr.com/65535/50019608182_5173756797_o.jpg",
    "id_image": "Cat_867390",
    "count_view": 0
  },
  {
    "link_thumb": "https://live.staticflickr.com/65535/50017473272_bd29eaef85_n.jpg",
    "id_album": "-1846011410",
    "description": "Bird_216007",
    "title": "Bird_216007",
    "link_img": "https://live.staticflickr.com/65535/50017473272_eb0f42c4fb_o.jpg",
    "id_image": "Bird_216007",
    "count_view": 0
  },
  {
    "link_thumb": "https://live.staticflickr.com/65535/50021630231_2f3a4566f1_n.jpg",
    "id_album": "-712553376",
    "description": "Husky_364407",
    "title": "Husky_364407",
    "link_img": "https://live.staticflickr.com/65535/50021630231_3f3c35e43e_o.jpg",
    "id_image": "Husky_364407",
    "count_view": 0
  }
]