[
  {
    "link_thumb": "https://live.staticflickr.com/65535/50021299498_ee85a26ac0_n.jpg",
    "id_album": "-1882491687",
    "description": "Ladybug_261533",
    "title": "Ladybug_261533",
    "link_img": "https://live.staticflickr.com/65535/50021299498_87bf224084_o.jpg",
    "id_image": "Ladybug_261533",
    "count_view": 0
  },
  {
    "link_thumb": "https://live.staticflickr.com/65535/50019944837_f558d1d0b2_n.jpg",
    "id_album": "-1481843714",
    "description": "Cheetah_295038",
    "title": "Cheetah_295038",
    "link_img": "https://live.staticflickr.com/65535/50019944837_ea5332a26c_o.jpg",
    "id_image": "Cheetah_295038",
    "count_view": 0
  },
  {
    "link_thumb": "https://live.staticflickr.com/65535/50020607233_6dbea72aac_n.jpg",
    "id_album": "-462831705",
    "description": "Cat_65078",
    "title": "Cat_65078",
    "link_img": "https://live.staticflickr.com/65535/50020607233_f3a73890e8_o.jpg",
    "id_image": "Cat_65078",
    "count_view": 0
  },
  {
    "link_thumb": "https://live.staticflickr.com/65535/50020287991_a122011169_n.jpg",
    "id_album": "-149330232",
    "description": "Dog_344066",
    "title": "Dog_344066",
    "link_img": "https://live.staticflickr.com/65535/50020287991_d6c7cb91f5_o.jpg",
    "id_image": "Dog_344066",
    "count_view": 0
  },
  {
    "link_thumb": "https://live.staticflickr.com/65535/50021392897_28834d718b_n.jpg",
    "id_album": "-462831704",
    "description": "Cat_597284",
    "title": "Cat_597284",
    "link_img": "https://live.staticflickr.com/65535/50021392897_4936f7e99f_o.jpg",
    "id_image": "Cat_597284",
    "count_view": 0
  },
  {
    "link_thumb": "https://live.staticflickr.com/65535/50020533832_29f450b3f6_n.jpg",
    "id_album": "-149330232",
    "description": "Dog_339810",
    "title": "Dog_339810",
    "link_img": "https://live.staticflickr.com/65535/50020533832_778d7bbd47_o.jpg",
    "id_image": "Dog_339810",
    "count_view": 0
  },
  {
    "link_thumb": "https://live.staticflickr.com/65535/50019852621_3837341e49_n.jpg",
    "id_album": "-2144640780",
    "description": "Cow_592516",
    "title": "Cow_592516",
    "link_img": "https://live.staticflickr.com/65535/50019852621_77c1952746_o.jpg",
    "id_image": "Cow_592516",
    "count_view": 0
  },
  {
    "link_thumb": "https://live.staticflickr.com/65535/50016953503_11fbc974a8_n.jpg",
    "id_album": "782930701",
    "description": "BorderCollie_340487",
    "title": "BorderCollie_340487",
    "link_img": "https://live.staticflickr.com/65535/50016953503_f321042799_o.jpg",
    "id_image": "BorderCollie_340487",
    "count_view": 0
  },
  {
    "link_thumb": "https://live.staticflickr.com/65535/50018613993_313c00efa5_n.jpg",
    "id_album": "-462831702",
    "description": "Cat_413695",
    "title": "Cat_413695",
    "link_img": "https://live.staticflickr.com/65535/50018613993_39e59de6d3_o.jpg",
    "id_image": "Cat_413695",
    "count_view": 0
  },
  {
    "link_thumb": "https://live.staticflickr.com/65535/50020211313_0c57ae613a_n.jpg",
    "id_album": "1270947998",
    "description": "Elephant_344812",
    "title": "Elephant_344812",
    "link_img": "https://live.staticflickr.com/65535/50020211313_81c75ee2de_o.jpg",
    "id_image": "Elephant_344812",
    "count_view": 0
  },
  {
    "link_thumb": "https://live.staticflickr.com/65535/50020943326_b0875623e0_n.jpg",
    "id_album": "-128218148",
    "description": "Fox_314969",
    "title": "Fox_314969",
    "link_img": "https://live.staticflickr.com/65535/50020943326_3b88110e88_o.jpg",
    "id_image": "Fox_314969",
    "count_view": 0
  },
  {
    "link_thumb": "https://live.staticflickr.com/65535/50022532983_5033430097_n.jpg",
    "id_album": "-353898617",
    "description": "Puppy_989593",
    "title": "Puppy_989593",
    "link_img": "https://live.staticflickr.com/65535/50022532983_1abbce9714_o.jpg",
    "id_image": "Puppy_989593",
    "count_view": 0
  },
  {
    "link_thumb": "https://live.staticflickr.com/65535/50021401196_df152d6b01_n.jpg",
    "id_album": "-1168906494",
    "description": "Grasshopper_411274",
    "title": "Grasshopper_411274",
    "link_img": "https://live.staticflickr.com/65535/50021401196_cb74edcbbe_o.jpg",
    "id_image": "Grasshopper_411274",
    "count_view": 0
  },
  {
    "link_thumb": "https://live.staticflickr.com/65535/50019474871_e7c5f04ebc_n.jpg",
    "id_album": "-462831703",
    "description": "Cat_924006",
    "title": "Cat_924006",
    "link_img": "https://live.staticflickr.com/65535/50019474871_4cdda9b206_o.jpg",
    "id_image": "Cat_924006",
    "count_view": 0
  },
  {
    "link_thumb": "https://live.staticflickr.com/65535/50021268416_63da32acb6_n.jpg",
    "id_album": "-462831703",
    "description": "Cat_829857",
    "title": "Cat_829857",
    "link_img": "https://live.staticflickr.com/65535/50021268416_6a76798a8b_o.jpg",
    "id_image": "Cat_829857",
    "count_view": 0
  },
  {
    "link_thumb": "https://live.staticflickr.com/65535/50018391832_d0bbebd25c_n.jpg",
    "id_album": "-462831702",
    "description": "Cat_395536",
    "title": "Cat_395536",
    "link_img": "https://live.staticflickr.com/65535/50018391832_d3b7e11f1d_o.jpg",
    "id_image": "Cat_395536",
    "count_view": 0
  },
  {
    "link_thumb": "https://live.staticflickr.com/65535/50020418328_e5c0b4f6b6_n.jpg",
    "id_album": "-128218148",
    "description": "Fox_405708",
    "title": "Fox_405708",
    "link_img": "https://live.staticflickr.com/65535/50020418328_65d8457fb3_o.jpg",
    "id_image": "Fox_405708",
    "count_view": 0
  },
  {
    "link_thumb": "https://live.staticflickr.com/65535/50022687466_a97145b185_n.jpg",
    "id_album": "392248205",
    "description": "Penguin_340527",
    "title": "Penguin_340527",
    "link_img": "https://live.staticflickr.com/65535/50022687466_45dd0345ff_o.jpg",
    "id_image": "Penguin_340527",
    "count_view": 0
  },
  {
    "link_thumb": "https://live.staticflickr.com/65535/50016580723_047da9012a_n.jpg",
    "id_album": "-422187261",
    "description": "Bear_945042",
    "title": "Bear_945042",
    "link_img": "https://live.staticflickr.com/65535/50016580723_14982716ae_o.jpg",
    "id_image": "Bear_945042",
    "count_view": 0
  },
  {
    "link_thumb": "https://live.staticflickr.com/65535/50020453453_3ef4742e86_n.jpg",
    "id_album": "-128218148",
    "description": "Fox_736607",
    "title": "Fox_736607",
    "link_img": "https://live.staticflickr.com/65535/50020453453_bb69aa1705_o.jpg",
    "id_image": "Fox_736607",
    "count_view": 0
  },
  {
    "link_thumb": "https://live.staticflickr.com/65535/50020965322_e1da044159_n.jpg",
    "id_album": "-39098563",
    "description": "Eagle_430530",
    "title": "Eagle_430530",
    "link_img": "https://live.staticflickr.com/65535/50020965322_a9d72eda3a_o.jpg",
    "id_image": "Eagle_430530",
    "count_view": 0
  },
  {
    "link_thumb": "https://live.staticflickr.com/65535/50022562677_9947186bb5_n.jpg",
    "id_album": "1957967135",
    "description": "Mouse_992050",
    "title": "Mouse_992050",
    "link_img": "https://live.staticflickr.com/65535/50022562677_919de671b5_o.jpg",
    "id_image": "Mouse_992050",
    "count_view": 0
  },
  {
    "link_thumb": "https://live.staticflickr.com/65535/50018273562_41cafcb64c_n.jpg",
    "id_album": "-462831702",
    "description": "Cat_342107",
    "title": "Cat_342107",
    "link_img": "https://live.staticflickr.com/65535/50018273562_a5868201df_o.jpg",
    "id_image": "Cat_342107",
    "count_view": 0
  },
  {
    "link_thumb": "https://live.staticflickr.com/65535/50019489661_fe705cdab0_n.jpg",
    "id_album": "-462831703",
    "description": "Cat_933625",
    "title": "Cat_933625",
    "link_img": "https://live.staticflickr.com/65535/50019489661_2a82a857dc_o.jpg",
    "id_image": "Cat_933625",
    "count_view": 0
  },
  {
    "link_thumb": "https://live.staticflickr.com/65535/50019625306_e94dfda2d6_n.jpg",
    "id_album": "1889777354",
    "description": "CGI_331396",
    "title": "CGI_331396",
    "link_img": "https://live.staticflickr.com/65535/50019625306_1e6252e5b7_o.jpg",
    "id_image": "CGI_331396",
    "count_view": 0
  },
  {
    "link_thumb": "https://live.staticflickr.com/65535/50024338076_82aaf70695_n.jpg",
    "id_album": "461588038",
    "description": "Vulture_597082",
    "title": "Vulture_597082",
    "link_img": "https://live.staticflickr.com/65535/50024338076_4f479820b3_o.jpg",
    "id_image": "Vulture_597082",
    "count_view": 0
  },
  {
    "link_thumb": "https://live.staticflickr.com/65535/50020069972_19cae51eef_n.jpg",
    "id_album": "-1868680171",
    "description": "Cougar_376816",
    "title": "Cougar_376816",
    "link_img": "https://live.staticflickr.com/65535/50020069972_1038381774_o.jpg",
    "id_image": "Cougar_376816",
    "count_view": 0
  },
  {
    "link_thumb": "https://live.staticflickr.com/65535/50022311666_db7b88b667_n.jpg",
    "id_album": "1015034486",
    "description": "Muteswan_359944",
    "title": "Muteswan_359944",
    "link_img": "https://live.staticflickr.com/65535/50022311666_60c53bf79a_o.jpg",
    "id_image": "Muteswan_359944",
    "count_view": 0
  },
  {
    "link_thumb": "https://live.staticflickr.com/65535/50017892351_1c848a7ec8_n.jpg",
    "id_album": "-462831705",
    "description": "Cat_237964",
    "title": "Cat_237964",
    "link_img": "https://live.staticflickr.com/65535/50017892351_31a0e8c525_o.jpg",
    "id_image": "Cat_237964",
    "count_view": 0
  },
  {
    "link_thumb": "https://live.staticflickr.com/65535/50017240593_2f3a8790f4_n.jpg",
    "id_album": "-462831705",
    "description": "Cat_117251",
    "title": "Cat_117251",
    "link_img": "https://live.staticflickr.com/65535/50017240593_66c71a3fc4_o.jpg",
    "id_image": "Cat_117251",
    "count_view": 0
  },
  {
    "link_thumb": "https://live.staticflickr.com/65535/50017842717_805a1c3a13_n.jpg",
    "id_album": "-401151552",
    "description": "Butterfly_390967",
    "title": "Butterfly_390967",
    "link_img": "https://live.staticflickr.com/65535/50017842717_3c300b60f1_o.jpg",
    "id_image": "Butterfly_390967",
    "count_view": 0
  },
  {
    "link_thumb": "https://live.staticflickr.com/65535/50021214211_bb01627bca_n.jpg",
    "id_album": "-462831703",
    "description": "Cat_735444",
    "title": "Cat_735444",
    "link_img": "https://live.staticflickr.com/65535/50021214211_ec4bd681a2_o.jpg",
    "id_image": "Cat_735444",
    "count_view": 0
  },
  {
    "link_thumb": "https://live.staticflickr.com/65535/50017813802_eee47c6e74_n.jpg",
    "id_album": "-401151552",
    "description": "Butterfly_246830",
    "title": "Butterfly_246830",
    "link_img": "https://live.staticflickr.com/65535/50017813802_3a637be858_o.jpg",
    "id_image": "Butterfly_246830",
    "count_view": 0
  },
  {
    "link_thumb": "https://live.staticflickr.com/65535/50022608508_3a79769990_n.jpg",
    "id_album": "248289288",
    "description": "Raccoon_556321",
    "title": "Raccoon_556321",
    "link_img": "https://live.staticflickr.com/65535/50022608508_0397e02eb3_o.jpg",
    "id_image": "Raccoon_556321",
    "count_view": 0
  },
  {
    "link_thumb": "https://live.staticflickr.com/65535/50017801077_80cf4d3b1d_n.jpg",
    "id_album": "-401151552",
    "description": "Butterfly_169858",
    "title": "Butterfly_169858",
    "link_img": "https://live.staticflickr.com/65535/50017801077_79ca6703ef_o.jpg",
    "id_image": "Butterfly_169858",
    "count_view": 0
  },
  {
    "link_thumb": "https://live.staticflickr.com/65535/50020675878_bb446105eb_n.jpg",
    "id_album": "-462831703",
    "description": "Cat_739371",
    "title": "Cat_739371",
    "link_img": "https://live.staticflickr.com/65535/50020675878_ebd69792d6_o.jpg",
    "id_image": "Cat_739371",
    "count_view": 0
  },
  {
    "link_thumb": "https://live.staticflickr.com/65535/50020957342_4a8b662ded_n.jpg",
    "id_album": "-39098563",
    "description": "Eagle_377302",
    "title": "Eagle_377302",
    "link_img": "https://live.staticflickr.com/65535/50020957342_12b3fcb100_o.jpg",
    "id_image": "Eagle_377302",
    "count_view": 0
  },
  {
    "link_thumb": "https://live.staticflickr.com/65535/50021475938_5141077568_n.jpg",
    "id_album": "416744915",
    "description": "Lion_430180",
    "title": "Lion_430180",
    "link_img": "https://live.staticflickr.com/65535/50021475938_88acf7b272_o.jpg",
    "id_image": "Lion_430180",
    "count_view": 0
  },
  {
    "link_thumb": "https://live.staticflickr.com/65535/50019695238_253251e682_n.jpg",
    "id_album": "-149330232",
    "description": "Dog_291205",
    "title": "Dog_291205",
    "link_img": "https://live.staticflickr.com/65535/50019695238_6ac92c4332_o.jpg",
    "id_image": "Dog_291205",
    "count_view": 0
  },
  {
    "link_thumb": "https://live.staticflickr.com/65535/50021309698_d2b6113e5a_n.jpg",
    "id_album": "-1882491687",
    "description": "Ladybug_447497",
    "title": "Ladybug_447497",
    "link_img": "https://live.staticflickr.com/65535/50021309698_9965155326_o.jpg",
    "id_image": "Ladybug_447497",
    "count_view": 0
  },
  {
    "link_thumb": "https://live.staticflickr.com/65535/50021881948_234c1a6d7a_n.jpg",
    "id_album": "-1384601601",
    "description": "Owl_431826",
    "title": "Owl_431826",
    "link_img": "https://live.staticflickr.com/65535/50021881948_6d4621c086_o.jpg",
    "id_image": "Owl_431826",
    "count_view": 0
  },
  {
    "link_thumb": "https://live.staticflickr.com/65535/50022016866_4ef51009f4_n.jpg",
    "id_album": "416744915",
    "description": "Lion_430098",
    "title": "Lion_430098",
    "link_img": "https://live.staticflickr.com/65535/50022016866_6423451438_o.jpg",
    "id_image": "Lion_430098",
    "count_view": 0
  },
  {
    "link_thumb": "https://live.staticflickr.com/65535/50017053068_f5c2a37a40_n.jpg",
    "id_album": "-401151552",
    "description": "Butterfly_385379",
    "title": "Butterfly_385379",
    "link_img": "https://live.staticflickr.com/65535/50017053068_d59dfd0d1f_o.jpg",
    "id_image": "Butterfly_385379",
    "count_view": 0
  },
  {
    "link_thumb": "https://live.staticflickr.com/65535/50020577953_0ba00f1f49_n.jpg",
    "id_album": "-462831704",
    "description": "Cat_570481",
    "title": "Cat_570481",
    "link_img": "https://live.staticflickr.com/65535/50020577953_26ef530a85_o.jpg",
    "id_image": "Cat_570481",
    "count_view": 0
  },
  {
    "link_thumb": "https://live.staticflickr.com/65535/50021559437_e990c16321_n.jpg",
    "id_album": "-405626519",
    "description": "GermanShepherd_866477",
    "title": "GermanShepherd_866477",
    "link_img": "https://live.staticflickr.com/65535/50021559437_a0c53dcbfa_o.jpg",
    "id_image": "GermanShepherd_866477",
    "count_view": 0
  },
  {
    "link_thumb": "https://live.staticflickr.com/65535/50020832271_5782368c6b_n.jpg",
    "id_album": "-1118073211",
    "description": "Fish_292543",
    "title": "Fish_292543",
    "link_img": "https://live.staticflickr.com/65535/50020832271_937a6c0069_o.jpg",
    "id_image": "Fish_292543",
    "count_view": 0
  },
  {
    "link_thumb": "https://live.staticflickr.com/65535/50022364812_a9e8b02781_n.jpg",
    "id_album": "-656526748",
    "description": "Lizard_322401",
    "title": "Lizard_322401",
    "link_img": "https://live.staticflickr.com/65535/50022364812_53168b8d3d_o.jpg",
    "id_image": "Lizard_322401",
    "count_view": 0
  },
  {
    "link_thumb": "https://live.staticflickr.com/65535/50019429783_9af729309c_n.jpg",
    "id_album": "1831085598",
    "description": "Dachshund_883783",
    "title": "Dachshund_883783",
    "link_img": "https://live.staticflickr.com/65535/50019429783_bd7a97419e_o.jpg",
    "id_image": "Dachshund_883783",
    "count_view": 0
  },
  {
    "link_thumb": "https://live.staticflickr.com/65535/50019715272_3027f221d2_n.jpg",
    "id_album": "-462831705",
    "description": "Cat_91481",
    "title": "Cat_91481",
    "link_img": "https://live.staticflickr.com/65535/50019715272_384d7e0dba_o.jpg",
    "id_image": "Cat_91481",
    "count_view": 0
  },
  {
    "link_thumb": "https://live.staticflickr.com/65535/50022178553_d3ba933834_n.jpg",
    "id_album": "392248205",
    "description": "Penguin_787126",
    "title": "Penguin_787126",
    "link_img": "https://live.staticflickr.com/65535/50022178553_33bdb354ba_o.jpg",
    "id_image": "Penguin_787126",
    "count_view": 0
  },
  {
    "link_thumb": "https://live.staticflickr.com/65535/50022360726_d4ed132c67_n.jpg",
    "id_album": "106807275",
    "description": "Otter_178899",
    "title": "Otter_178899",
    "link_img": "https://live.staticflickr.com/65535/50022360726_0ec00e7f0b_o.jpg",
    "id_image": "Otter_178899",
    "count_view": 0
  },
  {
    "link_thumb": "https://live.staticflickr.com/65535/50020119908_92b8196e81_n.jpg",
    "id_album": "1168627767",
    "description": "Duck_368182",
    "title": "Duck_368182",
    "link_img": "https://live.staticflickr.com/65535/50020119908_2520b5a4da_o.jpg",
    "id_image": "Duck_368182",
    "count_view": 0
  },
  {
    "link_thumb": "https://live.staticflickr.com/65535/50021408662_b6821a2e76_n.jpg",
    "id_album": "-462831704",
    "description": "Cat_665713",
    "title": "Cat_665713",
    "link_img": "https://live.staticflickr.com/65535/50021408662_242653d791_o.jpg",
    "id_image": "Cat_665713",
    "count_view": 0
  },
  {
    "link_thumb": "https://live.staticflickr.com/65535/50024053581_5035f06e5a_n.jpg",
    "id_album": "405170427",
    "description": "Tiger_263522",
    "title": "Tiger_263522",
    "link_img": "https://live.staticflickr.com/65535/50024053581_a54ca4817e_o.jpg",
    "id_image": "Tiger_263522",
    "count_view": 0
  },
  {
    "link_thumb": "https://live.staticflickr.com/65535/50024448192_3418e518c6_n.jpg",
    "id_album": "405170427",
    "description": "Tiger_658866",
    "title": "Tiger_658866",
    "link_img": "https://live.staticflickr.com/65535/50024448192_4d21390cf3_o.jpg",
    "id_image": "Tiger_658866",
    "count_view": 0
  },
  {
    "link_thumb": "https://live.staticflickr.com/65535/50020629806_2a8e785ca1_n.jpg",
    "id_album": "-405058657",
    "description": "Dragonfly_542309",
    "title": "Dragonfly_542309",
    "link_img": "https://live.staticflickr.com/65535/50020629806_dccb03e1dc_o.jpg",
    "id_image": "Dragonfly_542309",
    "count_view": 0
  },
  {
    "link_thumb": "https://live.staticflickr.com/65535/50021238606_8e4ceb1728_n.jpg",
    "id_album": "-462831703",
    "description": "Cat_776462",
    "title": "Cat_776462",
    "link_img": "https://live.staticflickr.com/65535/50021238606_9b25cda7df_o.jpg",
    "id_image": "Cat_776462",
    "count_view": 0
  },
  {
    "link_thumb": "https://live.staticflickr.com/65535/50017924347_d480b6366c_n.jpg",
    "id_album": "-401151552",
    "description": "Butterfly_773033",
    "title": "Butterfly_773033",
    "link_img": "https://live.staticflickr.com/65535/50017924347_2a6d8155c4_o.jpg",
    "id_image": "Butterfly_773033",
    "count_view": 0
  },
  {
    "link_thumb": "https://live.staticflickr.com/65535/50021474923_1047a02d23_n.jpg",
    "id_album": "416744915",
    "description": "Lion_427187",
    "title": "Lion_427187",
    "link_img": "https://live.staticflickr.com/65535/50021474923_25aca9e4af_o.jpg",
    "id_image": "Lion_427187",
    "count_view": 0
  },
  {
    "link_thumb": "https://live.staticflickr.com/65535/50016882331_75d5380fbb_n.jpg",
    "id_album": "523598895",
    "description": "Artistic_220497",
    "title": "Artistic_220497",
    "link_img": "https://live.staticflickr.com/65535/50016882331_33a8cee23a_o.jpg",
    "id_image": "Artistic_220497",
    "count_view": 0
  },
  {
    "link_thumb": "https://live.staticflickr.com/65535/50017443486_f3d01c5504_n.jpg",
    "id_album": "-1846011410",
    "description": "Bird_962528",
    "title": "Bird_962528",
    "link_img": "https://live.staticflickr.com/65535/50017443486_a8bf9caf73_o.jpg",
    "id_image": "Bird_962528",
    "count_view": 0
  },
  {
    "link_thumb": "https://live.staticflickr.com/65535/50352627762_3e2f2b11ce_n.jpg",
    "id_album": "-462831703",
    "description": "Cat_365180",
    "title": "Cat_365180",
    "link_img": "https://live.staticflickr.com/65535/50352627762_e2a5b1b110_o.jpg",
    "id_image": "Cat_365180",
    "count_view": 0
  },
  {
    "link_thumb": "https://live.staticflickr.com/65535/50024157901_ccf891b32b_n.jpg",
    "id_album": "405170427",
    "description": "Tiger_545251",
    "title": "Tiger_545251",
    "link_img": "https://live.staticflickr.com/65535/50024157901_22214214de_o.jpg",
    "id_image": "Tiger_545251",
    "count_view": 0
  },
  {
    "link_thumb": "https://live.staticflickr.com/65535/50352721252_35b61e5733_n.jpg",
    "id_album": "-462831703",
    "description": "Cat_491944",
    "title": "Cat_491944",
    "link_img": "https://live.staticflickr.com/65535/50352721252_fa916ea0e4_o.jpg",
    "id_image": "Cat_491944",
    "count_view": 0
  },
  {
    "link_thumb": "https://live.staticflickr.com/65535/50021769652_0bdf4474a5_n.jpg",
    "id_album": "-1933715543",
    "description": "Horse_432346",
    "title": "Horse_432346",
    "link_img": "https://live.staticflickr.com/65535/50021769652_8ab9b0eafd_o.jpg",
    "id_image": "Horse_432346",
    "count_view": 0
  },
  {
    "link_thumb": "https://live.staticflickr.com/65535/50018138342_d69750e805_n.jpg",
    "id_album": "-462831705",
    "description": "Cat_232471",
    "title": "Cat_232471",
    "link_img": "https://live.staticflickr.com/65535/50018138342_963333cb84_o.jpg",
    "id_image": "Cat_232471",
    "count_view": 0
  },
  {
    "link_thumb": "https://live.staticflickr.com/65535/50022125992_4ae3281a5d_n.jpg",
    "id_album": "-1882491687",
    "description": "Ladybug_991034",
    "title": "Ladybug_991034",
    "link_img": "https://live.staticflickr.com/65535/50022125992_4a4de591c6_o.jpg",
    "id_image": "Ladybug_991034",
    "count_view": 0
  },
  {
    "link_thumb": "https://live.staticflickr.com/65535/50017335521_c3d4f6692e_n.jpg",
    "id_album": "-1846011410",
    "description": "Bird_437850",
    "title": "Bird_437850",
    "link_img": "https://live.staticflickr.com/65535/50017335521_ca2db45768_o.jpg",
    "id_image": "Bird_437850",
    "count_view": 0
  },
  {
    "link_thumb": "https://live.staticflickr.com/65535/50019023728_9d7711d1b2_n.jpg",
    "id_album": "-462831703",
    "description": "Cat_984187",
    "title": "Cat_984187",
    "link_img": "https://live.staticflickr.com/65535/50019023728_1def6328e2_o.jpg",
    "id_image": "Cat_984187",
    "count_view": 0
  },
  {
    "link_thumb": "https://live.staticflickr.com/65535/50020828738_58d695d50e_n.jpg",
    "id_album": "2060159334",
    "description": "GoldenRetriever_927688",
    "title": "GoldenRetriever_927688",
    "link_img": "https://live.staticflickr.com/65535/50020828738_05ba109767_o.jpg",
    "id_image": "GoldenRetriever_927688",
    "count_view": 0
  },
  {
    "link_thumb": "https://live.staticflickr.com/65535/50022854157_84ef629629_n.jpg",
    "id_album": "-801414987",
    "description": "Peacock_520393",
    "title": "Peacock_520393",
    "link_img": "https://live.staticflickr.com/65535/50022854157_8244d7607f_o.jpg",
    "id_image": "Peacock_520393",
    "count_view": 0
  },
  {
    "link_thumb": "https://live.staticflickr.com/65535/50020173057_73999c0b9d_n.jpg",
    "id_album": "1273365283",
    "description": "Cute_150795",
    "title": "Cute_150795",
    "link_img": "https://live.staticflickr.com/65535/50020173057_1daa4b6ce3_o.jpg",
    "id_image": "Cute_150795",
    "count_view": 0
  },
  {
    "link_thumb": "https://live.staticflickr.com/65535/50023764583_6a49340f3c_n.jpg",
    "id_album": "46520366",
    "description": "Turtle_383320",
    "title": "Turtle_383320",
    "link_img": "https://live.staticflickr.com/65535/50023764583_8d25ac2dc8_o.jpg",
    "id_image": "Turtle_383320",
    "count_view": 0
  },
  {
    "link_thumb": "https://live.staticflickr.com/65535/50020901317_ffe1cc1fdb_n.jpg",
    "id_album": "1168627767",
    "description": "Duck_166333",
    "title": "Duck_166333",
    "link_img": "https://live.staticflickr.com/65535/50020901317_1d4bf666f7_o.jpg",
    "id_image": "Duck_166333",
    "count_view": 0
  },
  {
    "link_thumb": "https://live.staticflickr.com/65535/50019803923_7d08baefa4_n.jpg",
    "id_album": "-149330232",
    "description": "Dog_368044",
    "title": "Dog_368044",
    "link_img": "https://live.staticflickr.com/65535/50019803923_e9c24b121f_o.jpg",
    "id_image": "Dog_368044",
    "count_view": 0
  },
  {
    "link_thumb": "https://live.staticflickr.com/65535/50017972966_278102144f_n.jpg",
    "id_album": "-462831702",
    "description": "Cat_325478",
    "title": "Cat_325478",
    "link_img": "https://live.staticflickr.com/65535/50017972966_5c43ca2f80_o.jpg",
    "id_image": "Cat_325478",
    "count_view": 0
  },
  {
    "link_thumb": "https://live.staticflickr.com/65535/50020977397_369d198e56_n.jpg",
    "id_album": "-39098563",
    "description": "Eagle_717578",
    "title": "Eagle_717578",
    "link_img": "https://live.staticflickr.com/65535/50020977397_fa6909f2ca_o.jpg",
    "id_image": "Eagle_717578",
    "count_view": 0
  },
  {
    "link_thumb": "https://live.staticflickr.com/65535/50022144917_17db455948_n.jpg",
    "id_album": "1392348450",
    "description": "Leopard_214548",
    "title": "Leopard_214548",
    "link_img": "https://live.staticflickr.com/65535/50022144917_08ed40402d_o.jpg",
    "id_image": "Leopard_214548",
    "count_view": 0
  },
  {
    "link_thumb": "https://live.staticflickr.com/65535/50020774982_11310270fe_n.jpg",
    "id_album": "-149330231",
    "description": "Dog_826245",
    "title": "Dog_826245",
    "link_img": "https://live.staticflickr.com/65535/50020774982_7112053ee7_o.jpg",
    "id_image": "Dog_826245",
    "count_view": 0
  },
  {
    "link_thumb": "https://live.staticflickr.com/65535/50023458457_9f9c228d24_n.jpg",
    "id_album": "332874268",
    "description": "RedPanda_272287",
    "title": "RedPanda_272287",
    "link_img": "https://live.staticflickr.com/65535/50023458457_397db74d33_o.jpg",
    "id_image": "RedPanda_272287",
    "count_view": 0
  },
  {
    "link_thumb": "https://live.staticflickr.com/65535/50020833143_f7d2135176_n.jpg",
    "id_album": "-975314166",
    "description": "Goldfish_165250",
    "title": "Goldfish_165250",
    "link_img": "https://live.staticflickr.com/65535/50020833143_1ea26806f4_o.jpg",
    "id_image": "Goldfish_165250",
    "count_view": 0
  },
  {
    "link_thumb": "https://live.staticflickr.com/65535/50022194256_8f4885abff_n.jpg",
    "id_album": "-784970094",
    "description": "Monkey_200979",
    "title": "Monkey_200979",
    "link_img": "https://live.staticflickr.com/65535/50022194256_0d8b50e974_o.jpg",
    "id_image": "Monkey_200979",
    "count_view": 0
  },
  {
    "link_thumb": "https://live.staticflickr.com/65535/50022204528_334d76c34f_n.jpg",
    "id_album": "407660898",
    "description": "Pigeon_109768",
    "title": "Pigeon_109768",
    "link_img": "https://live.staticflickr.com/65535/50022204528_6584306681_o.jpg",
    "id_image": "Pigeon_109768",
    "count_view": 0
  },
  {
    "link_thumb": "https://live.staticflickr.com/65535/50020752758_63c55da11c_n.jpg",
    "id_album": "-405626519",
    "description": "GermanShepherd_673439",
    "title": "GermanShepherd_673439",
    "link_img": "https://live.staticflickr.com/65535/50020752758_f38488cffc_o.jpg",
    "id_image": "GermanShepherd_673439",
    "count_view": 0
  },
  {
    "link_thumb": "https://live.staticflickr.com/65535/50351953858_791b6b32d0_n.jpg",
    "id_album": "-462831703",
    "description": "Cat_697657",
    "title": "Cat_697657",
    "link_img": "https://live.staticflickr.com/65535/50351953858_acc877130b_o.jpg",
    "id_image": "Cat_697657",
    "count_view": 0
  },
  {
    "link_thumb": "https://live.staticflickr.com/65535/50023893731_f46fd79fda_n.jpg",
    "id_album": "702283289",
    "description": "Squirrel_523317",
    "title": "Squirrel_523317",
    "link_img": "https://live.staticflickr.com/65535/50023893731_381f8a54aa_o.jpg",
    "id_image": "Squirrel_523317",
    "count_view": 0
  },
  {
    "link_thumb": "https://live.staticflickr.com/65535/50017097748_f7b4723e01_n.jpg",
    "id_album": "-401151552",
    "description": "Butterfly_544051",
    "title": "Butterfly_544051",
    "link_img": "https://live.staticflickr.com/65535/50017097748_4920ee70c9_o.jpg",
    "id_image": "Butterfly_544051",
    "count_view": 0
  },
  {
    "link_thumb": "https://live.staticflickr.com/65535/50019379546_f34ef13685_n.jpg",
    "id_album": "-462831703",
    "description": "Cat_877986",
    "title": "Cat_877986",
    "link_img": "https://live.staticflickr.com/65535/50019379546_1a58142564_o.jpg",
    "id_image": "Cat_877986",
    "count_view": 0
  },
  {
    "link_thumb": "https://live.staticflickr.com/65535/50017095462_2d6d1ed760_n.jpg",
    "id_album": "-1741290715",
    "description": "Ant_433565",
    "title": "Ant_433565",
    "link_img": "https://live.staticflickr.com/65535/50017095462_b1f0a0b6f0_o.jpg",
    "id_image": "Ant_433565",
    "count_view": 0
  },
  {
    "link_thumb": "https://live.staticflickr.com/65535/50021434867_6dff51e280_n.jpg",
    "id_album": "-462831704",
    "description": "Cat_700195",
    "title": "Cat_700195",
    "link_img": "https://live.staticflickr.com/65535/50021434867_628c5a23ba_o.jpg",
    "id_image": "Cat_700195",
    "count_view": 0
  },
  {
    "link_thumb": "https://live.staticflickr.com/65535/50017564016_fcbe38aa15_n.jpg",
    "id_album": "-401151552",
    "description": "Butterfly_338005",
    "title": "Butterfly_338005",
    "link_img": "https://live.staticflickr.com/65535/50017564016_f50d086b33_o.jpg",
    "id_image": "Butterfly_338005",
    "count_view": 0
  },
  {
    "link_thumb": "https://live.staticflickr.com/65535/50016834378_58db42da47_n.jpg",
    "id_album": "-1846011410",
    "description": "Bird_536235",
    "title": "Bird_536235",
    "link_img": "https://live.staticflickr.com/65535/50016834378_d5d4ce09b3_o.jpg",
    "id_image": "Bird_536235",
    "count_view": 0
  },
  {
    "link_thumb": "https://live.staticflickr.com/65535/50017435847_f071790b77_n.jpg",
    "id_album": "172748811",
    "description": "Beeeater_669378",
    "title": "Beeeater_669378",
    "link_img": "https://live.staticflickr.com/65535/50017435847_ec82630f80_o.jpg",
    "id_image": "Beeeater_669378",
    "count_view": 0
  },
  {
    "link_thumb": "https://live.staticflickr.com/65535/50017321671_a164b465b8_n.jpg",
    "id_album": "-1846011410",
    "description": "Bird_420197",
    "title": "Bird_420197",
    "link_img": "https://live.staticflickr.com/65535/50017321671_5c2ed1bef6_o.jpg",
    "id_image": "Bird_420197",
    "count_view": 0
  },
  {
    "link_thumb": "https://live.staticflickr.com/65535/50017412053_67112e7b3d_n.jpg",
    "id_album": "-462831702",
    "description": "Cat_288399",
    "title": "Cat_288399",
    "link_img": "https://live.staticflickr.com/65535/50017412053_3a36507116_o.jpg",
    "id_image": "Cat_288399",
    "count_view": 0
  },
  {
    "link_thumb": "https://live.staticflickr.com/65535/50352554126_614ebf32c6_n.jpg",
    "id_album": "-462831703",
    "description": "Cat_470360",
    "title": "Cat_470360",
    "link_img": "https://live.staticflickr.com/65535/50352554126_41ded91d5e_o.jpg",
    "id_image": "Cat_470360",
    "count_view": 0
  },
  {
    "link_thumb": "https://live.staticflickr.com/65535/50022534487_a9c6cd34e2_n.jpg",
    "id_album": "1610416937",
    "description": "Moth_322593",
    "title": "Moth_322593",
    "link_img": "https://live.staticflickr.com/65535/50022534487_41a2ef500c_o.jpg",
    "id_image": "Moth_322593",
    "count_view": 0
  },
  {
    "link_thumb": "https://live.staticflickr.com/65535/50021932726_9faae3f3f1_n.jpg",
    "id_album": "1392348450",
    "description": "Leopard_529762",
    "title": "Leopard_529762",
    "link_img": "https://live.staticflickr.com/65535/50021932726_cd62231186_o.jpg",
    "id_image": "Leopard_529762",
    "count_view": 0
  },
  {
    "link_thumb": "https://live.staticflickr.com/65535/50019880216_d49ab9fde6_n.jpg",
    "id_album": "815329026",
    "description": "Crab_511029",
    "title": "Crab_511029",
    "link_img": "https://live.staticflickr.com/65535/50019880216_ec3cae0579_o.jpg",
    "id_image": "Crab_511029",
    "count_view": 0
  },
  {
    "link_thumb": "https://live.staticflickr.com/65535/50017995406_59d4718992_n.jpg",
    "id_album": "-462831702",
    "description": "Cat_333577",
    "title": "Cat_333577",
    "link_img": "https://live.staticflickr.com/65535/50017995406_3459b8bb92_o.jpg",
    "id_image": "Cat_333577",
    "count_view": 0
  },
  {
    "link_thumb": "https://live.staticflickr.com/65535/50021184866_f582c0117a_n.jpg",
    "id_album": "-462831704",
    "description": "Cat_704454",
    "title": "Cat_704454",
    "link_img": "https://live.staticflickr.com/65535/50021184866_339af8559d_o.jpg",
    "id_image": "Cat_704454",
    "count_view": 0
  },
  {
    "link_thumb": "https://live.staticflickr.com/65535/50019696201_2f1baa60af_n.jpg",
    "id_album": "-1481843714",
    "description": "Cheetah_361656",
    "title": "Cheetah_361656",
    "link_img": "https://live.staticflickr.com/65535/50019696201_02a9a507dd_o.jpg",
    "id_image": "Cheetah_361656",
    "count_view": 0
  },
  {
    "link_thumb": "https://live.staticflickr.com/65535/50020534507_ff3153e9f9_n.jpg",
    "id_album": "-149330232",
    "description": "Dog_339838",
    "title": "Dog_339838",
    "link_img": "https://live.staticflickr.com/65535/50020534507_a8cb89c754_o.jpg",
    "id_image": "Dog_339838",
    "count_view": 0
  },
  {
    "link_thumb": "https://live.staticflickr.com/65535/50021432728_ae84206d2a_n.jpg",
    "id_album": "416744915",
    "description": "Lion_225102",
    "title": "Lion_225102",
    "link_img": "https://live.staticflickr.com/65535/50021432728_e760c44794_o.jpg",
    "id_image": "Lion_225102",
    "count_view": 0
  },
  {
    "link_thumb": "https://live.staticflickr.com/65535/50019082278_7255e5eff4_n.jpg",
    "id_album": "-420782796",
    "description": "Caterpillar_926287",
    "title": "Caterpillar_926287",
    "link_img": "https://live.staticflickr.com/65535/50019082278_25a1e0a159_o.jpg",
    "id_image": "Caterpillar_926287",
    "count_view": 0
  },
  {
    "link_thumb": "https://live.staticflickr.com/65535/50017319462_ae4efdd1a1_n.jpg",
    "id_album": "-422187261",
    "description": "Bear_563518",
    "title": "Bear_563518",
    "link_img": "https://live.staticflickr.com/65535/50017319462_6bfed6845e_o.jpg",
    "id_image": "Bear_563518",
    "count_view": 0
  },
  {
    "link_thumb": "https://live.staticflickr.com/65535/50018019507_90e2235488_n.jpg",
    "id_album": "-462831705",
    "description": "Cat_113538",
    "title": "Cat_113538",
    "link_img": "https://live.staticflickr.com/65535/50018019507_ae0bca78ce_o.jpg",
    "id_image": "Cat_113538",
    "count_view": 0
  },
  {
    "link_thumb": "https://live.staticflickr.com/65535/50020495576_1a2fd6cc02_n.jpg",
    "id_album": "-149330231",
    "description": "Dog_722664",
    "title": "Dog_722664",
    "link_img": "https://live.staticflickr.com/65535/50020495576_39ecfd846f_o.jpg",
    "id_image": "Dog_722664",
    "count_view": 0
  },
  {
    "link_thumb": "https://live.staticflickr.com/65535/50019982636_3d1041cbf9_n.jpg",
    "id_album": "1903411565",
    "description": "Deer_247946",
    "title": "Deer_247946",
    "link_img": "https://live.staticflickr.com/65535/50019982636_876c4d0d4a_o.jpg",
    "id_image": "Deer_247946",
    "count_view": 0
  },
  {
    "link_thumb": "https://live.staticflickr.com/65535/50023801358_25d3d6b373_n.jpg",
    "id_album": "410750612",
    "description": "Wasp_865183",
    "title": "Wasp_865183",
    "link_img": "https://live.staticflickr.com/65535/50023801358_05fa6a97ce_o.jpg",
    "id_image": "Wasp_865183",
    "count_view": 0
  },
  {
    "link_thumb": "https://live.staticflickr.com/65535/50023892352_349e7a8b10_n.jpg",
    "id_album": "-1131363127",
    "description": "SnowLeopard_361682",
    "title": "SnowLeopard_361682",
    "link_img": "https://live.staticflickr.com/65535/50023892352_f1b75694d8_o.jpg",
    "id_image": "SnowLeopard_361682",
    "count_view": 0
  },
  {
    "link_thumb": "https://live.staticflickr.com/65535/50021404092_7b8c41648b_n.jpg",
    "id_album": "-462831704",
    "description": "Cat_650945",
    "title": "Cat_650945",
    "link_img": "https://live.staticflickr.com/65535/50021404092_6f09f642f9_o.jpg",
    "id_image": "Cat_650945",
    "count_view": 0
  },
  {
    "link_thumb": "https://live.staticflickr.com/65535/50020096618_621fdcc0c2_n.jpg",
    "id_album": "-405058657",
    "description": "Dragonfly_539324",
    "title": "Dragonfly_539324",
    "link_img": "https://live.staticflickr.com/65535/50020096618_22c74b5939_o.jpg",
    "id_image": "Dragonfly_539324",
    "count_view": 0
  },
  {
    "link_thumb": "https://live.staticflickr.com/65535/50021548887_7cd4c3a3c2_n.jpg",
    "id_album": "-405626519",
    "description": "GermanShepherd_676403",
    "title": "GermanShepherd_676403",
    "link_img": "https://live.staticflickr.com/65535/50021548887_c97482b1b0_o.jpg",
    "id_image": "GermanShepherd_676403",
    "count_view": 0
  },
  {
    "link_thumb": "https://live.staticflickr.com/65535/50017154347_7836551730_n.jpg",
    "id_album": "523598895",
    "description": "Artistic_309786",
    "title": "Artistic_309786",
    "link_img": "https://live.staticflickr.com/65535/50017154347_2eaf29e022_o.jpg",
    "id_image": "Artistic_309786",
    "count_view": 0
  },
  {
    "link_thumb": "https://live.staticflickr.com/65535/50017807887_e88162f6df_n.jpg",
    "id_album": "-401151552",
    "description": "Butterfly_221929",
    "title": "Butterfly_221929",
    "link_img": "https://live.staticflickr.com/65535/50017807887_a1616a014f_o.jpg",
    "id_image": "Butterfly_221929",
    "count_view": 0
  },
  {
    "link_thumb": "https://live.staticflickr.com/65535/50020901678_245bf85f57_n.jpg",
    "id_album": "54253492",
    "description": "Heron_455465",
    "title": "Heron_455465",
    "link_img": "https://live.staticflickr.com/65535/50020901678_4b8459579a_o.jpg",
    "id_image": "Heron_455465",
    "count_view": 0
  },
  {
    "link_thumb": "https://live.staticflickr.com/65535/50021075837_103ce6208b_n.jpg",
    "id_album": "822895535",
    "description": "Falcon_973449",
    "title": "Falcon_973449",
    "link_img": "https://live.staticflickr.com/65535/50021075837_5a62560bf9_o.jpg",
    "id_image": "Falcon_973449",
    "count_view": 0
  },
  {
    "link_thumb": "https://live.staticflickr.com/65535/50018387992_cec6e0023e_n.jpg",
    "id_album": "-462831702",
    "description": "Cat_393926",
    "title": "Cat_393926",
    "link_img": "https://live.staticflickr.com/65535/50018387992_04544f0337_o.jpg",
    "id_image": "Cat_393926",
    "count_view": 0
  },
  {
    "link_thumb": "https://live.staticflickr.com/65535/50020041513_740d4943b5_n.jpg",
    "id_album": "-54509188",
    "description": "Dolphin_429233",
    "title": "Dolphin_429233",
    "link_img": "https://live.staticflickr.com/65535/50020041513_319a3376bb_o.jpg",
    "id_image": "Dolphin_429233",
    "count_view": 0
  },
  {
    "link_thumb": "https://live.staticflickr.com/65535/50020416143_fa2733a049_n.jpg",
    "id_album": "-128218148",
    "description": "Fox_390924",
    "title": "Fox_390924",
    "link_img": "https://live.staticflickr.com/65535/50020416143_196fc6eb3d_o.jpg",
    "id_image": "Fox_390924",
    "count_view": 0
  },
  {
    "link_thumb": "https://live.staticflickr.com/65535/50024503652_e45845342b_n.jpg",
    "id_album": "405170427",
    "description": "Tiger_924905",
    "title": "Tiger_924905",
    "link_img": "https://live.staticflickr.com/65535/50024503652_e7a03a1ee9_o.jpg",
    "id_image": "Tiger_924905",
    "count_view": 0
  },
  {
    "link_thumb": "https://live.staticflickr.com/65535/50020135928_b352f179a1_n.jpg",
    "id_album": "1168627767",
    "description": "Duck_725391",
    "title": "Duck_725391",
    "link_img": "https://live.staticflickr.com/65535/50020135928_869fd7b545_o.jpg",
    "id_image": "Duck_725391",
    "count_view": 0
  },
  {
    "link_thumb": "https://live.staticflickr.com/65535/50017514243_156347e272_n.jpg",
    "id_album": "-462831702",
    "description": "Cat_355267",
    "title": "Cat_355267",
    "link_img": "https://live.staticflickr.com/65535/50017514243_9a92ac1abb_o.jpg",
    "id_image": "Cat_355267",
    "count_view": 0
  },
  {
    "link_thumb": "https://live.staticflickr.com/65535/50021539958_cd8c25b78f_n.jpg",
    "id_album": "416744915",
    "description": "Lion_921761",
    "title": "Lion_921761",
    "link_img": "https://live.staticflickr.com/65535/50021539958_eea9541ab9_o.jpg",
    "id_image": "Lion_921761",
    "count_view": 0
  },
  {
    "link_thumb": "https://live.staticflickr.com/65535/50022102947_f713e7bb69_n.jpg",
    "id_album": "-1882491687",
    "description": "Ladybug_390053",
    "title": "Ladybug_390053",
    "link_img": "https://live.staticflickr.com/65535/50022102947_3d4468b11b_o.jpg",
    "id_image": "Ladybug_390053",
    "count_view": 0
  },
  {
    "link_thumb": "https://live.staticflickr.com/65535/50016870156_035de94abd_n.jpg",
    "id_album": "523598895",
    "description": "Artistic_149839",
    "title": "Artistic_149839",
    "link_img": "https://live.staticflickr.com/65535/50016870156_9d367a1cb5_o.jpg",
    "id_image": "Artistic_149839",
    "count_view": 0
  },
  {
    "link_thumb": "https://live.staticflickr.com/65535/50022957483_2218cb29b0_n.jpg",
    "id_album": "692487763",
    "description": "SiberianHusky_668844",
    "title": "SiberianHusky_668844",
    "link_img": "https://live.staticflickr.com/65535/50022957483_cccb6e3b23_o.jpg",
    "id_image": "SiberianHusky_668844",
    "count_view": 0
  },
  {
    "link_thumb": "https://live.staticflickr.com/65535/50020591173_d38b619ae4_n.jpg",
    "id_album": "-462831704",
    "description": "Cat_593688",
    "title": "Cat_593688",
    "link_img": "https://live.staticflickr.com/65535/50020591173_a989f7710b_o.jpg",
    "id_image": "Cat_593688",
    "count_view": 0
  },
  {
    "link_thumb": "https://live.staticflickr.com/65535/50020022088_a58a1495bb_n.jpg",
    "id_album": "-149330231",
    "description": "Dog_984881",
    "title": "Dog_984881",
    "link_img": "https://live.staticflickr.com/65535/50020022088_d14ffa9134_o.jpg",
    "id_image": "Dog_984881",
    "count_view": 0
  },
  {
    "link_thumb": "https://live.staticflickr.com/65535/50351737233_8a928c95d2_n.jpg",
    "id_album": "-462831703",
    "description": "Cat_234866",
    "title": "Cat_234866",
    "link_img": "https://live.staticflickr.com/65535/50351737233_c559f52625_o.jpg",
    "id_image": "Cat_234866",
    "count_view": 0
  },
  {
    "link_thumb": "https://live.staticflickr.com/65535/50022951488_6256393f1c_n.jpg",
    "id_album": "-755466332",
    "description": "Sheep_955700",
    "title": "Sheep_955700",
    "link_img": "https://live.staticflickr.com/65535/50022951488_65c27416ed_o.jpg",
    "id_image": "Sheep_955700",
    "count_view": 0
  },
  {
    "link_thumb": "https://live.staticflickr.com/65535/50021914897_46887a98c5_n.jpg",
    "id_album": "1658866795",
    "description": "Insect_276121",
    "title": "Insect_276121",
    "link_img": "https://live.staticflickr.com/65535/50021914897_aba83160f5_o.jpg",
    "id_image": "Insect_276121",
    "count_view": 0
  },
  {
    "link_thumb": "https://live.staticflickr.com/65535/50017589666_33fdae51ae_n.jpg",
    "id_album": "-401151552",
    "description": "Butterfly_419723",
    "title": "Butterfly_419723",
    "link_img": "https://live.staticflickr.com/65535/50017589666_aff2dce884_o.jpg",
    "id_image": "Butterfly_419723",
    "count_view": 0
  },
  {
    "link_thumb": "https://live.staticflickr.com/65535/50021962671_315bac76e5_n.jpg",
    "id_album": "1392348450",
    "description": "Leopard_983683",
    "title": "Leopard_983683",
    "link_img": "https://live.staticflickr.com/65535/50021962671_5bc3669c79_o.jpg",
    "id_image": "Leopard_983683",
    "count_view": 0
  },
  {
    "link_thumb": "https://live.staticflickr.com/65535/50018861363_e1956d3c6c_n.jpg",
    "id_album": "-462831703",
    "description": "Cat_881911",
    "title": "Cat_881911",
    "link_img": "https://live.staticflickr.com/65535/50018861363_03bdbc0fb4_o.jpg",
    "id_image": "Cat_881911",
    "count_view": 0
  },
  {
    "link_thumb": "https://live.staticflickr.com/65535/50021607083_1838876ce7_n.jpg",
    "id_album": "1894617400",
    "description": "Lynx_453332",
    "title": "Lynx_453332",
    "link_img": "https://live.staticflickr.com/65535/50021607083_7e4876df05_o.jpg",
    "id_image": "Lynx_453332",
    "count_view": 0
  },
  {
    "link_thumb": "https://live.staticflickr.com/65535/50020580986_7462de5253_n.jpg",
    "id_album": "-54509188",
    "description": "Dolphin_505273",
    "title": "Dolphin_505273",
    "link_img": "https://live.staticflickr.com/65535/50020580986_fc4f8a6dee_o.jpg",
    "id_image": "Dolphin_505273",
    "count_view": 0
  },
  {
    "link_thumb": "https://live.staticflickr.com/65535/50017130311_2486d55b7b_n.jpg",
    "id_album": "1699594607",
    "description": "Bee_364925",
    "title": "Bee_364925",
    "link_img": "https://live.staticflickr.com/65535/50017130311_8971164da5_o.jpg",
    "id_image": "Bee_364925",
    "count_view": 0
  },
  {
    "link_thumb": "https://live.staticflickr.com/65535/50019606091_eb57a41751_n.jpg",
    "id_album": "-420782796",
    "description": "Caterpillar_397887",
    "title": "Caterpillar_397887",
    "link_img": "https://live.staticflickr.com/65535/50019606091_e4aa1c7494_o.jpg",
    "id_image": "Caterpillar_397887",
    "count_view": 0
  },
  {
    "link_thumb": "https://live.staticflickr.com/65535/50016308513_c5bb05b8c3_n.jpg",
    "id_album": "-1741290715",
    "description": "Ant_462438",
    "title": "Ant_462438",
    "link_img": "https://live.staticflickr.com/65535/50016308513_3d3055db14_o.jpg",
    "id_image": "Ant_462438",
    "count_view": 0
  },
  {
    "link_thumb": "https://live.staticflickr.com/65535/50017954127_6aca871089_n.jpg",
    "id_album": "-401151552",
    "description": "Butterfly_916311",
    "title": "Butterfly_916311",
    "link_img": "https://live.staticflickr.com/65535/50017954127_7e7c12ac9f_o.jpg",
    "id_image": "Butterfly_916311",
    "count_view": 0
  },
  {
    "link_thumb": "https://live.staticflickr.com/65535/50019945096_ce7f14a2a7_n.jpg",
    "id_album": "1273365283",
    "description": "Cute_599441",
    "title": "Cute_599441",
    "link_img": "https://live.staticflickr.com/65535/50019945096_e0e6470579_o.jpg",
    "id_image": "Cute_599441",
    "count_view": 0
  },
  {
    "link_thumb": "https://live.staticflickr.com/65535/50023300746_a37a9025b2_n.jpg",
    "id_album": "48367914",
    "description": "Rhino_752367",
    "title": "Rhino_752367",
    "link_img": "https://live.staticflickr.com/65535/50023300746_869773d6d7_o.jpg",
    "id_image": "Rhino_752367",
    "count_view": 0
  },
  {
    "link_thumb": "https://live.staticflickr.com/65535/50022214392_9c47ae52b2_n.jpg",
    "id_album": "1392348450",
    "description": "Leopard_910687",
    "title": "Leopard_910687",
    "link_img": "https://live.staticflickr.com/65535/50022214392_aa343c99db_o.jpg",
    "id_image": "Leopard_910687",
    "count_view": 0
  },
  {
    "link_thumb": "https://live.staticflickr.com/65535/50019560421_59abc59898_n.jpg",
    "id_album": "-462831703",
    "description": "Cat_986773",
    "title": "Cat_986773",
    "link_img": "https://live.staticflickr.com/65535/50019560421_555660d83c_o.jpg",
    "id_image": "Cat_986773",
    "count_view": 0
  },
  {
    "link_thumb": "https://live.staticflickr.com/65535/50017970922_740435ac4b_n.jpg",
    "id_album": "-401151552",
    "description": "Butterfly_927172",
    "title": "Butterfly_927172",
    "link_img": "https://live.staticflickr.com/65535/50017970922_a87027fd65_o.jpg",
    "id_image": "Butterfly_927172",
    "count_view": 0
  },
  {
    "link_thumb": "https://live.staticflickr.com/65535/50021052182_8fe3c870bd_n.jpg",
    "id_album": "1270947998",
    "description": "Elephant_863746",
    "title": "Elephant_863746",
    "link_img": "https://live.staticflickr.com/65535/50021052182_0bb5fe3d24_o.jpg",
    "id_image": "Elephant_863746",
    "count_view": 0
  },
  {
    "link_thumb": "https://live.staticflickr.com/65535/50023977628_254beaf09f_n.jpg",
    "id_album": "-709711865",
    "description": "Wolf_592487",
    "title": "Wolf_592487",
    "link_img": "https://live.staticflickr.com/65535/50023977628_34fb4475f1_o.jpg",
    "id_image": "Wolf_592487",
    "count_view": 0
  },
  {
    "link_thumb": "https://live.staticflickr.com/65535/50019475876_f105fabe9a_n.jpg",
    "id_album": "-462831703",
    "description": "Cat_924359",
    "title": "Cat_924359",
    "link_img": "https://live.staticflickr.com/65535/50019475876_37b28aef94_o.jpg",
    "id_image": "Cat_924359",
    "count_view": 0
  },
  {
    "link_thumb": "https://live.staticflickr.com/65535/50020001102_81bb0a2239_n.jpg",
    "id_album": "1949822052",
    "description": "Chimpanzee_450990",
    "title": "Chimpanzee_450990",
    "link_img": "https://live.staticflickr.com/65535/50020001102_fa2cb859a3_o.jpg",
    "id_image": "Chimpanzee_450990",
    "count_view": 0
  },
  {
    "link_thumb": "https://live.staticflickr.com/65535/50021466191_83ebd9a023_n.jpg",
    "id_album": "-1933715543",
    "description": "Horse_178100",
    "title": "Horse_178100",
    "link_img": "https://live.staticflickr.com/65535/50021466191_8257ccfa77_o.jpg",
    "id_image": "Horse_178100",
    "count_view": 0
  },
  {
    "link_thumb": "https://live.staticflickr.com/65535/50017553217_c2108c1bd0_n.jpg",
    "id_album": "-1846011410",
    "description": "Bird_385816",
    "title": "Bird_385816",
    "link_img": "https://live.staticflickr.com/65535/50017553217_d5a456b259_o.jpg",
    "id_image": "Bird_385816",
    "count_view": 0
  },
  {
    "link_thumb": "https://live.staticflickr.com/65535/50018055141_4e13012f38_n.jpg",
    "id_album": "-462831702",
    "description": "Cat_361156",
    "title": "Cat_361156",
    "link_img": "https://live.staticflickr.com/65535/50018055141_f1671b15b4_o.jpg",
    "id_image": "Cat_361156",
    "count_view": 0
  },
  {
    "link_thumb": "https://live.staticflickr.com/65535/50020487162_993bed2725_n.jpg",
    "id_album": "-149330232",
    "description": "Dog_301766",
    "title": "Dog_301766",
    "link_img": "https://live.staticflickr.com/65535/50020487162_c2c8073425_o.jpg",
    "id_image": "Dog_301766",
    "count_view": 0
  },
  {
    "link_thumb": "https://live.staticflickr.com/65535/50017122437_7820ac2c7c_n.jpg",
    "id_album": "523598895",
    "description": "Artistic_113691",
    "title": "Artistic_113691",
    "link_img": "https://live.staticflickr.com/65535/50017122437_81f106dc98_o.jpg",
    "id_image": "Artistic_113691",
    "count_view": 0
  },
  {
    "link_thumb": "https://live.staticflickr.com/65535/50016836216_9b97b95dff_n.jpg",
    "id_album": "-1741290715",
    "description": "Ant_462036",
    "title": "Ant_462036",
    "link_img": "https://live.staticflickr.com/65535/50016836216_02e8aa4de9_o.jpg",
    "id_image": "Ant_462036",
    "count_view": 0
  },
  {
    "link_thumb": "https://live.staticflickr.com/65535/50020393391_6ae93a8735_n.jpg",
    "id_album": "-149330231",
    "description": "Dog_412242",
    "title": "Dog_412242",
    "link_img": "https://live.staticflickr.com/65535/50020393391_0a742374cd_o.jpg",
    "id_image": "Dog_412242",
    "count_view": 0
  },
  {
    "link_thumb": "https://live.staticflickr.com/65535/50020576792_7d7c4999e6_n.jpg",
    "id_album": "-149330232",
    "description": "Dog_361484",
    "title": "Dog_361484",
    "link_img": "https://live.staticflickr.com/65535/50020576792_de00f583a9_o.jpg",
    "id_image": "Dog_361484",
    "count_view": 0
  },
  {
    "link_thumb": "https://live.staticflickr.com/65535/50016944401_68cfd1e81e_n.jpg",
    "id_album": "390697200",
    "description": "AustralianShepherd_882178",
    "title": "AustralianShepherd_882178",
    "link_img": "https://live.staticflickr.com/65535/50016944401_8be660f39c_o.jpg",
    "id_image": "AustralianShepherd_882178",
    "count_view": 0
  },
  {
    "link_thumb": "https://live.staticflickr.com/65535/50022616703_ac6bb61a60_n.jpg",
    "id_album": "248289288",
    "description": "Raccoon_686499",
    "title": "Raccoon_686499",
    "link_img": "https://live.staticflickr.com/65535/50022616703_3c2c0d6b26_o.jpg",
    "id_image": "Raccoon_686499",
    "count_view": 0
  },
  {
    "link_thumb": "https://live.staticflickr.com/65535/50024189711_92bb82058c_n.jpg",
    "id_album": "405170427",
    "description": "Tiger_667540",
    "title": "Tiger_667540",
    "link_img": "https://live.staticflickr.com/65535/50024189711_ec1b8b0cfb_o.jpg",
    "id_image": "Tiger_667540",
    "count_view": 0
  },
  {
    "link_thumb": "https://live.staticflickr.com/65535/50021292637_8770722862_n.jpg",
    "id_album": "704811092",
    "description": "FrenchBulldog_407545",
    "title": "FrenchBulldog_407545",
    "link_img": "https://live.staticflickr.com/65535/50021292637_06b331d691_o.jpg",
    "id_image": "FrenchBulldog_407545",
    "count_view": 0
  },
  {
    "link_thumb": "https://live.staticflickr.com/65535/50021514891_087e098333_n.jpg",
    "id_album": "-1933715543",
    "description": "Horse_421564",
    "title": "Horse_421564",
    "link_img": "https://live.staticflickr.com/65535/50021514891_7653bbb30b_o.jpg",
    "id_image": "Horse_421564",
    "count_view": 0
  },
  {
    "link_thumb": "https://live.staticflickr.com/65535/50352678572_b9eda31676_n.jpg",
    "id_album": "-462831703",
    "description": "Cat_435328",
    "title": "Cat_435328",
    "link_img": "https://live.staticflickr.com/65535/50352678572_baeb9933f0_o.jpg",
    "id_image": "Cat_435328",
    "count_view": 0
  },
  {
    "link_thumb": "https://live.staticflickr.com/65535/50021460242_417ae87f72_n.jpg",
    "id_album": "-462831704",
    "description": "Cat_725082",
    "title": "Cat_725082",
    "link_img": "https://live.staticflickr.com/65535/50021460242_8e98bec286_o.jpg",
    "id_image": "Cat_725082",
    "count_view": 0
  },
  {
    "link_thumb": "https://live.staticflickr.com/65535/50016294378_9475b85a0c_n.jpg",
    "id_album": "-229810103",
    "description": "AmericanBison_291367",
    "title": "AmericanBison_291367",
    "link_img": "https://live.staticflickr.com/65535/50016294378_000326fa22_o.jpg",
    "id_image": "AmericanBison_291367",
    "count_view": 0
  },
  {
    "link_thumb": "https://live.staticflickr.com/65535/50016881981_08a91735d6_n.jpg",
    "id_album": "523598895",
    "description": "Artistic_220463",
    "title": "Artistic_220463",
    "link_img": "https://live.staticflickr.com/65535/50016881981_9f0230f045_o.jpg",
    "id_image": "Artistic_220463",
    "count_view": 0
  },
  {
    "link_thumb": "https://live.staticflickr.com/65535/50021414563_e258353401_n.jpg",
    "id_album": "1392348450",
    "description": "Leopard_906325",
    "title": "Leopard_906325",
    "link_img": "https://live.staticflickr.com/65535/50021414563_4600c9e1fb_o.jpg",
    "id_image": "Leopard_906325",
    "count_view": 0
  },
  {
    "link_thumb": "https://live.staticflickr.com/65535/50021881156_5d3c8ace2b_n.jpg",
    "id_album": "1918884325",
    "description": "Lemur_904485",
    "title": "Lemur_904485",
    "link_img": "https://live.staticflickr.com/65535/50021881156_2c826a42a6_o.jpg",
    "id_image": "Lemur_904485",
    "count_view": 0
  },
  {
    "link_thumb": "https://live.staticflickr.com/65535/50018685008_f593142b9b_n.jpg",
    "id_album": "-462831704",
    "description": "Cat_444141",
    "title": "Cat_444141",
    "link_img": "https://live.staticflickr.com/65535/50018685008_22a9a23539_o.jpg",
    "id_image": "Cat_444141",
    "count_view": 0
  },
  {
    "link_thumb": "https://live.staticflickr.com/65535/50017545273_1dc9dc780c_n.jpg",
    "id_album": "-462831702",
    "description": "Cat_365143",
    "title": "Cat_365143",
    "link_img": "https://live.staticflickr.com/65535/50017545273_861171dc38_o.jpg",
    "id_image": "Cat_365143",
    "count_view": 0
  },
  {
    "link_thumb": "https://live.staticflickr.com/65535/50352706512_3b3d4bcd58_n.jpg",
    "id_album": "-462831703",
    "description": "Cat_463943",
    "title": "Cat_463943",
    "link_img": "https://live.staticflickr.com/65535/50352706512_4684f724f2_o.jpg",
    "id_image": "Cat_463943",
    "count_view": 0
  },
  {
    "link_thumb": "https://live.staticflickr.com/65535/50021575356_bf21284ea5_n.jpg",
    "id_album": "-1933715543",
    "description": "Horse_857164",
    "title": "Horse_857164",
    "link_img": "https://live.staticflickr.com/65535/50021575356_3d4799234f_o.jpg",
    "id_image": "Horse_857164",
    "count_view": 0
  },
  {
    "link_thumb": "https://live.staticflickr.com/65535/50021302676_e916d6f0d2_n.jpg",
    "id_album": "-405626519",
    "description": "GermanShepherd_814569",
    "title": "GermanShepherd_814569",
    "link_img": "https://live.staticflickr.com/65535/50021302676_27dccec228_o.jpg",
    "id_image": "GermanShepherd_814569",
    "count_view": 0
  },
  {
    "link_thumb": "https://live.staticflickr.com/65535/50020544731_19fea47baa_n.jpg",
    "id_album": "-149330231",
    "description": "Dog_922538",
    "title": "Dog_922538",
    "link_img": "https://live.staticflickr.com/65535/50020544731_491c3dcb41_o.jpg",
    "id_image": "Dog_922538",
    "count_view": 0
  },
  {
    "link_thumb": "https://live.staticflickr.com/65535/50022199762_bcb0ef35d9_n.jpg",
    "id_album": "1392348450",
    "description": "Leopard_672382",
    "title": "Leopard_672382",
    "link_img": "https://live.staticflickr.com/65535/50022199762_4b5fbd2e2c_o.jpg",
    "id_image": "Leopard_672382",
    "count_view": 0
  },
  {
    "link_thumb": "https://live.staticflickr.com/65535/50020575936_60b1e8ce2c_n.jpg",
    "id_album": "-54509188",
    "description": "Dolphin_451290",
    "title": "Dolphin_451290",
    "link_img": "https://live.staticflickr.com/65535/50020575936_2fdc8f96d5_o.jpg",
    "id_image": "Dolphin_451290",
    "count_view": 0
  },
  {
    "link_thumb": "https://live.staticflickr.com/65535/50022194127_367e8a2580_n.jpg",
    "id_album": "1392348450",
    "description": "Leopard_570434",
    "title": "Leopard_570434",
    "link_img": "https://live.staticflickr.com/65535/50022194127_300c3cbed5_o.jpg",
    "id_image": "Leopard_570434",
    "count_view": 0
  },
  {
    "link_thumb": "https://live.staticflickr.com/65535/50018926763_fbfbf54f1c_n.jpg",
    "id_album": "-462831705",
    "description": "Cat_91461",
    "title": "Cat_91461",
    "link_img": "https://live.staticflickr.com/65535/50018926763_f388becd2c_o.jpg",
    "id_image": "Cat_91461",
    "count_view": 0
  },
  {
    "link_thumb": "https://live.staticflickr.com/65535/50019624871_4b0609acd1_n.jpg",
    "id_album": "1889777354",
    "description": "CGI_321932",
    "title": "CGI_321932",
    "link_img": "https://live.staticflickr.com/65535/50019624871_359ee34ba7_o.jpg",
    "id_image": "CGI_321932",
    "count_view": 0
  },
  {
    "link_thumb": "https://live.staticflickr.com/65535/50023869652_2ed30600ae_n.jpg",
    "id_album": "-1182356179",
    "description": "Snake_865687",
    "title": "Snake_865687",
    "link_img": "https://live.staticflickr.com/65535/50023869652_b4c6579d26_o.jpg",
    "id_image": "Snake_865687",
    "count_view": 0
  },
  {
    "link_thumb": "https://live.staticflickr.com/65535/50017058808_4218612f7d_n.jpg",
    "id_album": "-401151552",
    "description": "Butterfly_406279",
    "title": "Butterfly_406279",
    "link_img": "https://live.staticflickr.com/65535/50017058808_49dac9b529_o.jpg",
    "id_image": "Butterfly_406279",
    "count_view": 0
  },
  {
    "link_thumb": "https://live.staticflickr.com/65535/50019588453_c04e5bb5b0_n.jpg",
    "id_album": "-149330232",
    "description": "Dog_113929",
    "title": "Dog_113929",
    "link_img": "https://live.staticflickr.com/65535/50019588453_1b3de1f65b_o.jpg",
    "id_image": "Dog_113929",
    "count_view": 0
  },
  {
    "link_thumb": "https://live.staticflickr.com/65535/50017212213_dfe9630f41_n.jpg",
    "id_album": "-462831703",
    "description": "Cat_1000296",
    "title": "Cat_1000296",
    "link_img": "https://live.staticflickr.com/65535/50017212213_7ac196baf6_o.jpg",
    "id_image": "Cat_1000296",
    "count_view": 0
  },
  {
    "link_thumb": "https://live.staticflickr.com/65535/50020712801_f7020152e6_n.jpg",
    "id_album": "-39098563",
    "description": "Eagle_515815",
    "title": "Eagle_515815",
    "link_img": "https://live.staticflickr.com/65535/50020712801_b7d97039c7_o.jpg",
    "id_image": "Eagle_515815",
    "count_view": 0
  },
  {
    "link_thumb": "https://live.staticflickr.com/65535/50019583413_619a8ffe87_n.jpg",
    "id_album": "-149330232",
    "description": "Dog_102945",
    "title": "Dog_102945",
    "link_img": "https://live.staticflickr.com/65535/50019583413_7f958ce4dc_o.jpg",
    "id_image": "Dog_102945",
    "count_view": 0
  },
  {
    "link_thumb": "https://live.staticflickr.com/65535/50019443636_89c9109cbf_n.jpg",
    "id_album": "-462831703",
    "description": "Cat_913796",
    "title": "Cat_913796",
    "link_img": "https://live.staticflickr.com/65535/50019443636_f385bcf474_o.jpg",
    "id_image": "Cat_913796",
    "count_view": 0
  },
  {
    "link_thumb": "https://live.staticflickr.com/65535/50019422672_14a6dcf7d9_n.jpg",
    "id_album": "-462831702",
    "description": "Cat_424147",
    "title": "Cat_424147",
    "link_img": "https://live.staticflickr.com/65535/50019422672_806879d4f0_o.jpg",
    "id_image": "Cat_424147",
    "count_view": 0
  },
  {
    "link_thumb": "https://live.staticflickr.com/65535/50023663298_071f34ffa6_n.jpg",
    "id_album": "405170427",
    "description": "Tiger_755452",
    "title": "Tiger_755452",
    "link_img": "https://live.staticflickr.com/65535/50023663298_f405f53dd6_o.jpg",
    "id_image": "Tiger_755452",
    "count_view": 0
  },
  {
    "link_thumb": "https://live.staticflickr.com/65535/50022932526_2acffc502b_n.jpg",
    "id_album": "-356780855",
    "description": "Puffin_864608",
    "title": "Puffin_864608",
    "link_img": "https://live.staticflickr.com/65535/50022932526_a2d4c67748_o.jpg",
    "id_image": "Puffin_864608",
    "count_view": 0
  },
  {
    "link_thumb": "https://live.staticflickr.com/65535/50024521692_b146fe79a4_n.jpg",
    "id_album": "-809392728",
    "description": "Titmouse_738372",
    "title": "Titmouse_738372",
    "link_img": "https://live.staticflickr.com/65535/50024521692_c2ea82ab81_o.jpg",
    "id_image": "Titmouse_738372",
    "count_view": 0
  },
  {
    "link_thumb": "https://live.staticflickr.com/65535/50020393822_800edd7317_n.jpg",
    "id_album": "-149330232",
    "description": "Dog_181132",
    "title": "Dog_181132",
    "link_img": "https://live.staticflickr.com/65535/50020393822_a38b764555_o.jpg",
    "id_image": "Dog_181132",
    "count_view": 0
  },
  {
    "link_thumb": "https://live.staticflickr.com/65535/50021904102_80950a7ac3_n.jpg",
    "id_album": "-737856092",
    "description": "Iguana_445394",
    "title": "Iguana_445394",
    "link_img": "https://live.staticflickr.com/65535/50021904102_ac37bf122b_o.jpg",
    "id_image": "Iguana_445394",
    "count_view": 0
  },
  {
    "link_thumb": "https://live.staticflickr.com/65535/50017521707_df729090a5_n.jpg",
    "id_album": "-1846011410",
    "description": "Bird_349607",
    "title": "Bird_349607",
    "link_img": "https://live.staticflickr.com/65535/50017521707_d12f58f4a2_o.jpg",
    "id_image": "Bird_349607",
    "count_view": 0
  },
  {
    "link_thumb": "https://live.staticflickr.com/65535/50019703096_5888ffb932_n.jpg",
    "id_album": "-1481843714",
    "description": "Cheetah_402855",
    "title": "Cheetah_402855",
    "link_img": "https://live.staticflickr.com/65535/50019703096_9ae2cf680c_o.jpg",
    "id_image": "Cheetah_402855",
    "count_view": 0
  },
  {
    "link_thumb": "https://live.staticflickr.com/65535/50019460331_15ea8a8b95_n.jpg",
    "id_album": "-462831705",
    "description": "Cat_91493",
    "title": "Cat_91493",
    "link_img": "https://live.staticflickr.com/65535/50019460331_41c8490288_o.jpg",
    "id_image": "Cat_91493",
    "count_view": 0
  },
  {
    "link_thumb": "https://live.staticflickr.com/65535/50021358563_fb99d6bdf2_n.jpg",
    "id_album": "1392348450",
    "description": "Leopard_346133",
    "title": "Leopard_346133",
    "link_img": "https://live.staticflickr.com/65535/50021358563_159e063e57_o.jpg",
    "id_image": "Leopard_346133",
    "count_view": 0
  },
  {
    "link_thumb": "https://live.staticflickr.com/65535/50020929122_34b94806c7_n.jpg",
    "id_album": "1168627767",
    "description": "Duck_771437",
    "title": "Duck_771437",
    "link_img": "https://live.staticflickr.com/65535/50020929122_8a220ca426_o.jpg",
    "id_image": "Duck_771437",
    "count_view": 0
  },
  {
    "link_thumb": "https://live.staticflickr.com/65535/50019188136_12ba48e97d_n.jpg",
    "id_album": "-462831702",
    "description": "Cat_432743",
    "title": "Cat_432743",
    "link_img": "https://live.staticflickr.com/65535/50019188136_ca18e842e7_o.jpg",
    "id_image": "Cat_432743",
    "count_view": 0
  },
  {
    "link_thumb": "https://live.staticflickr.com/65535/50017742356_d095f26958_n.jpg",
    "id_album": "-462831703",
    "description": "Cat_1002236",
    "title": "Cat_1002236",
    "link_img": "https://live.staticflickr.com/65535/50017742356_81e635c4a4_o.jpg",
    "id_image": "Cat_1002236",
    "count_view": 0
  },
  {
    "link_thumb": "https://live.staticflickr.com/65535/50018015221_b4c83bea11_n.jpg",
    "id_album": "-462831702",
    "description": "Cat_342714",
    "title": "Cat_342714",
    "link_img": "https://live.staticflickr.com/65535/50018015221_f8a659146d_o.jpg",
    "id_image": "Cat_342714",
    "count_view": 0
  },
  {
    "link_thumb": "https://live.staticflickr.com/65535/50017604906_e9fde2a47e_n.jpg",
    "id_album": "-401151552",
    "description": "Butterfly_462693",
    "title": "Butterfly_462693",
    "link_img": "https://live.staticflickr.com/65535/50017604906_8630e6cf4c_o.jpg",
    "id_image": "Butterfly_462693",
    "count_view": 0
  },
  {
    "link_thumb": "https://live.staticflickr.com/65535/50022199332_f21eaf2efe_n.jpg",
    "id_album": "1392348450",
    "description": "Leopard_672378",
    "title": "Leopard_672378",
    "link_img": "https://live.staticflickr.com/65535/50022199332_30d53739a2_o.jpg",
    "id_image": "Leopard_672378",
    "count_view": 0
  },
  {
    "link_thumb": "https://live.staticflickr.com/65535/50021261482_cf9afd6803_n.jpg",
    "id_album": "-128218148",
    "description": "Fox_809445",
    "title": "Fox_809445",
    "link_img": "https://live.staticflickr.com/65535/50021261482_784064d2db_o.jpg",
    "id_image": "Fox_809445",
    "count_view": 0
  },
  {
    "link_thumb": "https://live.staticflickr.com/65535/50022011501_a21e7617f1_n.jpg",
    "id_album": "416744915",
    "description": "Lion_41397",
    "title": "Lion_41397",
    "link_img": "https://live.staticflickr.com/65535/50022011501_7ce366ec2a_o.jpg",
    "id_image": "Lion_41397",
    "count_view": 0
  },
  {
    "link_thumb": "https://live.staticflickr.com/65535/50020248208_2fac421664_n.jpg",
    "id_album": "1270947998",
    "description": "Elephant_721472",
    "title": "Elephant_721472",
    "link_img": "https://live.staticflickr.com/65535/50020248208_6db9a43350_o.jpg",
    "id_image": "Elephant_721472",
    "count_view": 0
  },
  {
    "link_thumb": "https://live.staticflickr.com/65535/50020216551_3c67938ee4_n.jpg",
    "id_album": "-149330232",
    "description": "Dog_277071",
    "title": "Dog_277071",
    "link_img": "https://live.staticflickr.com/65535/50020216551_b6a62d993f_o.jpg",
    "id_image": "Dog_277071",
    "count_view": 0
  },
  {
    "link_thumb": "https://live.staticflickr.com/65535/50017633447_439a697c6a_n.jpg",
    "id_album": "-1846011410",
    "description": "Bird_572127",
    "title": "Bird_572127",
    "link_img": "https://live.staticflickr.com/65535/50017633447_7945c4880c_o.jpg",
    "id_image": "Bird_572127",
    "count_view": 0
  },
  {
    "link_thumb": "https://live.staticflickr.com/65535/50023222702_6437ccd31c_n.jpg",
    "id_album": "-353898617",
    "description": "Puppy_360093",
    "title": "Puppy_360093",
    "link_img": "https://live.staticflickr.com/65535/50023222702_91e92ff0dc_o.jpg",
    "id_image": "Puppy_360093",
    "count_view": 0
  },
  {
    "link_thumb": "https://live.staticflickr.com/65535/50017335883_7d4ac43184_n.jpg",
    "id_album": "-462831705",
    "description": "Cat_216133",
    "title": "Cat_216133",
    "link_img": "https://live.staticflickr.com/65535/50017335883_1ac349eb0f_o.jpg",
    "id_image": "Cat_216133",
    "count_view": 0
  },
  {
    "link_thumb": "https://live.staticflickr.com/65535/50017353983_745aebbc6c_n.jpg",
    "id_album": "-462831705",
    "description": "Cat_235984",
    "title": "Cat_235984",
    "link_img": "https://live.staticflickr.com/65535/50017353983_3b7c3d0460_o.jpg",
    "id_image": "Cat_235984",
    "count_view": 0
  },
  {
    "link_thumb": "https://live.staticflickr.com/65535/50024304632_a803ecd254_n.jpg",
    "id_album": "405170427",
    "description": "Tiger_239365",
    "title": "Tiger_239365",
    "link_img": "https://live.staticflickr.com/65535/50024304632_23a55d775a_o.jpg",
    "id_image": "Tiger_239365",
    "count_view": 0
  },
  {
    "link_thumb": "https://live.staticflickr.com/65535/50023709986_cbf122ce62_n.jpg",
    "id_album": "-359606417",
    "description": "Sparrow_597190",
    "title": "Sparrow_597190",
    "link_img": "https://live.staticflickr.com/65535/50023709986_ab5769f891_o.jpg",
    "id_image": "Sparrow_597190",
    "count_view": 0
  },
  {
    "link_thumb": "https://live.staticflickr.com/65535/50351843953_0984b23251_n.jpg",
    "id_album": "-462831703",
    "description": "Cat_460126",
    "title": "Cat_460126",
    "link_img": "https://live.staticflickr.com/65535/50351843953_f623e6cd79_o.jpg",
    "id_image": "Cat_460126",
    "count_view": 0
  },
  {
    "link_thumb": "https://live.staticflickr.com/65535/50020145717_ed1f505bd1_n.jpg",
    "id_album": "1475096665",
    "description": "Crocodile_271532",
    "title": "Crocodile_271532",
    "link_img": "https://live.staticflickr.com/65535/50020145717_a1fc88f173_o.jpg",
    "id_image": "Crocodile_271532",
    "count_view": 0
  },
  {
    "link_thumb": "https://live.staticflickr.com/65535/50024527777_2f4b739852_n.jpg",
    "id_album": "432140049",
    "description": "Toad_407604",
    "title": "Toad_407604",
    "link_img": "https://live.staticflickr.com/65535/50024527777_0df6d15721_o.jpg",
    "id_image": "Toad_407604",
    "count_view": 0
  },
  {
    "link_thumb": "https://live.staticflickr.com/65535/50021377206_f95befdff6_n.jpg",
    "id_album": "-975314166",
    "description": "Goldfish_364850",
    "title": "Goldfish_364850",
    "link_img": "https://live.staticflickr.com/65535/50021377206_223def7051_o.jpg",
    "id_image": "Goldfish_364850",
    "count_view": 0
  },
  {
    "link_thumb": "https://live.staticflickr.com/65535/50352695607_85e46acc85_n.jpg",
    "id_album": "-462831703",
    "description": "Cat_457921",
    "title": "Cat_457921",
    "link_img": "https://live.staticflickr.com/65535/50352695607_05f906a6e3_o.jpg",
    "id_image": "Cat_457921",
    "count_view": 0
  },
  {
    "link_thumb": "https://live.staticflickr.com/65535/50020968143_b0ac7d8f4b_n.jpg",
    "id_album": "-1933715543",
    "description": "Horse_390977",
    "title": "Horse_390977",
    "link_img": "https://live.staticflickr.com/65535/50020968143_a9f429a227_o.jpg",
    "id_image": "Horse_390977",
    "count_view": 0
  },
  {
    "link_thumb": "https://live.staticflickr.com/65535/50017338553_6569668ddd_n.jpg",
    "id_album": "-462831705",
    "description": "Cat_217157",
    "title": "Cat_217157",
    "link_img": "https://live.staticflickr.com/65535/50017338553_2736792f19_o.jpg",
    "id_image": "Cat_217157",
    "count_view": 0
  },
  {
    "link_thumb": "https://live.staticflickr.com/65535/50022266547_8c94f94b6b_n.jpg",
    "id_album": "416744915",
    "description": "Lion_399671",
    "title": "Lion_399671",
    "link_img": "https://live.staticflickr.com/65535/50022266547_130722014e_o.jpg",
    "id_image": "Lion_399671",
    "count_view": 0
  },
  {
    "link_thumb": "https://live.staticflickr.com/65535/50019969498_5be01da1f4_n.jpg",
    "id_album": "-149330231",
    "description": "Dog_740072",
    "title": "Dog_740072",
    "link_img": "https://live.staticflickr.com/65535/50019969498_e70e4b98f3_o.jpg",
    "id_image": "Dog_740072",
    "count_view": 0
  },
  {
    "link_thumb": "https://live.staticflickr.com/65535/50021928442_5e7bcbb3c3_n.jpg",
    "id_album": "1658866795",
    "description": "Insect_403248",
    "title": "Insect_403248",
    "link_img": "https://live.staticflickr.com/65535/50021928442_2439f397e8_o.jpg",
    "id_image": "Insect_403248",
    "count_view": 0
  },
  {
    "link_thumb": "https://live.staticflickr.com/65535/50018010851_338cb24ac9_n.jpg",
    "id_album": "-462831702",
    "description": "Cat_340118",
    "title": "Cat_340118",
    "link_img": "https://live.staticflickr.com/65535/50018010851_68487c0789_o.jpg",
    "id_image": "Cat_340118",
    "count_view": 0
  },
  {
    "link_thumb": "https://live.staticflickr.com/65535/50020026602_716e824028_n.jpg",
    "id_album": "791455625",
    "description": "Chipmunk_754108",
    "title": "Chipmunk_754108",
    "link_img": "https://live.staticflickr.com/65535/50020026602_62c5384103_o.jpg",
    "id_image": "Chipmunk_754108",
    "count_view": 0
  },
  {
    "link_thumb": "https://live.staticflickr.com/65535/50021595846_28244bc6b8_n.jpg",
    "id_album": "773713550",
    "description": "Hoverfly_249162",
    "title": "Hoverfly_249162",
    "link_img": "https://live.staticflickr.com/65535/50021595846_1f8bfaf92e_o.jpg",
    "id_image": "Hoverfly_249162",
    "count_view": 0
  },
  {
    "link_thumb": "https://live.staticflickr.com/65535/50020467562_9682763695_n.jpg",
    "id_album": "-149330232",
    "description": "Dog_275587",
    "title": "Dog_275587",
    "link_img": "https://live.staticflickr.com/65535/50020467562_c94e0b9c21_o.jpg",
    "id_image": "Dog_275587",
    "count_view": 0
  },
  {
    "link_thumb": "https://live.staticflickr.com/65535/50019374121_e38150c863_n.jpg",
    "id_album": "-462831703",
    "description": "Cat_876799",
    "title": "Cat_876799",
    "link_img": "https://live.staticflickr.com/65535/50019374121_615724f92e_o.jpg",
    "id_image": "Cat_876799",
    "count_view": 0
  },
  {
    "link_thumb": "https://live.staticflickr.com/65535/50023690163_7f57f9179f_n.jpg",
    "id_album": "405170427",
    "description": "Tiger_902931",
    "title": "Tiger_902931",
    "link_img": "https://live.staticflickr.com/65535/50023690163_87599389e2_o.jpg",
    "id_image": "Tiger_902931",
    "count_view": 0
  },
  {
    "link_thumb": "https://live.staticflickr.com/65535/50023548866_ac6c8d7eea_n.jpg",
    "id_album": "-800019164",
    "description": "Snail_882592",
    "title": "Snail_882592",
    "link_img": "https://live.staticflickr.com/65535/50023548866_c7cc4f2a5b_o.jpg",
    "id_image": "Snail_882592",
    "count_view": 0
  },
  {
    "link_thumb": "https://live.staticflickr.com/65535/50016287123_833ef1ab09_n.jpg",
    "id_album": "-1473450542",
    "description": "Alpaca_548375",
    "title": "Alpaca_548375",
    "link_img": "https://live.staticflickr.com/65535/50016287123_e451311081_o.jpg",
    "id_image": "Alpaca_548375",
    "count_view": 0
  },
  {
    "link_thumb": "https://live.staticflickr.com/65535/50022403257_a1944faf34_n.jpg",
    "id_album": "1894617400",
    "description": "Lynx_409199",
    "title": "Lynx_409199",
    "link_img": "https://live.staticflickr.com/65535/50022403257_444d0e9010_o.jpg",
    "id_image": "Lynx_409199",
    "count_view": 0
  },
  {
    "link_thumb": "https://live.staticflickr.com/65535/50018974733_4c4b751482_n.jpg",
    "id_album": "-462831705",
    "description": "Cat_94351",
    "title": "Cat_94351",
    "link_img": "https://live.staticflickr.com/65535/50018974733_c7f99f083d_o.jpg",
    "id_image": "Cat_94351",
    "count_view": 0
  },
  {
    "link_thumb": "https://live.staticflickr.com/65535/50017517866_65cb5a5ec8_n.jpg",
    "id_album": "1696155652",
    "description": "Boxer_371081",
    "title": "Boxer_371081",
    "link_img": "https://live.staticflickr.com/65535/50017517866_1d37e81b60_o.jpg",
    "id_image": "Boxer_371081",
    "count_view": 0
  },
  {
    "link_thumb": "https://live.staticflickr.com/65535/50017343372_ceb9fa6579_n.jpg",
    "id_album": "-422187261",
    "description": "Bear_783615",
    "title": "Bear_783615",
    "link_img": "https://live.staticflickr.com/65535/50017343372_a681819a06_o.jpg",
    "id_image": "Bear_783615",
    "count_view": 0
  },
  {
    "link_thumb": "https://live.staticflickr.com/65535/50020206351_945e65f82a_n.jpg",
    "id_album": "-149330232",
    "description": "Dog_275572",
    "title": "Dog_275572",
    "link_img": "https://live.staticflickr.com/65535/50020206351_ffa567832b_o.jpg",
    "id_image": "Dog_275572",
    "count_view": 0
  },
  {
    "link_thumb": "https://live.staticflickr.com/65535/50016943856_ae8ed1cf14_n.jpg",
    "id_album": "390697200",
    "description": "AustralianShepherd_876769",
    "title": "AustralianShepherd_876769",
    "link_img": "https://live.staticflickr.com/65535/50016943856_e8bdfecf4d_o.jpg",
    "id_image": "AustralianShepherd_876769",
    "count_view": 0
  },
  {
    "link_thumb": "https://live.staticflickr.com/65535/50016665843_fa7109e900_n.jpg",
    "id_album": "-1846011410",
    "description": "Bird_105990",
    "title": "Bird_105990",
    "link_img": "https://live.staticflickr.com/65535/50016665843_f84964df3d_o.jpg",
    "id_image": "Bird_105990",
    "count_view": 0
  },
  {
    "link_thumb": "https://live.staticflickr.com/65535/50017153511_a1b0cbf2fc_n.jpg",
    "id_album": "1699594607",
    "description": "Bee_687220",
    "title": "Bee_687220",
    "link_img": "https://live.staticflickr.com/65535/50017153511_a3e8e04088_o.jpg",
    "id_image": "Bee_687220",
    "count_view": 0
  },
  {
    "link_thumb": "https://live.staticflickr.com/65535/50020113933_661342b37d_n.jpg",
    "id_album": "1168627767",
    "description": "Duck_236094",
    "title": "Duck_236094",
    "link_img": "https://live.staticflickr.com/65535/50020113933_3d38ae4b25_o.jpg",
    "id_image": "Duck_236094",
    "count_view": 0
  },
  {
    "link_thumb": "https://live.staticflickr.com/65535/50021062898_4fb5ca3381_n.jpg",
    "id_album": "2144294979",
    "description": "Hummingbird_352113",
    "title": "Hummingbird_352113",
    "link_img": "https://live.staticflickr.com/65535/50021062898_66191ba3e3_o.jpg",
    "id_image": "Hummingbird_352113",
    "count_view": 0
  },
  {
    "link_thumb": "https://live.staticflickr.com/65535/50016971723_0ab38dbf0d_n.jpg",
    "id_album": "782930701",
    "description": "BorderCollie_844148",
    "title": "BorderCollie_844148",
    "link_img": "https://live.staticflickr.com/65535/50016971723_47f5330938_o.jpg",
    "id_image": "BorderCollie_844148",
    "count_view": 0
  },
  {
    "link_thumb": "https://live.staticflickr.com/65535/50018027356_8e3e6bb23f_n.jpg",
    "id_album": "-462831702",
    "description": "Cat_347971",
    "title": "Cat_347971",
    "link_img": "https://live.staticflickr.com/65535/50018027356_97d34ce321_o.jpg",
    "id_image": "Cat_347971",
    "count_view": 0
  },
  {
    "link_thumb": "https://live.staticflickr.com/65535/50019834247_2c4fe936fc_n.jpg",
    "id_album": "-1930903528",
    "description": "CatDog_205405",
    "title": "CatDog_205405",
    "link_img": "https://live.staticflickr.com/65535/50019834247_3eae062067_o.jpg",
    "id_image": "CatDog_205405",
    "count_view": 0
  },
  {
    "link_thumb": "https://live.staticflickr.com/65535/50020708203_cf29005186_n.jpg",
    "id_album": "-462831703",
    "description": "Cat_790270",
    "title": "Cat_790270",
    "link_img": "https://live.staticflickr.com/65535/50020708203_63f9a1b1da_o.jpg",
    "id_image": "Cat_790270",
    "count_view": 0
  },
  {
    "link_thumb": "https://live.staticflickr.com/65535/50020685256_2265c86dd2_n.jpg",
    "id_album": "-39098563",
    "description": "Eagle_234440",
    "title": "Eagle_234440",
    "link_img": "https://live.staticflickr.com/65535/50020685256_a574c27d18_o.jpg",
    "id_image": "Eagle_234440",
    "count_view": 0
  },
  {
    "link_thumb": "https://live.staticflickr.com/65535/50017747646_6f3cbccf0b_n.jpg",
    "id_album": "-462831705",
    "description": "Cat_103383",
    "title": "Cat_103383",
    "link_img": "https://live.staticflickr.com/65535/50017747646_c13e4eaccb_o.jpg",
    "id_image": "Cat_103383",
    "count_view": 0
  },
  {
    "link_thumb": "https://live.staticflickr.com/65535/50020677752_8f3ab4bef9_n.jpg",
    "id_album": "-149330231",
    "description": "Dog_452203",
    "title": "Dog_452203",
    "link_img": "https://live.staticflickr.com/65535/50020677752_0595047344_o.jpg",
    "id_image": "Dog_452203",
    "count_view": 0
  },
  {
    "link_thumb": "https://live.staticflickr.com/65535/50023198326_a77763817b_n.jpg",
    "id_album": "-1862965835",
    "description": "RedEyedTreeFrog_933276",
    "title": "RedEyedTreeFrog_933276",
    "link_img": "https://live.staticflickr.com/65535/50023198326_e36d8602f1_o.jpg",
    "id_image": "RedEyedTreeFrog_933276",
    "count_view": 0
  },
  {
    "link_thumb": "https://live.staticflickr.com/65535/50021759396_ccc9281344_n.jpg",
    "id_album": "1562047127",
    "description": "Jellyfish_109107",
    "title": "Jellyfish_109107",
    "link_img": "https://live.staticflickr.com/65535/50021759396_6d899b3697_o.jpg",
    "id_image": "Jellyfish_109107",
    "count_view": 0
  },
  {
    "link_thumb": "https://live.staticflickr.com/65535/50018079146_d8e5db5f56_n.jpg",
    "id_album": "-462831702",
    "description": "Cat_367342",
    "title": "Cat_367342",
    "link_img": "https://live.staticflickr.com/65535/50018079146_05658f004b_o.jpg",
    "id_image": "Cat_367342",
    "count_view": 0
  },
  {
    "link_thumb": "https://live.staticflickr.com/65535/50017318022_fbe559e025_n.jpg",
    "id_album": "-422187261",
    "description": "Bear_544070",
    "title": "Bear_544070",
    "link_img": "https://live.staticflickr.com/65535/50017318022_663058c0e8_o.jpg",
    "id_image": "Bear_544070",
    "count_view": 0
  },
  {
    "link_thumb": "https://live.staticflickr.com/65535/50024509662_ab4398e859_n.jpg",
    "id_album": "405170427",
    "description": "Tiger_948455",
    "title": "Tiger_948455",
    "link_img": "https://live.staticflickr.com/65535/50024509662_ba2aaede9c_o.jpg",
    "id_image": "Tiger_948455",
    "count_view": 0
  },
  {
    "link_thumb": "https://live.staticflickr.com/65535/50016776703_79a509eb54_n.jpg",
    "id_album": "-1846011410",
    "description": "Bird_397624",
    "title": "Bird_397624",
    "link_img": "https://live.staticflickr.com/65535/50016776703_c72fb6e9e9_o.jpg",
    "id_image": "Bird_397624",
    "count_view": 0
  },
  {
    "link_thumb": "https://live.staticflickr.com/65535/50352580412_f75e6dba09_n.jpg",
    "id_album": "-462831703",
    "description": "Cat_204531",
    "title": "Cat_204531",
    "link_img": "https://live.staticflickr.com/65535/50352580412_63e511b3fb_o.jpg",
    "id_image": "Cat_204531",
    "count_view": 0
  },
  {
    "link_thumb": "https://live.staticflickr.com/65535/50016796843_000641aefb_n.jpg",
    "id_album": "-1846011410",
    "description": "Bird_422007",
    "title": "Bird_422007",
    "link_img": "https://live.staticflickr.com/65535/50016796843_db8c606521_o.jpg",
    "id_image": "Bird_422007",
    "count_view": 0
  },
  {
    "link_thumb": "https://live.staticflickr.com/65535/50351803573_d0a96f2697_n.jpg",
    "id_album": "-462831703",
    "description": "Cat_408941",
    "title": "Cat_408941",
    "link_img": "https://live.staticflickr.com/65535/50351803573_b5f440c426_o.jpg",
    "id_image": "Cat_408941",
    "count_view": 0
  },
  {
    "link_thumb": "https://live.staticflickr.com/65535/50016871306_9894967e67_n.jpg",
    "id_album": "523598895",
    "description": "Artistic_156602",
    "title": "Artistic_156602",
    "link_img": "https://live.staticflickr.com/65535/50016871306_65bcb7b729_o.jpg",
    "id_image": "Artistic_156602",
    "count_view": 0
  },
  {
    "link_thumb": "https://live.staticflickr.com/65535/50020918366_68fe5a8d25_n.jpg",
    "id_album": "-1694105481",
    "description": "Fly_322568",
    "title": "Fly_322568",
    "link_img": "https://live.staticflickr.com/65535/50020918366_5e296a6db3_o.jpg",
    "id_image": "Fly_322568",
    "count_view": 0
  },
  {
    "link_thumb": "https://live.staticflickr.com/65535/50021537717_88f1b68ec8_n.jpg",
    "id_album": "-405626519",
    "description": "GermanShepherd_330495",
    "title": "GermanShepherd_330495",
    "link_img": "https://live.staticflickr.com/65535/50021537717_2e4b1c4c2b_o.jpg",
    "id_image": "GermanShepherd_330495",
    "count_view": 0
  },
  {
    "link_thumb": "https://live.staticflickr.com/65535/50020493742_300c7ec1c3_n.jpg",
    "id_album": "-149330232",
    "description": "Dog_315366",
    "title": "Dog_315366",
    "link_img": "https://live.staticflickr.com/65535/50020493742_4770c9e443_o.jpg",
    "id_image": "Dog_315366",
    "count_view": 0
  },
  {
    "link_thumb": "https://live.staticflickr.com/65535/50352549331_dcb778c0da_n.jpg",
    "id_album": "-462831703",
    "description": "Cat_466864",
    "title": "Cat_466864",
    "link_img": "https://live.staticflickr.com/65535/50352549331_677500e4e5_o.jpg",
    "id_image": "Cat_466864",
    "count_view": 0
  },
  {
    "link_thumb": "https://live.staticflickr.com/65535/50022118632_35d29efcc5_n.jpg",
    "id_album": "-1882491687",
    "description": "Ladybug_744393",
    "title": "Ladybug_744393",
    "link_img": "https://live.staticflickr.com/65535/50022118632_d9773d61f3_o.jpg",
    "id_image": "Ladybug_744393",
    "count_view": 0
  },
  {
    "link_thumb": "https://live.staticflickr.com/65535/50016292513_03d2de012f_n.jpg",
    "id_album": "-1473450542",
    "description": "Alpaca_548464",
    "title": "Alpaca_548464",
    "link_img": "https://live.staticflickr.com/65535/50016292513_1c296d42be_o.jpg",
    "id_image": "Alpaca_548464",
    "count_view": 0
  },
  {
    "link_thumb": "https://live.staticflickr.com/65535/50017811577_1d8c6006a6_n.jpg",
    "id_album": "-401151552",
    "description": "Butterfly_239601",
    "title": "Butterfly_239601",
    "link_img": "https://live.staticflickr.com/65535/50017811577_c60db0c7de_o.jpg",
    "id_image": "Butterfly_239601",
    "count_view": 0
  },
  {
    "link_thumb": "https://live.staticflickr.com/65535/50023789093_54f2f3e22f_n.jpg",
    "id_album": "461588038",
    "description": "Vulture_275192",
    "title": "Vulture_275192",
    "link_img": "https://live.staticflickr.com/65535/50023789093_987bcdd666_o.jpg",
    "id_image": "Vulture_275192",
    "count_view": 0
  },
  {
    "link_thumb": "https://live.staticflickr.com/65535/50017399138_22609485f2_n.jpg",
    "id_album": "-462831705",
    "description": "Cat_275283",
    "title": "Cat_275283",
    "link_img": "https://live.staticflickr.com/65535/50017399138_44d7e72a2b_o.jpg",
    "id_image": "Cat_275283",
    "count_view": 0
  },
  {
    "link_thumb": "https://live.staticflickr.com/65535/50021285481_b8749d0e03_n.jpg",
    "id_album": "-405626519",
    "description": "GermanShepherd_347500",
    "title": "GermanShepherd_347500",
    "link_img": "https://live.staticflickr.com/65535/50021285481_428d3e2eac_o.jpg",
    "id_image": "GermanShepherd_347500",
    "count_view": 0
  },
  {
    "link_thumb": "https://live.staticflickr.com/65535/50023266542_4e27d0c685_n.jpg",
    "id_album": "-353898617",
    "description": "Puppy_519864",
    "title": "Puppy_519864",
    "link_img": "https://live.staticflickr.com/65535/50023266542_7164ae0687_o.jpg",
    "id_image": "Puppy_519864",
    "count_view": 0
  },
  {
    "link_thumb": "https://live.staticflickr.com/65535/50021436632_22f7819e44_n.jpg",
    "id_album": "-462831704",
    "description": "Cat_702223",
    "title": "Cat_702223",
    "link_img": "https://live.staticflickr.com/65535/50021436632_cd22e407e0_o.jpg",
    "id_image": "Cat_702223",
    "count_view": 0
  },
  {
    "link_thumb": "https://live.staticflickr.com/65535/50022323448_b0b414e552_n.jpg",
    "id_album": "1008910300",
    "description": "PolarBear_903769",
    "title": "PolarBear_903769",
    "link_img": "https://live.staticflickr.com/65535/50022323448_34fac2e834_o.jpg",
    "id_image": "PolarBear_903769",
    "count_view": 0
  },
  {
    "link_thumb": "https://live.staticflickr.com/65535/50016795718_71f5550f57_n.jpg",
    "id_album": "-1846011410",
    "description": "Bird_420096",
    "title": "Bird_420096",
    "link_img": "https://live.staticflickr.com/65535/50016795718_f06eb1f2df_o.jpg",
    "id_image": "Bird_420096",
    "count_view": 0
  },
  {
    "link_thumb": "https://live.staticflickr.com/65535/50023526126_b5bd94e32a_n.jpg",
    "id_album": "-800019164",
    "description": "Snail_437315",
    "title": "Snail_437315",
    "link_img": "https://live.staticflickr.com/65535/50023526126_1fab665b1c_o.jpg",
    "id_image": "Snail_437315",
    "count_view": 0
  },
  {
    "link_thumb": "https://live.staticflickr.com/65535/50021123808_c0dd787a56_n.jpg",
    "id_album": "1658866795",
    "description": "Insect_389658",
    "title": "Insect_389658",
    "link_img": "https://live.staticflickr.com/65535/50021123808_b316425edc_o.jpg",
    "id_image": "Insect_389658",
    "count_view": 0
  },
  {
    "link_thumb": "https://live.staticflickr.com/65535/50021252342_cda4f2e4a3_n.jpg",
    "id_album": "-128218148",
    "description": "Fox_746121",
    "title": "Fox_746121",
    "link_img": "https://live.staticflickr.com/65535/50021252342_ffa82dc0c4_o.jpg",
    "id_image": "Fox_746121",
    "count_view": 0
  },
  {
    "link_thumb": "https://live.staticflickr.com/65535/50352655152_78afab4f76_n.jpg",
    "id_album": "-462831703",
    "description": "Cat_399151",
    "title": "Cat_399151",
    "link_img": "https://live.staticflickr.com/65535/50352655152_4a562c439b_o.jpg",
    "id_image": "Cat_399151",
    "count_view": 0
  },
  {
    "link_thumb": "https://live.staticflickr.com/65535/50353308332_8bf0a5270c_n.jpg",
    "id_album": "-462831702",
    "description": "Cat_96619",
    "title": "Cat_96619",
    "link_img": "https://live.staticflickr.com/65535/50353308332_af8f1c4a06_o.jpg",
    "id_image": "Cat_96619",
    "count_view": 0
  },
  {
    "link_thumb": "https://live.staticflickr.com/65535/50017588777_8b5529871a_n.jpg",
    "id_album": "-1846011410",
    "description": "Bird_429639",
    "title": "Bird_429639",
    "link_img": "https://live.staticflickr.com/65535/50017588777_fb88165d68_o.jpg",
    "id_image": "Bird_429639",
    "count_view": 0
  },
  {
    "link_thumb": "https://live.staticflickr.com/65535/50017387877_5ae88cb779_n.jpg",
    "id_album": "1699594607",
    "description": "Bee_354141",
    "title": "Bee_354141",
    "link_img": "https://live.staticflickr.com/65535/50017387877_c13852d516_o.jpg",
    "id_image": "Bee_354141",
    "count_view": 0
  },
  {
    "link_thumb": "https://live.staticflickr.com/65535/50017334946_b9e7a6e709_n.jpg",
    "id_album": "-1846011410",
    "description": "Bird_437838",
    "title": "Bird_437838",
    "link_img": "https://live.staticflickr.com/65535/50017334946_984d62fb1d_o.jpg",
    "id_image": "Bird_437838",
    "count_view": 0
  },
  {
    "link_thumb": "https://live.staticflickr.com/65535/50019663688_7759029c85_n.jpg",
    "id_album": "-149330232",
    "description": "Dog_264692",
    "title": "Dog_264692",
    "link_img": "https://live.staticflickr.com/65535/50019663688_25e5c16a9d_o.jpg",
    "id_image": "Dog_264692",
    "count_view": 0
  },
  {
    "link_thumb": "https://live.staticflickr.com/65535/50021361532_8fe44a2679_n.jpg",
    "id_album": "-462831704",
    "description": "Cat_548999",
    "title": "Cat_548999",
    "link_img": "https://live.staticflickr.com/65535/50021361532_d145ddca08_o.jpg",
    "id_image": "Cat_548999",
    "count_view": 0
  },
  {
    "link_thumb": "https://live.staticflickr.com/65535/50020179561_ddb984b68d_n.jpg",
    "id_album": "-149330232",
    "description": "Dog_248691",
    "title": "Dog_248691",
    "link_img": "https://live.staticflickr.com/65535/50020179561_d14090c1b5_o.jpg",
    "id_image": "Dog_248691",
    "count_view": 0
  },
  {
    "link_thumb": "https://live.staticflickr.com/65535/50016411318_08a08051b9_n.jpg",
    "id_album": "390697200",
    "description": "AustralianShepherd_796129",
    "title": "AustralianShepherd_796129",
    "link_img": "https://live.staticflickr.com/65535/50016411318_7157be70f2_o.jpg",
    "id_image": "AustralianShepherd_796129",
    "count_view": 0
  },
  {
    "link_thumb": "https://live.staticflickr.com/65535/50020094407_12d9012dbc_n.jpg",
    "id_album": "-2144640780",
    "description": "Cow_332118",
    "title": "Cow_332118",
    "link_img": "https://live.staticflickr.com/65535/50020094407_ac04f9c53e_o.jpg",
    "id_image": "Cow_332118",
    "count_view": 0
  },
  {
    "link_thumb": "https://live.staticflickr.com/65535/50019768486_f0957da9ed_n.jpg",
    "id_album": "791455625",
    "description": "Chipmunk_738050",
    "title": "Chipmunk_738050",
    "link_img": "https://live.staticflickr.com/65535/50019768486_0ef4fa560e_o.jpg",
    "id_image": "Chipmunk_738050",
    "count_view": 0
  },
  {
    "link_thumb": "https://live.staticflickr.com/65535/50020164491_9d083fa7cb_n.jpg",
    "id_album": "-149330232",
    "description": "Dog_228988",
    "title": "Dog_228988",
    "link_img": "https://live.staticflickr.com/65535/50020164491_6b6649ac24_o.jpg",
    "id_image": "Dog_228988",
    "count_view": 0
  },
  {
    "link_thumb": "https://live.staticflickr.com/65535/50020565976_7a616034e5_n.jpg",
    "id_album": "-54509188",
    "description": "Dolphin_324909",
    "title": "Dolphin_324909",
    "link_img": "https://live.staticflickr.com/65535/50020565976_c599457ee7_o.jpg",
    "id_image": "Dolphin_324909",
    "count_view": 0
  },
  {
    "link_thumb": "https://live.staticflickr.com/65535/50020217462_fffdd68ed3_n.jpg",
    "id_album": "1831085598",
    "description": "Dachshund_874806",
    "title": "Dachshund_874806",
    "link_img": "https://live.staticflickr.com/65535/50020217462_8e0df7e98c_o.jpg",
    "id_image": "Dachshund_874806",
    "count_view": 0
  },
  {
    "link_thumb": "https://live.staticflickr.com/65535/50017413057_a8431ea4ac_n.jpg",
    "id_album": "1699594607",
    "description": "Bee_616733",
    "title": "Bee_616733",
    "link_img": "https://live.staticflickr.com/65535/50017413057_554f873ccd_o.jpg",
    "id_image": "Bee_616733",
    "count_view": 0
  },
  {
    "link_thumb": "https://live.staticflickr.com/65535/50017080556_8f68c970a1_n.jpg",
    "id_album": "-422187261",
    "description": "Bear_782515",
    "title": "Bear_782515",
    "link_img": "https://live.staticflickr.com/65535/50017080556_db9fa97c64_o.jpg",
    "id_image": "Bear_782515",
    "count_view": 0
  },
  {
    "link_thumb": "https://live.staticflickr.com/65535/50020096396_226016b6dc_n.jpg",
    "id_album": "297232732",
    "description": "Dinosaur_635391",
    "title": "Dinosaur_635391",
    "link_img": "https://live.staticflickr.com/65535/50020096396_513915aca7_o.jpg",
    "id_image": "Dinosaur_635391",
    "count_view": 0
  },
  {
    "link_thumb": "https://live.staticflickr.com/65535/50017556613_e1462a3050_n.jpg",
    "id_album": "1696155652",
    "description": "Boxer_442017",
    "title": "Boxer_442017",
    "link_img": "https://live.staticflickr.com/65535/50017556613_05e50e00cb_o.jpg",
    "id_image": "Boxer_442017",
    "count_view": 0
  },
  {
    "link_thumb": "https://live.staticflickr.com/65535/50017107928_1902087228_n.jpg",
    "id_album": "-401151552",
    "description": "Butterfly_574420",
    "title": "Butterfly_574420",
    "link_img": "https://live.staticflickr.com/65535/50017107928_a134d59e3e_o.jpg",
    "id_image": "Butterfly_574420",
    "count_view": 0
  },
  {
    "link_thumb": "https://live.staticflickr.com/65535/50022542708_0fa1914c6b_n.jpg",
    "id_album": "470794721",
    "description": "Python_877332",
    "title": "Python_877332",
    "link_img": "https://live.staticflickr.com/65535/50022542708_ec33e87508_o.jpg",
    "id_image": "Python_877332",
    "count_view": 0
  },
  {
    "link_thumb": "https://live.staticflickr.com/65535/50017125027_e5c798d58d_n.jpg",
    "id_album": "523598895",
    "description": "Artistic_115965",
    "title": "Artistic_115965",
    "link_img": "https://live.staticflickr.com/65535/50017125027_1e25b4f648_o.jpg",
    "id_image": "Artistic_115965",
    "count_view": 0
  },
  {
    "link_thumb": "https://live.staticflickr.com/65535/50019725106_a36ae58e8e_n.jpg",
    "id_album": "-1481843714",
    "description": "Cheetah_728396",
    "title": "Cheetah_728396",
    "link_img": "https://live.staticflickr.com/65535/50019725106_a9f2076598_o.jpg",
    "id_image": "Cheetah_728396",
    "count_view": 0
  },
  {
    "link_thumb": "https://live.staticflickr.com/65535/50021963737_48ea66573b_n.jpg",
    "id_album": "1658866795",
    "description": "Insect_612629",
    "title": "Insect_612629",
    "link_img": "https://live.staticflickr.com/65535/50021963737_d7e41e21d2_o.jpg",
    "id_image": "Insect_612629",
    "count_view": 0
  },
  {
    "link_thumb": "https://live.staticflickr.com/65535/50022860638_7e8a9c5990_n.jpg",
    "id_album": "1961094930",
    "description": "Seal_325954",
    "title": "Seal_325954",
    "link_img": "https://live.staticflickr.com/65535/50022860638_d905944a3a_o.jpg",
    "id_image": "Seal_325954",
    "count_view": 0
  }
]