[
  {
    "link_thumb": "https://live.staticflickr.com/65535/50020772892_7f7d618350_n.jpg",
    "id_album": "-149330231",
    "description": "Dog_812229",
    "title": "Dog_812229",
    "link_img": "https://live.staticflickr.com/65535/50020772892_60f3ac85fc_o.jpg",
    "id_image": "Dog_812229",
    "count_view": 0
  },
  {
    "link_thumb": "https://live.staticflickr.com/65535/50020042378_e9251f3e9c_n.jpg",
    "id_album": "-54509188",
    "description": "Dolphin_437074",
    "title": "Dolphin_437074",
    "link_img": "https://live.staticflickr.com/65535/50020042378_0b6dc0f125_o.jpg",
    "id_image": "Dolphin_437074",
    "count_view": 0
  },
  {
    "link_thumb": "https://live.staticflickr.com/65535/50021962671_315bac76e5_n.jpg",
    "id_album": "1392348450",
    "description": "Leopard_983683",
    "title": "Leopard_983683",
    "link_img": "https://live.staticflickr.com/65535/50021962671_5bc3669c79_o.jpg",
    "id_image": "Leopard_983683",
    "count_view": 0
  },
  {
    "link_thumb": "https://live.staticflickr.com/65535/50021430287_353eba061e_n.jpg",
    "id_album": "-462831704",
    "description": "Cat_697612",
    "title": "Cat_697612",
    "link_img": "https://live.staticflickr.com/65535/50021430287_ea293ab3df_o.jpg",
    "id_image": "Cat_697612",
    "count_view": 0
  },
  {
    "link_thumb": "https://live.staticflickr.com/65535/50018638683_9ee0a65ce5_n.jpg",
    "id_album": "-462831702",
    "description": "Cat_425744",
    "title": "Cat_425744",
    "link_img": "https://live.staticflickr.com/65535/50018638683_ef97f76a5f_o.jpg",
    "id_image": "Cat_425744",
    "count_view": 0
  },
  {
    "link_thumb": "https://live.staticflickr.com/65535/50019170708_d712e3660c_n.jpg",
    "id_album": "-1481843714",
    "description": "Cheetah_384339",
    "title": "Cheetah_384339",
    "link_img": "https://live.staticflickr.com/65535/50019170708_50f04a92cf_o.jpg",
    "id_image": "Cheetah_384339",
    "count_view": 0
  },
  {
    "link_thumb": "https://live.staticflickr.com/65535/50017745582_4ea93f5368_n.jpg",
    "id_album": "782930701",
    "description": "BorderCollie_676157",
    "title": "BorderCollie_676157",
    "link_img": "https://live.staticflickr.com/65535/50017745582_699dd31b89_o.jpg",
    "id_image": "BorderCollie_676157",
    "count_view": 0
  },
  {
    "link_thumb": "https://live.staticflickr.com/65535/50021385942_3b53d43ea2_n.jpg",
    "id_album": "-462831704",
    "description": "Cat_593649",
    "title": "Cat_593649",
    "link_img": "https://live.staticflickr.com/65535/50021385942_937962e32f_o.jpg",
    "id_image": "Cat_593649",
    "count_view": 0
  },
  {
    "link_thumb": "https://live.staticflickr.com/65535/50019291566_bc6d5eb157_n.jpg",
    "id_album": "-462831704",
    "description": "Cat_527634",
    "title": "Cat_527634",
    "link_img": "https://live.staticflickr.com/65535/50019291566_d3501227a2_o.jpg",
    "id_image": "Cat_527634",
    "count_view": 0
  },
  {
    "link_thumb": "https://live.staticflickr.com/65535/50017101423_e24a613e53_n.jpg",
    "id_album": "-401151552",
    "description": "Butterfly_568604",
    "title": "Butterfly_568604",
    "link_img": "https://live.staticflickr.com/65535/50017101423_001aea3393_o.jpg",
    "id_image": "Butterfly_568604",
    "count_view": 0
  },
  {
    "link_thumb": "https://live.staticflickr.com/65535/50021243082_e905d748bd_n.jpg",
    "id_album": "-128218148",
    "description": "Fox_690252",
    "title": "Fox_690252",
    "link_img": "https://live.staticflickr.com/65535/50021243082_91bdf5dc29_o.jpg",
    "id_image": "Fox_690252",
    "count_view": 0
  },
  {
    "link_thumb": "https://live.staticflickr.com/65535/50020980977_0745e9fc28_n.jpg",
    "id_album": "-39098563",
    "description": "Eagle_88902",
    "title": "Eagle_88902",
    "link_img": "https://live.staticflickr.com/65535/50020980977_af74932dff_o.jpg",
    "id_image": "Eagle_88902",
    "count_view": 0
  },
  {
    "link_thumb": "https://live.staticflickr.com/65535/50020185277_dd4bf2486c_n.jpg",
    "id_album": "1273365283",
    "description": "Cute_277727",
    "title": "Cute_277727",
    "link_img": "https://live.staticflickr.com/65535/50020185277_1ffabc76fa_o.jpg",
    "id_image": "Cute_277727",
    "count_view": 0
  },
  {
    "link_thumb": "https://live.staticflickr.com/65535/50021411168_31607218ee_n.jpg",
    "id_album": "1392348450",
    "description": "Leopard_86791",
    "title": "Leopard_86791",
    "link_img": "https://live.staticflickr.com/65535/50021411168_5589f60f67_o.jpg",
    "id_image": "Leopard_86791",
    "count_view": 0
  },
  {
    "link_thumb": "https://live.staticflickr.com/65535/50024279881_37dff99ba5_n.jpg",
    "id_album": "-1103743486",
    "description": "Toucan_408998",
    "title": "Toucan_408998",
    "link_img": "https://live.staticflickr.com/65535/50024279881_46c9fe78dc_o.jpg",
    "id_image": "Toucan_408998",
    "count_view": 0
  },
  {
    "link_thumb": "https://live.staticflickr.com/65535/50021674166_7fb66170d9_n.jpg",
    "id_album": "1658866795",
    "description": "Insect_396424",
    "title": "Insect_396424",
    "link_img": "https://live.staticflickr.com/65535/50021674166_6a9b3a0dd9_o.jpg",
    "id_image": "Insect_396424",
    "count_view": 0
  },
  {
    "link_thumb": "https://live.staticflickr.com/65535/50020688386_d88bba4c53_n.jpg",
    "id_album": "-39098563",
    "description": "Eagle_275813",
    "title": "Eagle_275813",
    "link_img": "https://live.staticflickr.com/65535/50020688386_c96d435a5d_o.jpg",
    "id_image": "Eagle_275813",
    "count_view": 0
  },
  {
    "link_thumb": "https://live.staticflickr.com/65535/50016709258_0138582a6f_n.jpg",
    "id_album": "-1846011410",
    "description": "Bird_3139",
    "title": "Bird_3139",
    "link_img": "https://live.staticflickr.com/65535/50016709258_325a137e2c_o.jpg",
    "id_image": "Bird_3139",
    "count_view": 0
  },
  {
    "link_thumb": "https://live.staticflickr.com/65535/50017570986_ae2f0b0d90_n.jpg",
    "id_album": "-401151552",
    "description": "Butterfly_366099",
    "title": "Butterfly_366099",
    "link_img": "https://live.staticflickr.com/65535/50017570986_006d4d35fc_o.jpg",
    "id_image": "Butterfly_366099",
    "count_view": 0
  },
  {
    "link_thumb": "https://live.staticflickr.com/65535/50022806483_72bf04604e_n.jpg",
    "id_album": "1656131695",
    "description": "Seagull_247428",
    "title": "Seagull_247428",
    "link_img": "https://live.staticflickr.com/65535/50022806483_2a5fb2b559_o.jpg",
    "id_image": "Seagull_247428",
    "count_view": 0
  },
  {
    "link_thumb": "https://live.staticflickr.com/65535/50022545767_84875794ee_n.jpg",
    "id_album": "1957967135",
    "description": "Mouse_336444",
    "title": "Mouse_336444",
    "link_img": "https://live.staticflickr.com/65535/50022545767_6ef97e6b1a_o.jpg",
    "id_image": "Mouse_336444",
    "count_view": 0
  },
  {
    "link_thumb": "https://live.staticflickr.com/65535/50022286191_4d6d776ee9_n.jpg",
    "id_album": "1957967135",
    "description": "Mouse_366499",
    "title": "Mouse_366499",
    "link_img": "https://live.staticflickr.com/65535/50022286191_8af905691d_o.jpg",
    "id_image": "Mouse_366499",
    "count_view": 0
  },
  {
    "link_thumb": "https://live.staticflickr.com/65535/50017507613_7cd25133c4_n.jpg",
    "id_album": "-462831702",
    "description": "Cat_352214",
    "title": "Cat_352214",
    "link_img": "https://live.staticflickr.com/65535/50017507613_67196e1261_o.jpg",
    "id_image": "Cat_352214",
    "count_view": 0
  },
  {
    "link_thumb": "https://live.staticflickr.com/65535/50019294566_79b3323dd4_n.jpg",
    "id_album": "-462831704",
    "description": "Cat_529661",
    "title": "Cat_529661",
    "link_img": "https://live.staticflickr.com/65535/50019294566_5155b1e012_o.jpg",
    "id_image": "Cat_529661",
    "count_view": 0
  },
  {
    "link_thumb": "https://live.staticflickr.com/65535/50018062666_fca04b057c_n.jpg",
    "id_album": "-462831702",
    "description": "Cat_363397",
    "title": "Cat_363397",
    "link_img": "https://live.staticflickr.com/65535/50018062666_d6d770a4cd_o.jpg",
    "id_image": "Cat_363397",
    "count_view": 0
  },
  {
    "link_thumb": "https://live.staticflickr.com/65535/50019917217_84d3a07d7c_n.jpg",
    "id_album": "-766919393",
    "description": "Chameleon_686829",
    "title": "Chameleon_686829",
    "link_img": "https://live.staticflickr.com/65535/50019917217_9954e62da3_o.jpg",
    "id_image": "Chameleon_686829",
    "count_view": 0
  },
  {
    "link_thumb": "https://live.staticflickr.com/65535/50021923506_7cb73d4140_n.jpg",
    "id_album": "1392348450",
    "description": "Leopard_423240",
    "title": "Leopard_423240",
    "link_img": "https://live.staticflickr.com/65535/50021923506_7aaa6416c2_o.jpg",
    "id_image": "Leopard_423240",
    "count_view": 0
  },
  {
    "link_thumb": "https://live.staticflickr.com/65535/50018202867_a8f3a187d5_n.jpg",
    "id_album": "-462831702",
    "description": "Cat_292123",
    "title": "Cat_292123",
    "link_img": "https://live.staticflickr.com/65535/50018202867_ea3794228d_o.jpg",
    "id_image": "Cat_292123",
    "count_view": 0
  },
  {
    "link_thumb": "https://live.staticflickr.com/65535/50020625667_0f847dcc25_n.jpg",
    "id_album": "-149330231",
    "description": "Dog_390846",
    "title": "Dog_390846",
    "link_img": "https://live.staticflickr.com/65535/50020625667_832d918f5c_o.jpg",
    "id_image": "Dog_390846",
    "count_view": 0
  },
  {
    "link_thumb": "https://live.staticflickr.com/65535/50022504203_03d1e86754_n.jpg",
    "id_album": "-353898617",
    "description": "Puppy_678207",
    "title": "Puppy_678207",
    "link_img": "https://live.staticflickr.com/65535/50022504203_92f7a0b6c3_o.jpg",
    "id_image": "Puppy_678207",
    "count_view": 0
  },
  {
    "link_thumb": "https://live.staticflickr.com/65535/50019907081_5cc7dcfd23_n.jpg",
    "id_album": "-392100404",
    "description": "Crow_499968",
    "title": "Crow_499968",
    "link_img": "https://live.staticflickr.com/65535/50019907081_f4684ac78e_o.jpg",
    "id_image": "Crow_499968",
    "count_view": 0
  },
  {
    "link_thumb": "https://live.staticflickr.com/65535/50021575952_77ab0b1d84_n.jpg",
    "id_album": "713572662",
    "description": "Giraffe_361534",
    "title": "Giraffe_361534",
    "link_img": "https://live.staticflickr.com/65535/50021575952_5358be457b_o.jpg",
    "id_image": "Giraffe_361534",
    "count_view": 0
  },
  {
    "link_thumb": "https://live.staticflickr.com/65535/50019439667_77be94de14_n.jpg",
    "id_album": "-462831702",
    "description": "Cat_430118",
    "title": "Cat_430118",
    "link_img": "https://live.staticflickr.com/65535/50019439667_afabf1490e_o.jpg",
    "id_image": "Cat_430118",
    "count_view": 0
  },
  {
    "link_thumb": "https://live.staticflickr.com/65535/50017041416_478ec94f63_n.jpg",
    "id_album": "-422187261",
    "description": "Bear_407242",
    "title": "Bear_407242",
    "link_img": "https://live.staticflickr.com/65535/50017041416_21f3a4dd4f_o.jpg",
    "id_image": "Bear_407242",
    "count_view": 0
  },
  {
    "link_thumb": "https://live.staticflickr.com/65535/50020376801_13de6b6d92_n.jpg",
    "id_album": "-149330231",
    "description": "Dog_402710",
    "title": "Dog_402710",
    "link_img": "https://live.staticflickr.com/65535/50020376801_a323464b3e_o.jpg",
    "id_image": "Dog_402710",
    "count_view": 0
  },
  {
    "link_thumb": "https://live.staticflickr.com/65535/50022155646_56f00d208a_n.jpg",
    "id_album": "1894617400",
    "description": "Lynx_686498",
    "title": "Lynx_686498",
    "link_img": "https://live.staticflickr.com/65535/50022155646_9980827e2d_o.jpg",
    "id_image": "Lynx_686498",
    "count_view": 0
  },
  {
    "link_thumb": "https://live.staticflickr.com/65535/50017556613_e1462a3050_n.jpg",
    "id_album": "1696155652",
    "description": "Boxer_442017",
    "title": "Boxer_442017",
    "link_img": "https://live.staticflickr.com/65535/50017556613_05e50e00cb_o.jpg",
    "id_image": "Boxer_442017",
    "count_view": 0
  },
  {
    "link_thumb": "https://live.staticflickr.com/65535/50022061082_7d1f76ebd4_n.jpg",
    "id_album": "770105808",
    "description": "Kingfisher_597437",
    "title": "Kingfisher_597437",
    "link_img": "https://live.staticflickr.com/65535/50022061082_526bc01bfc_o.jpg",
    "id_image": "Kingfisher_597437",
    "count_view": 0
  },
  {
    "link_thumb": "https://live.staticflickr.com/65535/50352639932_bf32e05e26_n.jpg",
    "id_album": "-462831703",
    "description": "Cat_374120",
    "title": "Cat_374120",
    "link_img": "https://live.staticflickr.com/65535/50352639932_b40652ee12_o.jpg",
    "id_image": "Cat_374120",
    "count_view": 0
  },
  {
    "link_thumb": "https://live.staticflickr.com/65535/50020101798_579515339e_n.jpg",
    "id_album": "-405058657",
    "description": "Dragonfly_688884",
    "title": "Dragonfly_688884",
    "link_img": "https://live.staticflickr.com/65535/50020101798_19c8b3c1d2_o.jpg",
    "id_image": "Dragonfly_688884",
    "count_view": 0
  },
  {
    "link_thumb": "https://live.staticflickr.com/65535/50021479367_3617a90f7c_n.jpg",
    "id_album": "-462831703",
    "description": "Cat_746710",
    "title": "Cat_746710",
    "link_img": "https://live.staticflickr.com/65535/50021479367_ed3ec6abe8_o.jpg",
    "id_image": "Cat_746710",
    "count_view": 0
  },
  {
    "link_thumb": "https://live.staticflickr.com/65535/50017643851_e062eb4e07_n.jpg",
    "id_album": "-401151552",
    "description": "Butterfly_690451",
    "title": "Butterfly_690451",
    "link_img": "https://live.staticflickr.com/65535/50017643851_aa8931c046_o.jpg",
    "id_image": "Butterfly_690451",
    "count_view": 0
  },
  {
    "link_thumb": "https://live.staticflickr.com/65535/50019936332_57eae8cc7d_n.jpg",
    "id_album": "-1481843714",
    "description": "Cheetah_167168",
    "title": "Cheetah_167168",
    "link_img": "https://live.staticflickr.com/65535/50019936332_0853f0578b_o.jpg",
    "id_image": "Cheetah_167168",
    "count_view": 0
  },
  {
    "link_thumb": "https://live.staticflickr.com/65535/50351748048_7fd67eec26_n.jpg",
    "id_album": "-462831703",
    "description": "Cat_255400",
    "title": "Cat_255400",
    "link_img": "https://live.staticflickr.com/65535/50351748048_deb9e5286a_o.jpg",
    "id_image": "Cat_255400",
    "count_view": 0
  },
  {
    "link_thumb": "https://live.staticflickr.com/65535/50022784308_8ba394d471_n.jpg",
    "id_album": "1512228924",
    "description": "ScarletMacaw_572348",
    "title": "ScarletMacaw_572348",
    "link_img": "https://live.staticflickr.com/65535/50022784308_f100dc4145_o.jpg",
    "id_image": "ScarletMacaw_572348",
    "count_view": 0
  },
  {
    "link_thumb": "https://live.staticflickr.com/65535/50352712521_e3d06fe13f_n.jpg",
    "id_album": "-462831702",
    "description": "Cat_9564",
    "title": "Cat_9564",
    "link_img": "https://live.staticflickr.com/65535/50352712521_d537eb85b2_o.jpg",
    "id_image": "Cat_9564",
    "count_view": 0
  },
  {
    "link_thumb": "https://live.staticflickr.com/65535/50351795288_7f432fc193_n.jpg",
    "id_album": "-462831703",
    "description": "Cat_393965",
    "title": "Cat_393965",
    "link_img": "https://live.staticflickr.com/65535/50351795288_3735859f58_o.jpg",
    "id_image": "Cat_393965",
    "count_view": 0
  },
  {
    "link_thumb": "https://live.staticflickr.com/65535/50016992996_17109ef0f0_n.jpg",
    "id_album": "809937717",
    "description": "Beagle_714960",
    "title": "Beagle_714960",
    "link_img": "https://live.staticflickr.com/65535/50016992996_eef062f08a_o.jpg",
    "id_image": "Beagle_714960",
    "count_view": 0
  },
  {
    "link_thumb": "https://live.staticflickr.com/65535/50017470573_3f4fcf4318_n.jpg",
    "id_album": "-462831702",
    "description": "Cat_334727",
    "title": "Cat_334727",
    "link_img": "https://live.staticflickr.com/65535/50017470573_a6d6ee34d9_o.jpg",
    "id_image": "Cat_334727",
    "count_view": 0
  },
  {
    "link_thumb": "https://live.staticflickr.com/65535/50021592962_2d00be90ef_n.jpg",
    "id_album": "-804131074",
    "description": "Goat_276158",
    "title": "Goat_276158",
    "link_img": "https://live.staticflickr.com/65535/50021592962_14e38c1579_o.jpg",
    "id_image": "Goat_276158",
    "count_view": 0
  },
  {
    "link_thumb": "https://live.staticflickr.com/65535/50020081942_dcf0dea6c5_n.jpg",
    "id_album": "-1868680171",
    "description": "Cougar_596097",
    "title": "Cougar_596097",
    "link_img": "https://live.staticflickr.com/65535/50020081942_f8582a4842_o.jpg",
    "id_image": "Cougar_596097",
    "count_view": 0
  },
  {
    "link_thumb": "https://live.staticflickr.com/65535/50023460552_7a7cd9fe28_n.jpg",
    "id_album": "332874268",
    "description": "RedPanda_331296",
    "title": "RedPanda_331296",
    "link_img": "https://live.staticflickr.com/65535/50023460552_5ca6e622bb_o.jpg",
    "id_image": "RedPanda_331296",
    "count_view": 0
  },
  {
    "link_thumb": "https://live.staticflickr.com/65535/50017206707_d1636f0bb8_n.jpg",
    "id_album": "390697200",
    "description": "AustralianShepherd_906109",
    "title": "AustralianShepherd_906109",
    "link_img": "https://live.staticflickr.com/65535/50017206707_93b8e5cb63_o.jpg",
    "id_image": "AustralianShepherd_906109",
    "count_view": 0
  },
  {
    "link_thumb": "https://live.staticflickr.com/65535/50024463051_08e53f14e3_n.jpg",
    "id_album": "-709711865",
    "description": "Wolf_218293",
    "title": "Wolf_218293",
    "link_img": "https://live.staticflickr.com/65535/50024463051_79ddd6f8c6_o.jpg",
    "id_image": "Wolf_218293",
    "count_view": 0
  },
  {
    "link_thumb": "https://live.staticflickr.com/65535/50021203457_dbbc81ef19_n.jpg",
    "id_album": "-128218148",
    "description": "Fox_343815",
    "title": "Fox_343815",
    "link_img": "https://live.staticflickr.com/65535/50021203457_717b72a9a2_o.jpg",
    "id_image": "Fox_343815",
    "count_view": 0
  },
  {
    "link_thumb": "https://live.staticflickr.com/65535/50020249887_0becd8ce55_n.jpg",
    "id_album": "1903411565",
    "description": "Deer_330789",
    "title": "Deer_330789",
    "link_img": "https://live.staticflickr.com/65535/50020249887_44427d3e44_o.jpg",
    "id_image": "Deer_330789",
    "count_view": 0
  },
  {
    "link_thumb": "https://live.staticflickr.com/65535/50021617592_407024a245_n.jpg",
    "id_album": "2060159334",
    "description": "GoldenRetriever_871243",
    "title": "GoldenRetriever_871243",
    "link_img": "https://live.staticflickr.com/65535/50021617592_756aef247a_o.jpg",
    "id_image": "GoldenRetriever_871243",
    "count_view": 0
  },
  {
    "link_thumb": "https://live.staticflickr.com/65535/50016823951_5e1f736c24_n.jpg",
    "id_album": "-229810103",
    "description": "AmericanBison_324117",
    "title": "AmericanBison_324117",
    "link_img": "https://live.staticflickr.com/65535/50016823951_331577da58_o.jpg",
    "id_image": "AmericanBison_324117",
    "count_view": 0
  },
  {
    "link_thumb": "https://live.staticflickr.com/65535/50024578971_d7f017f1c3_n.jpg",
    "id_album": "1104421803",
    "description": "Zebra_784271",
    "title": "Zebra_784271",
    "link_img": "https://live.staticflickr.com/65535/50024578971_acf80e4ee7_o.jpg",
    "id_image": "Zebra_784271",
    "count_view": 0
  },
  {
    "link_thumb": "https://live.staticflickr.com/65535/50023188707_aaebb817ea_n.jpg",
    "id_album": "-356780855",
    "description": "Puffin_795906",
    "title": "Puffin_795906",
    "link_img": "https://live.staticflickr.com/65535/50023188707_4961b665e6_o.jpg",
    "id_image": "Puffin_795906",
    "count_view": 0
  },
  {
    "link_thumb": "https://live.staticflickr.com/65535/50016298923_96f72bc469_n.jpg",
    "id_album": "-229810103",
    "description": "AmericanBison_752672",
    "title": "AmericanBison_752672",
    "link_img": "https://live.staticflickr.com/65535/50016298923_e24e27bb57_o.jpg",
    "id_image": "AmericanBison_752672",
    "count_view": 0
  },
  {
    "link_thumb": "https://live.staticflickr.com/65535/50017606546_12bafbdda3_n.jpg",
    "id_album": "-401151552",
    "description": "Butterfly_469359",
    "title": "Butterfly_469359",
    "link_img": "https://live.staticflickr.com/65535/50017606546_1007486f99_o.jpg",
    "id_image": "Butterfly_469359",
    "count_view": 0
  },
  {
    "link_thumb": "https://live.staticflickr.com/65535/50017789817_b4d7f568f6_n.jpg",
    "id_album": "368532157",
    "description": "Bulldog_772304",
    "title": "Bulldog_772304",
    "link_img": "https://live.staticflickr.com/65535/50017789817_ef5d5da64d_o.jpg",
    "id_image": "Bulldog_772304",
    "count_view": 0
  },
  {
    "link_thumb": "https://live.staticflickr.com/65535/50021400782_34bebc2fa4_n.jpg",
    "id_album": "-462831704",
    "description": "Cat_645412",
    "title": "Cat_645412",
    "link_img": "https://live.staticflickr.com/65535/50021400782_345dc738b5_o.jpg",
    "id_image": "Cat_645412",
    "count_view": 0
  },
  {
    "link_thumb": "https://live.staticflickr.com/65535/50019434537_293439f6fb_n.jpg",
    "id_album": "-462831702",
    "description": "Cat_427222",
    "title": "Cat_427222",
    "link_img": "https://live.staticflickr.com/65535/50019434537_9b01f6b76f_o.jpg",
    "id_image": "Cat_427222",
    "count_view": 0
  },
  {
    "link_thumb": "https://live.staticflickr.com/65535/50022154061_f7876e93c7_n.jpg",
    "id_album": "1894617400",
    "description": "Lynx_654991",
    "title": "Lynx_654991",
    "link_img": "https://live.staticflickr.com/65535/50022154061_17d59efd2f_o.jpg",
    "id_image": "Lynx_654991",
    "count_view": 0
  },
  {
    "link_thumb": "https://live.staticflickr.com/65535/50019132603_bd69a94666_n.jpg",
    "id_album": "-766919393",
    "description": "Chameleon_769374",
    "title": "Chameleon_769374",
    "link_img": "https://live.staticflickr.com/65535/50019132603_0a1d24c3fd_o.jpg",
    "id_image": "Chameleon_769374",
    "count_view": 0
  },
  {
    "link_thumb": "https://live.staticflickr.com/65535/50018617708_e78ce0530d_n.jpg",
    "id_album": "-462831702",
    "description": "Cat_415019",
    "title": "Cat_415019",
    "link_img": "https://live.staticflickr.com/65535/50018617708_4dba2a1459_o.jpg",
    "id_image": "Cat_415019",
    "count_view": 0
  },
  {
    "link_thumb": "https://live.staticflickr.com/65535/50022446083_673974e55f_n.jpg",
    "id_album": "-353898617",
    "description": "Puppy_414984",
    "title": "Puppy_414984",
    "link_img": "https://live.staticflickr.com/65535/50022446083_9db5d495f7_o.jpg",
    "id_image": "Puppy_414984",
    "count_view": 0
  },
  {
    "link_thumb": "https://live.staticflickr.com/65535/50020704811_b666a960cc_n.jpg",
    "id_album": "-39098563",
    "description": "Eagle_399611",
    "title": "Eagle_399611",
    "link_img": "https://live.staticflickr.com/65535/50020704811_be80171cd7_o.jpg",
    "id_image": "Eagle_399611",
    "count_view": 0
  },
  {
    "link_thumb": "https://live.staticflickr.com/65535/50023678433_d151aab2b9_n.jpg",
    "id_album": "405170427",
    "description": "Tiger_853828",
    "title": "Tiger_853828",
    "link_img": "https://live.staticflickr.com/65535/50023678433_0065df5092_o.jpg",
    "id_image": "Tiger_853828",
    "count_view": 0
  },
  {
    "link_thumb": "https://live.staticflickr.com/65535/50022522798_3280e97ccf_n.jpg",
    "id_album": "-353898617",
    "description": "Puppy_854674",
    "title": "Puppy_854674",
    "link_img": "https://live.staticflickr.com/65535/50022522798_2337de2f34_o.jpg",
    "id_image": "Puppy_854674",
    "count_view": 0
  },
  {
    "link_thumb": "https://live.staticflickr.com/65535/50017775137_d9f9712708_n.jpg",
    "id_album": "782930701",
    "description": "BorderCollie_963715",
    "title": "BorderCollie_963715",
    "link_img": "https://live.staticflickr.com/65535/50017775137_2fc384a1a2_o.jpg",
    "id_image": "BorderCollie_963715",
    "count_view": 0
  },
  {
    "link_thumb": "https://live.staticflickr.com/65535/50023359881_6d8692a3a3_n.jpg",
    "id_album": "1656131695",
    "description": "Seagull_388177",
    "title": "Seagull_388177",
    "link_img": "https://live.staticflickr.com/65535/50023359881_2e2c4b0def_o.jpg",
    "id_image": "Seagull_388177",
    "count_view": 0
  },
  {
    "link_thumb": "https://live.staticflickr.com/65535/50017292682_76bd0671e6_n.jpg",
    "id_album": "-422187261",
    "description": "Bear_362653",
    "title": "Bear_362653",
    "link_img": "https://live.staticflickr.com/65535/50017292682_905031bf28_o.jpg",
    "id_image": "Bear_362653",
    "count_view": 0
  },
  {
    "link_thumb": "https://live.staticflickr.com/65535/50021617782_a8099b288e_n.jpg",
    "id_album": "2060159334",
    "description": "GoldenRetriever_873102",
    "title": "GoldenRetriever_873102",
    "link_img": "https://live.staticflickr.com/65535/50021617782_f1d43279c8_o.jpg",
    "id_image": "GoldenRetriever_873102",
    "count_view": 0
  },
  {
    "link_thumb": "https://live.staticflickr.com/65535/50021299738_774c7658eb_n.jpg",
    "id_album": "-1882491687",
    "description": "Ladybug_266748",
    "title": "Ladybug_266748",
    "link_img": "https://live.staticflickr.com/65535/50021299738_4e485a7c6d_o.jpg",
    "id_image": "Ladybug_266748",
    "count_view": 0
  },
  {
    "link_thumb": "https://live.staticflickr.com/65535/50019873238_abe8d7d03a_n.jpg",
    "id_album": "-149330231",
    "description": "Dog_426337",
    "title": "Dog_426337",
    "link_img": "https://live.staticflickr.com/65535/50019873238_0d80dda0ba_o.jpg",
    "id_image": "Dog_426337",
    "count_view": 0
  },
  {
    "link_thumb": "https://live.staticflickr.com/65535/50021147653_9b64b3fa24_n.jpg",
    "id_album": "1658866795",
    "description": "Insect_404572",
    "title": "Insect_404572",
    "link_img": "https://live.staticflickr.com/65535/50021147653_cb1a1d571b_o.jpg",
    "id_image": "Insect_404572",
    "count_view": 0
  },
  {
    "link_thumb": "https://live.staticflickr.com/65535/50352608501_f839c1e57c_n.jpg",
    "id_album": "-462831703",
    "description": "Cat_565201",
    "title": "Cat_565201",
    "link_img": "https://live.staticflickr.com/65535/50352608501_7c83945ca1_o.jpg",
    "id_image": "Cat_565201",
    "count_view": 0
  },
  {
    "link_thumb": "https://live.staticflickr.com/65535/50021849572_f4dcce7689_n.jpg",
    "id_album": "773713550",
    "description": "Hoverfly_415144",
    "title": "Hoverfly_415144",
    "link_img": "https://live.staticflickr.com/65535/50021849572_7a36fcb4b9_o.jpg",
    "id_image": "Hoverfly_415144",
    "count_view": 0
  },
  {
    "link_thumb": "https://live.staticflickr.com/65535/50020582212_887525c5e3_n.jpg",
    "id_album": "-149330232",
    "description": "Dog_364513",
    "title": "Dog_364513",
    "link_img": "https://live.staticflickr.com/65535/50020582212_183f3dbdd5_o.jpg",
    "id_image": "Dog_364513",
    "count_view": 0
  },
  {
    "link_thumb": "https://live.staticflickr.com/65535/50019646872_6ee2af356a_n.jpg",
    "id_album": "-462831703",
    "description": "Cat_881037",
    "title": "Cat_881037",
    "link_img": "https://live.staticflickr.com/65535/50019646872_64ca435b62_o.jpg",
    "id_image": "Cat_881037",
    "count_view": 0
  },
  {
    "link_thumb": "https://live.staticflickr.com/65535/50020737163_39f8b2fe93_n.jpg",
    "id_album": "-34696179",
    "description": "Gecko_636464",
    "title": "Gecko_636464",
    "link_img": "https://live.staticflickr.com/65535/50020737163_3a678b5193_o.jpg",
    "id_image": "Gecko_636464",
    "count_view": 0
  },
  {
    "link_thumb": "https://live.staticflickr.com/65535/50017209703_50426a44e5_n.jpg",
    "id_album": "189994021",
    "description": "Cardinal_788870",
    "title": "Cardinal_788870",
    "link_img": "https://live.staticflickr.com/65535/50017209703_8cc13decbf_o.jpg",
    "id_image": "Cardinal_788870",
    "count_view": 0
  },
  {
    "link_thumb": "https://live.staticflickr.com/65535/50351701838_7c24c0189e_n.jpg",
    "id_album": "-462831703",
    "description": "Cat_116590",
    "title": "Cat_116590",
    "link_img": "https://live.staticflickr.com/65535/50351701838_2bb6429ff0_o.jpg",
    "id_image": "Cat_116590",
    "count_view": 0
  },
  {
    "link_thumb": "https://live.staticflickr.com/65535/50021025761_365906d336_n.jpg",
    "id_album": "-128218148",
    "description": "Fox_921930",
    "title": "Fox_921930",
    "link_img": "https://live.staticflickr.com/65535/50021025761_2a07b1ce05_o.jpg",
    "id_image": "Fox_921930",
    "count_view": 0
  },
  {
    "link_thumb": "https://live.staticflickr.com/65535/50020534507_ff3153e9f9_n.jpg",
    "id_album": "-149330232",
    "description": "Dog_339838",
    "title": "Dog_339838",
    "link_img": "https://live.staticflickr.com/65535/50020534507_a8cb89c754_o.jpg",
    "id_image": "Dog_339838",
    "count_view": 0
  },
  {
    "link_thumb": "https://live.staticflickr.com/65535/50017486947_2a580c6f44_n.jpg",
    "id_album": "-1846011410",
    "description": "Bird_275189",
    "title": "Bird_275189",
    "link_img": "https://live.staticflickr.com/65535/50017486947_825122a397_o.jpg",
    "id_image": "Bird_275189",
    "count_view": 0
  },
  {
    "link_thumb": "https://live.staticflickr.com/65535/50020158888_5c602a82b9_n.jpg",
    "id_album": "-39098563",
    "description": "Eagle_343280",
    "title": "Eagle_343280",
    "link_img": "https://live.staticflickr.com/65535/50020158888_922f46db38_o.jpg",
    "id_image": "Eagle_343280",
    "count_view": 0
  },
  {
    "link_thumb": "https://live.staticflickr.com/65535/50020376043_3486afce95_n.jpg",
    "id_album": "-1694105481",
    "description": "Fly_327071",
    "title": "Fly_327071",
    "link_img": "https://live.staticflickr.com/65535/50020376043_6c283d1df4_o.jpg",
    "id_image": "Fly_327071",
    "count_view": 0
  },
  {
    "link_thumb": "https://live.staticflickr.com/65535/50023260167_229b5905fa_n.jpg",
    "id_album": "-353898617",
    "description": "Puppy_461277",
    "title": "Puppy_461277",
    "link_img": "https://live.staticflickr.com/65535/50023260167_6a18b74824_o.jpg",
    "id_image": "Puppy_461277",
    "count_view": 0
  },
  {
    "link_thumb": "https://live.staticflickr.com/65535/50018011581_89ed23cc75_n.jpg",
    "id_album": "-462831702",
    "description": "Cat_341158",
    "title": "Cat_341158",
    "link_img": "https://live.staticflickr.com/65535/50018011581_52d30e1eea_o.jpg",
    "id_image": "Cat_341158",
    "count_view": 0
  },
  {
    "link_thumb": "https://live.staticflickr.com/65535/50351932828_0344358303_n.jpg",
    "id_album": "-462831703",
    "description": "Cat_640360",
    "title": "Cat_640360",
    "link_img": "https://live.staticflickr.com/65535/50351932828_8b95fe9a4a_o.jpg",
    "id_image": "Cat_640360",
    "count_view": 0
  },
  {
    "link_thumb": "https://live.staticflickr.com/65535/50017126942_1ba55a783c_n.jpg",
    "id_album": "523598895",
    "description": "Artistic_116190",
    "title": "Artistic_116190",
    "link_img": "https://live.staticflickr.com/65535/50017126942_86633d1261_o.jpg",
    "id_image": "Artistic_116190",
    "count_view": 0
  },
  {
    "link_thumb": "https://live.staticflickr.com/65535/50021524372_2f28c1181e_n.jpg",
    "id_album": "-462831703",
    "description": "Cat_831692",
    "title": "Cat_831692",
    "link_img": "https://live.staticflickr.com/65535/50021524372_2e8801e84d_o.jpg",
    "id_image": "Cat_831692",
    "count_view": 0
  },
  {
    "link_thumb": "https://live.staticflickr.com/65535/50021192288_bcbba4232e_n.jpg",
    "id_album": "-843028318",
    "description": "Jaguar_65075",
    "title": "Jaguar_65075",
    "link_img": "https://live.staticflickr.com/65535/50021192288_0412c7b27b_o.jpg",
    "id_image": "Jaguar_65075",
    "count_view": 0
  },
  {
    "link_thumb": "https://live.staticflickr.com/65535/50023453768_fbfccb08b0_n.jpg",
    "id_album": "1244464375",
    "description": "Starfish_636697",
    "title": "Starfish_636697",
    "link_img": "https://live.staticflickr.com/65535/50023453768_1da28ab0f9_o.jpg",
    "id_image": "Starfish_636697",
    "count_view": 0
  },
  {
    "link_thumb": "https://live.staticflickr.com/65535/50020432193_0d50a9f103_n.jpg",
    "id_album": "-128218148",
    "description": "Fox_547466",
    "title": "Fox_547466",
    "link_img": "https://live.staticflickr.com/65535/50020432193_f209cdc4ac_o.jpg",
    "id_image": "Fox_547466",
    "count_view": 0
  },
  {
    "link_thumb": "https://live.staticflickr.com/65535/50021594042_62cb4d39db_n.jpg",
    "id_album": "-804131074",
    "description": "Goat_328891",
    "title": "Goat_328891",
    "link_img": "https://live.staticflickr.com/65535/50021594042_b4b17d3f3b_o.jpg",
    "id_image": "Goat_328891",
    "count_view": 0
  },
  {
    "link_thumb": "https://live.staticflickr.com/65535/50021272528_da63720e33_n.jpg",
    "id_album": "770105808",
    "description": "Kingfisher_967773",
    "title": "Kingfisher_967773",
    "link_img": "https://live.staticflickr.com/65535/50021272528_def04558cc_o.jpg",
    "id_image": "Kingfisher_967773",
    "count_view": 0
  },
  {
    "link_thumb": "https://live.staticflickr.com/65535/50019744481_87733b6fc2_n.jpg",
    "id_album": "1949822052",
    "description": "Chimpanzee_423106",
    "title": "Chimpanzee_423106",
    "link_img": "https://live.staticflickr.com/65535/50019744481_6cdbd42ddd_o.jpg",
    "id_image": "Chimpanzee_423106",
    "count_view": 0
  },
  {
    "link_thumb": "https://live.staticflickr.com/65535/50020021393_53881fe378_n.jpg",
    "id_album": "-149330231",
    "description": "Dog_982763",
    "title": "Dog_982763",
    "link_img": "https://live.staticflickr.com/65535/50020021393_8e7f7e6067_o.jpg",
    "id_image": "Dog_982763",
    "count_view": 0
  },
  {
    "link_thumb": "https://live.staticflickr.com/65535/50017089347_ddfecea8a5_n.jpg",
    "id_album": "-229810103",
    "description": "AmericanBison_880484",
    "title": "AmericanBison_880484",
    "link_img": "https://live.staticflickr.com/65535/50017089347_14c05e908e_o.jpg",
    "id_image": "AmericanBison_880484",
    "count_view": 0
  },
  {
    "link_thumb": "https://live.staticflickr.com/65535/50020948241_d9154e8ec4_n.jpg",
    "id_album": "-128218148",
    "description": "Fox_337134",
    "title": "Fox_337134",
    "link_img": "https://live.staticflickr.com/65535/50020948241_6cc8bec82d_o.jpg",
    "id_image": "Fox_337134",
    "count_view": 0
  },
  {
    "link_thumb": "https://live.staticflickr.com/65535/50352841452_485837514c_n.jpg",
    "id_album": "-462831702",
    "description": "Cat_115421",
    "title": "Cat_115421",
    "link_img": "https://live.staticflickr.com/65535/50352841452_0bc15d9003_o.jpg",
    "id_image": "Cat_115421",
    "count_view": 0
  },
  {
    "link_thumb": "https://live.staticflickr.com/65535/50019679317_decbf6e6c0_n.jpg",
    "id_album": "-462831703",
    "description": "Cat_903447",
    "title": "Cat_903447",
    "link_img": "https://live.staticflickr.com/65535/50019679317_291d51e198_o.jpg",
    "id_image": "Cat_903447",
    "count_view": 0
  },
  {
    "link_thumb": "https://live.staticflickr.com/65535/50016868638_c42a6c38e4_n.jpg",
    "id_album": "-1846011410",
    "description": "Bird_630799",
    "title": "Bird_630799",
    "link_img": "https://live.staticflickr.com/65535/50016868638_61d26a9d6a_o.jpg",
    "id_image": "Bird_630799",
    "count_view": 0
  },
  {
    "link_thumb": "https://live.staticflickr.com/65535/50018214087_a965049af3_n.jpg",
    "id_album": "-462831702",
    "description": "Cat_309960",
    "title": "Cat_309960",
    "link_img": "https://live.staticflickr.com/65535/50018214087_74e6646dfe_o.jpg",
    "id_image": "Cat_309960",
    "count_view": 0
  },
  {
    "link_thumb": "https://live.staticflickr.com/65535/50024290027_0543ff3ece_n.jpg",
    "id_album": "405170427",
    "description": "Tiger_191123",
    "title": "Tiger_191123",
    "link_img": "https://live.staticflickr.com/65535/50024290027_7583714112_o.jpg",
    "id_image": "Tiger_191123",
    "count_view": 0
  },
  {
    "link_thumb": "https://live.staticflickr.com/65535/50017955862_a4d3900880_n.jpg",
    "id_album": "-401151552",
    "description": "Butterfly_926296",
    "title": "Butterfly_926296",
    "link_img": "https://live.staticflickr.com/65535/50017955862_d1d2b09cb4_o.jpg",
    "id_image": "Butterfly_926296",
    "count_view": 0
  },
  {
    "link_thumb": "https://live.staticflickr.com/65535/50016875971_4fa3fcd47b_n.jpg",
    "id_album": "523598895",
    "description": "Artistic_177574",
    "title": "Artistic_177574",
    "link_img": "https://live.staticflickr.com/65535/50016875971_a1fda9c37c_o.jpg",
    "id_image": "Artistic_177574",
    "count_view": 0
  },
  {
    "link_thumb": "https://live.staticflickr.com/65535/50022690406_e763a46338_n.jpg",
    "id_album": "392248205",
    "description": "Penguin_367226",
    "title": "Penguin_367226",
    "link_img": "https://live.staticflickr.com/65535/50022690406_38f5a00dab_o.jpg",
    "id_image": "Penguin_367226",
    "count_view": 0
  },
  {
    "link_thumb": "https://live.staticflickr.com/65535/50021371152_6902fa0a32_n.jpg",
    "id_album": "-462831704",
    "description": "Cat_568742",
    "title": "Cat_568742",
    "link_img": "https://live.staticflickr.com/65535/50021371152_ce6077ee5d_o.jpg",
    "id_image": "Cat_568742",
    "count_view": 0
  },
  {
    "link_thumb": "https://live.staticflickr.com/65535/50023591408_323b5e6882_n.jpg",
    "id_album": "405170427",
    "description": "Tiger_451051",
    "title": "Tiger_451051",
    "link_img": "https://live.staticflickr.com/65535/50023591408_cde2ab7a99_o.jpg",
    "id_image": "Tiger_451051",
    "count_view": 0
  },
  {
    "link_thumb": "https://live.staticflickr.com/65535/50019432791_34158f3a3c_n.jpg",
    "id_album": "-462831703",
    "description": "Cat_909167",
    "title": "Cat_909167",
    "link_img": "https://live.staticflickr.com/65535/50019432791_58153c3d9a_o.jpg",
    "id_image": "Cat_909167",
    "count_view": 0
  },
  {
    "link_thumb": "https://live.staticflickr.com/65535/50022678008_96ac188413_n.jpg",
    "id_album": "332874268",
    "description": "RedPanda_660913",
    "title": "RedPanda_660913",
    "link_img": "https://live.staticflickr.com/65535/50022678008_b29222fc51_o.jpg",
    "id_image": "RedPanda_660913",
    "count_view": 0
  },
  {
    "link_thumb": "https://live.staticflickr.com/65535/50017750332_e2f2631289_n.jpg",
    "id_album": "782930701",
    "description": "BorderCollie_731014",
    "title": "BorderCollie_731014",
    "link_img": "https://live.staticflickr.com/65535/50017750332_9e99774f82_o.jpg",
    "id_image": "BorderCollie_731014",
    "count_view": 0
  },
  {
    "link_thumb": "https://live.staticflickr.com/65535/50019627603_21c8ec4864_n.jpg",
    "id_album": "-149330232",
    "description": "Dog_219211",
    "title": "Dog_219211",
    "link_img": "https://live.staticflickr.com/65535/50019627603_56f11b635f_o.jpg",
    "id_image": "Dog_219211",
    "count_view": 0
  },
  {
    "link_thumb": "https://live.staticflickr.com/65535/50020212286_7d01338ff3_n.jpg",
    "id_album": "-149330232",
    "description": "Dog_275614",
    "title": "Dog_275614",
    "link_img": "https://live.staticflickr.com/65535/50020212286_46e1f50e52_o.jpg",
    "id_image": "Dog_275614",
    "count_view": 0
  },
  {
    "link_thumb": "https://live.staticflickr.com/65535/50023614598_5c162f95f2_n.jpg",
    "id_album": "405170427",
    "description": "Tiger_553672",
    "title": "Tiger_553672",
    "link_img": "https://live.staticflickr.com/65535/50023614598_81346dedc0_o.jpg",
    "id_image": "Tiger_553672",
    "count_view": 0
  },
  {
    "link_thumb": "https://live.staticflickr.com/65535/50022845882_3052265c81_n.jpg",
    "id_album": "-801414987",
    "description": "Peacock_397442",
    "title": "Peacock_397442",
    "link_img": "https://live.staticflickr.com/65535/50022845882_06ded49ece_o.jpg",
    "id_image": "Peacock_397442",
    "count_view": 0
  },
  {
    "link_thumb": "https://live.staticflickr.com/65535/50018107862_5de5a40a5c_n.jpg",
    "id_album": "-462831705",
    "description": "Cat_206619",
    "title": "Cat_206619",
    "link_img": "https://live.staticflickr.com/65535/50018107862_f9a84dede4_o.jpg",
    "id_image": "Cat_206619",
    "count_view": 0
  },
  {
    "link_thumb": "https://live.staticflickr.com/65535/50021830061_50e60033f3_n.jpg",
    "id_album": "1307335982",
    "description": "LabradorRetriever_601864",
    "title": "LabradorRetriever_601864",
    "link_img": "https://live.staticflickr.com/65535/50021830061_f3f499c777_o.jpg",
    "id_image": "LabradorRetriever_601864",
    "count_view": 0
  },
  {
    "link_thumb": "https://live.staticflickr.com/65535/50021257186_5e9fa46d43_n.jpg",
    "id_album": "-462831703",
    "description": "Cat_800673",
    "title": "Cat_800673",
    "link_img": "https://live.staticflickr.com/65535/50021257186_2e3624f0e2_o.jpg",
    "id_image": "Cat_800673",
    "count_view": 0
  },
  {
    "link_thumb": "https://live.staticflickr.com/65535/50022082392_793bd31da1_n.jpg",
    "id_album": "1307335982",
    "description": "LabradorRetriever_345236",
    "title": "LabradorRetriever_345236",
    "link_img": "https://live.staticflickr.com/65535/50022082392_2e3b9e550a_o.jpg",
    "id_image": "LabradorRetriever_345236",
    "count_view": 0
  },
  {
    "link_thumb": "https://live.staticflickr.com/65535/50016864166_4868a68eb4_n.jpg",
    "id_album": "523598895",
    "description": "Artistic_115841",
    "title": "Artistic_115841",
    "link_img": "https://live.staticflickr.com/65535/50016864166_7433db3c56_o.jpg",
    "id_image": "Artistic_115841",
    "count_view": 0
  },
  {
    "link_thumb": "https://live.staticflickr.com/65535/50023668973_9850389481_n.jpg",
    "id_album": "405170427",
    "description": "Tiger_782406",
    "title": "Tiger_782406",
    "link_img": "https://live.staticflickr.com/65535/50023668973_704eb65f78_o.jpg",
    "id_image": "Tiger_782406",
    "count_view": 0
  },
  {
    "link_thumb": "https://live.staticflickr.com/65535/50352497556_068ecd3531_n.jpg",
    "id_album": "-462831703",
    "description": "Cat_401858",
    "title": "Cat_401858",
    "link_img": "https://live.staticflickr.com/65535/50352497556_64ee8c4d7b_o.jpg",
    "id_image": "Cat_401858",
    "count_view": 0
  },
  {
    "link_thumb": "https://live.staticflickr.com/65535/50021918962_8dffb1a46e_n.jpg",
    "id_album": "1658866795",
    "description": "Insect_355681",
    "title": "Insect_355681",
    "link_img": "https://live.staticflickr.com/65535/50021918962_e2cff546b8_o.jpg",
    "id_image": "Insect_355681",
    "count_view": 0
  },
  {
    "link_thumb": "https://live.staticflickr.com/65535/50021842771_b5b7b69e4b_n.jpg",
    "id_album": "-1882491687",
    "description": "Ladybug_288087",
    "title": "Ladybug_288087",
    "link_img": "https://live.staticflickr.com/65535/50021842771_9172a25d09_o.jpg",
    "id_image": "Ladybug_288087",
    "count_view": 0
  },
  {
    "link_thumb": "https://live.staticflickr.com/65535/50020589312_d545beda55_n.jpg",
    "id_album": "-149330232",
    "description": "Dog_366555",
    "title": "Dog_366555",
    "link_img": "https://live.staticflickr.com/65535/50020589312_8121648ce2_o.jpg",
    "id_image": "Dog_366555",
    "count_view": 0
  },
  {
    "link_thumb": "https://live.staticflickr.com/65535/50022164376_8e10bcc394_n.jpg",
    "id_album": "1894617400",
    "description": "Lynx_872262",
    "title": "Lynx_872262",
    "link_img": "https://live.staticflickr.com/65535/50022164376_168e9b1c33_o.jpg",
    "id_image": "Lynx_872262",
    "count_view": 0
  },
  {
    "link_thumb": "https://live.staticflickr.com/65535/50021208167_b9559db352_n.jpg",
    "id_album": "-128218148",
    "description": "Fox_362753",
    "title": "Fox_362753",
    "link_img": "https://live.staticflickr.com/65535/50021208167_622a566f64_o.jpg",
    "id_image": "Fox_362753",
    "count_view": 0
  },
  {
    "link_thumb": "https://live.staticflickr.com/65535/50017713107_2cd84d8cd5_n.jpg",
    "id_album": "-1561645279",
    "description": "BlackPanther_395421",
    "title": "BlackPanther_395421",
    "link_img": "https://live.staticflickr.com/65535/50017713107_628f1733bf_o.jpg",
    "id_image": "BlackPanther_395421",
    "count_view": 0
  },
  {
    "link_thumb": "https://live.staticflickr.com/65535/50020668208_eff5e4803d_n.jpg",
    "id_album": "-462831704",
    "description": "Cat_730878",
    "title": "Cat_730878",
    "link_img": "https://live.staticflickr.com/65535/50020668208_ebcc519294_o.jpg",
    "id_image": "Cat_730878",
    "count_view": 0
  },
  {
    "link_thumb": "https://live.staticflickr.com/65535/50020977397_369d198e56_n.jpg",
    "id_album": "-39098563",
    "description": "Eagle_717578",
    "title": "Eagle_717578",
    "link_img": "https://live.staticflickr.com/65535/50020977397_fa6909f2ca_o.jpg",
    "id_image": "Eagle_717578",
    "count_view": 0
  },
  {
    "link_thumb": "https://live.staticflickr.com/65535/50017604093_41d823c680_n.jpg",
    "id_album": "-462831702",
    "description": "Cat_397091",
    "title": "Cat_397091",
    "link_img": "https://live.staticflickr.com/65535/50017604093_7c04f2a25a_o.jpg",
    "id_image": "Cat_397091",
    "count_view": 0
  },
  {
    "link_thumb": "https://live.staticflickr.com/65535/50020148537_d555f646d7_n.jpg",
    "id_album": "1475096665",
    "description": "Crocodile_389849",
    "title": "Crocodile_389849",
    "link_img": "https://live.staticflickr.com/65535/50020148537_6b4632134a_o.jpg",
    "id_image": "Crocodile_389849",
    "count_view": 0
  },
  {
    "link_thumb": "https://live.staticflickr.com/65535/50018149672_e6b09046f6_n.jpg",
    "id_album": "-462831705",
    "description": "Cat_236916",
    "title": "Cat_236916",
    "link_img": "https://live.staticflickr.com/65535/50018149672_9979949979_o.jpg",
    "id_image": "Cat_236916",
    "count_view": 0
  },
  {
    "link_thumb": "https://live.staticflickr.com/65535/50019370663_d25bbc6e30_n.jpg",
    "id_album": "1475096665",
    "description": "Crocodile_923691",
    "title": "Crocodile_923691",
    "link_img": "https://live.staticflickr.com/65535/50019370663_2ecb8bcf55_o.jpg",
    "id_image": "Crocodile_923691",
    "count_view": 0
  },
  {
    "link_thumb": "https://live.staticflickr.com/65535/50019724816_96a8f4c236_n.jpg",
    "id_album": "-1481843714",
    "description": "Cheetah_728270",
    "title": "Cheetah_728270",
    "link_img": "https://live.staticflickr.com/65535/50019724816_92e2f31516_o.jpg",
    "id_image": "Cheetah_728270",
    "count_view": 0
  },
  {
    "link_thumb": "https://live.staticflickr.com/65535/50018856538_baaa47337d_n.jpg",
    "id_album": "-462831703",
    "description": "Cat_879797",
    "title": "Cat_879797",
    "link_img": "https://live.staticflickr.com/65535/50018856538_f10406e5cb_o.jpg",
    "id_image": "Cat_879797",
    "count_view": 0
  },
  {
    "link_thumb": "https://live.staticflickr.com/65535/50018281192_2dc054f95f_n.jpg",
    "id_album": "-462831702",
    "description": "Cat_345549",
    "title": "Cat_345549",
    "link_img": "https://live.staticflickr.com/65535/50018281192_bd11e31c7c_o.jpg",
    "id_image": "Cat_345549",
    "count_view": 0
  },
  {
    "link_thumb": "https://live.staticflickr.com/65535/50021069642_413ddd01cf_n.jpg",
    "id_album": "822895535",
    "description": "Falcon_443204",
    "title": "Falcon_443204",
    "link_img": "https://live.staticflickr.com/65535/50021069642_357e3b02d0_o.jpg",
    "id_image": "Falcon_443204",
    "count_view": 0
  },
  {
    "link_thumb": "https://live.staticflickr.com/65535/50019744638_911d02e7fa_n.jpg",
    "id_album": "-149330232",
    "description": "Dog_339819",
    "title": "Dog_339819",
    "link_img": "https://live.staticflickr.com/65535/50019744638_4600a231bb_o.jpg",
    "id_image": "Dog_339819",
    "count_view": 0
  },
  {
    "link_thumb": "https://live.staticflickr.com/65535/50024359587_fa4227c019_n.jpg",
    "id_album": "405170427",
    "description": "Tiger_378601",
    "title": "Tiger_378601",
    "link_img": "https://live.staticflickr.com/65535/50024359587_01f1e79f77_o.jpg",
    "id_image": "Tiger_378601",
    "count_view": 0
  },
  {
    "link_thumb": "https://live.staticflickr.com/65535/50017490917_42f2a610f4_n.jpg",
    "id_album": "-1846011410",
    "description": "Bird_280372",
    "title": "Bird_280372",
    "link_img": "https://live.staticflickr.com/65535/50017490917_dcb9cebf21_o.jpg",
    "id_image": "Bird_280372",
    "count_view": 0
  },
  {
    "link_thumb": "https://live.staticflickr.com/65535/50019470156_5b05324a69_n.jpg",
    "id_album": "-462831703",
    "description": "Cat_920514",
    "title": "Cat_920514",
    "link_img": "https://live.staticflickr.com/65535/50019470156_20f6820977_o.jpg",
    "id_image": "Cat_920514",
    "count_view": 0
  },
  {
    "link_thumb": "https://live.staticflickr.com/65535/50019656708_27ec7375c7_n.jpg",
    "id_album": "-149330232",
    "description": "Dog_260612",
    "title": "Dog_260612",
    "link_img": "https://live.staticflickr.com/65535/50019656708_74870b5fd2_o.jpg",
    "id_image": "Dog_260612",
    "count_view": 0
  },
  {
    "link_thumb": "https://live.staticflickr.com/65535/50019065843_ed75edc337_n.jpg",
    "id_album": "-1930903528",
    "description": "CatDog_867796",
    "title": "CatDog_867796",
    "link_img": "https://live.staticflickr.com/65535/50019065843_84521a10ce_o.jpg",
    "id_image": "CatDog_867796",
    "count_view": 0
  },
  {
    "link_thumb": "https://live.staticflickr.com/65535/50021216406_0d675a73af_n.jpg",
    "id_album": "-462831703",
    "description": "Cat_737276",
    "title": "Cat_737276",
    "link_img": "https://live.staticflickr.com/65535/50021216406_30a8f5b84d_o.jpg",
    "id_image": "Cat_737276",
    "count_view": 0
  },
  {
    "link_thumb": "https://live.staticflickr.com/65535/50023351891_9440c316c3_n.jpg",
    "id_album": "1656131695",
    "description": "Seagull_316925",
    "title": "Seagull_316925",
    "link_img": "https://live.staticflickr.com/65535/50023351891_4b42932acf_o.jpg",
    "id_image": "Seagull_316925",
    "count_view": 0
  },
  {
    "link_thumb": "https://live.staticflickr.com/65535/50352760832_45c53fabde_n.jpg",
    "id_album": "-462831703",
    "description": "Cat_548975",
    "title": "Cat_548975",
    "link_img": "https://live.staticflickr.com/65535/50352760832_9987c49285_o.jpg",
    "id_image": "Cat_548975",
    "count_view": 0
  },
  {
    "link_thumb": "https://live.staticflickr.com/65535/50021079741_2a7835f063_n.jpg",
    "id_album": "844170697",
    "description": "Frog_852589",
    "title": "Frog_852589",
    "link_img": "https://live.staticflickr.com/65535/50021079741_a7cab01d7c_o.jpg",
    "id_image": "Frog_852589",
    "count_view": 0
  },
  {
    "link_thumb": "https://live.staticflickr.com/65535/50017620002_b4720fe96a_n.jpg",
    "id_album": "-1846011410",
    "description": "Bird_533734",
    "title": "Bird_533734",
    "link_img": "https://live.staticflickr.com/65535/50017620002_0683d67748_o.jpg",
    "id_image": "Bird_533734",
    "count_view": 0
  },
  {
    "link_thumb": "https://live.staticflickr.com/65535/50021592153_22d408be2e_n.jpg",
    "id_album": "1894617400",
    "description": "Lynx_347418",
    "title": "Lynx_347418",
    "link_img": "https://live.staticflickr.com/65535/50021592153_3efdc7d572_o.jpg",
    "id_image": "Lynx_347418",
    "count_view": 0
  },
  {
    "link_thumb": "https://live.staticflickr.com/65535/50024783642_d111641296_n.jpg",
    "id_album": "-709711865",
    "description": "Wolf_603677",
    "title": "Wolf_603677",
    "link_img": "https://live.staticflickr.com/65535/50024783642_c17822b55b_o.jpg",
    "id_image": "Wolf_603677",
    "count_view": 0
  },
  {
    "link_thumb": "https://live.staticflickr.com/65535/50020370047_63f92e7a42_n.jpg",
    "id_album": "-149330232",
    "description": "Dog_101884",
    "title": "Dog_101884",
    "link_img": "https://live.staticflickr.com/65535/50020370047_e423bdf7ca_o.jpg",
    "id_image": "Dog_101884",
    "count_view": 0
  },
  {
    "link_thumb": "https://live.staticflickr.com/65535/50351857373_15e2f90270_n.jpg",
    "id_album": "-462831703",
    "description": "Cat_470998",
    "title": "Cat_470998",
    "link_img": "https://live.staticflickr.com/65535/50351857373_0f4405ca4f_o.jpg",
    "id_image": "Cat_470998",
    "count_view": 0
  },
  {
    "link_thumb": "https://live.staticflickr.com/65535/50021737056_01754150d6_n.jpg",
    "id_album": "-843028318",
    "description": "Jaguar_690173",
    "title": "Jaguar_690173",
    "link_img": "https://live.staticflickr.com/65535/50021737056_2aee115368_o.jpg",
    "id_image": "Jaguar_690173",
    "count_view": 0
  },
  {
    "link_thumb": "https://live.staticflickr.com/65535/50352555666_e1fea8462c_n.jpg",
    "id_album": "-462831703",
    "description": "Cat_477271",
    "title": "Cat_477271",
    "link_img": "https://live.staticflickr.com/65535/50352555666_28b2bf306b_o.jpg",
    "id_image": "Cat_477271",
    "count_view": 0
  },
  {
    "link_thumb": "https://live.staticflickr.com/65535/50021347567_2fcfe9c108_n.jpg",
    "id_album": "-34696179",
    "description": "Gecko_569377",
    "title": "Gecko_569377",
    "link_img": "https://live.staticflickr.com/65535/50021347567_dcf4d5a505_o.jpg",
    "id_image": "Gecko_569377",
    "count_view": 0
  },
  {
    "link_thumb": "https://live.staticflickr.com/65535/50022495903_bddcb0cdb3_n.jpg",
    "id_album": "-353898617",
    "description": "Puppy_593776",
    "title": "Puppy_593776",
    "link_img": "https://live.staticflickr.com/65535/50022495903_9839b0140e_o.jpg",
    "id_image": "Puppy_593776",
    "count_view": 0
  },
  {
    "link_thumb": "https://live.staticflickr.com/65535/50017485227_a1f15acc7f_n.jpg",
    "id_album": "-1846011410",
    "description": "Bird_271664",
    "title": "Bird_271664",
    "link_img": "https://live.staticflickr.com/65535/50017485227_9a0312aa25_o.jpg",
    "id_image": "Bird_271664",
    "count_view": 0
  },
  {
    "link_thumb": "https://live.staticflickr.com/65535/50021156812_9b5251249c_n.jpg",
    "id_album": "-1758557371",
    "description": "Flamingo_524447",
    "title": "Flamingo_524447",
    "link_img": "https://live.staticflickr.com/65535/50021156812_2c649ee222_o.jpg",
    "id_image": "Flamingo_524447",
    "count_view": 0
  },
  {
    "link_thumb": "https://live.staticflickr.com/65535/50019812958_9c075153c8_n.jpg",
    "id_album": "-149330232",
    "description": "Dog_370834",
    "title": "Dog_370834",
    "link_img": "https://live.staticflickr.com/65535/50019812958_69992b11f5_o.jpg",
    "id_image": "Dog_370834",
    "count_view": 0
  },
  {
    "link_thumb": "https://live.staticflickr.com/65535/50020646137_f7b6b89349_n.jpg",
    "id_album": "-149330231",
    "description": "Dog_409412",
    "title": "Dog_409412",
    "link_img": "https://live.staticflickr.com/65535/50020646137_e0238de202_o.jpg",
    "id_image": "Dog_409412",
    "count_view": 0
  },
  {
    "link_thumb": "https://live.staticflickr.com/65535/50021973512_e1d50603f1_n.jpg",
    "id_album": "-843028318",
    "description": "Jaguar_283313",
    "title": "Jaguar_283313",
    "link_img": "https://live.staticflickr.com/65535/50021973512_7fe48da059_o.jpg",
    "id_image": "Jaguar_283313",
    "count_view": 0
  },
  {
    "link_thumb": "https://live.staticflickr.com/65535/50021193736_34d26bede6_n.jpg",
    "id_album": "-462831704",
    "description": "Cat_711186",
    "title": "Cat_711186",
    "link_img": "https://live.staticflickr.com/65535/50021193736_0e3edc5f8e_o.jpg",
    "id_image": "Cat_711186",
    "count_view": 0
  },
  {
    "link_thumb": "https://live.staticflickr.com/65535/50019744768_cb7f240fc2_n.jpg",
    "id_album": "-149330232",
    "description": "Dog_339831",
    "title": "Dog_339831",
    "link_img": "https://live.staticflickr.com/65535/50019744768_caa3156b41_o.jpg",
    "id_image": "Dog_339831",
    "count_view": 0
  },
  {
    "link_thumb": "https://live.staticflickr.com/65535/50020577382_237d3f94a9_n.jpg",
    "id_album": "-149330232",
    "description": "Dog_361636",
    "title": "Dog_361636",
    "link_img": "https://live.staticflickr.com/65535/50020577382_9697ea6bf9_o.jpg",
    "id_image": "Dog_361636",
    "count_view": 0
  },
  {
    "link_thumb": "https://live.staticflickr.com/65535/50017888277_03b070a318_n.jpg",
    "id_album": "-401151552",
    "description": "Butterfly_568599",
    "title": "Butterfly_568599",
    "link_img": "https://live.staticflickr.com/65535/50017888277_f168d44f79_o.jpg",
    "id_image": "Butterfly_568599",
    "count_view": 0
  },
  {
    "link_thumb": "https://live.staticflickr.com/65535/50017601511_37a9e7ea4b_n.jpg",
    "id_album": "-401151552",
    "description": "Butterfly_453823",
    "title": "Butterfly_453823",
    "link_img": "https://live.staticflickr.com/65535/50017601511_3fd78b1d39_o.jpg",
    "id_image": "Butterfly_453823",
    "count_view": 0
  },
  {
    "link_thumb": "https://live.staticflickr.com/65535/50020523432_0b014d73eb_n.jpg",
    "id_album": "-149330232",
    "description": "Dog_335296",
    "title": "Dog_335296",
    "link_img": "https://live.staticflickr.com/65535/50020523432_191c98d318_o.jpg",
    "id_image": "Dog_335296",
    "count_view": 0
  },
  {
    "link_thumb": "https://live.staticflickr.com/65535/50022171311_5a7dbc0161_n.jpg",
    "id_album": "1894617400",
    "description": "Lynx_978172",
    "title": "Lynx_978172",
    "link_img": "https://live.staticflickr.com/65535/50022171311_83c2d56290_o.jpg",
    "id_image": "Lynx_978172",
    "count_view": 0
  },
  {
    "link_thumb": "https://live.staticflickr.com/65535/50352830372_98aeb16a38_n.jpg",
    "id_album": "-462831703",
    "description": "Cat_960953",
    "title": "Cat_960953",
    "link_img": "https://live.staticflickr.com/65535/50352830372_003ab315a1_o.jpg",
    "id_image": "Cat_960953",
    "count_view": 0
  },
  {
    "link_thumb": "https://live.staticflickr.com/65535/50017856702_d737c320ef_n.jpg",
    "id_album": "-401151552",
    "description": "Butterfly_432964",
    "title": "Butterfly_432964",
    "link_img": "https://live.staticflickr.com/65535/50017856702_cb90d16028_o.jpg",
    "id_image": "Butterfly_432964",
    "count_view": 0
  },
  {
    "link_thumb": "https://live.staticflickr.com/65535/50022934861_1a9c8ff802_n.jpg",
    "id_album": "-356780855",
    "description": "Puffin_874747",
    "title": "Puffin_874747",
    "link_img": "https://live.staticflickr.com/65535/50022934861_0d0d2c81ba_o.jpg",
    "id_image": "Puffin_874747",
    "count_view": 0
  },
  {
    "link_thumb": "https://live.staticflickr.com/65535/50020193598_669feb2ce3_n.jpg",
    "id_album": "1270947998",
    "description": "Elephant_104963",
    "title": "Elephant_104963",
    "link_img": "https://live.staticflickr.com/65535/50020193598_5d9fec717a_o.jpg",
    "id_image": "Elephant_104963",
    "count_view": 0
  },
  {
    "link_thumb": "https://live.staticflickr.com/65535/50017501902_e52f1afc7d_n.jpg",
    "id_album": "-1846011410",
    "description": "Bird_328160",
    "title": "Bird_328160",
    "link_img": "https://live.staticflickr.com/65535/50017501902_e43bc60e63_o.jpg",
    "id_image": "Bird_328160",
    "count_view": 0
  },
  {
    "link_thumb": "https://live.staticflickr.com/65535/50021672742_4dd72f6cd3_n.jpg",
    "id_album": "-1513987841",
    "description": "Hawk_339473",
    "title": "Hawk_339473",
    "link_img": "https://live.staticflickr.com/65535/50021672742_b90a429e3f_o.jpg",
    "id_image": "Hawk_339473",
    "count_view": 0
  },
  {
    "link_thumb": "https://live.staticflickr.com/65535/50017620873_236ff64ca5_n.jpg",
    "id_album": "-462831702",
    "description": "Cat_407167",
    "title": "Cat_407167",
    "link_img": "https://live.staticflickr.com/65535/50017620873_bfde7e42d2_o.jpg",
    "id_image": "Cat_407167",
    "count_view": 0
  },
  {
    "link_thumb": "https://live.staticflickr.com/65535/50019586331_5ddaf1b04e_n.jpg",
    "id_album": "-1930903528",
    "description": "CatDog_743261",
    "title": "CatDog_743261",
    "link_img": "https://live.staticflickr.com/65535/50019586331_1c26f86b7a_o.jpg",
    "id_image": "CatDog_743261",
    "count_view": 0
  },
  {
    "link_thumb": "https://live.staticflickr.com/65535/50019820181_947f3c8127_n.jpg",
    "id_album": "-1868680171",
    "description": "Cougar_518991",
    "title": "Cougar_518991",
    "link_img": "https://live.staticflickr.com/65535/50019820181_d4f3328868_o.jpg",
    "id_image": "Cougar_518991",
    "count_view": 0
  },
  {
    "link_thumb": "https://live.staticflickr.com/65535/50021644613_96415f1281_n.jpg",
    "id_album": "-1720012921",
    "description": "Meerkat_535225",
    "title": "Meerkat_535225",
    "link_img": "https://live.staticflickr.com/65535/50021644613_9abc94cdff_o.jpg",
    "id_image": "Meerkat_535225",
    "count_view": 0
  },
  {
    "link_thumb": "https://live.staticflickr.com/65535/50020645421_18a08cd11a_n.jpg",
    "id_album": "1168627767",
    "description": "Duck_177728",
    "title": "Duck_177728",
    "link_img": "https://live.staticflickr.com/65535/50020645421_d8b7a30cf8_o.jpg",
    "id_image": "Duck_177728",
    "count_view": 0
  },
  {
    "link_thumb": "https://live.staticflickr.com/65535/50352012683_449fdf852f_n.jpg",
    "id_album": "-462831702",
    "description": "Cat_91505",
    "title": "Cat_91505",
    "link_img": "https://live.staticflickr.com/65535/50352012683_e62c3375d5_o.jpg",
    "id_image": "Cat_91505",
    "count_view": 0
  },
  {
    "link_thumb": "https://live.staticflickr.com/65535/50020620378_54a913ec43_n.jpg",
    "id_album": "-462831704",
    "description": "Cat_678049",
    "title": "Cat_678049",
    "link_img": "https://live.staticflickr.com/65535/50020620378_bf6750f3b8_o.jpg",
    "id_image": "Cat_678049",
    "count_view": 0
  },
  {
    "link_thumb": "https://live.staticflickr.com/65535/50017708541_3834897005_n.jpg",
    "id_album": "-401151552",
    "description": "Butterfly_926945",
    "title": "Butterfly_926945",
    "link_img": "https://live.staticflickr.com/65535/50017708541_37576b7934_o.jpg",
    "id_image": "Butterfly_926945",
    "count_view": 0
  },
  {
    "link_thumb": "https://live.staticflickr.com/65535/50020509507_947db4b823_n.jpg",
    "id_album": "-149330232",
    "description": "Dog_330939",
    "title": "Dog_330939",
    "link_img": "https://live.staticflickr.com/65535/50020509507_f026ae6101_o.jpg",
    "id_image": "Dog_330939",
    "count_view": 0
  },
  {
    "link_thumb": "https://live.staticflickr.com/65535/50351848933_cb925b57b1_n.jpg",
    "id_album": "-462831703",
    "description": "Cat_462088",
    "title": "Cat_462088",
    "link_img": "https://live.staticflickr.com/65535/50351848933_28ebd1249b_o.jpg",
    "id_image": "Cat_462088",
    "count_view": 0
  },
  {
    "link_thumb": "https://live.staticflickr.com/65535/50021877532_318d25d6ca_n.jpg",
    "id_album": "2144294979",
    "description": "Hummingbird_930341",
    "title": "Hummingbird_930341",
    "link_img": "https://live.staticflickr.com/65535/50021877532_156e0cb12a_o.jpg",
    "id_image": "Hummingbird_930341",
    "count_view": 0
  },
  {
    "link_thumb": "https://live.staticflickr.com/65535/50020909721_04af9f8cef_n.jpg",
    "id_album": "-1758557371",
    "description": "Flamingo_752180",
    "title": "Flamingo_752180",
    "link_img": "https://live.staticflickr.com/65535/50020909721_733dea6777_o.jpg",
    "id_image": "Flamingo_752180",
    "count_view": 0
  },
  {
    "link_thumb": "https://live.staticflickr.com/65535/50021203186_2e633a53be_n.jpg",
    "id_album": "-462831704",
    "description": "Cat_721183",
    "title": "Cat_721183",
    "link_img": "https://live.staticflickr.com/65535/50021203186_95d35ee319_o.jpg",
    "id_image": "Cat_721183",
    "count_view": 0
  },
  {
    "link_thumb": "https://live.staticflickr.com/65535/50022876383_2a56bff15b_n.jpg",
    "id_album": "1961094930",
    "description": "Seal_729492",
    "title": "Seal_729492",
    "link_img": "https://live.staticflickr.com/65535/50022876383_bd0a3123c3_o.jpg",
    "id_image": "Seal_729492",
    "count_view": 0
  },
  {
    "link_thumb": "https://live.staticflickr.com/65535/50022176172_194b680349_n.jpg",
    "id_album": "1392348450",
    "description": "Leopard_398261",
    "title": "Leopard_398261",
    "link_img": "https://live.staticflickr.com/65535/50022176172_cefb46653c_o.jpg",
    "id_image": "Leopard_398261",
    "count_view": 0
  },
  {
    "link_thumb": "https://live.staticflickr.com/65535/50021370143_fdce59661a_n.jpg",
    "id_album": "1392348450",
    "description": "Leopard_375223",
    "title": "Leopard_375223",
    "link_img": "https://live.staticflickr.com/65535/50021370143_84e6f1810a_o.jpg",
    "id_image": "Leopard_375223",
    "count_view": 0
  },
  {
    "link_thumb": "https://live.staticflickr.com/65535/50017682686_9f3a700358_n.jpg",
    "id_album": "-401151552",
    "description": "Butterfly_865700",
    "title": "Butterfly_865700",
    "link_img": "https://live.staticflickr.com/65535/50017682686_15651f7d7e_o.jpg",
    "id_image": "Butterfly_865700",
    "count_view": 0
  },
  {
    "link_thumb": "https://live.staticflickr.com/65535/50024152536_5d11032cc1_n.jpg",
    "id_album": "405170427",
    "description": "Tiger_534004",
    "title": "Tiger_534004",
    "link_img": "https://live.staticflickr.com/65535/50024152536_4c64a307b3_o.jpg",
    "id_image": "Tiger_534004",
    "count_view": 0
  },
  {
    "link_thumb": "https://live.staticflickr.com/65535/50352588582_d6984717b7_n.jpg",
    "id_album": "-462831703",
    "description": "Cat_220000",
    "title": "Cat_220000",
    "link_img": "https://live.staticflickr.com/65535/50352588582_cf48977500_o.jpg",
    "id_image": "Cat_220000",
    "count_view": 0
  },
  {
    "link_thumb": "https://live.staticflickr.com/65535/50017809087_808af0b19b_n.jpg",
    "id_album": "-401151552",
    "description": "Butterfly_234229",
    "title": "Butterfly_234229",
    "link_img": "https://live.staticflickr.com/65535/50017809087_40c02e61d7_o.jpg",
    "id_image": "Butterfly_234229",
    "count_view": 0
  },
  {
    "link_thumb": "https://live.staticflickr.com/65535/50352795407_fa838563cd_n.jpg",
    "id_album": "-462831703",
    "description": "Cat_664363",
    "title": "Cat_664363",
    "link_img": "https://live.staticflickr.com/65535/50352795407_6f4d4199b7_o.jpg",
    "id_image": "Cat_664363",
    "count_view": 0
  },
  {
    "link_thumb": "https://live.staticflickr.com/65535/50023174561_1d49b0cbff_n.jpg",
    "id_album": "-434874555",
    "description": "RainbowLorikeet_492674",
    "title": "RainbowLorikeet_492674",
    "link_img": "https://live.staticflickr.com/65535/50023174561_578a821ea8_o.jpg",
    "id_image": "RainbowLorikeet_492674",
    "count_view": 0
  },
  {
    "link_thumb": "https://live.staticflickr.com/65535/50019124953_08e2aba178_n.jpg",
    "id_album": "-766919393",
    "description": "Chameleon_596618",
    "title": "Chameleon_596618",
    "link_img": "https://live.staticflickr.com/65535/50019124953_f948ae7155_o.jpg",
    "id_image": "Chameleon_596618",
    "count_view": 0
  },
  {
    "link_thumb": "https://live.staticflickr.com/65535/50024393906_bd82ec250f_n.jpg",
    "id_album": "786934945",
    "description": "Whale_177408",
    "title": "Whale_177408",
    "link_img": "https://live.staticflickr.com/65535/50024393906_9c4ed3a627_o.jpg",
    "id_image": "Whale_177408",
    "count_view": 0
  },
  {
    "link_thumb": "https://live.staticflickr.com/65535/50020430103_7271961605_n.jpg",
    "id_album": "-128218148",
    "description": "Fox_535221",
    "title": "Fox_535221",
    "link_img": "https://live.staticflickr.com/65535/50020430103_a3d4c250eb_o.jpg",
    "id_image": "Fox_535221",
    "count_view": 0
  },
  {
    "link_thumb": "https://live.staticflickr.com/65535/50020565767_e44f774f5c_n.jpg",
    "id_album": "-149330232",
    "description": "Dog_354978",
    "title": "Dog_354978",
    "link_img": "https://live.staticflickr.com/65535/50020565767_9fd4ce27fe_o.jpg",
    "id_image": "Dog_354978",
    "count_view": 0
  },
  {
    "link_thumb": "https://live.staticflickr.com/65535/50018002552_de3f066a0a_n.jpg",
    "id_album": "-462831703",
    "description": "Cat_1001231",
    "title": "Cat_1001231",
    "link_img": "https://live.staticflickr.com/65535/50018002552_5c00b16791_o.jpg",
    "id_image": "Cat_1001231",
    "count_view": 0
  },
  {
    "link_thumb": "https://live.staticflickr.com/65535/50021589893_d235d28d00_n.jpg",
    "id_album": "1894617400",
    "description": "Lynx_343156",
    "title": "Lynx_343156",
    "link_img": "https://live.staticflickr.com/65535/50021589893_aab532103b_o.jpg",
    "id_image": "Lynx_343156",
    "count_view": 0
  },
  {
    "link_thumb": "https://live.staticflickr.com/65535/50019854788_ba23cdeecf_n.jpg",
    "id_album": "-149330231",
    "description": "Dog_408033",
    "title": "Dog_408033",
    "link_img": "https://live.staticflickr.com/65535/50019854788_0e7a9192a0_o.jpg",
    "id_image": "Dog_408033",
    "count_view": 0
  },
  {
    "link_thumb": "https://live.staticflickr.com/65535/50023696848_a65f4bc681_n.jpg",
    "id_album": "405170427",
    "description": "Tiger_921777",
    "title": "Tiger_921777",
    "link_img": "https://live.staticflickr.com/65535/50023696848_4601751d91_o.jpg",
    "id_image": "Tiger_921777",
    "count_view": 0
  },
  {
    "link_thumb": "https://live.staticflickr.com/65535/50021097446_60238da98d_n.jpg",
    "id_album": "-462831704",
    "description": "Cat_536196",
    "title": "Cat_536196",
    "link_img": "https://live.staticflickr.com/65535/50021097446_238a5abe22_o.jpg",
    "id_image": "Cat_536196",
    "count_view": 0
  },
  {
    "link_thumb": "https://live.staticflickr.com/65535/50017132498_937dc847e1_n.jpg",
    "id_album": "-401151552",
    "description": "Butterfly_743208",
    "title": "Butterfly_743208",
    "link_img": "https://live.staticflickr.com/65535/50017132498_44125ef885_o.jpg",
    "id_image": "Butterfly_743208",
    "count_view": 0
  },
  {
    "link_thumb": "https://live.staticflickr.com/65535/50020538508_6f8b093213_n.jpg",
    "id_album": "844170697",
    "description": "Frog_874629",
    "title": "Frog_874629",
    "link_img": "https://live.staticflickr.com/65535/50020538508_797f12543a_o.jpg",
    "id_image": "Frog_874629",
    "count_view": 0
  },
  {
    "link_thumb": "https://live.staticflickr.com/65535/50023658201_767e39c17e_n.jpg",
    "id_album": "-1131363127",
    "description": "SnowLeopard_548592",
    "title": "SnowLeopard_548592",
    "link_img": "https://live.staticflickr.com/65535/50023658201_87c0b49837_o.jpg",
    "id_image": "SnowLeopard_548592",
    "count_view": 0
  },
  {
    "link_thumb": "https://live.staticflickr.com/65535/50024460422_20308ea110_n.jpg",
    "id_album": "405170427",
    "description": "Tiger_711128",
    "title": "Tiger_711128",
    "link_img": "https://live.staticflickr.com/65535/50024460422_fbd8e97965_o.jpg",
    "id_image": "Tiger_711128",
    "count_view": 0
  },
  {
    "link_thumb": "https://live.staticflickr.com/65535/50017785327_91ed6896c7_n.jpg",
    "id_album": "368532157",
    "description": "Bulldog_323257",
    "title": "Bulldog_323257",
    "link_img": "https://live.staticflickr.com/65535/50017785327_22a912676b_o.jpg",
    "id_image": "Bulldog_323257",
    "count_view": 0
  },
  {
    "link_thumb": "https://live.staticflickr.com/65535/50020217646_14b90c56e4_n.jpg",
    "id_album": "-149330232",
    "description": "Dog_277114",
    "title": "Dog_277114",
    "link_img": "https://live.staticflickr.com/65535/50020217646_a43fa20c6f_o.jpg",
    "id_image": "Dog_277114",
    "count_view": 0
  },
  {
    "link_thumb": "https://live.staticflickr.com/65535/50351743203_ee8f5747e7_n.jpg",
    "id_album": "-462831703",
    "description": "Cat_243329",
    "title": "Cat_243329",
    "link_img": "https://live.staticflickr.com/65535/50351743203_df5f67a211_o.jpg",
    "id_image": "Cat_243329",
    "count_view": 0
  },
  {
    "link_thumb": "https://live.staticflickr.com/65535/50017246996_9338cd7a5f_n.jpg",
    "id_album": "-1846011410",
    "description": "Bird_337501",
    "title": "Bird_337501",
    "link_img": "https://live.staticflickr.com/65535/50017246996_c7e6a2127c_o.jpg",
    "id_image": "Bird_337501",
    "count_view": 0
  },
  {
    "link_thumb": "https://live.staticflickr.com/65535/50020971692_94cb1f1c94_n.jpg",
    "id_album": "-39098563",
    "description": "Eagle_564753",
    "title": "Eagle_564753",
    "link_img": "https://live.staticflickr.com/65535/50020971692_c7704f73d5_o.jpg",
    "id_image": "Eagle_564753",
    "count_view": 0
  },
  {
    "link_thumb": "https://live.staticflickr.com/65535/50020708146_6553d045cf_n.jpg",
    "id_album": "-39098563",
    "description": "Eagle_425049",
    "title": "Eagle_425049",
    "link_img": "https://live.staticflickr.com/65535/50020708146_b24a970567_o.jpg",
    "id_image": "Eagle_425049",
    "count_view": 0
  },
  {
    "link_thumb": "https://live.staticflickr.com/65535/50352740632_5417247a23_n.jpg",
    "id_album": "-462831703",
    "description": "Cat_515368",
    "title": "Cat_515368",
    "link_img": "https://live.staticflickr.com/65535/50352740632_a983eed7b1_o.jpg",
    "id_image": "Cat_515368",
    "count_view": 0
  },
  {
    "link_thumb": "https://live.staticflickr.com/65535/50021978551_e13c56f596_n.jpg",
    "id_album": "416744915",
    "description": "Lion_246327",
    "title": "Lion_246327",
    "link_img": "https://live.staticflickr.com/65535/50021978551_491761c9a8_o.jpg",
    "id_image": "Lion_246327",
    "count_view": 0
  },
  {
    "link_thumb": "https://live.staticflickr.com/65535/50020759573_2a8134ce82_n.jpg",
    "id_album": "-405626519",
    "description": "GermanShepherd_787918",
    "title": "GermanShepherd_787918",
    "link_img": "https://live.staticflickr.com/65535/50020759573_5ee2f19483_o.jpg",
    "id_image": "GermanShepherd_787918",
    "count_view": 0
  },
  {
    "link_thumb": "https://live.staticflickr.com/65535/50020925853_df0cfdba9b_n.jpg",
    "id_album": "-1933715543",
    "description": "Horse_210676",
    "title": "Horse_210676",
    "link_img": "https://live.staticflickr.com/65535/50020925853_5dffe1062d_o.jpg",
    "id_image": "Horse_210676",
    "count_view": 0
  },
  {
    "link_thumb": "https://live.staticflickr.com/65535/50019117368_066c2cce70_n.jpg",
    "id_album": "-766919393",
    "description": "Chameleon_407054",
    "title": "Chameleon_407054",
    "link_img": "https://live.staticflickr.com/65535/50019117368_e35ceee257_o.jpg",
    "id_image": "Chameleon_407054",
    "count_view": 0
  },
  {
    "link_thumb": "https://live.staticflickr.com/65535/50018865483_13f6a3df1a_n.jpg",
    "id_album": "-462831703",
    "description": "Cat_884544",
    "title": "Cat_884544",
    "link_img": "https://live.staticflickr.com/65535/50018865483_b98bd8e053_o.jpg",
    "id_image": "Cat_884544",
    "count_view": 0
  },
  {
    "link_thumb": "https://live.staticflickr.com/65535/50021634068_8932b8e289_n.jpg",
    "id_album": "-1173056085",
    "description": "Macaw_397190",
    "title": "Macaw_397190",
    "link_img": "https://live.staticflickr.com/65535/50021634068_a15472941e_o.jpg",
    "id_image": "Macaw_397190",
    "count_view": 0
  },
  {
    "link_thumb": "https://live.staticflickr.com/65535/50352591086_687c27efa7_n.jpg",
    "id_album": "-462831703",
    "description": "Cat_529609",
    "title": "Cat_529609",
    "link_img": "https://live.staticflickr.com/65535/50352591086_05bd6ac567_o.jpg",
    "id_image": "Cat_529609",
    "count_view": 0
  },
  {
    "link_thumb": "https://live.staticflickr.com/65535/50017771352_79f01e2846_n.jpg",
    "id_album": "782930701",
    "description": "BorderCollie_921967",
    "title": "BorderCollie_921967",
    "link_img": "https://live.staticflickr.com/65535/50017771352_72d5a3ab06_o.jpg",
    "id_image": "BorderCollie_921967",
    "count_view": 0
  },
  {
    "link_thumb": "https://live.staticflickr.com/65535/50022146351_7e91b28d81_n.jpg",
    "id_album": "1894617400",
    "description": "Lynx_426976",
    "title": "Lynx_426976",
    "link_img": "https://live.staticflickr.com/65535/50022146351_4b2256bbda_o.jpg",
    "id_image": "Lynx_426976",
    "count_view": 0
  },
  {
    "link_thumb": "https://live.staticflickr.com/65535/50023437423_270ecf32df_n.jpg",
    "id_album": "702283289",
    "description": "Squirrel_978000",
    "title": "Squirrel_978000",
    "link_img": "https://live.staticflickr.com/65535/50023437423_c10497e5dc_o.jpg",
    "id_image": "Squirrel_978000",
    "count_view": 0
  },
  {
    "link_thumb": "https://live.staticflickr.com/65535/50016663333_57b84507e8_n.jpg",
    "id_album": "325287329",
    "description": "Beetle_714150",
    "title": "Beetle_714150",
    "link_img": "https://live.staticflickr.com/65535/50016663333_8657285b14_o.jpg",
    "id_image": "Beetle_714150",
    "count_view": 0
  },
  {
    "link_thumb": "https://live.staticflickr.com/65535/50018155116_67ebac9dec_n.jpg",
    "id_album": "-462831702",
    "description": "Cat_408286",
    "title": "Cat_408286",
    "link_img": "https://live.staticflickr.com/65535/50018155116_2d1ce97c0b_o.jpg",
    "id_image": "Cat_408286",
    "count_view": 0
  },
  {
    "link_thumb": "https://live.staticflickr.com/65535/50023364483_570faf3dcf_n.jpg",
    "id_album": "702283289",
    "description": "Squirrel_585310",
    "title": "Squirrel_585310",
    "link_img": "https://live.staticflickr.com/65535/50023364483_43a6a59680_o.jpg",
    "id_image": "Squirrel_585310",
    "count_view": 0
  },
  {
    "link_thumb": "https://live.staticflickr.com/65535/50023147053_f6b867bf0b_n.jpg",
    "id_album": "1933547265",
    "description": "SnowyOwl_588794",
    "title": "SnowyOwl_588794",
    "link_img": "https://live.staticflickr.com/65535/50023147053_9229fc47aa_o.jpg",
    "id_image": "SnowyOwl_588794",
    "count_view": 0
  },
  {
    "link_thumb": "https://live.staticflickr.com/65535/50017396733_6fd38cc7aa_n.jpg",
    "id_album": "-462831705",
    "description": "Cat_272304",
    "title": "Cat_272304",
    "link_img": "https://live.staticflickr.com/65535/50017396733_585b40841b_o.jpg",
    "id_image": "Cat_272304",
    "count_view": 0
  },
  {
    "link_thumb": "https://live.staticflickr.com/65535/50019403146_f5a8f7e6b9_n.jpg",
    "id_album": "-462831703",
    "description": "Cat_893721",
    "title": "Cat_893721",
    "link_img": "https://live.staticflickr.com/65535/50019403146_498de2b1fe_o.jpg",
    "id_image": "Cat_893721",
    "count_view": 0
  },
  {
    "link_thumb": "https://live.staticflickr.com/65535/50021322983_9d78061cca_n.jpg",
    "id_album": "-1882491687",
    "description": "Ladybug_790948",
    "title": "Ladybug_790948",
    "link_img": "https://live.staticflickr.com/65535/50021322983_51529f08b4_o.jpg",
    "id_image": "Ladybug_790948",
    "count_view": 0
  },
  {
    "link_thumb": "https://live.staticflickr.com/65535/50352600912_7d007b598c_n.jpg",
    "id_album": "-462831703",
    "description": "Cat_248762",
    "title": "Cat_248762",
    "link_img": "https://live.staticflickr.com/65535/50352600912_070e3e95c2_o.jpg",
    "id_image": "Cat_248762",
    "count_view": 0
  },
  {
    "link_thumb": "https://live.staticflickr.com/65535/50023064676_f4efe8ac15_n.jpg",
    "id_album": "-353898617",
    "description": "Puppy_849063",
    "title": "Puppy_849063",
    "link_img": "https://live.staticflickr.com/65535/50023064676_28619d6fe7_o.jpg",
    "id_image": "Puppy_849063",
    "count_view": 0
  },
  {
    "link_thumb": "https://live.staticflickr.com/65535/50016936121_4ae256bfca_n.jpg",
    "id_album": "390697200",
    "description": "AustralianShepherd_782390",
    "title": "AustralianShepherd_782390",
    "link_img": "https://live.staticflickr.com/65535/50016936121_870c6a7c96_o.jpg",
    "id_image": "AustralianShepherd_782390",
    "count_view": 0
  },
  {
    "link_thumb": "https://live.staticflickr.com/65535/50017447937_b37b6927f5_n.jpg",
    "id_album": "325287329",
    "description": "Beetle_527454",
    "title": "Beetle_527454",
    "link_img": "https://live.staticflickr.com/65535/50017447937_89e799877c_o.jpg",
    "id_image": "Beetle_527454",
    "count_view": 0
  },
  {
    "link_thumb": "https://live.staticflickr.com/65535/50022326043_fcc3c8bd2b_n.jpg",
    "id_album": "1008910300",
    "description": "PolarBear_924506",
    "title": "PolarBear_924506",
    "link_img": "https://live.staticflickr.com/65535/50022326043_f9d0d79e6f_o.jpg",
    "id_image": "PolarBear_924506",
    "count_view": 0
  },
  {
    "link_thumb": "https://live.staticflickr.com/65535/50017393366_6e0f1a611b_n.jpg",
    "id_album": "-1846011410",
    "description": "Bird_616830",
    "title": "Bird_616830",
    "link_img": "https://live.staticflickr.com/65535/50017393366_12f28db45d_o.jpg",
    "id_image": "Bird_616830",
    "count_view": 0
  },
  {
    "link_thumb": "https://live.staticflickr.com/65535/50020502713_abb490073d_n.jpg",
    "id_album": "704811092",
    "description": "FrenchBulldog_745270",
    "title": "FrenchBulldog_745270",
    "link_img": "https://live.staticflickr.com/65535/50020502713_7bb7d8bc5d_o.jpg",
    "id_image": "FrenchBulldog_745270",
    "count_view": 0
  },
  {
    "link_thumb": "https://live.staticflickr.com/65535/50016810703_95491695d1_n.jpg",
    "id_album": "-1846011410",
    "description": "Bird_439542",
    "title": "Bird_439542",
    "link_img": "https://live.staticflickr.com/65535/50016810703_b529e485d6_o.jpg",
    "id_image": "Bird_439542",
    "count_view": 0
  },
  {
    "link_thumb": "https://live.staticflickr.com/65535/50018019446_92c4fc1236_n.jpg",
    "id_album": "-462831702",
    "description": "Cat_344388",
    "title": "Cat_344388",
    "link_img": "https://live.staticflickr.com/65535/50018019446_632a5e30bf_o.jpg",
    "id_image": "Cat_344388",
    "count_view": 0
  },
  {
    "link_thumb": "https://live.staticflickr.com/65535/50021928442_5e7bcbb3c3_n.jpg",
    "id_album": "1658866795",
    "description": "Insect_403248",
    "title": "Insect_403248",
    "link_img": "https://live.staticflickr.com/65535/50021928442_2439f397e8_o.jpg",
    "id_image": "Insect_403248",
    "count_view": 0
  },
  {
    "link_thumb": "https://live.staticflickr.com/65535/50016939161_d6a3595bc8_n.jpg",
    "id_album": "390697200",
    "description": "AustralianShepherd_854849",
    "title": "AustralianShepherd_854849",
    "link_img": "https://live.staticflickr.com/65535/50016939161_311870234a_o.jpg",
    "id_image": "AustralianShepherd_854849",
    "count_view": 0
  },
  {
    "link_thumb": "https://live.staticflickr.com/65535/50023994881_84e327d44e_n.jpg",
    "id_album": "1244464375",
    "description": "Starfish_468942",
    "title": "Starfish_468942",
    "link_img": "https://live.staticflickr.com/65535/50023994881_d0effdab64_o.jpg",
    "id_image": "Starfish_468942",
    "count_view": 0
  },
  {
    "link_thumb": "https://live.staticflickr.com/65535/50023193456_875815d8c0_n.jpg",
    "id_album": "-1862965835",
    "description": "RedEyedTreeFrog_805211",
    "title": "RedEyedTreeFrog_805211",
    "link_img": "https://live.staticflickr.com/65535/50023193456_98ffe9812d_o.jpg",
    "id_image": "RedEyedTreeFrog_805211",
    "count_view": 0
  },
  {
    "link_thumb": "https://live.staticflickr.com/65535/50023917438_964e8e8030_n.jpg",
    "id_album": "-709711865",
    "description": "Wolf_198130",
    "title": "Wolf_198130",
    "link_img": "https://live.staticflickr.com/65535/50023917438_c90cd8b8e0_o.jpg",
    "id_image": "Wolf_198130",
    "count_view": 0
  },
  {
    "link_thumb": "https://live.staticflickr.com/65535/50352607147_ca7c00788f_n.jpg",
    "id_album": "-462831703",
    "description": "Cat_267040",
    "title": "Cat_267040",
    "link_img": "https://live.staticflickr.com/65535/50352607147_300ab72389_o.jpg",
    "id_image": "Cat_267040",
    "count_view": 0
  },
  {
    "link_thumb": "https://live.staticflickr.com/65535/50018902393_038905e7cd_n.jpg",
    "id_album": "-462831703",
    "description": "Cat_908196",
    "title": "Cat_908196",
    "link_img": "https://live.staticflickr.com/65535/50018902393_e39c1130ab_o.jpg",
    "id_image": "Cat_908196",
    "count_view": 0
  },
  {
    "link_thumb": "https://live.staticflickr.com/65535/50021688802_5ac82d09ae_n.jpg",
    "id_album": "1469520430",
    "description": "Hedgehog_735863",
    "title": "Hedgehog_735863",
    "link_img": "https://live.staticflickr.com/65535/50021688802_39aec00a30_o.jpg",
    "id_image": "Hedgehog_735863",
    "count_view": 0
  },
  {
    "link_thumb": "https://live.staticflickr.com/65535/50021349503_f80a40edc9_n.jpg",
    "id_album": "1392348450",
    "description": "Leopard_242395",
    "title": "Leopard_242395",
    "link_img": "https://live.staticflickr.com/65535/50021349503_6ec1e26ac0_o.jpg",
    "id_image": "Leopard_242395",
    "count_view": 0
  },
  {
    "link_thumb": "https://live.staticflickr.com/65535/50018367627_59435ef758_n.jpg",
    "id_album": "-462831702",
    "description": "Cat_379766",
    "title": "Cat_379766",
    "link_img": "https://live.staticflickr.com/65535/50018367627_270d71e219_o.jpg",
    "id_image": "Cat_379766",
    "count_view": 0
  },
  {
    "link_thumb": "https://live.staticflickr.com/65535/50023386016_70817e4b03_n.jpg",
    "id_album": "1656131695",
    "description": "Seagull_683694",
    "title": "Seagull_683694",
    "link_img": "https://live.staticflickr.com/65535/50023386016_4ddabef0f9_o.jpg",
    "id_image": "Seagull_683694",
    "count_view": 0
  },
  {
    "link_thumb": "https://live.staticflickr.com/65535/50021291141_a60aeae797_n.jpg",
    "id_album": "-405626519",
    "description": "GermanShepherd_499621",
    "title": "GermanShepherd_499621",
    "link_img": "https://live.staticflickr.com/65535/50021291141_711027e552_o.jpg",
    "id_image": "GermanShepherd_499621",
    "count_view": 0
  },
  {
    "link_thumb": "https://live.staticflickr.com/65535/50021085118_2fdf1320d1_n.jpg",
    "id_album": "-712553376",
    "description": "Husky_260847",
    "title": "Husky_260847",
    "link_img": "https://live.staticflickr.com/65535/50021085118_b5a75a0157_o.jpg",
    "id_image": "Husky_260847",
    "count_view": 0
  },
  {
    "link_thumb": "https://live.staticflickr.com/65535/50352446856_dacbbbff01_n.jpg",
    "id_album": "-462831703",
    "description": "Cat_264035",
    "title": "Cat_264035",
    "link_img": "https://live.staticflickr.com/65535/50352446856_6e43da1f45_o.jpg",
    "id_image": "Cat_264035",
    "count_view": 0
  },
  {
    "link_thumb": "https://live.staticflickr.com/65535/50019438131_0a109744f2_n.jpg",
    "id_album": "-462831703",
    "description": "Cat_911644",
    "title": "Cat_911644",
    "link_img": "https://live.staticflickr.com/65535/50019438131_2fdc3b4ebb_o.jpg",
    "id_image": "Cat_911644",
    "count_view": 0
  },
  {
    "link_thumb": "https://live.staticflickr.com/65535/50018664133_9939613dbc_n.jpg",
    "id_album": "-462831704",
    "description": "Cat_434545",
    "title": "Cat_434545",
    "link_img": "https://live.staticflickr.com/65535/50018664133_094bd76b66_o.jpg",
    "id_image": "Cat_434545",
    "count_view": 0
  },
  {
    "link_thumb": "https://live.staticflickr.com/65535/50021228017_c94bdb2568_n.jpg",
    "id_album": "-128218148",
    "description": "Fox_542582",
    "title": "Fox_542582",
    "link_img": "https://live.staticflickr.com/65535/50021228017_3fae1a9648_o.jpg",
    "id_image": "Fox_542582",
    "count_view": 0
  },
  {
    "link_thumb": "https://live.staticflickr.com/65535/50021600481_822fa202a7_n.jpg",
    "id_album": "773713550",
    "description": "Hoverfly_926183",
    "title": "Hoverfly_926183",
    "link_img": "https://live.staticflickr.com/65535/50021600481_5e061858db_o.jpg",
    "id_image": "Hoverfly_926183",
    "count_view": 0
  },
  {
    "link_thumb": "https://live.staticflickr.com/65535/50021352521_1d2a0d0c34_n.jpg",
    "id_album": "2060159334",
    "description": "GoldenRetriever_650996",
    "title": "GoldenRetriever_650996",
    "link_img": "https://live.staticflickr.com/65535/50021352521_f8e201d602_o.jpg",
    "id_image": "GoldenRetriever_650996",
    "count_view": 0
  },
  {
    "link_thumb": "https://live.staticflickr.com/65535/50020454377_5a1295d0cb_n.jpg",
    "id_album": "-149330232",
    "description": "Dog_265739",
    "title": "Dog_265739",
    "link_img": "https://live.staticflickr.com/65535/50020454377_8fa0c358fa_o.jpg",
    "id_image": "Dog_265739",
    "count_view": 0
  },
  {
    "link_thumb": "https://live.staticflickr.com/65535/50017450966_120b5a18f4_n.jpg",
    "id_album": "-1561645279",
    "description": "BlackPanther_375274",
    "title": "BlackPanther_375274",
    "link_img": "https://live.staticflickr.com/65535/50017450966_a91a4ecbe1_o.jpg",
    "id_image": "BlackPanther_375274",
    "count_view": 0
  },
  {
    "link_thumb": "https://live.staticflickr.com/65535/50016681063_1687c113eb_n.jpg",
    "id_album": "-1846011410",
    "description": "Bird_187079",
    "title": "Bird_187079",
    "link_img": "https://live.staticflickr.com/65535/50016681063_c9f751d95b_o.jpg",
    "id_image": "Bird_187079",
    "count_view": 0
  },
  {
    "link_thumb": "https://live.staticflickr.com/65535/50016551388_d10d0fe52a_n.jpg",
    "id_album": "-422187261",
    "description": "Bear_755502",
    "title": "Bear_755502",
    "link_img": "https://live.staticflickr.com/65535/50016551388_2e05a1385b_o.jpg",
    "id_image": "Bear_755502",
    "count_view": 0
  },
  {
    "link_thumb": "https://live.staticflickr.com/65535/50021224252_c5cfb61438_n.jpg",
    "id_album": "-128218148",
    "description": "Fox_523719",
    "title": "Fox_523719",
    "link_img": "https://live.staticflickr.com/65535/50021224252_a92a841376_o.jpg",
    "id_image": "Fox_523719",
    "count_view": 0
  },
  {
    "link_thumb": "https://live.staticflickr.com/65535/50016945966_5597b06fac_n.jpg",
    "id_album": "390697200",
    "description": "AustralianShepherd_906124",
    "title": "AustralianShepherd_906124",
    "link_img": "https://live.staticflickr.com/65535/50016945966_4f13d96617_o.jpg",
    "id_image": "AustralianShepherd_906124",
    "count_view": 0
  },
  {
    "link_thumb": "https://live.staticflickr.com/65535/50352466771_2296dc358b_n.jpg",
    "id_album": "-462831703",
    "description": "Cat_365132",
    "title": "Cat_365132",
    "link_img": "https://live.staticflickr.com/65535/50352466771_d8bf18b002_o.jpg",
    "id_image": "Cat_365132",
    "count_view": 0
  },
  {
    "link_thumb": "https://live.staticflickr.com/65535/50017521763_818bf110f7_n.jpg",
    "id_album": "-462831702",
    "description": "Cat_359125",
    "title": "Cat_359125",
    "link_img": "https://live.staticflickr.com/65535/50017521763_cdb2b7d0cb_o.jpg",
    "id_image": "Cat_359125",
    "count_view": 0
  },
  {
    "link_thumb": "https://live.staticflickr.com/65535/50020185116_66b8541f27_n.jpg",
    "id_album": "-149330232",
    "description": "Dog_255912",
    "title": "Dog_255912",
    "link_img": "https://live.staticflickr.com/65535/50020185116_b36be690fb_o.jpg",
    "id_image": "Dog_255912",
    "count_view": 0
  },
  {
    "link_thumb": "https://live.staticflickr.com/65535/50016524348_64973ba6ba_n.jpg",
    "id_album": "-422187261",
    "description": "Bear_464647",
    "title": "Bear_464647",
    "link_img": "https://live.staticflickr.com/65535/50016524348_f8462b25dc_o.jpg",
    "id_image": "Bear_464647",
    "count_view": 0
  },
  {
    "link_thumb": "https://live.staticflickr.com/65535/50020627833_3663f46967_n.jpg",
    "id_album": "-462831704",
    "description": "Cat_687614",
    "title": "Cat_687614",
    "link_img": "https://live.staticflickr.com/65535/50020627833_8c461e7b56_o.jpg",
    "id_image": "Cat_687614",
    "count_view": 0
  },
  {
    "link_thumb": "https://live.staticflickr.com/65535/50024701572_60021998a4_n.jpg",
    "id_album": "766572659",
    "description": "WhiteTiger_465249",
    "title": "WhiteTiger_465249",
    "link_img": "https://live.staticflickr.com/65535/50024701572_0264dcc6c4_o.jpg",
    "id_image": "WhiteTiger_465249",
    "count_view": 0
  },
  {
    "link_thumb": "https://live.staticflickr.com/65535/50017378563_9e071881db_n.jpg",
    "id_album": "-462831705",
    "description": "Cat_252634",
    "title": "Cat_252634",
    "link_img": "https://live.staticflickr.com/65535/50017378563_b36bcb360f_o.jpg",
    "id_image": "Cat_252634",
    "count_view": 0
  },
  {
    "link_thumb": "https://live.staticflickr.com/65535/50021373181_c49e39ac9a_n.jpg",
    "id_album": "2060159334",
    "description": "GoldenRetriever_978395",
    "title": "GoldenRetriever_978395",
    "link_img": "https://live.staticflickr.com/65535/50021373181_c88e11d4ab_o.jpg",
    "id_image": "GoldenRetriever_978395",
    "count_view": 0
  },
  {
    "link_thumb": "https://live.staticflickr.com/65535/50021694972_8fdb55a431_n.jpg",
    "id_album": "54253492",
    "description": "Heron_346180",
    "title": "Heron_346180",
    "link_img": "https://live.staticflickr.com/65535/50021694972_fffcbd5931_o.jpg",
    "id_image": "Heron_346180",
    "count_view": 0
  },
  {
    "link_thumb": "https://live.staticflickr.com/65535/50019978886_5e857ecb55_n.jpg",
    "id_album": "1903411565",
    "description": "Deer_180256",
    "title": "Deer_180256",
    "link_img": "https://live.staticflickr.com/65535/50019978886_b8a10b1f08_o.jpg",
    "id_image": "Deer_180256",
    "count_view": 0
  },
  {
    "link_thumb": "https://live.staticflickr.com/65535/50021598601_f095271edc_n.jpg",
    "id_album": "773713550",
    "description": "Hoverfly_714151",
    "title": "Hoverfly_714151",
    "link_img": "https://live.staticflickr.com/65535/50021598601_6b760e2fcc_o.jpg",
    "id_image": "Hoverfly_714151",
    "count_view": 0
  },
  {
    "link_thumb": "https://live.staticflickr.com/65535/50017744102_a6d42fe709_n.jpg",
    "id_album": "782930701",
    "description": "BorderCollie_534739",
    "title": "BorderCollie_534739",
    "link_img": "https://live.staticflickr.com/65535/50017744102_93dd5b73b9_o.jpg",
    "id_image": "BorderCollie_534739",
    "count_view": 0
  },
  {
    "link_thumb": "https://live.staticflickr.com/65535/50020465728_6c8d26dbb5_n.jpg",
    "id_album": "-128218148",
    "description": "Fox_809685",
    "title": "Fox_809685",
    "link_img": "https://live.staticflickr.com/65535/50020465728_dff277514d_o.jpg",
    "id_image": "Fox_809685",
    "count_view": 0
  },
  {
    "link_thumb": "https://live.staticflickr.com/65535/50019843127_c5195ae2e1_n.jpg",
    "id_album": "-1930903528",
    "description": "CatDog_743995",
    "title": "CatDog_743995",
    "link_img": "https://live.staticflickr.com/65535/50019843127_bc2eb480fa_o.jpg",
    "id_image": "CatDog_743995",
    "count_view": 0
  },
  {
    "link_thumb": "https://live.staticflickr.com/65535/50020530592_93f37760a0_n.jpg",
    "id_album": "-149330232",
    "description": "Dog_337921",
    "title": "Dog_337921",
    "link_img": "https://live.staticflickr.com/65535/50020530592_4ac980f1ee_o.jpg",
    "id_image": "Dog_337921",
    "count_view": 0
  },
  {
    "link_thumb": "https://live.staticflickr.com/65535/50019802643_bb573dac14_n.jpg",
    "id_album": "-149330232",
    "description": "Dog_367361",
    "title": "Dog_367361",
    "link_img": "https://live.staticflickr.com/65535/50019802643_98e4bf0405_o.jpg",
    "id_image": "Dog_367361",
    "count_view": 0
  },
  {
    "link_thumb": "https://live.staticflickr.com/65535/50017458496_f75561943d_n.jpg",
    "id_album": "-1561645279",
    "description": "BlackPanther_855006",
    "title": "BlackPanther_855006",
    "link_img": "https://live.staticflickr.com/65535/50017458496_a80c457ea0_o.jpg",
    "id_image": "BlackPanther_855006",
    "count_view": 0
  },
  {
    "link_thumb": "https://live.staticflickr.com/65535/50019155253_25e274aa14_n.jpg",
    "id_album": "-1481843714",
    "description": "Cheetah_249574",
    "title": "Cheetah_249574",
    "link_img": "https://live.staticflickr.com/65535/50019155253_3d4a3b55b2_o.jpg",
    "id_image": "Cheetah_249574",
    "count_view": 0
  },
  {
    "link_thumb": "https://live.staticflickr.com/65535/50021562828_5831719867_n.jpg",
    "id_album": "-656526748",
    "description": "Lizard_322345",
    "title": "Lizard_322345",
    "link_img": "https://live.staticflickr.com/65535/50021562828_422fd27024_o.jpg",
    "id_image": "Lizard_322345",
    "count_view": 0
  },
  {
    "link_thumb": "https://live.staticflickr.com/65535/50022522421_bb56624781_n.jpg",
    "id_album": "-358592519",
    "description": "Panda_337702",
    "title": "Panda_337702",
    "link_img": "https://live.staticflickr.com/65535/50022522421_0b365137e2_o.jpg",
    "id_image": "Panda_337702",
    "count_view": 0
  },
  {
    "link_thumb": "https://live.staticflickr.com/65535/50018950983_f418a6e627_n.jpg",
    "id_album": "-462831703",
    "description": "Cat_929848",
    "title": "Cat_929848",
    "link_img": "https://live.staticflickr.com/65535/50018950983_af45bdca8f_o.jpg",
    "id_image": "Cat_929848",
    "count_view": 0
  },
  {
    "link_thumb": "https://live.staticflickr.com/65535/50020608791_d48ac9fcf0_n.jpg",
    "id_album": "-405058657",
    "description": "Dragonfly_327475",
    "title": "Dragonfly_327475",
    "link_img": "https://live.staticflickr.com/65535/50020608791_477c4c2dfd_o.jpg",
    "id_image": "Dragonfly_327475",
    "count_view": 0
  },
  {
    "link_thumb": "https://live.staticflickr.com/65535/50021633308_a3af2378dc_n.jpg",
    "id_album": "-1173056085",
    "description": "Macaw_324326",
    "title": "Macaw_324326",
    "link_img": "https://live.staticflickr.com/65535/50021633308_59e0b493c7_o.jpg",
    "id_image": "Macaw_324326",
    "count_view": 0
  },
  {
    "link_thumb": "https://live.staticflickr.com/65535/50022877596_134b05cc25_n.jpg",
    "id_album": "1008910300",
    "description": "PolarBear_986617",
    "title": "PolarBear_986617",
    "link_img": "https://live.staticflickr.com/65535/50022877596_0f8eb39134_o.jpg",
    "id_image": "PolarBear_986617",
    "count_view": 0
  },
  {
    "link_thumb": "https://live.staticflickr.com/65535/50017360703_25172b5845_n.jpg",
    "id_album": "-462831705",
    "description": "Cat_236460",
    "title": "Cat_236460",
    "link_img": "https://live.staticflickr.com/65535/50017360703_69d023c124_o.jpg",
    "id_image": "Cat_236460",
    "count_view": 0
  }
]