[
  {
    "link_thumb": "https://live.staticflickr.com/65535/50020633312_4d0cb073e8_n.jpg",
    "id_album": "-149330231",
    "description": "Dog_400974",
    "title": "Dog_400974",
    "link_img": "https://live.staticflickr.com/65535/50020633312_35d29766ce_o.jpg",
    "id_image": "Dog_400974",
    "count_view": 0
  },
  {
    "link_thumb": "https://live.staticflickr.com/65535/50020148433_5e19d3f621_n.jpg",
    "id_album": "-39098563",
    "description": "Eagle_153034",
    "title": "Eagle_153034",
    "link_img": "https://live.staticflickr.com/65535/50020148433_b51f607b06_o.jpg",
    "id_image": "Eagle_153034",
    "count_view": 0
  },
  {
    "link_thumb": "https://live.staticflickr.com/65535/50023610438_d4f0ba9e46_n.jpg",
    "id_album": "405170427",
    "description": "Tiger_541989",
    "title": "Tiger_541989",
    "link_img": "https://live.staticflickr.com/65535/50023610438_573a6e3cb4_o.jpg",
    "id_image": "Tiger_541989",
    "count_view": 0
  },
  {
    "link_thumb": "https://live.staticflickr.com/65535/50022199001_6ed962ea5d_n.jpg",
    "id_album": "-784970094",
    "description": "Monkey_329705",
    "title": "Monkey_329705",
    "link_img": "https://live.staticflickr.com/65535/50022199001_77cbab3bc3_o.jpg",
    "id_image": "Monkey_329705",
    "count_view": 0
  },
  {
    "link_thumb": "https://live.staticflickr.com/65535/50019887376_a5295612ce_n.jpg",
    "id_album": "1475096665",
    "description": "Crocodile_302565",
    "title": "Crocodile_302565",
    "link_img": "https://live.staticflickr.com/65535/50019887376_a84b6fd174_o.jpg",
    "id_image": "Crocodile_302565",
    "count_view": 0
  },
  {
    "link_thumb": "https://live.staticflickr.com/65535/50016452973_694f3106f8_n.jpg",
    "id_album": "-80092825",
    "description": "Barnowl_534671",
    "title": "Barnowl_534671",
    "link_img": "https://live.staticflickr.com/65535/50016452973_d58eb4b7fe_o.jpg",
    "id_image": "Barnowl_534671",
    "count_view": 0
  },
  {
    "link_thumb": "https://live.staticflickr.com/65535/50019402836_e83d639cab_n.jpg",
    "id_album": "-462831703",
    "description": "Cat_893478",
    "title": "Cat_893478",
    "link_img": "https://live.staticflickr.com/65535/50019402836_58c04f4b6f_o.jpg",
    "id_image": "Cat_893478",
    "count_view": 0
  },
  {
    "link_thumb": "https://live.staticflickr.com/65535/50022469638_72372f3326_n.jpg",
    "id_album": "-353898617",
    "description": "Puppy_528607",
    "title": "Puppy_528607",
    "link_img": "https://live.staticflickr.com/65535/50022469638_24781209ca_o.jpg",
    "id_image": "Puppy_528607",
    "count_view": 0
  },
  {
    "link_thumb": "https://live.staticflickr.com/65535/50022311208_a69c9849ce_n.jpg",
    "id_album": "1008910300",
    "description": "PolarBear_735336",
    "title": "PolarBear_735336",
    "link_img": "https://live.staticflickr.com/65535/50022311208_40185db714_o.jpg",
    "id_image": "PolarBear_735336",
    "count_view": 0
  },
  {
    "link_thumb": "https://live.staticflickr.com/65535/50017237956_92afa37198_n.jpg",
    "id_album": "-1846011410",
    "description": "Bird_324879",
    "title": "Bird_324879",
    "link_img": "https://live.staticflickr.com/65535/50017237956_6e32c886a6_o.jpg",
    "id_image": "Bird_324879",
    "count_view": 0
  },
  {
    "link_thumb": "https://live.staticflickr.com/65535/50022959522_4a9e92d987_n.jpg",
    "id_album": "392248205",
    "description": "Penguin_468729",
    "title": "Penguin_468729",
    "link_img": "https://live.staticflickr.com/65535/50022959522_9ddda0487a_o.jpg",
    "id_image": "Penguin_468729",
    "count_view": 0
  },
  {
    "link_thumb": "https://live.staticflickr.com/65535/50020162821_447d4a6449_n.jpg",
    "id_album": "-149330232",
    "description": "Dog_22708",
    "title": "Dog_22708",
    "link_img": "https://live.staticflickr.com/65535/50020162821_1ae8795db0_o.jpg",
    "id_image": "Dog_22708",
    "count_view": 0
  },
  {
    "link_thumb": "https://live.staticflickr.com/65535/50018119927_339792c0fa_n.jpg",
    "id_album": "-462831705",
    "description": "Cat_211586",
    "title": "Cat_211586",
    "link_img": "https://live.staticflickr.com/65535/50018119927_df768a5563_o.jpg",
    "id_image": "Cat_211586",
    "count_view": 0
  },
  {
    "link_thumb": "https://live.staticflickr.com/65535/50023998042_8433ecf2af_n.jpg",
    "id_album": "-1082521515",
    "description": "Spider_384736",
    "title": "Spider_384736",
    "link_img": "https://live.staticflickr.com/65535/50023998042_25dc4763fc_o.jpg",
    "id_image": "Spider_384736",
    "count_view": 0
  },
  {
    "link_thumb": "https://live.staticflickr.com/65535/50022149186_e3a142de6b_n.jpg",
    "id_album": "1894617400",
    "description": "Lynx_522648",
    "title": "Lynx_522648",
    "link_img": "https://live.staticflickr.com/65535/50022149186_56f5bac55c_o.jpg",
    "id_image": "Lynx_522648",
    "count_view": 0
  },
  {
    "link_thumb": "https://live.staticflickr.com/65535/50022081477_56b4d4f84a_n.jpg",
    "id_album": "1307335982",
    "description": "LabradorRetriever_277655",
    "title": "LabradorRetriever_277655",
    "link_img": "https://live.staticflickr.com/65535/50022081477_6cf6825748_o.jpg",
    "id_image": "LabradorRetriever_277655",
    "count_view": 0
  },
  {
    "link_thumb": "https://live.staticflickr.com/65535/50020729006_64b78d688c_n.jpg",
    "id_album": "1270947998",
    "description": "Elephant_116473",
    "title": "Elephant_116473",
    "link_img": "https://live.staticflickr.com/65535/50020729006_5370fbcb4d_o.jpg",
    "id_image": "Elephant_116473",
    "count_view": 0
  },
  {
    "link_thumb": "https://live.staticflickr.com/65535/50016633103_ed9466b4de_n.jpg",
    "id_album": "1699594607",
    "description": "Bee_750436",
    "title": "Bee_750436",
    "link_img": "https://live.staticflickr.com/65535/50016633103_14281a0354_o.jpg",
    "id_image": "Bee_750436",
    "count_view": 0
  },
  {
    "link_thumb": "https://live.staticflickr.com/65535/50018328942_b859ed8847_n.jpg",
    "id_album": "-462831702",
    "description": "Cat_364309",
    "title": "Cat_364309",
    "link_img": "https://live.staticflickr.com/65535/50018328942_28574e5fae_o.jpg",
    "id_image": "Cat_364309",
    "count_view": 0
  },
  {
    "link_thumb": "https://live.staticflickr.com/65535/50020440192_de42828096_n.jpg",
    "id_album": "-149330232",
    "description": "Dog_252486",
    "title": "Dog_252486",
    "link_img": "https://live.staticflickr.com/65535/50020440192_4c05572a6a_o.jpg",
    "id_image": "Dog_252486",
    "count_view": 0
  },
  {
    "link_thumb": "https://live.staticflickr.com/65535/50021356322_4e5fc2c2db_n.jpg",
    "id_album": "-462831704",
    "description": "Cat_544126",
    "title": "Cat_544126",
    "link_img": "https://live.staticflickr.com/65535/50021356322_1039646f42_o.jpg",
    "id_image": "Cat_544126",
    "count_view": 0
  },
  {
    "link_thumb": "https://live.staticflickr.com/65535/50022099766_a5a32236c0_n.jpg",
    "id_album": "-656526748",
    "description": "Lizard_149924",
    "title": "Lizard_149924",
    "link_img": "https://live.staticflickr.com/65535/50022099766_38a0735760_o.jpg",
    "id_image": "Lizard_149924",
    "count_view": 0
  },
  {
    "link_thumb": "https://live.staticflickr.com/65535/50022159172_3a05fc7ba8_n.jpg",
    "id_album": "1392348450",
    "description": "Leopard_351370",
    "title": "Leopard_351370",
    "link_img": "https://live.staticflickr.com/65535/50022159172_9de6615872_o.jpg",
    "id_image": "Leopard_351370",
    "count_view": 0
  },
  {
    "link_thumb": "https://live.staticflickr.com/65535/50016824076_711d05fc3d_n.jpg",
    "id_album": "-229810103",
    "description": "AmericanBison_359419",
    "title": "AmericanBison_359419",
    "link_img": "https://live.staticflickr.com/65535/50016824076_4a30db941e_o.jpg",
    "id_image": "AmericanBison_359419",
    "count_view": 0
  },
  {
    "link_thumb": "https://live.staticflickr.com/65535/50016641183_7a9d5eab2e_n.jpg",
    "id_album": "1699594607",
    "description": "Bee_926234",
    "title": "Bee_926234",
    "link_img": "https://live.staticflickr.com/65535/50016641183_6f2cc109f8_o.jpg",
    "id_image": "Bee_926234",
    "count_view": 0
  },
  {
    "link_thumb": "https://live.staticflickr.com/65535/50024441707_1581184d90_n.jpg",
    "id_album": "405170427",
    "description": "Tiger_592530",
    "title": "Tiger_592530",
    "link_img": "https://live.staticflickr.com/65535/50024441707_07fa43a3ec_o.jpg",
    "id_image": "Tiger_592530",
    "count_view": 0
  },
  {
    "link_thumb": "https://live.staticflickr.com/65535/50016653733_4e2ae9d4ea_n.jpg",
    "id_album": "325287329",
    "description": "Beetle_107708",
    "title": "Beetle_107708",
    "link_img": "https://live.staticflickr.com/65535/50016653733_c19ded1865_o.jpg",
    "id_image": "Beetle_107708",
    "count_view": 0
  },
  {
    "link_thumb": "https://live.staticflickr.com/65535/50017955862_a4d3900880_n.jpg",
    "id_album": "-401151552",
    "description": "Butterfly_926296",
    "title": "Butterfly_926296",
    "link_img": "https://live.staticflickr.com/65535/50017955862_d1d2b09cb4_o.jpg",
    "id_image": "Butterfly_926296",
    "count_view": 0
  },
  {
    "link_thumb": "https://live.staticflickr.com/65535/50017072241_bb7d5db6bb_n.jpg",
    "id_album": "-422187261",
    "description": "Bear_721923",
    "title": "Bear_721923",
    "link_img": "https://live.staticflickr.com/65535/50017072241_7734fc9413_o.jpg",
    "id_image": "Bear_721923",
    "count_view": 0
  },
  {
    "link_thumb": "https://live.staticflickr.com/65535/50019921106_c4bd734e92_n.jpg",
    "id_album": "1273365283",
    "description": "Cute_274723",
    "title": "Cute_274723",
    "link_img": "https://live.staticflickr.com/65535/50019921106_17028a8b36_o.jpg",
    "id_image": "Cute_274723",
    "count_view": 0
  },
  {
    "link_thumb": "https://live.staticflickr.com/65535/50016501838_f72b4805d4_n.jpg",
    "id_album": "-422187261",
    "description": "Bear_352886",
    "title": "Bear_352886",
    "link_img": "https://live.staticflickr.com/65535/50016501838_19d37c7722_o.jpg",
    "id_image": "Bear_352886",
    "count_view": 0
  },
  {
    "link_thumb": "https://live.staticflickr.com/65535/50019767923_b63f504213_n.jpg",
    "id_album": "-149330232",
    "description": "Dog_351393",
    "title": "Dog_351393",
    "link_img": "https://live.staticflickr.com/65535/50019767923_49116c1bfc_o.jpg",
    "id_image": "Dog_351393",
    "count_view": 0
  },
  {
    "link_thumb": "https://live.staticflickr.com/65535/50018017627_66e6405ea9_n.jpg",
    "id_album": "-462831705",
    "description": "Cat_113314",
    "title": "Cat_113314",
    "link_img": "https://live.staticflickr.com/65535/50018017627_f57987be26_o.jpg",
    "id_image": "Cat_113314",
    "count_view": 0
  },
  {
    "link_thumb": "https://live.staticflickr.com/65535/50017590991_329b040ca9_n.jpg",
    "id_album": "-401151552",
    "description": "Butterfly_423096",
    "title": "Butterfly_423096",
    "link_img": "https://live.staticflickr.com/65535/50017590991_bcbedd7213_o.jpg",
    "id_image": "Butterfly_423096",
    "count_view": 0
  },
  {
    "link_thumb": "https://live.staticflickr.com/65535/50016934493_de23d755d7_n.jpg",
    "id_album": "-530283314",
    "description": "BlueandyellowMacaw_254334",
    "title": "BlueandyellowMacaw_254334",
    "link_img": "https://live.staticflickr.com/65535/50016934493_1bccc0e7e2_o.jpg",
    "id_image": "BlueandyellowMacaw_254334",
    "count_view": 0
  },
  {
    "link_thumb": "https://live.staticflickr.com/65535/50352663231_71c3486f5f_n.jpg",
    "id_album": "-462831703",
    "description": "Cat_765128",
    "title": "Cat_765128",
    "link_img": "https://live.staticflickr.com/65535/50352663231_111700cfda_o.jpg",
    "id_image": "Cat_765128",
    "count_view": 0
  },
  {
    "link_thumb": "https://live.staticflickr.com/65535/50019019683_a271802404_n.jpg",
    "id_album": "-462831703",
    "description": "Cat_983074",
    "title": "Cat_983074",
    "link_img": "https://live.staticflickr.com/65535/50019019683_ba13923c26_o.jpg",
    "id_image": "Cat_983074",
    "count_view": 0
  },
  {
    "link_thumb": "https://live.staticflickr.com/65535/50020906308_d9eee5d583_n.jpg",
    "id_album": "54253492",
    "description": "Heron_822204",
    "title": "Heron_822204",
    "link_img": "https://live.staticflickr.com/65535/50020906308_f8cfd81c9b_o.jpg",
    "id_image": "Heron_822204",
    "count_view": 0
  },
  {
    "link_thumb": "https://live.staticflickr.com/65535/50020568103_8b4e9b5d68_n.jpg",
    "id_album": "-462831704",
    "description": "Cat_553683",
    "title": "Cat_553683",
    "link_img": "https://live.staticflickr.com/65535/50020568103_0f7d95cb1d_o.jpg",
    "id_image": "Cat_553683",
    "count_view": 0
  },
  {
    "link_thumb": "https://live.staticflickr.com/65535/50021377972_95e934cf58_n.jpg",
    "id_album": "-462831704",
    "description": "Cat_581084",
    "title": "Cat_581084",
    "link_img": "https://live.staticflickr.com/65535/50021377972_7700a56fb3_o.jpg",
    "id_image": "Cat_581084",
    "count_view": 0
  },
  {
    "link_thumb": "https://live.staticflickr.com/65535/50018186062_62b87dc715_n.jpg",
    "id_album": "-462831705",
    "description": "Cat_273948",
    "title": "Cat_273948",
    "link_img": "https://live.staticflickr.com/65535/50018186062_79f483dc13_o.jpg",
    "id_image": "Cat_273948",
    "count_view": 0
  },
  {
    "link_thumb": "https://live.staticflickr.com/65535/50018012597_8789a3c1d1_n.jpg",
    "id_album": "-462831705",
    "description": "Cat_111010",
    "title": "Cat_111010",
    "link_img": "https://live.staticflickr.com/65535/50018012597_853f818540_o.jpg",
    "id_image": "Cat_111010",
    "count_view": 0
  },
  {
    "link_thumb": "https://live.staticflickr.com/65535/50016748133_ee0d5ab326_n.jpg",
    "id_album": "-1846011410",
    "description": "Bird_364093",
    "title": "Bird_364093",
    "link_img": "https://live.staticflickr.com/65535/50016748133_20a21e925a_o.jpg",
    "id_image": "Bird_364093",
    "count_view": 0
  },
  {
    "link_thumb": "https://live.staticflickr.com/65535/50021592782_e20eb756f8_n.jpg",
    "id_album": "-804131074",
    "description": "Goat_248366",
    "title": "Goat_248366",
    "link_img": "https://live.staticflickr.com/65535/50021592782_b72b7d4f11_o.jpg",
    "id_image": "Goat_248366",
    "count_view": 0
  },
  {
    "link_thumb": "https://live.staticflickr.com/65535/50022173787_fc33f7a979_n.jpg",
    "id_album": "1392348450",
    "description": "Leopard_386727",
    "title": "Leopard_386727",
    "link_img": "https://live.staticflickr.com/65535/50022173787_c8ce89c2cc_o.jpg",
    "id_image": "Leopard_386727",
    "count_view": 0
  },
  {
    "link_thumb": "https://live.staticflickr.com/65535/50024547816_6b618bb1ed_n.jpg",
    "id_album": "-709711865",
    "description": "Wolf_814662",
    "title": "Wolf_814662",
    "link_img": "https://live.staticflickr.com/65535/50024547816_52104a285c_o.jpg",
    "id_image": "Wolf_814662",
    "count_view": 0
  },
  {
    "link_thumb": "https://live.staticflickr.com/65535/50017216242_184d39f722_n.jpg",
    "id_album": "231236068",
    "description": "BaldEagle_373331",
    "title": "BaldEagle_373331",
    "link_img": "https://live.staticflickr.com/65535/50017216242_4465a8618c_o.jpg",
    "id_image": "BaldEagle_373331",
    "count_view": 0
  },
  {
    "link_thumb": "https://live.staticflickr.com/65535/50020231851_9335c6bfd2_n.jpg",
    "id_album": "-149330232",
    "description": "Dog_306591",
    "title": "Dog_306591",
    "link_img": "https://live.staticflickr.com/65535/50020231851_29b402d1e0_o.jpg",
    "id_image": "Dog_306591",
    "count_view": 0
  },
  {
    "link_thumb": "https://live.staticflickr.com/65535/50021247961_2cc4debb2c_n.jpg",
    "id_album": "-462831703",
    "description": "Cat_788800",
    "title": "Cat_788800",
    "link_img": "https://live.staticflickr.com/65535/50021247961_80ebda276f_o.jpg",
    "id_image": "Cat_788800",
    "count_view": 0
  },
  {
    "link_thumb": "https://live.staticflickr.com/65535/50017510562_c5494b267f_n.jpg",
    "id_album": "-1846011410",
    "description": "Bird_340669",
    "title": "Bird_340669",
    "link_img": "https://live.staticflickr.com/65535/50017510562_d50eae28da_o.jpg",
    "id_image": "Bird_340669",
    "count_view": 0
  },
  {
    "link_thumb": "https://live.staticflickr.com/65535/50021919766_b4a76e067e_n.jpg",
    "id_album": "1392348450",
    "description": "Leopard_404993",
    "title": "Leopard_404993",
    "link_img": "https://live.staticflickr.com/65535/50021919766_d315d328be_o.jpg",
    "id_image": "Leopard_404993",
    "count_view": 0
  },
  {
    "link_thumb": "https://live.staticflickr.com/65535/50021063818_d8f5e6cf1e_n.jpg",
    "id_album": "2144294979",
    "description": "Hummingbird_366227",
    "title": "Hummingbird_366227",
    "link_img": "https://live.staticflickr.com/65535/50021063818_b0a626d2ef_o.jpg",
    "id_image": "Hummingbird_366227",
    "count_view": 0
  },
  {
    "link_thumb": "https://live.staticflickr.com/65535/50021364542_613f724d4a_n.jpg",
    "id_album": "-462831704",
    "description": "Cat_554590",
    "title": "Cat_554590",
    "link_img": "https://live.staticflickr.com/65535/50021364542_7527e7a62e_o.jpg",
    "id_image": "Cat_554590",
    "count_view": 0
  },
  {
    "link_thumb": "https://live.staticflickr.com/65535/50020996572_a1e3a09a8d_n.jpg",
    "id_album": "1270947998",
    "description": "Elephant_312212",
    "title": "Elephant_312212",
    "link_img": "https://live.staticflickr.com/65535/50020996572_a8cd32b190_o.jpg",
    "id_image": "Elephant_312212",
    "count_view": 0
  },
  {
    "link_thumb": "https://live.staticflickr.com/65535/50017414068_b0d334ccb6_n.jpg",
    "id_album": "-462831702",
    "description": "Cat_290905",
    "title": "Cat_290905",
    "link_img": "https://live.staticflickr.com/65535/50017414068_352b13313f_o.jpg",
    "id_image": "Cat_290905",
    "count_view": 0
  },
  {
    "link_thumb": "https://live.staticflickr.com/65535/50017299578_9eecc3ffab_n.jpg",
    "id_album": "-462831705",
    "description": "Cat_184301",
    "title": "Cat_184301",
    "link_img": "https://live.staticflickr.com/65535/50017299578_bb71a0ebd7_o.jpg",
    "id_image": "Cat_184301",
    "count_view": 0
  },
  {
    "link_thumb": "https://live.staticflickr.com/65535/50022636267_35c7711d79_n.jpg",
    "id_album": "-1384601601",
    "description": "Owl_182487",
    "title": "Owl_182487",
    "link_img": "https://live.staticflickr.com/65535/50022636267_2dcc53ac9d_o.jpg",
    "id_image": "Owl_182487",
    "count_view": 0
  },
  {
    "link_thumb": "https://live.staticflickr.com/65535/50017321357_6613d7b095_n.jpg",
    "id_album": "-422187261",
    "description": "Bear_592492",
    "title": "Bear_592492",
    "link_img": "https://live.staticflickr.com/65535/50017321357_4734696c44_o.jpg",
    "id_image": "Bear_592492",
    "count_view": 0
  },
  {
    "link_thumb": "https://live.staticflickr.com/65535/50023739282_4764d70ed7_n.jpg",
    "id_album": "-755466332",
    "description": "Sheep_492209",
    "title": "Sheep_492209",
    "link_img": "https://live.staticflickr.com/65535/50023739282_7d09fe00a8_o.jpg",
    "id_image": "Sheep_492209",
    "count_view": 0
  },
  {
    "link_thumb": "https://live.staticflickr.com/65535/50017328488_c26e7cfe5b_n.jpg",
    "id_album": "-462831705",
    "description": "Cat_210612",
    "title": "Cat_210612",
    "link_img": "https://live.staticflickr.com/65535/50017328488_fa0cbc5cb3_o.jpg",
    "id_image": "Cat_210612",
    "count_view": 0
  },
  {
    "link_thumb": "https://live.staticflickr.com/65535/50024176721_19bb26f210_n.jpg",
    "id_album": "405170427",
    "description": "Tiger_572351",
    "title": "Tiger_572351",
    "link_img": "https://live.staticflickr.com/65535/50024176721_d9f5245149_o.jpg",
    "id_image": "Tiger_572351",
    "count_view": 0
  },
  {
    "link_thumb": "https://live.staticflickr.com/65535/50020309126_30390ea7d9_n.jpg",
    "id_album": "-149330232",
    "description": "Dog_355026",
    "title": "Dog_355026",
    "link_img": "https://live.staticflickr.com/65535/50020309126_7b66f4080e_o.jpg",
    "id_image": "Dog_355026",
    "count_view": 0
  },
  {
    "link_thumb": "https://live.staticflickr.com/65535/50021715386_f57efd3659_n.jpg",
    "id_album": "1658866795",
    "description": "Insect_927427",
    "title": "Insect_927427",
    "link_img": "https://live.staticflickr.com/65535/50021715386_b4428d283b_o.jpg",
    "id_image": "Insect_927427",
    "count_view": 0
  },
  {
    "link_thumb": "https://live.staticflickr.com/65535/50021972911_268c634b44_n.jpg",
    "id_album": "416744915",
    "description": "Lion_219833",
    "title": "Lion_219833",
    "link_img": "https://live.staticflickr.com/65535/50021972911_c47b84578e_o.jpg",
    "id_image": "Lion_219833",
    "count_view": 0
  },
  {
    "link_thumb": "https://live.staticflickr.com/65535/50021596147_8141f56f4a_n.jpg",
    "id_album": "-804131074",
    "description": "Goat_442866",
    "title": "Goat_442866",
    "link_img": "https://live.staticflickr.com/65535/50021596147_c8709c638b_o.jpg",
    "id_image": "Goat_442866",
    "count_view": 0
  },
  {
    "link_thumb": "https://live.staticflickr.com/65535/50020452626_e206d5b993_n.jpg",
    "id_album": "-149330231",
    "description": "Dog_530609",
    "title": "Dog_530609",
    "link_img": "https://live.staticflickr.com/65535/50020452626_bf83ed6b74_o.jpg",
    "id_image": "Dog_530609",
    "count_view": 0
  },
  {
    "link_thumb": "https://live.staticflickr.com/65535/50016565963_7f12efa793_n.jpg",
    "id_album": "-422187261",
    "description": "Bear_868714",
    "title": "Bear_868714",
    "link_img": "https://live.staticflickr.com/65535/50016565963_8f4cb1cd8c_o.jpg",
    "id_image": "Bear_868714",
    "count_view": 0
  },
  {
    "link_thumb": "https://live.staticflickr.com/65535/50020637761_82f6ecfe3b_n.jpg",
    "id_album": "-405058657",
    "description": "Dragonfly_720292",
    "title": "Dragonfly_720292",
    "link_img": "https://live.staticflickr.com/65535/50020637761_b022989ea9_o.jpg",
    "id_image": "Dragonfly_720292",
    "count_view": 0
  },
  {
    "link_thumb": "https://live.staticflickr.com/65535/50021115028_ae97265233_n.jpg",
    "id_album": "1658866795",
    "description": "Insect_113553",
    "title": "Insect_113553",
    "link_img": "https://live.staticflickr.com/65535/50021115028_14bdf1d133_o.jpg",
    "id_image": "Insect_113553",
    "count_view": 0
  },
  {
    "link_thumb": "https://live.staticflickr.com/65535/50019397078_81b20bae03_n.jpg",
    "id_album": "1273365283",
    "description": "Cute_277738",
    "title": "Cute_277738",
    "link_img": "https://live.staticflickr.com/65535/50019397078_55ce115f8e_o.jpg",
    "id_image": "Cute_277738",
    "count_view": 0
  },
  {
    "link_thumb": "https://live.staticflickr.com/65535/50020989786_6c2afa284c_n.jpg",
    "id_album": "-128218148",
    "description": "Fox_6901",
    "title": "Fox_6901",
    "link_img": "https://live.staticflickr.com/65535/50020989786_da83e2f0c4_o.jpg",
    "id_image": "Fox_6901",
    "count_view": 0
  },
  {
    "link_thumb": "https://live.staticflickr.com/65535/50021408451_8549fb8885_n.jpg",
    "id_album": "82558972",
    "description": "GuineaPig_420037",
    "title": "GuineaPig_420037",
    "link_img": "https://live.staticflickr.com/65535/50021408451_180e6b4712_o.jpg",
    "id_image": "GuineaPig_420037",
    "count_view": 0
  },
  {
    "link_thumb": "https://live.staticflickr.com/65535/50352709856_f611863fe2_n.jpg",
    "id_album": "-462831702",
    "description": "Cat_91447",
    "title": "Cat_91447",
    "link_img": "https://live.staticflickr.com/65535/50352709856_d78a46f182_o.jpg",
    "id_image": "Cat_91447",
    "count_view": 0
  },
  {
    "link_thumb": "https://live.staticflickr.com/65535/50016876526_11f0c1eb1b_n.jpg",
    "id_album": "523598895",
    "description": "Artistic_182558",
    "title": "Artistic_182558",
    "link_img": "https://live.staticflickr.com/65535/50016876526_35c9358b32_o.jpg",
    "id_image": "Artistic_182558",
    "count_view": 0
  },
  {
    "link_thumb": "https://live.staticflickr.com/65535/50022172816_ac29b73c5b_n.jpg",
    "id_album": "1894617400",
    "description": "Lynx_986138",
    "title": "Lynx_986138",
    "link_img": "https://live.staticflickr.com/65535/50022172816_3e27a38b5e_o.jpg",
    "id_image": "Lynx_986138",
    "count_view": 0
  },
  {
    "link_thumb": "https://live.staticflickr.com/65535/50017374383_7f8ccc272c_n.jpg",
    "id_album": "-462831705",
    "description": "Cat_247578",
    "title": "Cat_247578",
    "link_img": "https://live.staticflickr.com/65535/50017374383_68f34c623b_o.jpg",
    "id_image": "Cat_247578",
    "count_view": 0
  },
  {
    "link_thumb": "https://live.staticflickr.com/65535/50352780867_97315e85cd_n.jpg",
    "id_album": "-462831703",
    "description": "Cat_596055",
    "title": "Cat_596055",
    "link_img": "https://live.staticflickr.com/65535/50352780867_e680d77143_o.jpg",
    "id_image": "Cat_596055",
    "count_view": 0
  },
  {
    "link_thumb": "https://live.staticflickr.com/65535/50017832907_7f29b3b8d9_n.jpg",
    "id_album": "-401151552",
    "description": "Butterfly_364566",
    "title": "Butterfly_364566",
    "link_img": "https://live.staticflickr.com/65535/50017832907_b8c353643e_o.jpg",
    "id_image": "Butterfly_364566",
    "count_view": 0
  },
  {
    "link_thumb": "https://live.staticflickr.com/65535/50024257307_7c6f6a235a_n.jpg",
    "id_album": "1244464375",
    "description": "Starfish_583118",
    "title": "Starfish_583118",
    "link_img": "https://live.staticflickr.com/65535/50024257307_5f55b511eb_o.jpg",
    "id_image": "Starfish_583118",
    "count_view": 0
  },
  {
    "link_thumb": "https://live.staticflickr.com/65535/50352011333_3886e91bc2_n.jpg",
    "id_album": "-462831702",
    "description": "Cat_91409",
    "title": "Cat_91409",
    "link_img": "https://live.staticflickr.com/65535/50352011333_cf451f7a20_o.jpg",
    "id_image": "Cat_91409",
    "count_view": 0
  },
  {
    "link_thumb": "https://live.staticflickr.com/65535/50020277991_d9b63d3c61_n.jpg",
    "id_album": "-149330232",
    "description": "Dog_340540",
    "title": "Dog_340540",
    "link_img": "https://live.staticflickr.com/65535/50020277991_93059db65e_o.jpg",
    "id_image": "Dog_340540",
    "count_view": 0
  },
  {
    "link_thumb": "https://live.staticflickr.com/65535/50020621798_fcfbc9bbef_n.jpg",
    "id_album": "-462831704",
    "description": "Cat_681112",
    "title": "Cat_681112",
    "link_img": "https://live.staticflickr.com/65535/50020621798_0d3bc25c8a_o.jpg",
    "id_image": "Cat_681112",
    "count_view": 0
  },
  {
    "link_thumb": "https://live.staticflickr.com/65535/50021108236_fa1be25fc6_n.jpg",
    "id_album": "-462831704",
    "description": "Cat_548994",
    "title": "Cat_548994",
    "link_img": "https://live.staticflickr.com/65535/50021108236_dfbe6ae7e6_o.jpg",
    "id_image": "Cat_548994",
    "count_view": 0
  },
  {
    "link_thumb": "https://live.staticflickr.com/65535/50019669656_b85b9e9084_n.jpg",
    "id_album": "-766919393",
    "description": "Chameleon_848730",
    "title": "Chameleon_848730",
    "link_img": "https://live.staticflickr.com/65535/50019669656_1db2e190e8_o.jpg",
    "id_image": "Chameleon_848730",
    "count_view": 0
  },
  {
    "link_thumb": "https://live.staticflickr.com/65535/50023399921_886621d8c6_n.jpg",
    "id_album": "1961094930",
    "description": "Seal_244483",
    "title": "Seal_244483",
    "link_img": "https://live.staticflickr.com/65535/50023399921_6610a69739_o.jpg",
    "id_image": "Seal_244483",
    "count_view": 0
  },
  {
    "link_thumb": "https://live.staticflickr.com/65535/50019701633_e8fc7b4486_n.jpg",
    "id_album": "-149330232",
    "description": "Dog_309715",
    "title": "Dog_309715",
    "link_img": "https://live.staticflickr.com/65535/50019701633_4d6ac93b2c_o.jpg",
    "id_image": "Dog_309715",
    "count_view": 0
  },
  {
    "link_thumb": "https://live.staticflickr.com/65535/50022396568_628d92e1b1_n.jpg",
    "id_album": "-1431524681",
    "description": "Pug_209150",
    "title": "Pug_209150",
    "link_img": "https://live.staticflickr.com/65535/50022396568_be9da14033_o.jpg",
    "id_image": "Pug_209150",
    "count_view": 0
  },
  {
    "link_thumb": "https://live.staticflickr.com/65535/50021310733_e16cc7226e_n.jpg",
    "id_album": "-1882491687",
    "description": "Ladybug_469608",
    "title": "Ladybug_469608",
    "link_img": "https://live.staticflickr.com/65535/50021310733_0b229d1f02_o.jpg",
    "id_image": "Ladybug_469608",
    "count_view": 0
  },
  {
    "link_thumb": "https://live.staticflickr.com/65535/50023710693_67371abf11_n.jpg",
    "id_album": "405170427",
    "description": "Tiger_985312",
    "title": "Tiger_985312",
    "link_img": "https://live.staticflickr.com/65535/50023710693_7436c59320_o.jpg",
    "id_image": "Tiger_985312",
    "count_view": 0
  },
  {
    "link_thumb": "https://live.staticflickr.com/65535/50022216972_b913a955e5_n.jpg",
    "id_album": "1392348450",
    "description": "Leopard_926178",
    "title": "Leopard_926178",
    "link_img": "https://live.staticflickr.com/65535/50022216972_e19a0f1275_o.jpg",
    "id_image": "Leopard_926178",
    "count_view": 0
  },
  {
    "link_thumb": "https://live.staticflickr.com/65535/50017684957_cd5a52f974_n.jpg",
    "id_album": "-1846011410",
    "description": "Bird_776866",
    "title": "Bird_776866",
    "link_img": "https://live.staticflickr.com/65535/50017684957_7887860330_o.jpg",
    "id_image": "Bird_776866",
    "count_view": 0
  },
  {
    "link_thumb": "https://live.staticflickr.com/65535/50021892981_ba15b66b6f_n.jpg",
    "id_album": "1392348450",
    "description": "Leopard_247644",
    "title": "Leopard_247644",
    "link_img": "https://live.staticflickr.com/65535/50021892981_2f9d6f4175_o.jpg",
    "id_image": "Leopard_247644",
    "count_view": 0
  },
  {
    "link_thumb": "https://live.staticflickr.com/65535/50022595488_15ee8a366d_n.jpg",
    "id_album": "248289288",
    "description": "Raccoon_190816",
    "title": "Raccoon_190816",
    "link_img": "https://live.staticflickr.com/65535/50022595488_db49b62768_o.jpg",
    "id_image": "Raccoon_190816",
    "count_view": 0
  },
  {
    "link_thumb": "https://live.staticflickr.com/65535/50021520022_6cbe0f37c9_n.jpg",
    "id_album": "-462831703",
    "description": "Cat_823551",
    "title": "Cat_823551",
    "link_img": "https://live.staticflickr.com/65535/50021520022_21e5917df6_o.jpg",
    "id_image": "Cat_823551",
    "count_view": 0
  },
  {
    "link_thumb": "https://live.staticflickr.com/65535/50021598601_f095271edc_n.jpg",
    "id_album": "773713550",
    "description": "Hoverfly_714151",
    "title": "Hoverfly_714151",
    "link_img": "https://live.staticflickr.com/65535/50021598601_6b760e2fcc_o.jpg",
    "id_image": "Hoverfly_714151",
    "count_view": 0
  },
  {
    "link_thumb": "https://live.staticflickr.com/65535/50017572381_62c771ae18_n.jpg",
    "id_album": "-401151552",
    "description": "Butterfly_367247",
    "title": "Butterfly_367247",
    "link_img": "https://live.staticflickr.com/65535/50017572381_4c067f531a_o.jpg",
    "id_image": "Butterfly_367247",
    "count_view": 0
  },
  {
    "link_thumb": "https://live.staticflickr.com/65535/50019621456_1a55ca3c02_n.jpg",
    "id_album": "1889777354",
    "description": "CGI_197495",
    "title": "CGI_197495",
    "link_img": "https://live.staticflickr.com/65535/50019621456_ef21d49e03_o.jpg",
    "id_image": "CGI_197495",
    "count_view": 0
  },
  {
    "link_thumb": "https://live.staticflickr.com/65535/50023095146_81d2d96b58_n.jpg",
    "id_album": "-1940643173",
    "description": "Rabbit_285255",
    "title": "Rabbit_285255",
    "link_img": "https://live.staticflickr.com/65535/50023095146_78646af42b_o.jpg",
    "id_image": "Rabbit_285255",
    "count_view": 0
  },
  {
    "link_thumb": "https://live.staticflickr.com/65535/50024152536_5d11032cc1_n.jpg",
    "id_album": "405170427",
    "description": "Tiger_534004",
    "title": "Tiger_534004",
    "link_img": "https://live.staticflickr.com/65535/50024152536_4c64a307b3_o.jpg",
    "id_image": "Tiger_534004",
    "count_view": 0
  },
  {
    "link_thumb": "https://live.staticflickr.com/65535/50020711143_a950fbf6ca_n.jpg",
    "id_album": "-462831703",
    "description": "Cat_793154",
    "title": "Cat_793154",
    "link_img": "https://live.staticflickr.com/65535/50020711143_8a0595d2bb_o.jpg",
    "id_image": "Cat_793154",
    "count_view": 0
  },
  {
    "link_thumb": "https://live.staticflickr.com/65535/50020713596_332ab09165_n.jpg",
    "id_album": "-39098563",
    "description": "Eagle_541239",
    "title": "Eagle_541239",
    "link_img": "https://live.staticflickr.com/65535/50020713596_84e53af129_o.jpg",
    "id_image": "Eagle_541239",
    "count_view": 0
  },
  {
    "link_thumb": "https://live.staticflickr.com/65535/50017258376_e8d620988b_n.jpg",
    "id_album": "-1846011410",
    "description": "Bird_347431",
    "title": "Bird_347431",
    "link_img": "https://live.staticflickr.com/65535/50017258376_762b41fa80_o.jpg",
    "id_image": "Bird_347431",
    "count_view": 0
  },
  {
    "link_thumb": "https://live.staticflickr.com/65535/50021345461_45682dd671_n.jpg",
    "id_album": "2060159334",
    "description": "GoldenRetriever_271700",
    "title": "GoldenRetriever_271700",
    "link_img": "https://live.staticflickr.com/65535/50021345461_171f29cff3_o.jpg",
    "id_image": "GoldenRetriever_271700",
    "count_view": 0
  },
  {
    "link_thumb": "https://live.staticflickr.com/65535/50016854151_3bb115cf42_n.jpg",
    "id_album": "-834314226",
    "description": "ArcticFox_977050",
    "title": "ArcticFox_977050",
    "link_img": "https://live.staticflickr.com/65535/50016854151_6cb591ab70_o.jpg",
    "id_image": "ArcticFox_977050",
    "count_view": 0
  },
  {
    "link_thumb": "https://live.staticflickr.com/65535/50021337821_18f9421a00_n.jpg",
    "id_album": "-804131074",
    "description": "Goat_236538",
    "title": "Goat_236538",
    "link_img": "https://live.staticflickr.com/65535/50021337821_10b3d5a489_o.jpg",
    "id_image": "Goat_236538",
    "count_view": 0
  },
  {
    "link_thumb": "https://live.staticflickr.com/65535/50019712898_4b7368977b_n.jpg",
    "id_album": "-149330232",
    "description": "Dog_325675",
    "title": "Dog_325675",
    "link_img": "https://live.staticflickr.com/65535/50019712898_69d1fa61d6_o.jpg",
    "id_image": "Dog_325675",
    "count_view": 0
  },
  {
    "link_thumb": "https://live.staticflickr.com/65535/50024476296_b36bc25cd8_n.jpg",
    "id_album": "-709711865",
    "description": "Wolf_330440",
    "title": "Wolf_330440",
    "link_img": "https://live.staticflickr.com/65535/50024476296_31be059f12_o.jpg",
    "id_image": "Wolf_330440",
    "count_view": 0
  },
  {
    "link_thumb": "https://live.staticflickr.com/65535/50351825863_30e8ddbb36_n.jpg",
    "id_album": "-462831703",
    "description": "Cat_438164",
    "title": "Cat_438164",
    "link_img": "https://live.staticflickr.com/65535/50351825863_ff8d5fee6f_o.jpg",
    "id_image": "Cat_438164",
    "count_view": 0
  },
  {
    "link_thumb": "https://live.staticflickr.com/65535/50017430237_afed80a7a8_n.jpg",
    "id_album": "1699594607",
    "description": "Bee_926271",
    "title": "Bee_926271",
    "link_img": "https://live.staticflickr.com/65535/50017430237_d16612c27b_o.jpg",
    "id_image": "Bee_926271",
    "count_view": 0
  },
  {
    "link_thumb": "https://live.staticflickr.com/65535/50020903787_7cb3f79e18_n.jpg",
    "id_album": "1168627767",
    "description": "Duck_235835",
    "title": "Duck_235835",
    "link_img": "https://live.staticflickr.com/65535/50020903787_153fc81ace_o.jpg",
    "id_image": "Duck_235835",
    "count_view": 0
  },
  {
    "link_thumb": "https://live.staticflickr.com/65535/50024295316_3b4e9ab0ee_n.jpg",
    "id_album": "901523298",
    "description": "TreeFrog_655355",
    "title": "TreeFrog_655355",
    "link_img": "https://live.staticflickr.com/65535/50024295316_ba0fc1afdb_o.jpg",
    "id_image": "TreeFrog_655355",
    "count_view": 0
  },
  {
    "link_thumb": "https://live.staticflickr.com/65535/50020610452_d56187d358_n.jpg",
    "id_album": "-149330232",
    "description": "Dog_377312",
    "title": "Dog_377312",
    "link_img": "https://live.staticflickr.com/65535/50020610452_4f6c4e4e46_o.jpg",
    "id_image": "Dog_377312",
    "count_view": 0
  },
  {
    "link_thumb": "https://live.staticflickr.com/65535/50017220473_6dc4676210_n.jpg",
    "id_album": "-462831705",
    "description": "Cat_106110",
    "title": "Cat_106110",
    "link_img": "https://live.staticflickr.com/65535/50017220473_65196f43ac_o.jpg",
    "id_image": "Cat_106110",
    "count_view": 0
  },
  {
    "link_thumb": "https://live.staticflickr.com/65535/50018109461_859e9213f2_n.jpg",
    "id_album": "-462831702",
    "description": "Cat_381615",
    "title": "Cat_381615",
    "link_img": "https://live.staticflickr.com/65535/50018109461_39f5897be8_o.jpg",
    "id_image": "Cat_381615",
    "count_view": 0
  },
  {
    "link_thumb": "https://live.staticflickr.com/65535/50018821138_faa0b7b060_n.jpg",
    "id_album": "-462831703",
    "description": "Cat_867784",
    "title": "Cat_867784",
    "link_img": "https://live.staticflickr.com/65535/50018821138_557f55f735_o.jpg",
    "id_image": "Cat_867784",
    "count_view": 0
  },
  {
    "link_thumb": "https://live.staticflickr.com/65535/50021598931_78b8193b74_n.jpg",
    "id_album": "773713550",
    "description": "Hoverfly_728428",
    "title": "Hoverfly_728428",
    "link_img": "https://live.staticflickr.com/65535/50021598931_f511af1fee_o.jpg",
    "id_image": "Hoverfly_728428",
    "count_view": 0
  },
  {
    "link_thumb": "https://live.staticflickr.com/65535/50017757997_46b8fba7a3_n.jpg",
    "id_album": "782930701",
    "description": "BorderCollie_833415",
    "title": "BorderCollie_833415",
    "link_img": "https://live.staticflickr.com/65535/50017757997_438237d9af_o.jpg",
    "id_image": "BorderCollie_833415",
    "count_view": 0
  },
  {
    "link_thumb": "https://live.staticflickr.com/65535/50019776943_c89b506a1e_n.jpg",
    "id_album": "-149330232",
    "description": "Dog_355707",
    "title": "Dog_355707",
    "link_img": "https://live.staticflickr.com/65535/50019776943_88c8cef292_o.jpg",
    "id_image": "Dog_355707",
    "count_view": 0
  },
  {
    "link_thumb": "https://live.staticflickr.com/65535/50016961831_4e20a37051_n.jpg",
    "id_album": "231236068",
    "description": "BaldEagle_576116",
    "title": "BaldEagle_576116",
    "link_img": "https://live.staticflickr.com/65535/50016961831_01b8876621_o.jpg",
    "id_image": "BaldEagle_576116",
    "count_view": 0
  },
  {
    "link_thumb": "https://live.staticflickr.com/65535/50020607233_6dbea72aac_n.jpg",
    "id_album": "-462831705",
    "description": "Cat_65078",
    "title": "Cat_65078",
    "link_img": "https://live.staticflickr.com/65535/50020607233_f3a73890e8_o.jpg",
    "id_image": "Cat_65078",
    "count_view": 0
  },
  {
    "link_thumb": "https://live.staticflickr.com/65535/50022575768_528b0b714b_n.jpg",
    "id_album": "-1940643173",
    "description": "Rabbit_574950",
    "title": "Rabbit_574950",
    "link_img": "https://live.staticflickr.com/65535/50022575768_97f44a7cdf_o.jpg",
    "id_image": "Rabbit_574950",
    "count_view": 0
  },
  {
    "link_thumb": "https://live.staticflickr.com/65535/50022166297_427473041a_n.jpg",
    "id_album": "1392348450",
    "description": "Leopard_367449",
    "title": "Leopard_367449",
    "link_img": "https://live.staticflickr.com/65535/50022166297_de69eaf3c5_o.jpg",
    "id_image": "Leopard_367449",
    "count_view": 0
  },
  {
    "link_thumb": "https://live.staticflickr.com/65535/50020834207_e127f851dc_n.jpg",
    "id_album": "-54509188",
    "description": "Dolphin_462153",
    "title": "Dolphin_462153",
    "link_img": "https://live.staticflickr.com/65535/50020834207_47ed96d237_o.jpg",
    "id_image": "Dolphin_462153",
    "count_view": 0
  },
  {
    "link_thumb": "https://live.staticflickr.com/65535/50016991463_24f6c91c43_n.jpg",
    "id_album": "1696155652",
    "description": "Boxer_427205",
    "title": "Boxer_427205",
    "link_img": "https://live.staticflickr.com/65535/50016991463_e560fb1523_o.jpg",
    "id_image": "Boxer_427205",
    "count_view": 0
  },
  {
    "link_thumb": "https://live.staticflickr.com/65535/50017567957_bfceda8bd0_n.jpg",
    "id_album": "-1846011410",
    "description": "Bird_402465",
    "title": "Bird_402465",
    "link_img": "https://live.staticflickr.com/65535/50017567957_699ca8e783_o.jpg",
    "id_image": "Bird_402465",
    "count_view": 0
  },
  {
    "link_thumb": "https://live.staticflickr.com/65535/50020959282_d7115b0543_n.jpg",
    "id_album": "-39098563",
    "description": "Eagle_391885",
    "title": "Eagle_391885",
    "link_img": "https://live.staticflickr.com/65535/50020959282_b233bd3d1d_o.jpg",
    "id_image": "Eagle_391885",
    "count_view": 0
  },
  {
    "link_thumb": "https://live.staticflickr.com/65535/50016918381_f404317453_n.jpg",
    "id_album": "523598895",
    "description": "Artistic_815243",
    "title": "Artistic_815243",
    "link_img": "https://live.staticflickr.com/65535/50016918381_d9201601fc_o.jpg",
    "id_image": "Artistic_815243",
    "count_view": 0
  },
  {
    "link_thumb": "https://live.staticflickr.com/65535/50020567907_d646bd3675_n.jpg",
    "id_album": "-149330232",
    "description": "Dog_356031",
    "title": "Dog_356031",
    "link_img": "https://live.staticflickr.com/65535/50020567907_d75cd4f438_o.jpg",
    "id_image": "Dog_356031",
    "count_view": 0
  },
  {
    "link_thumb": "https://live.staticflickr.com/65535/50021646852_69eedd4aca_n.jpg",
    "id_album": "1950225324",
    "description": "Gorilla_478543",
    "title": "Gorilla_478543",
    "link_img": "https://live.staticflickr.com/65535/50021646852_41b1507013_o.jpg",
    "id_image": "Gorilla_478543",
    "count_view": 0
  },
  {
    "link_thumb": "https://live.staticflickr.com/65535/50019983668_e862c3d3ca_n.jpg",
    "id_album": "-149330231",
    "description": "Dog_811502",
    "title": "Dog_811502",
    "link_img": "https://live.staticflickr.com/65535/50019983668_c8cf6bbee6_o.jpg",
    "id_image": "Dog_811502",
    "count_view": 0
  },
  {
    "link_thumb": "https://live.staticflickr.com/65535/50021287558_33e72f598d_n.jpg",
    "id_album": "1307335982",
    "description": "LabradorRetriever_592536",
    "title": "LabradorRetriever_592536",
    "link_img": "https://live.staticflickr.com/65535/50021287558_b783243fd5_o.jpg",
    "id_image": "LabradorRetriever_592536",
    "count_view": 0
  },
  {
    "link_thumb": "https://live.staticflickr.com/65535/50017583153_17f3c7621e_n.jpg",
    "id_album": "-462831702",
    "description": "Cat_383644",
    "title": "Cat_383644",
    "link_img": "https://live.staticflickr.com/65535/50017583153_167e95e39d_o.jpg",
    "id_image": "Cat_383644",
    "count_view": 0
  },
  {
    "link_thumb": "https://live.staticflickr.com/65535/50019767527_625d3fd2c7_n.jpg",
    "id_album": "-462831703",
    "description": "Cat_949085",
    "title": "Cat_949085",
    "link_img": "https://live.staticflickr.com/65535/50019767527_efe012a7a3_o.jpg",
    "id_image": "Cat_949085",
    "count_view": 0
  },
  {
    "link_thumb": "https://live.staticflickr.com/65535/50019976286_598a6d65ea_n.jpg",
    "id_album": "1903411565",
    "description": "Deer_158204",
    "title": "Deer_158204",
    "link_img": "https://live.staticflickr.com/65535/50019976286_5aac41d472_o.jpg",
    "id_image": "Deer_158204",
    "count_view": 0
  },
  {
    "link_thumb": "https://live.staticflickr.com/65535/50017555226_60923a2aa6_n.jpg",
    "id_album": "-401151552",
    "description": "Butterfly_276055",
    "title": "Butterfly_276055",
    "link_img": "https://live.staticflickr.com/65535/50017555226_1a78257cdd_o.jpg",
    "id_image": "Butterfly_276055",
    "count_view": 0
  },
  {
    "link_thumb": "https://live.staticflickr.com/65535/50021980407_a4eb8fcb8a_n.jpg",
    "id_album": "-843028318",
    "description": "Jaguar_432726",
    "title": "Jaguar_432726",
    "link_img": "https://live.staticflickr.com/65535/50021980407_387389ff6e_o.jpg",
    "id_image": "Jaguar_432726",
    "count_view": 0
  },
  {
    "link_thumb": "https://live.staticflickr.com/65535/50023388926_fa249473c1_n.jpg",
    "id_album": "1656131695",
    "description": "Seagull_725628",
    "title": "Seagull_725628",
    "link_img": "https://live.staticflickr.com/65535/50023388926_7b393914ab_o.jpg",
    "id_image": "Seagull_725628",
    "count_view": 0
  },
  {
    "link_thumb": "https://live.staticflickr.com/65535/50017076408_2cd645efd9_n.jpg",
    "id_album": "-401151552",
    "description": "Butterfly_453836",
    "title": "Butterfly_453836",
    "link_img": "https://live.staticflickr.com/65535/50017076408_c47480429f_o.jpg",
    "id_image": "Butterfly_453836",
    "count_view": 0
  },
  {
    "link_thumb": "https://live.staticflickr.com/65535/50023448182_fc1f34f5b0_n.jpg",
    "id_album": "-1862965835",
    "description": "RedEyedTreeFrog_602799",
    "title": "RedEyedTreeFrog_602799",
    "link_img": "https://live.staticflickr.com/65535/50023448182_94e4ed598f_o.jpg",
    "id_image": "RedEyedTreeFrog_602799",
    "count_view": 0
  },
  {
    "link_thumb": "https://live.staticflickr.com/65535/50024001563_aa82c23435_n.jpg",
    "id_album": "-709711865",
    "description": "Wolf_78741",
    "title": "Wolf_78741",
    "link_img": "https://live.staticflickr.com/65535/50024001563_8971f592ef_o.jpg",
    "id_image": "Wolf_78741",
    "count_view": 0
  },
  {
    "link_thumb": "https://live.staticflickr.com/65535/50017721932_0df4971733_n.jpg",
    "id_album": "-530283314",
    "description": "BlueandyellowMacaw_282659",
    "title": "BlueandyellowMacaw_282659",
    "link_img": "https://live.staticflickr.com/65535/50017721932_0047e5037c_o.jpg",
    "id_image": "BlueandyellowMacaw_282659",
    "count_view": 0
  },
  {
    "link_thumb": "https://live.staticflickr.com/65535/50020005058_db91c81430_n.jpg",
    "id_album": "-149330231",
    "description": "Dog_893730",
    "title": "Dog_893730",
    "link_img": "https://live.staticflickr.com/65535/50020005058_248d99280a_o.jpg",
    "id_image": "Dog_893730",
    "count_view": 0
  },
  {
    "link_thumb": "https://live.staticflickr.com/65535/50016627163_cfc436e646_n.jpg",
    "id_album": "1699594607",
    "description": "Bee_680490",
    "title": "Bee_680490",
    "link_img": "https://live.staticflickr.com/65535/50016627163_5db95455e7_o.jpg",
    "id_image": "Bee_680490",
    "count_view": 0
  },
  {
    "link_thumb": "https://live.staticflickr.com/65535/50021562953_02db84fc5e_n.jpg",
    "id_album": "-656526748",
    "description": "Lizard_322398",
    "title": "Lizard_322398",
    "link_img": "https://live.staticflickr.com/65535/50021562953_043bc81579_o.jpg",
    "id_image": "Lizard_322398",
    "count_view": 0
  },
  {
    "link_thumb": "https://live.staticflickr.com/65535/50018107862_5de5a40a5c_n.jpg",
    "id_album": "-462831705",
    "description": "Cat_206619",
    "title": "Cat_206619",
    "link_img": "https://live.staticflickr.com/65535/50018107862_f9a84dede4_o.jpg",
    "id_image": "Cat_206619",
    "count_view": 0
  },
  {
    "link_thumb": "https://live.staticflickr.com/65535/50020977642_5b41eb7aac_n.jpg",
    "id_album": "-39098563",
    "description": "Eagle_730476",
    "title": "Eagle_730476",
    "link_img": "https://live.staticflickr.com/65535/50020977642_16df9a4551_o.jpg",
    "id_image": "Eagle_730476",
    "count_view": 0
  },
  {
    "link_thumb": "https://live.staticflickr.com/65535/50021913817_95f6c1957f_n.jpg",
    "id_album": "1658866795",
    "description": "Insect_266783",
    "title": "Insect_266783",
    "link_img": "https://live.staticflickr.com/65535/50021913817_2ee4e98b86_o.jpg",
    "id_image": "Insect_266783",
    "count_view": 0
  },
  {
    "link_thumb": "https://live.staticflickr.com/65535/50017061686_566ab2bd5b_n.jpg",
    "id_album": "-422187261",
    "description": "Bear_64000",
    "title": "Bear_64000",
    "link_img": "https://live.staticflickr.com/65535/50017061686_4df29e622a_o.jpg",
    "id_image": "Bear_64000",
    "count_view": 0
  },
  {
    "link_thumb": "https://live.staticflickr.com/65535/50019474207_5149c4e2d0_n.jpg",
    "id_album": "-462831704",
    "description": "Cat_447292",
    "title": "Cat_447292",
    "link_img": "https://live.staticflickr.com/65535/50019474207_659091dec9_o.jpg",
    "id_image": "Cat_447292",
    "count_view": 0
  },
  {
    "link_thumb": "https://live.staticflickr.com/65535/50017324267_8a6c24cb9e_n.jpg",
    "id_album": "-422187261",
    "description": "Bear_640107",
    "title": "Bear_640107",
    "link_img": "https://live.staticflickr.com/65535/50017324267_2d6c619fc0_o.jpg",
    "id_image": "Bear_640107",
    "count_view": 0
  },
  {
    "link_thumb": "https://live.staticflickr.com/65535/50017156977_8a25319c1c_n.jpg",
    "id_album": "523598895",
    "description": "Artistic_330598",
    "title": "Artistic_330598",
    "link_img": "https://live.staticflickr.com/65535/50017156977_25d83800fd_o.jpg",
    "id_image": "Artistic_330598",
    "count_view": 0
  },
  {
    "link_thumb": "https://live.staticflickr.com/65535/50020656368_6e9724fcb2_n.jpg",
    "id_album": "-462831705",
    "description": "Cat_71655",
    "title": "Cat_71655",
    "link_img": "https://live.staticflickr.com/65535/50020656368_7b57486cc5_o.jpg",
    "id_image": "Cat_71655",
    "count_view": 0
  },
  {
    "link_thumb": "https://live.staticflickr.com/65535/50021735828_a7d45f3c47_n.jpg",
    "id_album": "1610416937",
    "description": "Moth_447884",
    "title": "Moth_447884",
    "link_img": "https://live.staticflickr.com/65535/50021735828_732400fcc3_o.jpg",
    "id_image": "Moth_447884",
    "count_view": 0
  },
  {
    "link_thumb": "https://live.staticflickr.com/65535/50021640781_43d926c5a1_n.jpg",
    "id_album": "-712553376",
    "description": "Husky_786503",
    "title": "Husky_786503",
    "link_img": "https://live.staticflickr.com/65535/50021640781_4fb98acd5c_o.jpg",
    "id_image": "Husky_786503",
    "count_view": 0
  },
  {
    "link_thumb": "https://live.staticflickr.com/65535/50017434436_3f646b757e_n.jpg",
    "id_album": "-1846011410",
    "description": "Bird_866839",
    "title": "Bird_866839",
    "link_img": "https://live.staticflickr.com/65535/50017434436_258e62dd21_o.jpg",
    "id_image": "Bird_866839",
    "count_view": 0
  },
  {
    "link_thumb": "https://live.staticflickr.com/65535/50017699686_140bf1b6df_n.jpg",
    "id_album": "-401151552",
    "description": "Butterfly_926509",
    "title": "Butterfly_926509",
    "link_img": "https://live.staticflickr.com/65535/50017699686_bb2cc4ebec_o.jpg",
    "id_image": "Butterfly_926509",
    "count_view": 0
  },
  {
    "link_thumb": "https://live.staticflickr.com/65535/50016444288_19650002ff_n.jpg",
    "id_album": "231236068",
    "description": "BaldEagle_873778",
    "title": "BaldEagle_873778",
    "link_img": "https://live.staticflickr.com/65535/50016444288_5cd8d1e780_o.jpg",
    "id_image": "BaldEagle_873778",
    "count_view": 0
  },
  {
    "link_thumb": "https://live.staticflickr.com/65535/50018884368_8307227465_n.jpg",
    "id_album": "-462831703",
    "description": "Cat_900350",
    "title": "Cat_900350",
    "link_img": "https://live.staticflickr.com/65535/50018884368_fa3e217956_o.jpg",
    "id_image": "Cat_900350",
    "count_view": 0
  },
  {
    "link_thumb": "https://live.staticflickr.com/65535/50019953191_e754f466e9_n.jpg",
    "id_album": "1831085598",
    "description": "Dachshund_588813",
    "title": "Dachshund_588813",
    "link_img": "https://live.staticflickr.com/65535/50019953191_45086304e8_o.jpg",
    "id_image": "Dachshund_588813",
    "count_view": 0
  },
  {
    "link_thumb": "https://live.staticflickr.com/65535/50020109183_eb957fcea8_n.jpg",
    "id_album": "1168627767",
    "description": "Duck_108370",
    "title": "Duck_108370",
    "link_img": "https://live.staticflickr.com/65535/50020109183_ee0e521f08_o.jpg",
    "id_image": "Duck_108370",
    "count_view": 0
  },
  {
    "link_thumb": "https://live.staticflickr.com/65535/50018367477_0302bc6cae_n.jpg",
    "id_album": "-462831702",
    "description": "Cat_379753",
    "title": "Cat_379753",
    "link_img": "https://live.staticflickr.com/65535/50018367477_baff2c3813_o.jpg",
    "id_image": "Cat_379753",
    "count_view": 0
  },
  {
    "link_thumb": "https://live.staticflickr.com/65535/50023806312_227a689d66_n.jpg",
    "id_album": "-800019164",
    "description": "Snail_875597",
    "title": "Snail_875597",
    "link_img": "https://live.staticflickr.com/65535/50023806312_821784ca0a_o.jpg",
    "id_image": "Snail_875597",
    "count_view": 0
  },
  {
    "link_thumb": "https://live.staticflickr.com/65535/50023647903_db00287ec8_n.jpg",
    "id_album": "405170427",
    "description": "Tiger_693062",
    "title": "Tiger_693062",
    "link_img": "https://live.staticflickr.com/65535/50023647903_9b6879d0f1_o.jpg",
    "id_image": "Tiger_693062",
    "count_view": 0
  },
  {
    "link_thumb": "https://live.staticflickr.com/65535/50020215271_1e6dc357c6_n.jpg",
    "id_album": "-149330232",
    "description": "Dog_275637",
    "title": "Dog_275637",
    "link_img": "https://live.staticflickr.com/65535/50020215271_0c7ffcefcf_o.jpg",
    "id_image": "Dog_275637",
    "count_view": 0
  },
  {
    "link_thumb": "https://live.staticflickr.com/65535/50023528388_0bc579a8aa_n.jpg",
    "id_album": "405170427",
    "description": "Tiger_349701",
    "title": "Tiger_349701",
    "link_img": "https://live.staticflickr.com/65535/50023528388_8d58e28ab2_o.jpg",
    "id_image": "Tiger_349701",
    "count_view": 0
  },
  {
    "link_thumb": "https://live.staticflickr.com/65535/50018086612_3832e1e21f_n.jpg",
    "id_album": "-462831705",
    "description": "Cat_181895",
    "title": "Cat_181895",
    "link_img": "https://live.staticflickr.com/65535/50018086612_c29921344f_o.jpg",
    "id_image": "Cat_181895",
    "count_view": 0
  },
  {
    "link_thumb": "https://live.staticflickr.com/65535/50021312978_05215d2c98_n.jpg",
    "id_album": "-1882491687",
    "description": "Ladybug_506441",
    "title": "Ladybug_506441",
    "link_img": "https://live.staticflickr.com/65535/50021312978_4f2a6afa90_o.jpg",
    "id_image": "Ladybug_506441",
    "count_view": 0
  },
  {
    "link_thumb": "https://live.staticflickr.com/65535/50352695827_39a034f3ac_n.jpg",
    "id_album": "-462831703",
    "description": "Cat_458039",
    "title": "Cat_458039",
    "link_img": "https://live.staticflickr.com/65535/50352695827_a14485de64_o.jpg",
    "id_image": "Cat_458039",
    "count_view": 0
  },
  {
    "link_thumb": "https://live.staticflickr.com/65535/50021694972_8fdb55a431_n.jpg",
    "id_album": "54253492",
    "description": "Heron_346180",
    "title": "Heron_346180",
    "link_img": "https://live.staticflickr.com/65535/50021694972_fffcbd5931_o.jpg",
    "id_image": "Heron_346180",
    "count_view": 0
  },
  {
    "link_thumb": "https://live.staticflickr.com/65535/50021353283_898b066a22_n.jpg",
    "id_album": "1392348450",
    "description": "Leopard_284988",
    "title": "Leopard_284988",
    "link_img": "https://live.staticflickr.com/65535/50021353283_7e51a49c40_o.jpg",
    "id_image": "Leopard_284988",
    "count_view": 0
  },
  {
    "link_thumb": "https://live.staticflickr.com/65535/50021689572_a6e05d48e3_n.jpg",
    "id_album": "1469520430",
    "description": "Hedgehog_748562",
    "title": "Hedgehog_748562",
    "link_img": "https://live.staticflickr.com/65535/50021689572_f6b29eb51e_o.jpg",
    "id_image": "Hedgehog_748562",
    "count_view": 0
  },
  {
    "link_thumb": "https://live.staticflickr.com/65535/50017092357_ef9c855fbf_n.jpg",
    "id_album": "-1741290715",
    "description": "Ant_383563",
    "title": "Ant_383563",
    "link_img": "https://live.staticflickr.com/65535/50017092357_a42fef644f_o.jpg",
    "id_image": "Ant_383563",
    "count_view": 0
  },
  {
    "link_thumb": "https://live.staticflickr.com/65535/50023957517_991552a602_n.jpg",
    "id_album": "-359606417",
    "description": "Sparrow_294412",
    "title": "Sparrow_294412",
    "link_img": "https://live.staticflickr.com/65535/50023957517_494f4f4d98_o.jpg",
    "id_image": "Sparrow_294412",
    "count_view": 0
  },
  {
    "link_thumb": "https://live.staticflickr.com/65535/50017704326_286e8739f0_n.jpg",
    "id_album": "-401151552",
    "description": "Butterfly_926709",
    "title": "Butterfly_926709",
    "link_img": "https://live.staticflickr.com/65535/50017704326_99b9a5a64e_o.jpg",
    "id_image": "Butterfly_926709",
    "count_view": 0
  },
  {
    "link_thumb": "https://live.staticflickr.com/65535/50021116036_a776eefc8d_n.jpg",
    "id_album": "-462831704",
    "description": "Cat_565184",
    "title": "Cat_565184",
    "link_img": "https://live.staticflickr.com/65535/50021116036_a3813fd06c_o.jpg",
    "id_image": "Cat_565184",
    "count_view": 0
  },
  {
    "link_thumb": "https://live.staticflickr.com/65535/50020440403_a2a39ec2f5_n.jpg",
    "id_album": "-128218148",
    "description": "Fox_631689",
    "title": "Fox_631689",
    "link_img": "https://live.staticflickr.com/65535/50020440403_0c12092e8f_o.jpg",
    "id_image": "Fox_631689",
    "count_view": 0
  },
  {
    "link_thumb": "https://live.staticflickr.com/65535/50020714016_15492ce10a_n.jpg",
    "id_album": "-39098563",
    "description": "Eagle_542459",
    "title": "Eagle_542459",
    "link_img": "https://live.staticflickr.com/65535/50020714016_914e070401_o.jpg",
    "id_image": "Eagle_542459",
    "count_view": 0
  },
  {
    "link_thumb": "https://live.staticflickr.com/65535/50016958316_7a6192a67a_n.jpg",
    "id_album": "231236068",
    "description": "BaldEagle_438522",
    "title": "BaldEagle_438522",
    "link_img": "https://live.staticflickr.com/65535/50016958316_62f0231d06_o.jpg",
    "id_image": "BaldEagle_438522",
    "count_view": 0
  },
  {
    "link_thumb": "https://live.staticflickr.com/65535/50019635193_7184f2819b_n.jpg",
    "id_album": "-149330232",
    "description": "Dog_234005",
    "title": "Dog_234005",
    "link_img": "https://live.staticflickr.com/65535/50019635193_901c6b1147_o.jpg",
    "id_image": "Dog_234005",
    "count_view": 0
  },
  {
    "link_thumb": "https://live.staticflickr.com/65535/50017892351_1c848a7ec8_n.jpg",
    "id_album": "-462831705",
    "description": "Cat_237964",
    "title": "Cat_237964",
    "link_img": "https://live.staticflickr.com/65535/50017892351_31a0e8c525_o.jpg",
    "id_image": "Cat_237964",
    "count_view": 0
  },
  {
    "link_thumb": "https://live.staticflickr.com/65535/50020375032_2338e57ffc_n.jpg",
    "id_album": "-149330232",
    "description": "Dog_110968",
    "title": "Dog_110968",
    "link_img": "https://live.staticflickr.com/65535/50020375032_f04c8a5774_o.jpg",
    "id_image": "Dog_110968",
    "count_view": 0
  },
  {
    "link_thumb": "https://live.staticflickr.com/65535/50017708541_3834897005_n.jpg",
    "id_album": "-401151552",
    "description": "Butterfly_926945",
    "title": "Butterfly_926945",
    "link_img": "https://live.staticflickr.com/65535/50017708541_37576b7934_o.jpg",
    "id_image": "Butterfly_926945",
    "count_view": 0
  },
  {
    "link_thumb": "https://live.staticflickr.com/65535/50018668023_696cdcf253_n.jpg",
    "id_album": "-462831704",
    "description": "Cat_436696",
    "title": "Cat_436696",
    "link_img": "https://live.staticflickr.com/65535/50018668023_da574855e9_o.jpg",
    "id_image": "Cat_436696",
    "count_view": 0
  },
  {
    "link_thumb": "https://live.staticflickr.com/65535/50021471092_e04fdece1d_n.jpg",
    "id_album": "-462831703",
    "description": "Cat_738451",
    "title": "Cat_738451",
    "link_img": "https://live.staticflickr.com/65535/50021471092_2e0199532c_o.jpg",
    "id_image": "Cat_738451",
    "count_view": 0
  },
  {
    "link_thumb": "https://live.staticflickr.com/65535/50021083843_09d5137f01_n.jpg",
    "id_album": "2144294979",
    "description": "Hummingbird_992236",
    "title": "Hummingbird_992236",
    "link_img": "https://live.staticflickr.com/65535/50021083843_2578003e5c_o.jpg",
    "id_image": "Hummingbird_992236",
    "count_view": 0
  },
  {
    "link_thumb": "https://live.staticflickr.com/65535/50022303786_d64c22d1a8_n.jpg",
    "id_album": "1015034486",
    "description": "Muteswan_183958",
    "title": "Muteswan_183958",
    "link_img": "https://live.staticflickr.com/65535/50022303786_01a4572fc3_o.jpg",
    "id_image": "Muteswan_183958",
    "count_view": 0
  },
  {
    "link_thumb": "https://live.staticflickr.com/65535/50017581478_0193c12af4_n.jpg",
    "id_album": "-462831702",
    "description": "Cat_382329",
    "title": "Cat_382329",
    "link_img": "https://live.staticflickr.com/65535/50017581478_c854c31fd1_o.jpg",
    "id_image": "Cat_382329",
    "count_view": 0
  },
  {
    "link_thumb": "https://live.staticflickr.com/65535/50020420478_eb4de2ea68_n.jpg",
    "id_album": "-128218148",
    "description": "Fox_425422",
    "title": "Fox_425422",
    "link_img": "https://live.staticflickr.com/65535/50020420478_f5c2e9d27f_o.jpg",
    "id_image": "Fox_425422",
    "count_view": 0
  },
  {
    "link_thumb": "https://live.staticflickr.com/65535/50019069498_9d4950146e_n.jpg",
    "id_album": "-1930903528",
    "description": "CatDog_991016",
    "title": "CatDog_991016",
    "link_img": "https://live.staticflickr.com/65535/50019069498_09ae97c743_o.jpg",
    "id_image": "CatDog_991016",
    "count_view": 0
  },
  {
    "link_thumb": "https://live.staticflickr.com/65535/50021623002_8d5c2d6423_n.jpg",
    "id_album": "2060159334",
    "description": "GoldenRetriever_913449",
    "title": "GoldenRetriever_913449",
    "link_img": "https://live.staticflickr.com/65535/50021623002_6fd2e157d5_o.jpg",
    "id_image": "GoldenRetriever_913449",
    "count_view": 0
  },
  {
    "link_thumb": "https://live.staticflickr.com/65535/50021119021_d124669974_n.jpg",
    "id_album": "-462831704",
    "description": "Cat_569336",
    "title": "Cat_569336",
    "link_img": "https://live.staticflickr.com/65535/50021119021_517a74cb95_o.jpg",
    "id_image": "Cat_569336",
    "count_view": 0
  },
  {
    "link_thumb": "https://live.staticflickr.com/65535/50019385878_b710c873b2_n.jpg",
    "id_album": "1273365283",
    "description": "Cute_185438",
    "title": "Cute_185438",
    "link_img": "https://live.staticflickr.com/65535/50019385878_385570ede6_o.jpg",
    "id_image": "Cute_185438",
    "count_view": 0
  },
  {
    "link_thumb": "https://live.staticflickr.com/65535/50020521628_a2c16aa4be_n.jpg",
    "id_album": "844170697",
    "description": "Frog_440137",
    "title": "Frog_440137",
    "link_img": "https://live.staticflickr.com/65535/50020521628_e37d4bf3d1_o.jpg",
    "id_image": "Frog_440137",
    "count_view": 0
  },
  {
    "link_thumb": "https://live.staticflickr.com/65535/50019585426_a50a64804d_n.jpg",
    "id_album": "-1930903528",
    "description": "CatDog_735590",
    "title": "CatDog_735590",
    "link_img": "https://live.staticflickr.com/65535/50019585426_94c451674f_o.jpg",
    "id_image": "CatDog_735590",
    "count_view": 0
  },
  {
    "link_thumb": "https://live.staticflickr.com/65535/50017447288_69be4b1bea_n.jpg",
    "id_album": "-462831702",
    "description": "Cat_326186",
    "title": "Cat_326186",
    "link_img": "https://live.staticflickr.com/65535/50017447288_9d98352a66_o.jpg",
    "id_image": "Cat_326186",
    "count_view": 0
  },
  {
    "link_thumb": "https://live.staticflickr.com/65535/50019935927_6df6f36b69_n.jpg",
    "id_album": "-1481843714",
    "description": "Cheetah_167149",
    "title": "Cheetah_167149",
    "link_img": "https://live.staticflickr.com/65535/50019935927_63df3bc340_o.jpg",
    "id_image": "Cheetah_167149",
    "count_view": 0
  },
  {
    "link_thumb": "https://live.staticflickr.com/65535/50352652741_0c1bd72453_n.jpg",
    "id_album": "-462831703",
    "description": "Cat_698434",
    "title": "Cat_698434",
    "link_img": "https://live.staticflickr.com/65535/50352652741_c2629a344b_o.jpg",
    "id_image": "Cat_698434",
    "count_view": 0
  },
  {
    "link_thumb": "https://live.staticflickr.com/65535/50018330767_1d1a025503_n.jpg",
    "id_album": "-462831702",
    "description": "Cat_364839",
    "title": "Cat_364839",
    "link_img": "https://live.staticflickr.com/65535/50018330767_3099c67acc_o.jpg",
    "id_image": "Cat_364839",
    "count_view": 0
  },
  {
    "link_thumb": "https://live.staticflickr.com/65535/50022197907_ed5cfc6f02_n.jpg",
    "id_album": "1392348450",
    "description": "Leopard_618428",
    "title": "Leopard_618428",
    "link_img": "https://live.staticflickr.com/65535/50022197907_5fa9be5fda_o.jpg",
    "id_image": "Leopard_618428",
    "count_view": 0
  },
  {
    "link_thumb": "https://live.staticflickr.com/65535/50018392887_2e2b6da33c_n.jpg",
    "id_album": "-462831702",
    "description": "Cat_396320",
    "title": "Cat_396320",
    "link_img": "https://live.staticflickr.com/65535/50018392887_8c03d10c52_o.jpg",
    "id_image": "Cat_396320",
    "count_view": 0
  },
  {
    "link_thumb": "https://live.staticflickr.com/65535/50020533832_29f450b3f6_n.jpg",
    "id_album": "-149330232",
    "description": "Dog_339810",
    "title": "Dog_339810",
    "link_img": "https://live.staticflickr.com/65535/50020533832_778d7bbd47_o.jpg",
    "id_image": "Dog_339810",
    "count_view": 0
  },
  {
    "link_thumb": "https://live.staticflickr.com/65535/50024353027_5ae66f0e29_n.jpg",
    "id_album": "405170427",
    "description": "Tiger_372124",
    "title": "Tiger_372124",
    "link_img": "https://live.staticflickr.com/65535/50024353027_2dcf831ef5_o.jpg",
    "id_image": "Tiger_372124",
    "count_view": 0
  },
  {
    "link_thumb": "https://live.staticflickr.com/65535/50019553337_fb1fce3a91_n.jpg",
    "id_album": "-462831704",
    "description": "Cat_529865",
    "title": "Cat_529865",
    "link_img": "https://live.staticflickr.com/65535/50019553337_780f53e92a_o.jpg",
    "id_image": "Cat_529865",
    "count_view": 0
  },
  {
    "link_thumb": "https://live.staticflickr.com/65535/50018079146_d8e5db5f56_n.jpg",
    "id_album": "-462831702",
    "description": "Cat_367342",
    "title": "Cat_367342",
    "link_img": "https://live.staticflickr.com/65535/50018079146_05658f004b_o.jpg",
    "id_image": "Cat_367342",
    "count_view": 0
  },
  {
    "link_thumb": "https://live.staticflickr.com/65535/50022554263_06fc8ec6d0_n.jpg",
    "id_album": "-1940643173",
    "description": "Rabbit_318362",
    "title": "Rabbit_318362",
    "link_img": "https://live.staticflickr.com/65535/50022554263_394343e333_o.jpg",
    "id_image": "Rabbit_318362",
    "count_view": 0
  },
  {
    "link_thumb": "https://live.staticflickr.com/65535/50021206008_90f79dd325_n.jpg",
    "id_album": "665694624",
    "description": "JapaneseMacaque_395405",
    "title": "JapaneseMacaque_395405",
    "link_img": "https://live.staticflickr.com/65535/50021206008_fc43c92f2e_o.jpg",
    "id_image": "JapaneseMacaque_395405",
    "count_view": 0
  },
  {
    "link_thumb": "https://live.staticflickr.com/65535/50023887577_8c155e5a76_n.jpg",
    "id_album": "-1131363127",
    "description": "SnowLeopard_326453",
    "title": "SnowLeopard_326453",
    "link_img": "https://live.staticflickr.com/65535/50023887577_c3033a7e47_o.jpg",
    "id_image": "SnowLeopard_326453",
    "count_view": 0
  },
  {
    "link_thumb": "https://live.staticflickr.com/65535/50018647513_86652aef2e_n.jpg",
    "id_album": "-462831702",
    "description": "Cat_427492",
    "title": "Cat_427492",
    "link_img": "https://live.staticflickr.com/65535/50018647513_d27ceb8e19_o.jpg",
    "id_image": "Cat_427492",
    "count_view": 0
  },
  {
    "link_thumb": "https://live.staticflickr.com/65535/50023658737_90971fc1ae_n.jpg",
    "id_album": "1961094930",
    "description": "Seal_276799",
    "title": "Seal_276799",
    "link_img": "https://live.staticflickr.com/65535/50023658737_8fdb02c21a_o.jpg",
    "id_image": "Seal_276799",
    "count_view": 0
  },
  {
    "link_thumb": "https://live.staticflickr.com/65535/50020086042_d3b97bb6fc_n.jpg",
    "id_album": "-1868680171",
    "description": "Cougar_750365",
    "title": "Cougar_750365",
    "link_img": "https://live.staticflickr.com/65535/50020086042_8f60f5d033_o.jpg",
    "id_image": "Cougar_750365",
    "count_view": 0
  },
  {
    "link_thumb": "https://live.staticflickr.com/65535/50019423986_8e361cfe74_n.jpg",
    "id_album": "-462831703",
    "description": "Cat_904346",
    "title": "Cat_904346",
    "link_img": "https://live.staticflickr.com/65535/50019423986_6a5ec741af_o.jpg",
    "id_image": "Cat_904346",
    "count_view": 0
  },
  {
    "link_thumb": "https://live.staticflickr.com/65535/50021177858_cf91b5b51f_n.jpg",
    "id_album": "-843028318",
    "description": "Jaguar_351433",
    "title": "Jaguar_351433",
    "link_img": "https://live.staticflickr.com/65535/50021177858_653727cd36_o.jpg",
    "id_image": "Jaguar_351433",
    "count_view": 0
  },
  {
    "link_thumb": "https://live.staticflickr.com/65535/50352633176_5d002c5706_n.jpg",
    "id_album": "-462831703",
    "description": "Cat_650956",
    "title": "Cat_650956",
    "link_img": "https://live.staticflickr.com/65535/50352633176_89329e2115_o.jpg",
    "id_image": "Cat_650956",
    "count_view": 0
  },
  {
    "link_thumb": "https://live.staticflickr.com/65535/50017469687_8cf41fc12f_n.jpg",
    "id_album": "-1846011410",
    "description": "Bird_193336",
    "title": "Bird_193336",
    "link_img": "https://live.staticflickr.com/65535/50017469687_a4bb69e8eb_o.jpg",
    "id_image": "Bird_193336",
    "count_view": 0
  },
  {
    "link_thumb": "https://live.staticflickr.com/65535/50021304237_c326c806ff_n.jpg",
    "id_album": "844170697",
    "description": "Frog_190182",
    "title": "Frog_190182",
    "link_img": "https://live.staticflickr.com/65535/50021304237_6327eb3f99_o.jpg",
    "id_image": "Frog_190182",
    "count_view": 0
  },
  {
    "link_thumb": "https://live.staticflickr.com/65535/50021240193_c5e6a6479a_n.jpg",
    "id_album": "1562047127",
    "description": "Jellyfish_812233",
    "title": "Jellyfish_812233",
    "link_img": "https://live.staticflickr.com/65535/50021240193_2562477d9b_o.jpg",
    "id_image": "Jellyfish_812233",
    "count_view": 0
  },
  {
    "link_thumb": "https://live.staticflickr.com/65535/50017787747_f389e082fa_n.jpg",
    "id_album": "368532157",
    "description": "Bulldog_438511",
    "title": "Bulldog_438511",
    "link_img": "https://live.staticflickr.com/65535/50017787747_0e1a66e718_o.jpg",
    "id_image": "Bulldog_438511",
    "count_view": 0
  },
  {
    "link_thumb": "https://live.staticflickr.com/65535/50020170353_4fcf36149d_n.jpg",
    "id_album": "-39098563",
    "description": "Eagle_401130",
    "title": "Eagle_401130",
    "link_img": "https://live.staticflickr.com/65535/50020170353_140c767d64_o.jpg",
    "id_image": "Eagle_401130",
    "count_view": 0
  },
  {
    "link_thumb": "https://live.staticflickr.com/65535/50021887462_d7bedfc0aa_n.jpg",
    "id_album": "-712553376",
    "description": "Husky_458809",
    "title": "Husky_458809",
    "link_img": "https://live.staticflickr.com/65535/50021887462_f7573c2b19_o.jpg",
    "id_image": "Husky_458809",
    "count_view": 0
  },
  {
    "link_thumb": "https://live.staticflickr.com/65535/50021400217_9d926c5640_n.jpg",
    "id_album": "-462831704",
    "description": "Cat_641444",
    "title": "Cat_641444",
    "link_img": "https://live.staticflickr.com/65535/50021400217_867d50172f_o.jpg",
    "id_image": "Cat_641444",
    "count_view": 0
  },
  {
    "link_thumb": "https://live.staticflickr.com/65535/50020378537_4d65cf8b37_n.jpg",
    "id_album": "-149330232",
    "description": "Dog_114910",
    "title": "Dog_114910",
    "link_img": "https://live.staticflickr.com/65535/50020378537_ac666f1fc6_o.jpg",
    "id_image": "Dog_114910",
    "count_view": 0
  },
  {
    "link_thumb": "https://live.staticflickr.com/65535/50020846948_e3c6343945_n.jpg",
    "id_album": "1950225324",
    "description": "Gorilla_192787",
    "title": "Gorilla_192787",
    "link_img": "https://live.staticflickr.com/65535/50020846948_806167cee6_o.jpg",
    "id_image": "Gorilla_192787",
    "count_view": 0
  },
  {
    "link_thumb": "https://live.staticflickr.com/65535/50018016047_003ff96aaf_n.jpg",
    "id_album": "-462831705",
    "description": "Cat_113087",
    "title": "Cat_113087",
    "link_img": "https://live.staticflickr.com/65535/50018016047_f07bb80471_o.jpg",
    "id_image": "Cat_113087",
    "count_view": 0
  },
  {
    "link_thumb": "https://live.staticflickr.com/65535/50017741496_591f6ca82e_n.jpg",
    "id_album": "-462831703",
    "description": "Cat_1001229",
    "title": "Cat_1001229",
    "link_img": "https://live.staticflickr.com/65535/50017741496_feaa55871b_o.jpg",
    "id_image": "Cat_1001229",
    "count_view": 0
  },
  {
    "link_thumb": "https://live.staticflickr.com/65535/50020890692_51d3d50d8f_n.jpg",
    "id_album": "-405058657",
    "description": "Dragonfly_595076",
    "title": "Dragonfly_595076",
    "link_img": "https://live.staticflickr.com/65535/50020890692_fcf715026a_o.jpg",
    "id_image": "Dragonfly_595076",
    "count_view": 0
  },
  {
    "link_thumb": "https://live.staticflickr.com/65535/50019348036_0e7acf62a1_n.jpg",
    "id_album": "-462831705",
    "description": "Cat_86699",
    "title": "Cat_86699",
    "link_img": "https://live.staticflickr.com/65535/50019348036_8a3860976a_o.jpg",
    "id_image": "Cat_86699",
    "count_view": 0
  },
  {
    "link_thumb": "https://live.staticflickr.com/65535/50018017856_3da18e352f_n.jpg",
    "id_album": "-462831702",
    "description": "Cat_343437",
    "title": "Cat_343437",
    "link_img": "https://live.staticflickr.com/65535/50018017856_c839a70be4_o.jpg",
    "id_image": "Cat_343437",
    "count_view": 0
  },
  {
    "link_thumb": "https://live.staticflickr.com/65535/50020121523_6c4bcbec35_n.jpg",
    "id_album": "1168627767",
    "description": "Duck_387671",
    "title": "Duck_387671",
    "link_img": "https://live.staticflickr.com/65535/50020121523_c4b3d12464_o.jpg",
    "id_image": "Duck_387671",
    "count_view": 0
  },
  {
    "link_thumb": "https://live.staticflickr.com/65535/50018671038_408d960c2d_n.jpg",
    "id_album": "-462831704",
    "description": "Cat_438740",
    "title": "Cat_438740",
    "link_img": "https://live.staticflickr.com/65535/50018671038_92ba062d43_o.jpg",
    "id_image": "Cat_438740",
    "count_view": 0
  },
  {
    "link_thumb": "https://live.staticflickr.com/65535/50021113068_fa3c14e6bc_n.jpg",
    "id_album": "-737856092",
    "description": "Iguana_808127",
    "title": "Iguana_808127",
    "link_img": "https://live.staticflickr.com/65535/50021113068_f62b9e7e30_o.jpg",
    "id_image": "Iguana_808127",
    "count_view": 0
  },
  {
    "link_thumb": "https://live.staticflickr.com/65535/50019957588_5f4bba3ae4_n.jpg",
    "id_album": "-149330231",
    "description": "Dog_714946",
    "title": "Dog_714946",
    "link_img": "https://live.staticflickr.com/65535/50019957588_de1de885cc_o.jpg",
    "id_image": "Dog_714946",
    "count_view": 0
  },
  {
    "link_thumb": "https://live.staticflickr.com/65535/50020464546_754ab814a8_n.jpg",
    "id_album": "-149330231",
    "description": "Dog_592590",
    "title": "Dog_592590",
    "link_img": "https://live.staticflickr.com/65535/50020464546_45ba773c65_o.jpg",
    "id_image": "Dog_592590",
    "count_view": 0
  },
  {
    "link_thumb": "https://live.staticflickr.com/65535/50022148317_2129526509_n.jpg",
    "id_album": "1392348450",
    "description": "Leopard_244106",
    "title": "Leopard_244106",
    "link_img": "https://live.staticflickr.com/65535/50022148317_d893015b44_o.jpg",
    "id_image": "Leopard_244106",
    "count_view": 0
  },
  {
    "link_thumb": "https://live.staticflickr.com/65535/50021836741_b303c6b9c0_n.jpg",
    "id_album": "1307335982",
    "description": "LabradorRetriever_911913",
    "title": "LabradorRetriever_911913",
    "link_img": "https://live.staticflickr.com/65535/50021836741_6e3d669d7a_o.jpg",
    "id_image": "LabradorRetriever_911913",
    "count_view": 0
  },
  {
    "link_thumb": "https://live.staticflickr.com/65535/50024153391_d1f2ceba48_n.jpg",
    "id_album": "405170427",
    "description": "Tiger_535223",
    "title": "Tiger_535223",
    "link_img": "https://live.staticflickr.com/65535/50024153391_f81c6197c7_o.jpg",
    "id_image": "Tiger_535223",
    "count_view": 0
  },
  {
    "link_thumb": "https://live.staticflickr.com/65535/50021156617_ab51a9ce10_n.jpg",
    "id_album": "-1758557371",
    "description": "Flamingo_514334",
    "title": "Flamingo_514334",
    "link_img": "https://live.staticflickr.com/65535/50021156617_48a1083a2a_o.jpg",
    "id_image": "Flamingo_514334",
    "count_view": 0
  },
  {
    "link_thumb": "https://live.staticflickr.com/65535/50017823057_ba5e5543c6_n.jpg",
    "id_album": "-401151552",
    "description": "Butterfly_326778",
    "title": "Butterfly_326778",
    "link_img": "https://live.staticflickr.com/65535/50017823057_1536c9bdd5_o.jpg",
    "id_image": "Butterfly_326778",
    "count_view": 0
  },
  {
    "link_thumb": "https://live.staticflickr.com/65535/50020331181_7784c1ab59_n.jpg",
    "id_album": "-149330232",
    "description": "Dog_365362",
    "title": "Dog_365362",
    "link_img": "https://live.staticflickr.com/65535/50020331181_ef09f0aa98_o.jpg",
    "id_image": "Dog_365362",
    "count_view": 0
  },
  {
    "link_thumb": "https://live.staticflickr.com/65535/50017907001_d76a838c80_n.jpg",
    "id_album": "-462831705",
    "description": "Cat_252739",
    "title": "Cat_252739",
    "link_img": "https://live.staticflickr.com/65535/50017907001_62838f7442_o.jpg",
    "id_image": "Cat_252739",
    "count_view": 0
  },
  {
    "link_thumb": "https://live.staticflickr.com/65535/50020304908_facb87157b_n.jpg",
    "id_album": "-1118073211",
    "description": "Fish_350464",
    "title": "Fish_350464",
    "link_img": "https://live.staticflickr.com/65535/50020304908_e1a7dd017c_o.jpg",
    "id_image": "Fish_350464",
    "count_view": 0
  },
  {
    "link_thumb": "https://live.staticflickr.com/65535/50016625178_094dc524e7_n.jpg",
    "id_album": "1699594607",
    "description": "Bee_601585",
    "title": "Bee_601585",
    "link_img": "https://live.staticflickr.com/65535/50016625178_3873146acc_o.jpg",
    "id_image": "Bee_601585",
    "count_view": 0
  },
  {
    "link_thumb": "https://live.staticflickr.com/65535/50020909461_8eae7ceca5_n.jpg",
    "id_album": "-1758557371",
    "description": "Flamingo_743726",
    "title": "Flamingo_743726",
    "link_img": "https://live.staticflickr.com/65535/50020909461_c0cc2e1db6_o.jpg",
    "id_image": "Flamingo_743726",
    "count_view": 0
  },
  {
    "link_thumb": "https://live.staticflickr.com/65535/50023892352_349e7a8b10_n.jpg",
    "id_album": "-1131363127",
    "description": "SnowLeopard_361682",
    "title": "SnowLeopard_361682",
    "link_img": "https://live.staticflickr.com/65535/50023892352_f1b75694d8_o.jpg",
    "id_image": "SnowLeopard_361682",
    "count_view": 0
  },
  {
    "link_thumb": "https://live.staticflickr.com/65535/50016992996_17109ef0f0_n.jpg",
    "id_album": "809937717",
    "description": "Beagle_714960",
    "title": "Beagle_714960",
    "link_img": "https://live.staticflickr.com/65535/50016992996_eef062f08a_o.jpg",
    "id_image": "Beagle_714960",
    "count_view": 0
  },
  {
    "link_thumb": "https://live.staticflickr.com/65535/50352440506_c75232881d_n.jpg",
    "id_album": "-462831703",
    "description": "Cat_245932",
    "title": "Cat_245932",
    "link_img": "https://live.staticflickr.com/65535/50352440506_481869e079_o.jpg",
    "id_image": "Cat_245932",
    "count_view": 0
  },
  {
    "link_thumb": "https://live.staticflickr.com/65535/50023035651_14343f38e4_n.jpg",
    "id_album": "-353898617",
    "description": "Puppy_591926",
    "title": "Puppy_591926",
    "link_img": "https://live.staticflickr.com/65535/50023035651_5cf3cd6437_o.jpg",
    "id_image": "Puppy_591926",
    "count_view": 0
  },
  {
    "link_thumb": "https://live.staticflickr.com/65535/50016636703_4960e766b0_n.jpg",
    "id_album": "1699594607",
    "description": "Bee_812228",
    "title": "Bee_812228",
    "link_img": "https://live.staticflickr.com/65535/50016636703_7174bf53a9_o.jpg",
    "id_image": "Bee_812228",
    "count_view": 0
  },
  {
    "link_thumb": "https://live.staticflickr.com/65535/50017877176_a25f4f32e3_n.jpg",
    "id_album": "-462831705",
    "description": "Cat_229385",
    "title": "Cat_229385",
    "link_img": "https://live.staticflickr.com/65535/50017877176_b56babe3eb_o.jpg",
    "id_image": "Cat_229385",
    "count_view": 0
  },
  {
    "link_thumb": "https://live.staticflickr.com/65535/50020757683_0b55cd317d_n.jpg",
    "id_album": "-405626519",
    "description": "GermanShepherd_746453",
    "title": "GermanShepherd_746453",
    "link_img": "https://live.staticflickr.com/65535/50020757683_10c95813aa_o.jpg",
    "id_image": "GermanShepherd_746453",
    "count_view": 0
  },
  {
    "link_thumb": "https://live.staticflickr.com/65535/50023018701_d6d6368764_n.jpg",
    "id_album": "-353898617",
    "description": "Puppy_548556",
    "title": "Puppy_548556",
    "link_img": "https://live.staticflickr.com/65535/50023018701_79b50428e4_o.jpg",
    "id_image": "Puppy_548556",
    "count_view": 0
  }
]