[
  {
    "total_img": 0,
    "number_page": 0,
    "title": "Guinea Pig",
    "tag": "Guinea Pig,",
    "description": "Guinea Pig",
    "link_thumb": "https://live.staticflickr.com/65535/50021406591_7b5a7494d3_n.jpg",
    "id_album": "82558972",
    "total_view": 56
  }
]