[
  {
    "link_thumb": "https://live.staticflickr.com/65535/50021521321_96c90bd877_n.jpg",
    "id_album": "-1933715543",
    "description": "Horse_443955",
    "title": "Horse_443955",
    "link_img": "https://live.staticflickr.com/65535/50021521321_0650e093f7_o.jpg",
    "id_image": "Horse_443955",
    "count_view": 0
  },
  {
    "link_thumb": "https://live.staticflickr.com/65535/50018059837_d11347bbba_n.jpg",
    "id_album": "-462831705",
    "description": "Cat_166895",
    "title": "Cat_166895",
    "link_img": "https://live.staticflickr.com/65535/50018059837_86caefbbe5_o.jpg",
    "id_image": "Cat_166895",
    "count_view": 0
  },
  {
    "link_thumb": "https://live.staticflickr.com/65535/50021663391_bbd783d48e_n.jpg",
    "id_album": "1658866795",
    "description": "Insect_322571",
    "title": "Insect_322571",
    "link_img": "https://live.staticflickr.com/65535/50021663391_666ecf8fd4_o.jpg",
    "id_image": "Insect_322571",
    "count_view": 0
  },
  {
    "link_thumb": "https://live.staticflickr.com/65535/50021622568_bf5b61a43a_n.jpg",
    "id_album": "1894617400",
    "description": "Lynx_86901",
    "title": "Lynx_86901",
    "link_img": "https://live.staticflickr.com/65535/50021622568_c2bc8f1dd3_o.jpg",
    "id_image": "Lynx_86901",
    "count_view": 0
  },
  {
    "link_thumb": "https://live.staticflickr.com/65535/50018856853_bd948f30e2_n.jpg",
    "id_album": "-462831703",
    "description": "Cat_879798",
    "title": "Cat_879798",
    "link_img": "https://live.staticflickr.com/65535/50018856853_1159c60dbd_o.jpg",
    "id_image": "Cat_879798",
    "count_view": 0
  },
  {
    "link_thumb": "https://live.staticflickr.com/65535/50021663832_51e57236cd_n.jpg",
    "id_album": "82558972",
    "description": "GuineaPig_792600",
    "title": "GuineaPig_792600",
    "link_img": "https://live.staticflickr.com/65535/50021663832_09f4095376_o.jpg",
    "id_image": "GuineaPig_792600",
    "count_view": 0
  },
  {
    "link_thumb": "https://live.staticflickr.com/65535/50018369957_e14314a676_n.jpg",
    "id_album": "-462831702",
    "description": "Cat_381286",
    "title": "Cat_381286",
    "link_img": "https://live.staticflickr.com/65535/50018369957_9b3cae49be_o.jpg",
    "id_image": "Cat_381286",
    "count_view": 0
  },
  {
    "link_thumb": "https://live.staticflickr.com/65535/50020008748_6444ca5d5a_n.jpg",
    "id_album": "-149330231",
    "description": "Dog_905871",
    "title": "Dog_905871",
    "link_img": "https://live.staticflickr.com/65535/50020008748_67956b9575_o.jpg",
    "id_image": "Dog_905871",
    "count_view": 0
  },
  {
    "link_thumb": "https://live.staticflickr.com/65535/50023622617_f4c56d6697_n.jpg",
    "id_album": "1656131695",
    "description": "Seagull_430772",
    "title": "Seagull_430772",
    "link_img": "https://live.staticflickr.com/65535/50023622617_ac46855947_o.jpg",
    "id_image": "Seagull_430772",
    "count_view": 0
  },
  {
    "link_thumb": "https://live.staticflickr.com/65535/50017114701_a236ac87e5_n.jpg",
    "id_album": "1699594607",
    "description": "Bee_105861",
    "title": "Bee_105861",
    "link_img": "https://live.staticflickr.com/65535/50017114701_7cc615a998_o.jpg",
    "id_image": "Bee_105861",
    "count_view": 0
  },
  {
    "link_thumb": "https://live.staticflickr.com/65535/50021484692_5b9fd92c0c_n.jpg",
    "id_album": "-462831703",
    "description": "Cat_762000",
    "title": "Cat_762000",
    "link_img": "https://live.staticflickr.com/65535/50021484692_893d0ae4b1_o.jpg",
    "id_image": "Cat_762000",
    "count_view": 0
  },
  {
    "link_thumb": "https://live.staticflickr.com/65535/50019785857_e179db1475_n.jpg",
    "id_album": "-462831703",
    "description": "Cat_963727",
    "title": "Cat_963727",
    "link_img": "https://live.staticflickr.com/65535/50019785857_6b40754888_o.jpg",
    "id_image": "Cat_963727",
    "count_view": 0
  },
  {
    "link_thumb": "https://live.staticflickr.com/65535/50021935602_91d5bb01b6_n.jpg",
    "id_album": "1658866795",
    "description": "Insect_403885",
    "title": "Insect_403885",
    "link_img": "https://live.staticflickr.com/65535/50021935602_4031f94e5d_o.jpg",
    "id_image": "Insect_403885",
    "count_view": 0
  },
  {
    "link_thumb": "https://live.staticflickr.com/65535/50016625178_094dc524e7_n.jpg",
    "id_album": "1699594607",
    "description": "Bee_601585",
    "title": "Bee_601585",
    "link_img": "https://live.staticflickr.com/65535/50016625178_3873146acc_o.jpg",
    "id_image": "Bee_601585",
    "count_view": 0
  },
  {
    "link_thumb": "https://live.staticflickr.com/65535/50023352732_b604941454_n.jpg",
    "id_album": "-1940643173",
    "description": "Rabbit_295938",
    "title": "Rabbit_295938",
    "link_img": "https://live.staticflickr.com/65535/50023352732_a3ea95d628_o.jpg",
    "id_image": "Rabbit_295938",
    "count_view": 0
  },
  {
    "link_thumb": "https://live.staticflickr.com/65535/50019200436_29bb8e7d43_n.jpg",
    "id_album": "-462831704",
    "description": "Cat_438111",
    "title": "Cat_438111",
    "link_img": "https://live.staticflickr.com/65535/50019200436_dba5991252_o.jpg",
    "id_image": "Cat_438111",
    "count_view": 0
  },
  {
    "link_thumb": "https://live.staticflickr.com/65535/50016495398_8694e5a4cc_n.jpg",
    "id_album": "-422187261",
    "description": "Bear_333036",
    "title": "Bear_333036",
    "link_img": "https://live.staticflickr.com/65535/50016495398_2edeb18c72_o.jpg",
    "id_image": "Bear_333036",
    "count_view": 0
  },
  {
    "link_thumb": "https://live.staticflickr.com/65535/50019013133_a90d1ac471_n.jpg",
    "id_album": "-462831703",
    "description": "Cat_976133",
    "title": "Cat_976133",
    "link_img": "https://live.staticflickr.com/65535/50019013133_99b5e1d0fe_o.jpg",
    "id_image": "Cat_976133",
    "count_view": 0
  },
  {
    "link_thumb": "https://live.staticflickr.com/65535/50021003163_454aaa9e4f_n.jpg",
    "id_album": "-1933715543",
    "description": "Horse_593666",
    "title": "Horse_593666",
    "link_img": "https://live.staticflickr.com/65535/50021003163_3108bef4e9_o.jpg",
    "id_image": "Horse_593666",
    "count_view": 0
  },
  {
    "link_thumb": "https://live.staticflickr.com/65535/50019712083_9f37f5b84e_n.jpg",
    "id_album": "-149330232",
    "description": "Dog_324500",
    "title": "Dog_324500",
    "link_img": "https://live.staticflickr.com/65535/50019712083_19f1323683_o.jpg",
    "id_image": "Dog_324500",
    "count_view": 0
  },
  {
    "link_thumb": "https://live.staticflickr.com/65535/50017798362_0b5f0a5d35_n.jpg",
    "id_album": "-401151552",
    "description": "Butterfly_153262",
    "title": "Butterfly_153262",
    "link_img": "https://live.staticflickr.com/65535/50017798362_866b397ff9_o.jpg",
    "id_image": "Butterfly_153262",
    "count_view": 0
  },
  {
    "link_thumb": "https://live.staticflickr.com/65535/50017505888_ac1598c854_n.jpg",
    "id_album": "-462831702",
    "description": "Cat_351025",
    "title": "Cat_351025",
    "link_img": "https://live.staticflickr.com/65535/50017505888_f79b6f4531_o.jpg",
    "id_image": "Cat_351025",
    "count_view": 0
  },
  {
    "link_thumb": "https://live.staticflickr.com/65535/50020146628_4af34493d3_n.jpg",
    "id_album": "-39098563",
    "description": "Eagle_114308",
    "title": "Eagle_114308",
    "link_img": "https://live.staticflickr.com/65535/50020146628_f6b17b9110_o.jpg",
    "id_image": "Eagle_114308",
    "count_view": 0
  },
  {
    "link_thumb": "https://live.staticflickr.com/65535/50016460018_db446d666c_n.jpg",
    "id_album": "809937717",
    "description": "Beagle_435050",
    "title": "Beagle_435050",
    "link_img": "https://live.staticflickr.com/65535/50016460018_9e2c002522_o.jpg",
    "id_image": "Beagle_435050",
    "count_view": 0
  },
  {
    "link_thumb": "https://live.staticflickr.com/65535/50021224696_4dfd574e80_n.jpg",
    "id_album": "-462831703",
    "description": "Cat_744420",
    "title": "Cat_744420",
    "link_img": "https://live.staticflickr.com/65535/50021224696_da1055e74b_o.jpg",
    "id_image": "Cat_744420",
    "count_view": 0
  },
  {
    "link_thumb": "https://live.staticflickr.com/65535/50017501317_d173411fe6_n.jpg",
    "id_album": "-1846011410",
    "description": "Bird_327495",
    "title": "Bird_327495",
    "link_img": "https://live.staticflickr.com/65535/50017501317_0f28c80aaa_o.jpg",
    "id_image": "Bird_327495",
    "count_view": 0
  },
  {
    "link_thumb": "https://live.staticflickr.com/65535/50016596453_6c20f7fc3b_n.jpg",
    "id_album": "1699594607",
    "description": "Bee_284668",
    "title": "Bee_284668",
    "link_img": "https://live.staticflickr.com/65535/50016596453_c4b9f64983_o.jpg",
    "id_image": "Bee_284668",
    "count_view": 0
  },
  {
    "link_thumb": "https://live.staticflickr.com/65535/50021164453_332baa7d0b_n.jpg",
    "id_album": "1658866795",
    "description": "Insect_574452",
    "title": "Insect_574452",
    "link_img": "https://live.staticflickr.com/65535/50021164453_c86e296438_o.jpg",
    "id_image": "Insect_574452",
    "count_view": 0
  },
  {
    "link_thumb": "https://live.staticflickr.com/65535/50021303783_53500dba7e_n.jpg",
    "id_album": "-1882491687",
    "description": "Ladybug_380028",
    "title": "Ladybug_380028",
    "link_img": "https://live.staticflickr.com/65535/50021303783_8fc14d2526_o.jpg",
    "id_image": "Ladybug_380028",
    "count_view": 0
  },
  {
    "link_thumb": "https://live.staticflickr.com/65535/50016298478_a834645891_n.jpg",
    "id_album": "-229810103",
    "description": "AmericanBison_700765",
    "title": "AmericanBison_700765",
    "link_img": "https://live.staticflickr.com/65535/50016298478_467d0832eb_o.jpg",
    "id_image": "AmericanBison_700765",
    "count_view": 0
  },
  {
    "link_thumb": "https://live.staticflickr.com/65535/50022548417_56edd18071_n.jpg",
    "id_album": "1957967135",
    "description": "Mouse_404286",
    "title": "Mouse_404286",
    "link_img": "https://live.staticflickr.com/65535/50022548417_ac052e74f8_o.jpg",
    "id_image": "Mouse_404286",
    "count_view": 0
  },
  {
    "link_thumb": "https://live.staticflickr.com/65535/50016343713_8bbef5579c_n.jpg",
    "id_album": "523598895",
    "description": "Artistic_157602",
    "title": "Artistic_157602",
    "link_img": "https://live.staticflickr.com/65535/50016343713_22f39aa75c_o.jpg",
    "id_image": "Artistic_157602",
    "count_view": 0
  },
  {
    "link_thumb": "https://live.staticflickr.com/65535/50022396852_d75739e6ed_n.jpg",
    "id_album": "1894617400",
    "description": "Lynx_366887",
    "title": "Lynx_366887",
    "link_img": "https://live.staticflickr.com/65535/50022396852_3a5a34e8dc_o.jpg",
    "id_image": "Lynx_366887",
    "count_view": 0
  },
  {
    "link_thumb": "https://live.staticflickr.com/65535/50019698302_dec6212ace_n.jpg",
    "id_album": "-462831703",
    "description": "Cat_913464",
    "title": "Cat_913464",
    "link_img": "https://live.staticflickr.com/65535/50019698302_3486ba325e_o.jpg",
    "id_image": "Cat_913464",
    "count_view": 0
  },
  {
    "link_thumb": "https://live.staticflickr.com/65535/50020846948_e3c6343945_n.jpg",
    "id_album": "1950225324",
    "description": "Gorilla_192787",
    "title": "Gorilla_192787",
    "link_img": "https://live.staticflickr.com/65535/50020846948_806167cee6_o.jpg",
    "id_image": "Gorilla_192787",
    "count_view": 0
  },
  {
    "link_thumb": "https://live.staticflickr.com/65535/50018768888_c4858b6314_n.jpg",
    "id_album": "-462831704",
    "description": "Cat_532996",
    "title": "Cat_532996",
    "link_img": "https://live.staticflickr.com/65535/50018768888_c4f255b9dd_o.jpg",
    "id_image": "Cat_532996",
    "count_view": 0
  },
  {
    "link_thumb": "https://live.staticflickr.com/65535/50021850426_67a3acbcd6_n.jpg",
    "id_album": "-1882491687",
    "description": "Ladybug_429106",
    "title": "Ladybug_429106",
    "link_img": "https://live.staticflickr.com/65535/50021850426_67da958471_o.jpg",
    "id_image": "Ladybug_429106",
    "count_view": 0
  },
  {
    "link_thumb": "https://live.staticflickr.com/65535/50024543587_985d54cbaf_n.jpg",
    "id_album": "-1103743486",
    "description": "Toucan_739154",
    "title": "Toucan_739154",
    "link_img": "https://live.staticflickr.com/65535/50024543587_a9e8a89b1d_o.jpg",
    "id_image": "Toucan_739154",
    "count_view": 0
  },
  {
    "link_thumb": "https://live.staticflickr.com/65535/50023376776_4d4058e6e6_n.jpg",
    "id_album": "1656131695",
    "description": "Seagull_534786",
    "title": "Seagull_534786",
    "link_img": "https://live.staticflickr.com/65535/50023376776_f53c0544c6_o.jpg",
    "id_image": "Seagull_534786",
    "count_view": 0
  },
  {
    "link_thumb": "https://live.staticflickr.com/65535/50019562417_eec9a248f5_n.jpg",
    "id_album": "-462831704",
    "description": "Cat_534734",
    "title": "Cat_534734",
    "link_img": "https://live.staticflickr.com/65535/50019562417_c4bf365cd1_o.jpg",
    "id_image": "Cat_534734",
    "count_view": 0
  },
  {
    "link_thumb": "https://live.staticflickr.com/65535/50023663298_071f34ffa6_n.jpg",
    "id_album": "405170427",
    "description": "Tiger_755452",
    "title": "Tiger_755452",
    "link_img": "https://live.staticflickr.com/65535/50023663298_f405f53dd6_o.jpg",
    "id_image": "Tiger_755452",
    "count_view": 0
  },
  {
    "link_thumb": "https://live.staticflickr.com/65535/50017354743_df88178ca7_n.jpg",
    "id_album": "-462831705",
    "description": "Cat_236180",
    "title": "Cat_236180",
    "link_img": "https://live.staticflickr.com/65535/50017354743_54e35b8dbb_o.jpg",
    "id_image": "Cat_236180",
    "count_view": 0
  },
  {
    "link_thumb": "https://live.staticflickr.com/65535/50017473483_673e61b8df_n.jpg",
    "id_album": "-462831702",
    "description": "Cat_335969",
    "title": "Cat_335969",
    "link_img": "https://live.staticflickr.com/65535/50017473483_09e89134fc_o.jpg",
    "id_image": "Cat_335969",
    "count_view": 0
  },
  {
    "link_thumb": "https://live.staticflickr.com/65535/50022986773_105f1b7a34_n.jpg",
    "id_album": "-800019164",
    "description": "Snail_471658",
    "title": "Snail_471658",
    "link_img": "https://live.staticflickr.com/65535/50022986773_1a5b3aa1b4_o.jpg",
    "id_image": "Snail_471658",
    "count_view": 0
  },
  {
    "link_thumb": "https://live.staticflickr.com/65535/50017538687_8d596f43a1_n.jpg",
    "id_album": "-1846011410",
    "description": "Bird_367252",
    "title": "Bird_367252",
    "link_img": "https://live.staticflickr.com/65535/50017538687_f87646e666_o.jpg",
    "id_image": "Bird_367252",
    "count_view": 0
  },
  {
    "link_thumb": "https://live.staticflickr.com/65535/50020320142_80e4288b37_n.jpg",
    "id_album": "1903411565",
    "description": "Deer_887802",
    "title": "Deer_887802",
    "link_img": "https://live.staticflickr.com/65535/50020320142_32a6e4d2c6_o.jpg",
    "id_image": "Deer_887802",
    "count_view": 0
  },
  {
    "link_thumb": "https://live.staticflickr.com/65535/50023354932_742c050913_n.jpg",
    "id_album": "-1940643173",
    "description": "Rabbit_336432",
    "title": "Rabbit_336432",
    "link_img": "https://live.staticflickr.com/65535/50023354932_bd41751984_o.jpg",
    "id_image": "Rabbit_336432",
    "count_view": 0
  },
  {
    "link_thumb": "https://live.staticflickr.com/65535/50352817982_2c55f97238_n.jpg",
    "id_album": "-462831703",
    "description": "Cat_724226",
    "title": "Cat_724226",
    "link_img": "https://live.staticflickr.com/65535/50352817982_b60778750d_o.jpg",
    "id_image": "Cat_724226",
    "count_view": 0
  },
  {
    "link_thumb": "https://live.staticflickr.com/65535/50024289547_824ebe7c80_n.jpg",
    "id_album": "405170427",
    "description": "Tiger_190231",
    "title": "Tiger_190231",
    "link_img": "https://live.staticflickr.com/65535/50024289547_88190e7bc5_o.jpg",
    "id_image": "Tiger_190231",
    "count_view": 0
  },
  {
    "link_thumb": "https://live.staticflickr.com/65535/50020437783_0d6dd3e918_n.jpg",
    "id_album": "-128218148",
    "description": "Fox_593503",
    "title": "Fox_593503",
    "link_img": "https://live.staticflickr.com/65535/50020437783_8397ce3c8b_o.jpg",
    "id_image": "Fox_593503",
    "count_view": 0
  },
  {
    "link_thumb": "https://live.staticflickr.com/65535/50016978403_ed51f52f66_n.jpg",
    "id_album": "782930701",
    "description": "BorderCollie_875855",
    "title": "BorderCollie_875855",
    "link_img": "https://live.staticflickr.com/65535/50016978403_474ea2a13e_o.jpg",
    "id_image": "BorderCollie_875855",
    "count_view": 0
  },
  {
    "link_thumb": "https://live.staticflickr.com/65535/50017088512_ebd207ef0d_n.jpg",
    "id_album": "-229810103",
    "description": "AmericanBison_800708",
    "title": "AmericanBison_800708",
    "link_img": "https://live.staticflickr.com/65535/50017088512_75635327e9_o.jpg",
    "id_image": "AmericanBison_800708",
    "count_view": 0
  },
  {
    "link_thumb": "https://live.staticflickr.com/65535/50017447286_b160a43e1b_n.jpg",
    "id_album": "-1561645279",
    "description": "BlackPanther_256757",
    "title": "BlackPanther_256757",
    "link_img": "https://live.staticflickr.com/65535/50017447286_9192fdf99f_o.jpg",
    "id_image": "BlackPanther_256757",
    "count_view": 0
  },
  {
    "link_thumb": "https://live.staticflickr.com/65535/50024230211_896db9e913_n.jpg",
    "id_album": "405170427",
    "description": "Tiger_883538",
    "title": "Tiger_883538",
    "link_img": "https://live.staticflickr.com/65535/50024230211_d3b98c0fcf_o.jpg",
    "id_image": "Tiger_883538",
    "count_view": 0
  },
  {
    "link_thumb": "https://live.staticflickr.com/65535/50352862257_35dc72345a_n.jpg",
    "id_album": "-462831702",
    "description": "Cat_59939",
    "title": "Cat_59939",
    "link_img": "https://live.staticflickr.com/65535/50352862257_5d037281fc_o.jpg",
    "id_image": "Cat_59939",
    "count_view": 0
  },
  {
    "link_thumb": "https://live.staticflickr.com/65535/50020567372_fc0e8d81f5_n.jpg",
    "id_album": "-149330232",
    "description": "Dog_355800",
    "title": "Dog_355800",
    "link_img": "https://live.staticflickr.com/65535/50020567372_af1bfde193_o.jpg",
    "id_image": "Dog_355800",
    "count_view": 0
  },
  {
    "link_thumb": "https://live.staticflickr.com/65535/50021407173_59959c77b1_n.jpg",
    "id_album": "1392348450",
    "description": "Leopard_755325",
    "title": "Leopard_755325",
    "link_img": "https://live.staticflickr.com/65535/50021407173_02ab31dd91_o.jpg",
    "id_image": "Leopard_755325",
    "count_view": 0
  },
  {
    "link_thumb": "https://live.staticflickr.com/65535/50021644613_96415f1281_n.jpg",
    "id_album": "-1720012921",
    "description": "Meerkat_535225",
    "title": "Meerkat_535225",
    "link_img": "https://live.staticflickr.com/65535/50021644613_9abc94cdff_o.jpg",
    "id_image": "Meerkat_535225",
    "count_view": 0
  },
  {
    "link_thumb": "https://live.staticflickr.com/65535/50017850562_d908d07d54_n.jpg",
    "id_album": "-401151552",
    "description": "Butterfly_414943",
    "title": "Butterfly_414943",
    "link_img": "https://live.staticflickr.com/65535/50017850562_9a3bf7f326_o.jpg",
    "id_image": "Butterfly_414943",
    "count_view": 0
  },
  {
    "link_thumb": "https://live.staticflickr.com/65535/50017225253_cc50a70e49_n.jpg",
    "id_album": "-462831705",
    "description": "Cat_111102",
    "title": "Cat_111102",
    "link_img": "https://live.staticflickr.com/65535/50017225253_84c3dae878_o.jpg",
    "id_image": "Cat_111102",
    "count_view": 0
  },
  {
    "link_thumb": "https://live.staticflickr.com/65535/50020958676_969eb5d827_n.jpg",
    "id_album": "-128218148",
    "description": "Fox_385140",
    "title": "Fox_385140",
    "link_img": "https://live.staticflickr.com/65535/50020958676_36f8f46cd2_o.jpg",
    "id_image": "Fox_385140",
    "count_view": 0
  },
  {
    "link_thumb": "https://live.staticflickr.com/65535/50019657746_b9a3e6edef_n.jpg",
    "id_album": "-766919393",
    "description": "Chameleon_649417",
    "title": "Chameleon_649417",
    "link_img": "https://live.staticflickr.com/65535/50019657746_8b5aff62b1_o.jpg",
    "id_image": "Chameleon_649417",
    "count_view": 0
  },
  {
    "link_thumb": "https://live.staticflickr.com/65535/50019777308_1c63fe0379_n.jpg",
    "id_album": "-149330232",
    "description": "Dog_355917",
    "title": "Dog_355917",
    "link_img": "https://live.staticflickr.com/65535/50019777308_51a33222c1_o.jpg",
    "id_image": "Dog_355917",
    "count_view": 0
  },
  {
    "link_thumb": "https://live.staticflickr.com/65535/50021641848_61443a8646_n.jpg",
    "id_album": "-1720012921",
    "description": "Meerkat_368684",
    "title": "Meerkat_368684",
    "link_img": "https://live.staticflickr.com/65535/50021641848_4b1eb26b68_o.jpg",
    "id_image": "Meerkat_368684",
    "count_view": 0
  },
  {
    "link_thumb": "https://live.staticflickr.com/65535/50020654583_9d8c1990cb_n.jpg",
    "id_album": "-462831704",
    "description": "Cat_715153",
    "title": "Cat_715153",
    "link_img": "https://live.staticflickr.com/65535/50020654583_c74bd058cc_o.jpg",
    "id_image": "Cat_715153",
    "count_view": 0
  },
  {
    "link_thumb": "https://live.staticflickr.com/65535/50019031428_20b54b1bae_n.jpg",
    "id_album": "-462831703",
    "description": "Cat_989541",
    "title": "Cat_989541",
    "link_img": "https://live.staticflickr.com/65535/50019031428_6b3607dc10_o.jpg",
    "id_image": "Cat_989541",
    "count_view": 0
  },
  {
    "link_thumb": "https://live.staticflickr.com/65535/50019558028_8af8580967_n.jpg",
    "id_album": "297232732",
    "description": "Dinosaur_420428",
    "title": "Dinosaur_420428",
    "link_img": "https://live.staticflickr.com/65535/50019558028_39e58c3182_o.jpg",
    "id_image": "Dinosaur_420428",
    "count_view": 0
  },
  {
    "link_thumb": "https://live.staticflickr.com/65535/50018109821_7ef7689d75_n.jpg",
    "id_album": "-462831702",
    "description": "Cat_381788",
    "title": "Cat_381788",
    "link_img": "https://live.staticflickr.com/65535/50018109821_f1dfa3e16c_o.jpg",
    "id_image": "Cat_381788",
    "count_view": 0
  },
  {
    "link_thumb": "https://live.staticflickr.com/65535/50017248717_049e97f5be_n.jpg",
    "id_album": "809937717",
    "description": "Beagle_441438",
    "title": "Beagle_441438",
    "link_img": "https://live.staticflickr.com/65535/50017248717_8fe3ca5b6e_o.jpg",
    "id_image": "Beagle_441438",
    "count_view": 0
  },
  {
    "link_thumb": "https://live.staticflickr.com/65535/50016659508_e23f984be3_n.jpg",
    "id_album": "325287329",
    "description": "Beetle_443194",
    "title": "Beetle_443194",
    "link_img": "https://live.staticflickr.com/65535/50016659508_54757f5f2d_o.jpg",
    "id_image": "Beetle_443194",
    "count_view": 0
  },
  {
    "link_thumb": "https://live.staticflickr.com/65535/50017732761_fb6f85720e_n.jpg",
    "id_album": "189994021",
    "description": "Cardinal_380994",
    "title": "Cardinal_380994",
    "link_img": "https://live.staticflickr.com/65535/50017732761_8de43ce62b_o.jpg",
    "id_image": "Cardinal_380994",
    "count_view": 0
  },
  {
    "link_thumb": "https://live.staticflickr.com/65535/50021840033_d858a13bc3_n.jpg",
    "id_album": "-1384601601",
    "description": "Owl_264021",
    "title": "Owl_264021",
    "link_img": "https://live.staticflickr.com/65535/50021840033_fa0bc43358_o.jpg",
    "id_image": "Owl_264021",
    "count_view": 0
  },
  {
    "link_thumb": "https://live.staticflickr.com/65535/50019576357_cdcc7ebbeb_n.jpg",
    "id_album": "-462831703",
    "description": "Cat_849060",
    "title": "Cat_849060",
    "link_img": "https://live.staticflickr.com/65535/50019576357_079000d14d_o.jpg",
    "id_image": "Cat_849060",
    "count_view": 0
  },
  {
    "link_thumb": "https://live.staticflickr.com/65535/50017271852_c74e37f4e9_n.jpg",
    "id_album": "-422187261",
    "description": "Bear_236267",
    "title": "Bear_236267",
    "link_img": "https://live.staticflickr.com/65535/50017271852_fb3cdfb440_o.jpg",
    "id_image": "Bear_236267",
    "count_view": 0
  },
  {
    "link_thumb": "https://live.staticflickr.com/65535/50021483472_d174ab6721_n.jpg",
    "id_album": "-462831703",
    "description": "Cat_757218",
    "title": "Cat_757218",
    "link_img": "https://live.staticflickr.com/65535/50021483472_ecdcdb65a8_o.jpg",
    "id_image": "Cat_757218",
    "count_view": 0
  },
  {
    "link_thumb": "https://live.staticflickr.com/65535/50021079172_f9ecd86cf5_n.jpg",
    "id_album": "-1118073211",
    "description": "Fish_168990",
    "title": "Fish_168990",
    "link_img": "https://live.staticflickr.com/65535/50021079172_76c3cb0fe5_o.jpg",
    "id_image": "Fish_168990",
    "count_view": 0
  },
  {
    "link_thumb": "https://live.staticflickr.com/65535/50022872191_80f8ac0174_n.jpg",
    "id_album": "1008910300",
    "description": "PolarBear_925251",
    "title": "PolarBear_925251",
    "link_img": "https://live.staticflickr.com/65535/50022872191_7a440c6da4_o.jpg",
    "id_image": "PolarBear_925251",
    "count_view": 0
  },
  {
    "link_thumb": "https://live.staticflickr.com/65535/50017864646_e53d9de15c_n.jpg",
    "id_album": "-462831705",
    "description": "Cat_216251",
    "title": "Cat_216251",
    "link_img": "https://live.staticflickr.com/65535/50017864646_9bbe846cf1_o.jpg",
    "id_image": "Cat_216251",
    "count_view": 0
  },
  {
    "link_thumb": "https://live.staticflickr.com/65535/50023188873_d6d12a6beb_n.jpg",
    "id_album": "-1082521515",
    "description": "Spider_354967",
    "title": "Spider_354967",
    "link_img": "https://live.staticflickr.com/65535/50023188873_2e46bc002f_o.jpg",
    "id_image": "Spider_354967",
    "count_view": 0
  },
  {
    "link_thumb": "https://live.staticflickr.com/65535/50021494407_29850718ce_n.jpg",
    "id_album": "-462831703",
    "description": "Cat_779287",
    "title": "Cat_779287",
    "link_img": "https://live.staticflickr.com/65535/50021494407_489091ed70_o.jpg",
    "id_image": "Cat_779287",
    "count_view": 0
  },
  {
    "link_thumb": "https://live.staticflickr.com/65535/50017201428_85ea8650b8_n.jpg",
    "id_album": "189994021",
    "description": "Cardinal_1000510",
    "title": "Cardinal_1000510",
    "link_img": "https://live.staticflickr.com/65535/50017201428_1891fc00db_o.jpg",
    "id_image": "Cardinal_1000510",
    "count_view": 0
  },
  {
    "link_thumb": "https://live.staticflickr.com/65535/50023291792_146d82ee9b_n.jpg",
    "id_album": "-353898617",
    "description": "Puppy_591925",
    "title": "Puppy_591925",
    "link_img": "https://live.staticflickr.com/65535/50023291792_820ed6610d_o.jpg",
    "id_image": "Puppy_591925",
    "count_view": 0
  },
  {
    "link_thumb": "https://live.staticflickr.com/65535/50021345952_6a9caaa700_n.jpg",
    "id_album": "-34696179",
    "description": "Gecko_440564",
    "title": "Gecko_440564",
    "link_img": "https://live.staticflickr.com/65535/50021345952_d901caf95d_o.jpg",
    "id_image": "Gecko_440564",
    "count_view": 0
  },
  {
    "link_thumb": "https://live.staticflickr.com/65535/50023688668_7172b90894_n.jpg",
    "id_album": "405170427",
    "description": "Tiger_899732",
    "title": "Tiger_899732",
    "link_img": "https://live.staticflickr.com/65535/50023688668_d20c7f3e34_o.jpg",
    "id_image": "Tiger_899732",
    "count_view": 0
  },
  {
    "link_thumb": "https://live.staticflickr.com/65535/50020292723_53201f558b_n.jpg",
    "id_album": "-1118073211",
    "description": "Fish_236221",
    "title": "Fish_236221",
    "link_img": "https://live.staticflickr.com/65535/50020292723_ff8495bb23_o.jpg",
    "id_image": "Fish_236221",
    "count_view": 0
  },
  {
    "link_thumb": "https://live.staticflickr.com/65535/50020529638_8ebedf5c23_n.jpg",
    "id_album": "844170697",
    "description": "Frog_696866",
    "title": "Frog_696866",
    "link_img": "https://live.staticflickr.com/65535/50020529638_a632d8787c_o.jpg",
    "id_image": "Frog_696866",
    "count_view": 0
  },
  {
    "link_thumb": "https://live.staticflickr.com/65535/50023230567_585b98a77c_n.jpg",
    "id_album": "-353898617",
    "description": "Puppy_364947",
    "title": "Puppy_364947",
    "link_img": "https://live.staticflickr.com/65535/50023230567_cc6773176b_o.jpg",
    "id_image": "Puppy_364947",
    "count_view": 0
  },
  {
    "link_thumb": "https://live.staticflickr.com/65535/50019344996_8fae2b18cd_n.jpg",
    "id_album": "-462831703",
    "description": "Cat_866014",
    "title": "Cat_866014",
    "link_img": "https://live.staticflickr.com/65535/50019344996_ab537064a5_o.jpg",
    "id_image": "Cat_866014",
    "count_view": 0
  },
  {
    "link_thumb": "https://live.staticflickr.com/65535/50017837971_97d8169b9c_n.jpg",
    "id_album": "-462831705",
    "description": "Cat_196144",
    "title": "Cat_196144",
    "link_img": "https://live.staticflickr.com/65535/50017837971_ed756c6afe_o.jpg",
    "id_image": "Cat_196144",
    "count_view": 0
  },
  {
    "link_thumb": "https://live.staticflickr.com/65535/50021563212_33206b2a88_n.jpg",
    "id_album": "-405626519",
    "description": "GermanShepherd_900657",
    "title": "GermanShepherd_900657",
    "link_img": "https://live.staticflickr.com/65535/50021563212_f59cd3f5e0_o.jpg",
    "id_image": "GermanShepherd_900657",
    "count_view": 0
  },
  {
    "link_thumb": "https://live.staticflickr.com/65535/50016828531_384397b67b_n.jpg",
    "id_album": "-229810103",
    "description": "AmericanBison_805223",
    "title": "AmericanBison_805223",
    "link_img": "https://live.staticflickr.com/65535/50016828531_b279350d99_o.jpg",
    "id_image": "AmericanBison_805223",
    "count_view": 0
  },
  {
    "link_thumb": "https://live.staticflickr.com/65535/50021268733_a3fb2ab574_n.jpg",
    "id_album": "770105808",
    "description": "Kingfisher_848895",
    "title": "Kingfisher_848895",
    "link_img": "https://live.staticflickr.com/65535/50021268733_5c529ff576_o.jpg",
    "id_image": "Kingfisher_848895",
    "count_view": 0
  },
  {
    "link_thumb": "https://live.staticflickr.com/65535/50021306468_00eb5837ca_n.jpg",
    "id_album": "-1882491687",
    "description": "Ladybug_403428",
    "title": "Ladybug_403428",
    "link_img": "https://live.staticflickr.com/65535/50021306468_2d0452078b_o.jpg",
    "id_image": "Ladybug_403428",
    "count_view": 0
  },
  {
    "link_thumb": "https://live.staticflickr.com/65535/50023124687_fe88c911ba_n.jpg",
    "id_album": "1008910300",
    "description": "PolarBear_897605",
    "title": "PolarBear_897605",
    "link_img": "https://live.staticflickr.com/65535/50023124687_bd472f5079_o.jpg",
    "id_image": "PolarBear_897605",
    "count_view": 0
  },
  {
    "link_thumb": "https://live.staticflickr.com/65535/50022887011_7755821c55_n.jpg",
    "id_album": "191452764",
    "description": "PrayingMantis_397610",
    "title": "PrayingMantis_397610",
    "link_img": "https://live.staticflickr.com/65535/50022887011_6620984ac3_o.jpg",
    "id_image": "PrayingMantis_397610",
    "count_view": 0
  },
  {
    "link_thumb": "https://live.staticflickr.com/65535/50020439878_edf66d538d_n.jpg",
    "id_album": "-128218148",
    "description": "Fox_602789",
    "title": "Fox_602789",
    "link_img": "https://live.staticflickr.com/65535/50020439878_4dd0befed7_o.jpg",
    "id_image": "Fox_602789",
    "count_view": 0
  },
  {
    "link_thumb": "https://live.staticflickr.com/65535/50023577472_c0fa30b385_n.jpg",
    "id_album": "1926701726",
    "description": "Robin_930347",
    "title": "Robin_930347",
    "link_img": "https://live.staticflickr.com/65535/50023577472_decc6fb183_o.jpg",
    "id_image": "Robin_930347",
    "count_view": 0
  },
  {
    "link_thumb": "https://live.staticflickr.com/65535/50020808636_065a8fd8ca_n.jpg",
    "id_album": "822895535",
    "description": "Falcon_359335",
    "title": "Falcon_359335",
    "link_img": "https://live.staticflickr.com/65535/50020808636_3e390edafc_o.jpg",
    "id_image": "Falcon_359335",
    "count_view": 0
  },
  {
    "link_thumb": "https://live.staticflickr.com/65535/50021010421_5cbe199443_n.jpg",
    "id_album": "-128218148",
    "description": "Fox_830446",
    "title": "Fox_830446",
    "link_img": "https://live.staticflickr.com/65535/50021010421_b3f062e258_o.jpg",
    "id_image": "Fox_830446",
    "count_view": 0
  },
  {
    "link_thumb": "https://live.staticflickr.com/65535/50019422257_5b1c1f3e5c_n.jpg",
    "id_album": "-462831702",
    "description": "Cat_423809",
    "title": "Cat_423809",
    "link_img": "https://live.staticflickr.com/65535/50019422257_896fbe2598_o.jpg",
    "id_image": "Cat_423809",
    "count_view": 0
  },
  {
    "link_thumb": "https://live.staticflickr.com/65535/50021271238_4f029d5c62_n.jpg",
    "id_album": "770105808",
    "description": "Kingfisher_926773",
    "title": "Kingfisher_926773",
    "link_img": "https://live.staticflickr.com/65535/50021271238_2766651f76_o.jpg",
    "id_image": "Kingfisher_926773",
    "count_view": 0
  },
  {
    "link_thumb": "https://live.staticflickr.com/65535/50021104986_5e4468d5f5_n.jpg",
    "id_album": "-462831704",
    "description": "Cat_548645",
    "title": "Cat_548645",
    "link_img": "https://live.staticflickr.com/65535/50021104986_1dc93a6190_o.jpg",
    "id_image": "Cat_548645",
    "count_view": 0
  },
  {
    "link_thumb": "https://live.staticflickr.com/65535/50019891847_cee94d99ec_n.jpg",
    "id_album": "-766919393",
    "description": "Chameleon_191200",
    "title": "Chameleon_191200",
    "link_img": "https://live.staticflickr.com/65535/50019891847_7e2120e2b8_o.jpg",
    "id_image": "Chameleon_191200",
    "count_view": 0
  },
  {
    "link_thumb": "https://live.staticflickr.com/65535/50022568912_a94ea63530_n.jpg",
    "id_album": "1015034486",
    "description": "Muteswan_326010",
    "title": "Muteswan_326010",
    "link_img": "https://live.staticflickr.com/65535/50022568912_fd201b154f_o.jpg",
    "id_image": "Muteswan_326010",
    "count_view": 0
  },
  {
    "link_thumb": "https://live.staticflickr.com/65535/50017704042_c5261997e6_n.jpg",
    "id_album": "-1846011410",
    "description": "Bird_952592",
    "title": "Bird_952592",
    "link_img": "https://live.staticflickr.com/65535/50017704042_585d998212_o.jpg",
    "id_image": "Bird_952592",
    "count_view": 0
  },
  {
    "link_thumb": "https://live.staticflickr.com/65535/50351897258_b91b3f19a5_n.jpg",
    "id_album": "-462831703",
    "description": "Cat_535320",
    "title": "Cat_535320",
    "link_img": "https://live.staticflickr.com/65535/50351897258_538b1d8222_o.jpg",
    "id_image": "Cat_535320",
    "count_view": 0
  },
  {
    "link_thumb": "https://live.staticflickr.com/65535/50021183967_4a301cb31c_n.jpg",
    "id_album": "-1694105481",
    "description": "Fly_889062",
    "title": "Fly_889062",
    "link_img": "https://live.staticflickr.com/65535/50021183967_9980183090_o.jpg",
    "id_image": "Fly_889062",
    "count_view": 0
  },
  {
    "link_thumb": "https://live.staticflickr.com/65535/50351703208_68a613a552_n.jpg",
    "id_album": "-462831703",
    "description": "Cat_118017",
    "title": "Cat_118017",
    "link_img": "https://live.staticflickr.com/65535/50351703208_430f0fee1d_o.jpg",
    "id_image": "Cat_118017",
    "count_view": 0
  },
  {
    "link_thumb": "https://live.staticflickr.com/65535/50017571556_5f2f771276_n.jpg",
    "id_album": "-401151552",
    "description": "Butterfly_366106",
    "title": "Butterfly_366106",
    "link_img": "https://live.staticflickr.com/65535/50017571556_84c0a51817_o.jpg",
    "id_image": "Butterfly_366106",
    "count_view": 0
  },
  {
    "link_thumb": "https://live.staticflickr.com/65535/50019687817_9bfa48c80a_n.jpg",
    "id_album": "-462831703",
    "description": "Cat_906904",
    "title": "Cat_906904",
    "link_img": "https://live.staticflickr.com/65535/50019687817_5fa74a6cb3_o.jpg",
    "id_image": "Cat_906904",
    "count_view": 0
  },
  {
    "link_thumb": "https://live.staticflickr.com/65535/50016578503_b036ab80da_n.jpg",
    "id_album": "-422187261",
    "description": "Bear_938141",
    "title": "Bear_938141",
    "link_img": "https://live.staticflickr.com/65535/50016578503_a40581d1a8_o.jpg",
    "id_image": "Bear_938141",
    "count_view": 0
  },
  {
    "link_thumb": "https://live.staticflickr.com/65535/50017926651_e5a8fd3727_n.jpg",
    "id_album": "-462831705",
    "description": "Cat_274860",
    "title": "Cat_274860",
    "link_img": "https://live.staticflickr.com/65535/50017926651_9d027bebdb_o.jpg",
    "id_image": "Cat_274860",
    "count_view": 0
  },
  {
    "link_thumb": "https://live.staticflickr.com/65535/50023067251_7d8df4c21f_n.jpg",
    "id_album": "-353898617",
    "description": "Puppy_867807",
    "title": "Puppy_867807",
    "link_img": "https://live.staticflickr.com/65535/50023067251_334604d3ee_o.jpg",
    "id_image": "Puppy_867807",
    "count_view": 0
  },
  {
    "link_thumb": "https://live.staticflickr.com/65535/50022141853_687db96bd4_n.jpg",
    "id_album": "392248205",
    "description": "Penguin_266576",
    "title": "Penguin_266576",
    "link_img": "https://live.staticflickr.com/65535/50022141853_1c7a0436ce_o.jpg",
    "id_image": "Penguin_266576",
    "count_view": 0
  },
  {
    "link_thumb": "https://live.staticflickr.com/65535/50017989506_1226807511_n.jpg",
    "id_album": "-462831702",
    "description": "Cat_330494",
    "title": "Cat_330494",
    "link_img": "https://live.staticflickr.com/65535/50017989506_9bb43eb1f7_o.jpg",
    "id_image": "Cat_330494",
    "count_view": 0
  },
  {
    "link_thumb": "https://live.staticflickr.com/65535/50019965188_f31a10d728_n.jpg",
    "id_album": "-149330231",
    "description": "Dog_729980",
    "title": "Dog_729980",
    "link_img": "https://live.staticflickr.com/65535/50019965188_52f649f260_o.jpg",
    "id_image": "Dog_729980",
    "count_view": 0
  },
  {
    "link_thumb": "https://live.staticflickr.com/65535/50018399112_99d92ae5a9_n.jpg",
    "id_album": "-462831702",
    "description": "Cat_399010",
    "title": "Cat_399010",
    "link_img": "https://live.staticflickr.com/65535/50018399112_698d24b6e7_o.jpg",
    "id_image": "Cat_399010",
    "count_view": 0
  },
  {
    "link_thumb": "https://live.staticflickr.com/65535/50018059577_e48e55984d_n.jpg",
    "id_album": "-462831705",
    "description": "Cat_166894",
    "title": "Cat_166894",
    "link_img": "https://live.staticflickr.com/65535/50018059577_22095e7602_o.jpg",
    "id_image": "Cat_166894",
    "count_view": 0
  },
  {
    "link_thumb": "https://live.staticflickr.com/65535/50020014863_d34198290b_n.jpg",
    "id_album": "-149330231",
    "description": "Dog_937961",
    "title": "Dog_937961",
    "link_img": "https://live.staticflickr.com/65535/50020014863_cdf7f8e1ba_o.jpg",
    "id_image": "Dog_937961",
    "count_view": 0
  },
  {
    "link_thumb": "https://live.staticflickr.com/65535/50022405782_5f94e3c897_n.jpg",
    "id_album": "1894617400",
    "description": "Lynx_426767",
    "title": "Lynx_426767",
    "link_img": "https://live.staticflickr.com/65535/50022405782_1135c86c77_o.jpg",
    "id_image": "Lynx_426767",
    "count_view": 0
  },
  {
    "link_thumb": "https://live.staticflickr.com/65535/50020215866_bf21beba15_n.jpg",
    "id_album": "-149330232",
    "description": "Dog_276166",
    "title": "Dog_276166",
    "link_img": "https://live.staticflickr.com/65535/50020215866_e1835f56bf_o.jpg",
    "id_image": "Dog_276166",
    "count_view": 0
  },
  {
    "link_thumb": "https://live.staticflickr.com/65535/50017809542_f3262a0e1b_n.jpg",
    "id_album": "-401151552",
    "description": "Butterfly_234449",
    "title": "Butterfly_234449",
    "link_img": "https://live.staticflickr.com/65535/50017809542_30a14be94c_o.jpg",
    "id_image": "Butterfly_234449",
    "count_view": 0
  },
  {
    "link_thumb": "https://live.staticflickr.com/65535/50020935197_3c8ab010da_n.jpg",
    "id_album": "1168627767",
    "description": "Duck_96603",
    "title": "Duck_96603",
    "link_img": "https://live.staticflickr.com/65535/50020935197_dc93c9867c_o.jpg",
    "id_image": "Duck_96603",
    "count_view": 0
  },
  {
    "link_thumb": "https://live.staticflickr.com/65535/50017276368_bba7230a6d_n.jpg",
    "id_album": "-462831705",
    "description": "Cat_168527",
    "title": "Cat_168527",
    "link_img": "https://live.staticflickr.com/65535/50017276368_2994e5f17a_o.jpg",
    "id_image": "Cat_168527",
    "count_view": 0
  },
  {
    "link_thumb": "https://live.staticflickr.com/65535/50021248806_5827643cd4_n.jpg",
    "id_album": "-462831703",
    "description": "Cat_789391",
    "title": "Cat_789391",
    "link_img": "https://live.staticflickr.com/65535/50021248806_fafbf0deb7_o.jpg",
    "id_image": "Cat_789391",
    "count_view": 0
  },
  {
    "link_thumb": "https://live.staticflickr.com/65535/50022486013_8cb3266065_n.jpg",
    "id_album": "-353898617",
    "description": "Puppy_588532",
    "title": "Puppy_588532",
    "link_img": "https://live.staticflickr.com/65535/50022486013_670a6812e2_o.jpg",
    "id_image": "Puppy_588532",
    "count_view": 0
  },
  {
    "link_thumb": "https://live.staticflickr.com/65535/50022073057_429c3d5eee_n.jpg",
    "id_album": "771796001",
    "description": "Koala_398631",
    "title": "Koala_398631",
    "link_img": "https://live.staticflickr.com/65535/50022073057_8a4888403e_o.jpg",
    "id_image": "Koala_398631",
    "count_view": 0
  },
  {
    "link_thumb": "https://live.staticflickr.com/65535/50022384043_0926e275af_n.jpg",
    "id_album": "-356780855",
    "description": "Puffin_547102",
    "title": "Puffin_547102",
    "link_img": "https://live.staticflickr.com/65535/50022384043_9282d033b4_o.jpg",
    "id_image": "Puffin_547102",
    "count_view": 0
  },
  {
    "link_thumb": "https://live.staticflickr.com/65535/50022147191_2734d19e55_n.jpg",
    "id_album": "1894617400",
    "description": "Lynx_435971",
    "title": "Lynx_435971",
    "link_img": "https://live.staticflickr.com/65535/50022147191_02b4712ac1_o.jpg",
    "id_image": "Lynx_435971",
    "count_view": 0
  },
  {
    "link_thumb": "https://live.staticflickr.com/65535/50023087381_9efb39f2cd_n.jpg",
    "id_album": "-1940643173",
    "description": "Rabbit_170097",
    "title": "Rabbit_170097",
    "link_img": "https://live.staticflickr.com/65535/50023087381_662f566a3e_o.jpg",
    "id_image": "Rabbit_170097",
    "count_view": 0
  },
  {
    "link_thumb": "https://live.staticflickr.com/65535/50021200182_27243fbdd7_n.jpg",
    "id_album": "-128218148",
    "description": "Fox_330906",
    "title": "Fox_330906",
    "link_img": "https://live.staticflickr.com/65535/50021200182_c61ed2c7cc_o.jpg",
    "id_image": "Fox_330906",
    "count_view": 0
  },
  {
    "link_thumb": "https://live.staticflickr.com/65535/50017554021_1e1a407945_n.jpg",
    "id_album": "-401151552",
    "description": "Butterfly_264027",
    "title": "Butterfly_264027",
    "link_img": "https://live.staticflickr.com/65535/50017554021_b01b9e9b13_o.jpg",
    "id_image": "Butterfly_264027",
    "count_view": 0
  },
  {
    "link_thumb": "https://live.staticflickr.com/65535/50022407572_5f8884f2e2_n.jpg",
    "id_album": "1894617400",
    "description": "Lynx_439373",
    "title": "Lynx_439373",
    "link_img": "https://live.staticflickr.com/65535/50022407572_6773bbf45e_o.jpg",
    "id_image": "Lynx_439373",
    "count_view": 0
  },
  {
    "link_thumb": "https://live.staticflickr.com/65535/50019277936_8b4ef58e64_n.jpg",
    "id_album": "-462831704",
    "description": "Cat_518920",
    "title": "Cat_518920",
    "link_img": "https://live.staticflickr.com/65535/50019277936_0d7dd85618_o.jpg",
    "id_image": "Cat_518920",
    "count_view": 0
  },
  {
    "link_thumb": "https://live.staticflickr.com/65535/50016635568_990bec4c40_n.jpg",
    "id_album": "1699594607",
    "description": "Bee_790129",
    "title": "Bee_790129",
    "link_img": "https://live.staticflickr.com/65535/50016635568_90831af5e4_o.jpg",
    "id_image": "Bee_790129",
    "count_view": 0
  },
  {
    "link_thumb": "https://live.staticflickr.com/65535/50021698487_85ac82ce51_n.jpg",
    "id_album": "54253492",
    "description": "Heron_591297",
    "title": "Heron_591297",
    "link_img": "https://live.staticflickr.com/65535/50021698487_d7ceafcfa6_o.jpg",
    "id_image": "Heron_591297",
    "count_view": 0
  },
  {
    "link_thumb": "https://live.staticflickr.com/65535/50352691782_d3438aa707_n.jpg",
    "id_album": "-462831703",
    "description": "Cat_453658",
    "title": "Cat_453658",
    "link_img": "https://live.staticflickr.com/65535/50352691782_1478eab957_o.jpg",
    "id_image": "Cat_453658",
    "count_view": 0
  },
  {
    "link_thumb": "https://live.staticflickr.com/65535/50352748142_da02651011_n.jpg",
    "id_album": "-462831703",
    "description": "Cat_527494",
    "title": "Cat_527494",
    "link_img": "https://live.staticflickr.com/65535/50352748142_b5155515ac_o.jpg",
    "id_image": "Cat_527494",
    "count_view": 0
  },
  {
    "link_thumb": "https://live.staticflickr.com/65535/50020189971_02637099a1_n.jpg",
    "id_album": "-149330232",
    "description": "Dog_262492",
    "title": "Dog_262492",
    "link_img": "https://live.staticflickr.com/65535/50020189971_4f7528b9dd_o.jpg",
    "id_image": "Dog_262492",
    "count_view": 0
  },
  {
    "link_thumb": "https://live.staticflickr.com/65535/50016934913_3153130e5e_n.jpg",
    "id_album": "-530283314",
    "description": "BlueandyellowMacaw_311139",
    "title": "BlueandyellowMacaw_311139",
    "link_img": "https://live.staticflickr.com/65535/50016934913_61a26d439b_o.jpg",
    "id_image": "BlueandyellowMacaw_311139",
    "count_view": 0
  },
  {
    "link_thumb": "https://live.staticflickr.com/65535/50016292513_03d2de012f_n.jpg",
    "id_album": "-1473450542",
    "description": "Alpaca_548464",
    "title": "Alpaca_548464",
    "link_img": "https://live.staticflickr.com/65535/50016292513_1c296d42be_o.jpg",
    "id_image": "Alpaca_548464",
    "count_view": 0
  },
  {
    "link_thumb": "https://live.staticflickr.com/65535/50021838561_c350da766f_n.jpg",
    "id_album": "-1882491687",
    "description": "Ladybug_115067",
    "title": "Ladybug_115067",
    "link_img": "https://live.staticflickr.com/65535/50021838561_c458ea37e3_o.jpg",
    "id_image": "Ladybug_115067",
    "count_view": 0
  },
  {
    "link_thumb": "https://live.staticflickr.com/65535/50018788868_cd7c8089e9_n.jpg",
    "id_album": "-462831705",
    "description": "Cat_84959",
    "title": "Cat_84959",
    "link_img": "https://live.staticflickr.com/65535/50018788868_1f3bc1a78d_o.jpg",
    "id_image": "Cat_84959",
    "count_view": 0
  },
  {
    "link_thumb": "https://live.staticflickr.com/65535/50020692393_c38354e3b0_n.jpg",
    "id_album": "-462831703",
    "description": "Cat_769959",
    "title": "Cat_769959",
    "link_img": "https://live.staticflickr.com/65535/50020692393_8ff5778474_o.jpg",
    "id_image": "Cat_769959",
    "count_view": 0
  },
  {
    "link_thumb": "https://live.staticflickr.com/65535/50020224697_a3ddfc429b_n.jpg",
    "id_album": "-1783645069",
    "description": "Dalmatian_468934",
    "title": "Dalmatian_468934",
    "link_img": "https://live.staticflickr.com/65535/50020224697_c494f75ba0_o.jpg",
    "id_image": "Dalmatian_468934",
    "count_view": 0
  },
  {
    "link_thumb": "https://live.staticflickr.com/65535/50018018187_e1afaff3dd_n.jpg",
    "id_album": "-462831705",
    "description": "Cat_113348",
    "title": "Cat_113348",
    "link_img": "https://live.staticflickr.com/65535/50018018187_ca8694ed7e_o.jpg",
    "id_image": "Cat_113348",
    "count_view": 0
  },
  {
    "link_thumb": "https://live.staticflickr.com/65535/50019471463_44b23b910c_n.jpg",
    "id_album": "1903411565",
    "description": "Deer_386836",
    "title": "Deer_386836",
    "link_img": "https://live.staticflickr.com/65535/50019471463_e86a5b4c77_o.jpg",
    "id_image": "Deer_386836",
    "count_view": 0
  },
  {
    "link_thumb": "https://live.staticflickr.com/65535/50022469208_b010ea9907_n.jpg",
    "id_album": "-353898617",
    "description": "Puppy_528605",
    "title": "Puppy_528605",
    "link_img": "https://live.staticflickr.com/65535/50022469208_c8c8112951_o.jpg",
    "id_image": "Puppy_528605",
    "count_view": 0
  },
  {
    "link_thumb": "https://live.staticflickr.com/65535/50021881907_2bac6229fd_n.jpg",
    "id_album": "-712553376",
    "description": "Husky_359185",
    "title": "Husky_359185",
    "link_img": "https://live.staticflickr.com/65535/50021881907_90d2af54fe_o.jpg",
    "id_image": "Husky_359185",
    "count_view": 0
  },
  {
    "link_thumb": "https://live.staticflickr.com/65535/50017205672_7fb58f77cb_n.jpg",
    "id_album": "390697200",
    "description": "AustralianShepherd_888192",
    "title": "AustralianShepherd_888192",
    "link_img": "https://live.staticflickr.com/65535/50017205672_d36c2ce80f_o.jpg",
    "id_image": "AustralianShepherd_888192",
    "count_view": 0
  },
  {
    "link_thumb": "https://live.staticflickr.com/65535/50020910657_0611133cfd_n.jpg",
    "id_album": "1168627767",
    "description": "Duck_368377",
    "title": "Duck_368377",
    "link_img": "https://live.staticflickr.com/65535/50020910657_90435ca83d_o.jpg",
    "id_image": "Duck_368377",
    "count_view": 0
  },
  {
    "link_thumb": "https://live.staticflickr.com/65535/50021832071_75568a75d8_n.jpg",
    "id_album": "1307335982",
    "description": "LabradorRetriever_734383",
    "title": "LabradorRetriever_734383",
    "link_img": "https://live.staticflickr.com/65535/50021832071_b95c2f6aa8_o.jpg",
    "id_image": "LabradorRetriever_734383",
    "count_view": 0
  },
  {
    "link_thumb": "https://live.staticflickr.com/65535/50351789443_2bd10179c3_n.jpg",
    "id_album": "-462831703",
    "description": "Cat_383375",
    "title": "Cat_383375",
    "link_img": "https://live.staticflickr.com/65535/50351789443_e3432c4afb_o.jpg",
    "id_image": "Cat_383375",
    "count_view": 0
  },
  {
    "link_thumb": "https://live.staticflickr.com/65535/50017318801_697b5d245d_n.jpg",
    "id_album": "-1846011410",
    "description": "Bird_412339",
    "title": "Bird_412339",
    "link_img": "https://live.staticflickr.com/65535/50017318801_95ca3da2ee_o.jpg",
    "id_image": "Bird_412339",
    "count_view": 0
  },
  {
    "link_thumb": "https://live.staticflickr.com/65535/50021056598_d438dbd6e0_n.jpg",
    "id_album": "773713550",
    "description": "Hoverfly_792348",
    "title": "Hoverfly_792348",
    "link_img": "https://live.staticflickr.com/65535/50021056598_5f8a485d3c_o.jpg",
    "id_image": "Hoverfly_792348",
    "count_view": 0
  },
  {
    "link_thumb": "https://live.staticflickr.com/65535/50020375216_dbf51964bc_n.jpg",
    "id_album": "-149330231",
    "description": "Dog_399614",
    "title": "Dog_399614",
    "link_img": "https://live.staticflickr.com/65535/50020375216_f6829289cb_o.jpg",
    "id_image": "Dog_399614",
    "count_view": 0
  },
  {
    "link_thumb": "https://live.staticflickr.com/65535/50020385237_1808a499bd_n.jpg",
    "id_album": "-149330232",
    "description": "Dog_156721",
    "title": "Dog_156721",
    "link_img": "https://live.staticflickr.com/65535/50020385237_ddeae09ba4_o.jpg",
    "id_image": "Dog_156721",
    "count_view": 0
  },
  {
    "link_thumb": "https://live.staticflickr.com/65535/50019360253_7567772c3d_n.jpg",
    "id_album": "1475096665",
    "description": "Crocodile_417877",
    "title": "Crocodile_417877",
    "link_img": "https://live.staticflickr.com/65535/50019360253_0414ffeaff_o.jpg",
    "id_image": "Crocodile_417877",
    "count_view": 0
  },
  {
    "link_thumb": "https://live.staticflickr.com/65535/50351873823_7572d7e16b_n.jpg",
    "id_album": "-462831703",
    "description": "Cat_499620",
    "title": "Cat_499620",
    "link_img": "https://live.staticflickr.com/65535/50351873823_4af11943d6_o.jpg",
    "id_image": "Cat_499620",
    "count_view": 0
  },
  {
    "link_thumb": "https://live.staticflickr.com/65535/50017283346_23e77c5786_n.jpg",
    "id_album": "-1846011410",
    "description": "Bird_368693",
    "title": "Bird_368693",
    "link_img": "https://live.staticflickr.com/65535/50017283346_4719a962d5_o.jpg",
    "id_image": "Bird_368693",
    "count_view": 0
  },
  {
    "link_thumb": "https://live.staticflickr.com/65535/50024232857_bdf5c1e3b8_n.jpg",
    "id_album": "702283289",
    "description": "Squirrel_925234",
    "title": "Squirrel_925234",
    "link_img": "https://live.staticflickr.com/65535/50024232857_3dd77be527_o.jpg",
    "id_image": "Squirrel_925234",
    "count_view": 0
  },
  {
    "link_thumb": "https://live.staticflickr.com/65535/50021641271_de82b424ba_n.jpg",
    "id_album": "-712553376",
    "description": "Husky_834775",
    "title": "Husky_834775",
    "link_img": "https://live.staticflickr.com/65535/50021641271_d77ec6438d_o.jpg",
    "id_image": "Husky_834775",
    "count_view": 0
  },
  {
    "link_thumb": "https://live.staticflickr.com/65535/50017691047_4213f43c91_n.jpg",
    "id_album": "-1846011410",
    "description": "Bird_827468",
    "title": "Bird_827468",
    "link_img": "https://live.staticflickr.com/65535/50017691047_5762cf4905_o.jpg",
    "id_image": "Bird_827468",
    "count_view": 0
  },
  {
    "link_thumb": "https://live.staticflickr.com/65535/50020519153_b3d03af282_n.jpg",
    "id_album": "844170697",
    "description": "Frog_407341",
    "title": "Frog_407341",
    "link_img": "https://live.staticflickr.com/65535/50020519153_99a0e009b6_o.jpg",
    "id_image": "Frog_407341",
    "count_view": 0
  },
  {
    "link_thumb": "https://live.staticflickr.com/65535/50023484753_9a4a8efb5a_n.jpg",
    "id_album": "405170427",
    "description": "Tiger_190978",
    "title": "Tiger_190978",
    "link_img": "https://live.staticflickr.com/65535/50023484753_901049434b_o.jpg",
    "id_image": "Tiger_190978",
    "count_view": 0
  },
  {
    "link_thumb": "https://live.staticflickr.com/65535/50019706683_e323d1db08_n.jpg",
    "id_album": "-149330232",
    "description": "Dog_323391",
    "title": "Dog_323391",
    "link_img": "https://live.staticflickr.com/65535/50019706683_8225b3d78b_o.jpg",
    "id_image": "Dog_323391",
    "count_view": 0
  },
  {
    "link_thumb": "https://live.staticflickr.com/65535/50020289736_de5f64971f_n.jpg",
    "id_album": "-149330232",
    "description": "Dog_345102",
    "title": "Dog_345102",
    "link_img": "https://live.staticflickr.com/65535/50020289736_c9ee505f5f_o.jpg",
    "id_image": "Dog_345102",
    "count_view": 0
  },
  {
    "link_thumb": "https://live.staticflickr.com/65535/50019952316_83bdabb36a_n.jpg",
    "id_album": "1831085598",
    "description": "Dachshund_517262",
    "title": "Dachshund_517262",
    "link_img": "https://live.staticflickr.com/65535/50019952316_8d5cab2303_o.jpg",
    "id_image": "Dachshund_517262",
    "count_view": 0
  },
  {
    "link_thumb": "https://live.staticflickr.com/65535/50020081812_62007de1e6_n.jpg",
    "id_album": "-1868680171",
    "description": "Cougar_590436",
    "title": "Cougar_590436",
    "link_img": "https://live.staticflickr.com/65535/50020081812_e6af6102c9_o.jpg",
    "id_image": "Cougar_590436",
    "count_view": 0
  },
  {
    "link_thumb": "https://live.staticflickr.com/65535/50023235031_7cef66e0a2_n.jpg",
    "id_album": "332874268",
    "description": "RedPanda_821826",
    "title": "RedPanda_821826",
    "link_img": "https://live.staticflickr.com/65535/50023235031_765b7d4157_o.jpg",
    "id_image": "RedPanda_821826",
    "count_view": 0
  },
  {
    "link_thumb": "https://live.staticflickr.com/65535/50024602647_bae054a7d5_n.jpg",
    "id_album": "410750612",
    "description": "Wasp_574371",
    "title": "Wasp_574371",
    "link_img": "https://live.staticflickr.com/65535/50024602647_cd4d2d2b3c_o.jpg",
    "id_image": "Wasp_574371",
    "count_view": 0
  },
  {
    "link_thumb": "https://live.staticflickr.com/65535/50016472378_f905c08aa6_n.jpg",
    "id_album": "809937717",
    "description": "Beagle_977029",
    "title": "Beagle_977029",
    "link_img": "https://live.staticflickr.com/65535/50016472378_0e5ce01503_o.jpg",
    "id_image": "Beagle_977029",
    "count_view": 0
  },
  {
    "link_thumb": "https://live.staticflickr.com/65535/50019611711_03d70889b8_n.jpg",
    "id_album": "-420782796",
    "description": "Caterpillar_724682",
    "title": "Caterpillar_724682",
    "link_img": "https://live.staticflickr.com/65535/50019611711_6a0bc64380_o.jpg",
    "id_image": "Caterpillar_724682",
    "count_view": 0
  },
  {
    "link_thumb": "https://live.staticflickr.com/65535/50017510742_7549022bae_n.jpg",
    "id_album": "-1846011410",
    "description": "Bird_340702",
    "title": "Bird_340702",
    "link_img": "https://live.staticflickr.com/65535/50017510742_3293d9b1d0_o.jpg",
    "id_image": "Bird_340702",
    "count_view": 0
  },
  {
    "link_thumb": "https://live.staticflickr.com/65535/50021220186_c7a4a6175a_n.jpg",
    "id_album": "-462831703",
    "description": "Cat_740883",
    "title": "Cat_740883",
    "link_img": "https://live.staticflickr.com/65535/50021220186_de9628ba36_o.jpg",
    "id_image": "Cat_740883",
    "count_view": 0
  },
  {
    "link_thumb": "https://live.staticflickr.com/65535/50017121162_d03d6c452d_n.jpg",
    "id_album": "523598895",
    "description": "Artistic_112760",
    "title": "Artistic_112760",
    "link_img": "https://live.staticflickr.com/65535/50017121162_0042cd4938_o.jpg",
    "id_image": "Artistic_112760",
    "count_view": 0
  },
  {
    "link_thumb": "https://live.staticflickr.com/65535/50018698573_ef49eab83b_n.jpg",
    "id_album": "-462831704",
    "description": "Cat_458810",
    "title": "Cat_458810",
    "link_img": "https://live.staticflickr.com/65535/50018698573_27cd11e9a9_o.jpg",
    "id_image": "Cat_458810",
    "count_view": 0
  },
  {
    "link_thumb": "https://live.staticflickr.com/65535/50021371152_6902fa0a32_n.jpg",
    "id_album": "-462831704",
    "description": "Cat_568742",
    "title": "Cat_568742",
    "link_img": "https://live.staticflickr.com/65535/50021371152_ce6077ee5d_o.jpg",
    "id_image": "Cat_568742",
    "count_view": 0
  },
  {
    "link_thumb": "https://live.staticflickr.com/65535/50021457576_89e8728706_n.jpg",
    "id_album": "-1933715543",
    "description": "Horse_102904",
    "title": "Horse_102904",
    "link_img": "https://live.staticflickr.com/65535/50021457576_45e8fd4a6e_o.jpg",
    "id_image": "Horse_102904",
    "count_view": 0
  },
  {
    "link_thumb": "https://live.staticflickr.com/65535/50021674717_efd98c46fb_n.jpg",
    "id_album": "-1513987841",
    "description": "Hawk_438093",
    "title": "Hawk_438093",
    "link_img": "https://live.staticflickr.com/65535/50021674717_93d3ab4b0e_o.jpg",
    "id_image": "Hawk_438093",
    "count_view": 0
  },
  {
    "link_thumb": "https://live.staticflickr.com/65535/50020053761_5175a1972a_n.jpg",
    "id_album": "1903411565",
    "description": "Deer_794904",
    "title": "Deer_794904",
    "link_img": "https://live.staticflickr.com/65535/50020053761_a8259afb6d_o.jpg",
    "id_image": "Deer_794904",
    "count_view": 0
  },
  {
    "link_thumb": "https://live.staticflickr.com/65535/50020930833_8507b9aea7_n.jpg",
    "id_album": "-1933715543",
    "description": "Horse_247400",
    "title": "Horse_247400",
    "link_img": "https://live.staticflickr.com/65535/50020930833_0db3588c4b_o.jpg",
    "id_image": "Horse_247400",
    "count_view": 0
  },
  {
    "link_thumb": "https://live.staticflickr.com/65535/50017922961_ee1d980a02_n.jpg",
    "id_album": "-462831705",
    "description": "Cat_271269",
    "title": "Cat_271269",
    "link_img": "https://live.staticflickr.com/65535/50017922961_10d8749638_o.jpg",
    "id_image": "Cat_271269",
    "count_view": 0
  },
  {
    "link_thumb": "https://live.staticflickr.com/65535/50017945346_9272ff0a4e_n.jpg",
    "id_album": "-462831702",
    "description": "Cat_294018",
    "title": "Cat_294018",
    "link_img": "https://live.staticflickr.com/65535/50017945346_6e6be963e8_o.jpg",
    "id_image": "Cat_294018",
    "count_view": 0
  },
  {
    "link_thumb": "https://live.staticflickr.com/65535/50022041873_b5edc5bb38_n.jpg",
    "id_album": "-801414987",
    "description": "Peacock_260620",
    "title": "Peacock_260620",
    "link_img": "https://live.staticflickr.com/65535/50022041873_efc53467eb_o.jpg",
    "id_image": "Peacock_260620",
    "count_view": 0
  },
  {
    "link_thumb": "https://live.staticflickr.com/65535/50352743322_86a09846aa_n.jpg",
    "id_album": "-462831703",
    "description": "Cat_522638",
    "title": "Cat_522638",
    "link_img": "https://live.staticflickr.com/65535/50352743322_aa5cbfc18b_o.jpg",
    "id_image": "Cat_522638",
    "count_view": 0
  },
  {
    "link_thumb": "https://live.staticflickr.com/65535/50020803033_fdb4d07975_n.jpg",
    "id_album": "-804131074",
    "description": "Goat_941095",
    "title": "Goat_941095",
    "link_img": "https://live.staticflickr.com/65535/50020803033_e594cc09a4_o.jpg",
    "id_image": "Goat_941095",
    "count_view": 0
  },
  {
    "link_thumb": "https://live.staticflickr.com/65535/50017932332_b0973506a2_n.jpg",
    "id_album": "-401151552",
    "description": "Butterfly_800609",
    "title": "Butterfly_800609",
    "link_img": "https://live.staticflickr.com/65535/50017932332_b04f8c06fb_o.jpg",
    "id_image": "Butterfly_800609",
    "count_view": 0
  },
  {
    "link_thumb": "https://live.staticflickr.com/65535/50022386498_c1aee773c7_n.jpg",
    "id_album": "-356780855",
    "description": "Puffin_749824",
    "title": "Puffin_749824",
    "link_img": "https://live.staticflickr.com/65535/50022386498_832d8d087c_o.jpg",
    "id_image": "Puffin_749824",
    "count_view": 0
  },
  {
    "link_thumb": "https://live.staticflickr.com/65535/50016364388_90160c42bf_n.jpg",
    "id_album": "523598895",
    "description": "Artistic_287491",
    "title": "Artistic_287491",
    "link_img": "https://live.staticflickr.com/65535/50016364388_ba0f14412e_o.jpg",
    "id_image": "Artistic_287491",
    "count_view": 0
  },
  {
    "link_thumb": "https://live.staticflickr.com/65535/50019920038_6cdf8c0e92_n.jpg",
    "id_album": "-149330231",
    "description": "Dog_529822",
    "title": "Dog_529822",
    "link_img": "https://live.staticflickr.com/65535/50019920038_11c7de403c_o.jpg",
    "id_image": "Dog_529822",
    "count_view": 0
  },
  {
    "link_thumb": "https://live.staticflickr.com/65535/50017780036_7facb6ef8d_n.jpg",
    "id_album": "-462831705",
    "description": "Cat_139650",
    "title": "Cat_139650",
    "link_img": "https://live.staticflickr.com/65535/50017780036_3d6d5050d2_o.jpg",
    "id_image": "Cat_139650",
    "count_view": 0
  },
  {
    "link_thumb": "https://live.staticflickr.com/65535/50020693613_a0fb19d013_n.jpg",
    "id_album": "-462831703",
    "description": "Cat_772595",
    "title": "Cat_772595",
    "link_img": "https://live.staticflickr.com/65535/50020693613_09866402a5_o.jpg",
    "id_image": "Cat_772595",
    "count_view": 0
  },
  {
    "link_thumb": "https://live.staticflickr.com/65535/50019003008_b56de98d2f_n.jpg",
    "id_album": "-462831703",
    "description": "Cat_968504",
    "title": "Cat_968504",
    "link_img": "https://live.staticflickr.com/65535/50019003008_0b0ed1fc59_o.jpg",
    "id_image": "Cat_968504",
    "count_view": 0
  },
  {
    "link_thumb": "https://live.staticflickr.com/65535/50023938877_cefc329024_n.jpg",
    "id_album": "1933547265",
    "description": "SnowyOwl_210786",
    "title": "SnowyOwl_210786",
    "link_img": "https://live.staticflickr.com/65535/50023938877_ed5b0c977f_o.jpg",
    "id_image": "SnowyOwl_210786",
    "count_view": 0
  },
  {
    "link_thumb": "https://live.staticflickr.com/65535/50022769903_8991fc2b15_n.jpg",
    "id_album": "1926701726",
    "description": "Robin_616088",
    "title": "Robin_616088",
    "link_img": "https://live.staticflickr.com/65535/50022769903_a48b290304_o.jpg",
    "id_image": "Robin_616088",
    "count_view": 0
  },
  {
    "link_thumb": "https://live.staticflickr.com/65535/50021771421_f21f6952b7_n.jpg",
    "id_album": "1562047127",
    "description": "Jellyfish_670866",
    "title": "Jellyfish_670866",
    "link_img": "https://live.staticflickr.com/65535/50021771421_f3d6a127b6_o.jpg",
    "id_image": "Jellyfish_670866",
    "count_view": 0
  },
  {
    "link_thumb": "https://live.staticflickr.com/65535/50017359543_fb15392e08_n.jpg",
    "id_album": "-462831705",
    "description": "Cat_236428",
    "title": "Cat_236428",
    "link_img": "https://live.staticflickr.com/65535/50017359543_fb2efa3aaf_o.jpg",
    "id_image": "Cat_236428",
    "count_view": 0
  },
  {
    "link_thumb": "https://live.staticflickr.com/65535/50023579193_d82bbd5ec3_n.jpg",
    "id_album": "405170427",
    "description": "Tiger_417059",
    "title": "Tiger_417059",
    "link_img": "https://live.staticflickr.com/65535/50023579193_4f91deeda2_o.jpg",
    "id_image": "Tiger_417059",
    "count_view": 0
  },
  {
    "link_thumb": "https://live.staticflickr.com/65535/50019635451_0a8ec46c3f_n.jpg",
    "id_album": "-766919393",
    "description": "Chameleon_197824",
    "title": "Chameleon_197824",
    "link_img": "https://live.staticflickr.com/65535/50019635451_fbc8e13c8c_o.jpg",
    "id_image": "Chameleon_197824",
    "count_view": 0
  },
  {
    "link_thumb": "https://live.staticflickr.com/65535/50023133567_78fd3c5dca_n.jpg",
    "id_album": "1008910300",
    "description": "PolarBear_982310",
    "title": "PolarBear_982310",
    "link_img": "https://live.staticflickr.com/65535/50023133567_934c584f1d_o.jpg",
    "id_image": "PolarBear_982310",
    "count_view": 0
  },
  {
    "link_thumb": "https://live.staticflickr.com/65535/50020556248_cd0314108f_n.jpg",
    "id_album": "-462831704",
    "description": "Cat_542004",
    "title": "Cat_542004",
    "link_img": "https://live.staticflickr.com/65535/50020556248_5db1611b68_o.jpg",
    "id_image": "Cat_542004",
    "count_view": 0
  },
  {
    "link_thumb": "https://live.staticflickr.com/65535/50017320197_32320163aa_n.jpg",
    "id_album": "-422187261",
    "description": "Bear_571947",
    "title": "Bear_571947",
    "link_img": "https://live.staticflickr.com/65535/50017320197_067748bf49_o.jpg",
    "id_image": "Bear_571947",
    "count_view": 0
  },
  {
    "link_thumb": "https://live.staticflickr.com/65535/50021677001_0b1d4233a6_n.jpg",
    "id_album": "1658866795",
    "description": "Insect_403422",
    "title": "Insect_403422",
    "link_img": "https://live.staticflickr.com/65535/50021677001_6cf76ae7e6_o.jpg",
    "id_image": "Insect_403422",
    "count_view": 0
  },
  {
    "link_thumb": "https://live.staticflickr.com/65535/50017036568_a083d19554_n.jpg",
    "id_album": "-401151552",
    "description": "Butterfly_330448",
    "title": "Butterfly_330448",
    "link_img": "https://live.staticflickr.com/65535/50017036568_1719c35494_o.jpg",
    "id_image": "Butterfly_330448",
    "count_view": 0
  },
  {
    "link_thumb": "https://live.staticflickr.com/65535/50020665477_9217cc64c2_n.jpg",
    "id_album": "-149330231",
    "description": "Dog_430561",
    "title": "Dog_430561",
    "link_img": "https://live.staticflickr.com/65535/50020665477_084d504f97_o.jpg",
    "id_image": "Dog_430561",
    "count_view": 0
  },
  {
    "link_thumb": "https://live.staticflickr.com/65535/50024715042_aa37d60697_n.jpg",
    "id_album": "-709711865",
    "description": "Wolf_106049",
    "title": "Wolf_106049",
    "link_img": "https://live.staticflickr.com/65535/50024715042_477b04aba1_o.jpg",
    "id_image": "Wolf_106049",
    "count_view": 0
  },
  {
    "link_thumb": "https://live.staticflickr.com/65535/50020947831_cdba305982_n.jpg",
    "id_album": "-128218148",
    "description": "Fox_336454",
    "title": "Fox_336454",
    "link_img": "https://live.staticflickr.com/65535/50020947831_aa292997f3_o.jpg",
    "id_image": "Fox_336454",
    "count_view": 0
  },
  {
    "link_thumb": "https://live.staticflickr.com/65535/50020219377_cd4cd04683_n.jpg",
    "id_album": "1831085598",
    "description": "Dachshund_920911",
    "title": "Dachshund_920911",
    "link_img": "https://live.staticflickr.com/65535/50020219377_13680db4e9_o.jpg",
    "id_image": "Dachshund_920911",
    "count_view": 0
  },
  {
    "link_thumb": "https://live.staticflickr.com/65535/50021174362_4674fd0b37_n.jpg",
    "id_album": "-1694105481",
    "description": "Fly_412147",
    "title": "Fly_412147",
    "link_img": "https://live.staticflickr.com/65535/50021174362_146166c5c3_o.jpg",
    "id_image": "Fly_412147",
    "count_view": 0
  },
  {
    "link_thumb": "https://live.staticflickr.com/65535/50351825518_38472cd694_n.jpg",
    "id_album": "-462831703",
    "description": "Cat_437851",
    "title": "Cat_437851",
    "link_img": "https://live.staticflickr.com/65535/50351825518_d58bc1664f_o.jpg",
    "id_image": "Cat_437851",
    "count_view": 0
  },
  {
    "link_thumb": "https://live.staticflickr.com/65535/50016554158_0733271697_n.jpg",
    "id_album": "-422187261",
    "description": "Bear_782380",
    "title": "Bear_782380",
    "link_img": "https://live.staticflickr.com/65535/50016554158_e70cc0efdb_o.jpg",
    "id_image": "Bear_782380",
    "count_view": 0
  },
  {
    "link_thumb": "https://live.staticflickr.com/65535/50023279087_5ffd8a261d_n.jpg",
    "id_album": "-353898617",
    "description": "Puppy_559282",
    "title": "Puppy_559282",
    "link_img": "https://live.staticflickr.com/65535/50023279087_1122bceeb6_o.jpg",
    "id_image": "Puppy_559282",
    "count_view": 0
  },
  {
    "link_thumb": "https://live.staticflickr.com/65535/50022335352_42b279a60c_n.jpg",
    "id_album": "416744915",
    "description": "Lion_902942",
    "title": "Lion_902942",
    "link_img": "https://live.staticflickr.com/65535/50022335352_b9c1361cf6_o.jpg",
    "id_image": "Lion_902942",
    "count_view": 0
  },
  {
    "link_thumb": "https://live.staticflickr.com/65535/50021297372_00bd1b018d_n.jpg",
    "id_album": "704811092",
    "description": "FrenchBulldog_688802",
    "title": "FrenchBulldog_688802",
    "link_img": "https://live.staticflickr.com/65535/50021297372_65932abdc2_o.jpg",
    "id_image": "FrenchBulldog_688802",
    "count_view": 0
  },
  {
    "link_thumb": "https://live.staticflickr.com/65535/50018037447_482ebc7319_n.jpg",
    "id_album": "-462831705",
    "description": "Cat_121749",
    "title": "Cat_121749",
    "link_img": "https://live.staticflickr.com/65535/50018037447_cf749d7e0b_o.jpg",
    "id_image": "Cat_121749",
    "count_view": 0
  },
  {
    "link_thumb": "https://live.staticflickr.com/65535/50352739247_16d5da312c_n.jpg",
    "id_album": "-462831703",
    "description": "Cat_514347",
    "title": "Cat_514347",
    "link_img": "https://live.staticflickr.com/65535/50352739247_18236d8709_o.jpg",
    "id_image": "Cat_514347",
    "count_view": 0
  },
  {
    "link_thumb": "https://live.staticflickr.com/65535/50020421526_62115f5d6e_n.jpg",
    "id_album": "-149330231",
    "description": "Dog_455509",
    "title": "Dog_455509",
    "link_img": "https://live.staticflickr.com/65535/50020421526_7a6dea05e6_o.jpg",
    "id_image": "Dog_455509",
    "count_view": 0
  },
  {
    "link_thumb": "https://live.staticflickr.com/65535/50016367073_496f96c7e0_n.jpg",
    "id_album": "523598895",
    "description": "Artistic_309764",
    "title": "Artistic_309764",
    "link_img": "https://live.staticflickr.com/65535/50016367073_0a73fb543c_o.jpg",
    "id_image": "Artistic_309764",
    "count_view": 0
  },
  {
    "link_thumb": "https://live.staticflickr.com/65535/50018227202_2a8dffce7c_n.jpg",
    "id_album": "-462831702",
    "description": "Cat_323683",
    "title": "Cat_323683",
    "link_img": "https://live.staticflickr.com/65535/50018227202_b685c55d74_o.jpg",
    "id_image": "Cat_323683",
    "count_view": 0
  },
  {
    "link_thumb": "https://live.staticflickr.com/65535/50021706461_6a3ea2c3e3_n.jpg",
    "id_album": "1658866795",
    "description": "Insect_574412",
    "title": "Insect_574412",
    "link_img": "https://live.staticflickr.com/65535/50021706461_874fd13a90_o.jpg",
    "id_image": "Insect_574412",
    "count_view": 0
  },
  {
    "link_thumb": "https://live.staticflickr.com/65535/50019780328_690c11eaa2_n.jpg",
    "id_album": "-149330232",
    "description": "Dog_357039",
    "title": "Dog_357039",
    "link_img": "https://live.staticflickr.com/65535/50019780328_7b363bdcf1_o.jpg",
    "id_image": "Dog_357039",
    "count_view": 0
  },
  {
    "link_thumb": "https://live.staticflickr.com/65535/50022940587_06dd1e871e_n.jpg",
    "id_album": "392248205",
    "description": "Penguin_247635",
    "title": "Penguin_247635",
    "link_img": "https://live.staticflickr.com/65535/50022940587_d847fccf68_o.jpg",
    "id_image": "Penguin_247635",
    "count_view": 0
  },
  {
    "link_thumb": "https://live.staticflickr.com/65535/50017122176_a549089848_n.jpg",
    "id_album": "1699594607",
    "description": "Bee_284667",
    "title": "Bee_284667",
    "link_img": "https://live.staticflickr.com/65535/50017122176_6f663701f0_o.jpg",
    "id_image": "Bee_284667",
    "count_view": 0
  },
  {
    "link_thumb": "https://live.staticflickr.com/65535/50020926026_86072d7139_n.jpg",
    "id_album": "-1694105481",
    "description": "Fly_706641",
    "title": "Fly_706641",
    "link_img": "https://live.staticflickr.com/65535/50020926026_c9e1e043e8_o.jpg",
    "id_image": "Fly_706641",
    "count_view": 0
  },
  {
    "link_thumb": "https://live.staticflickr.com/65535/50021335747_e791501e53_n.jpg",
    "id_album": "844170697",
    "description": "Frog_88334",
    "title": "Frog_88334",
    "link_img": "https://live.staticflickr.com/65535/50021335747_f93e4c6d7e_o.jpg",
    "id_image": "Frog_88334",
    "count_view": 0
  },
  {
    "link_thumb": "https://live.staticflickr.com/65535/50019766207_f52ba8df4d_n.jpg",
    "id_album": "-462831703",
    "description": "Cat_948464",
    "title": "Cat_948464",
    "link_img": "https://live.staticflickr.com/65535/50019766207_611766fccd_o.jpg",
    "id_image": "Cat_948464",
    "count_view": 0
  },
  {
    "link_thumb": "https://live.staticflickr.com/65535/50020951521_c02f0109c6_n.jpg",
    "id_album": "-128218148",
    "description": "Fox_353648",
    "title": "Fox_353648",
    "link_img": "https://live.staticflickr.com/65535/50020951521_9c2b4fc0e9_o.jpg",
    "id_image": "Fox_353648",
    "count_view": 0
  },
  {
    "link_thumb": "https://live.staticflickr.com/65535/50019898798_fee8bb654c_n.jpg",
    "id_album": "-149330231",
    "description": "Dog_464836",
    "title": "Dog_464836",
    "link_img": "https://live.staticflickr.com/65535/50019898798_faf5c9e97f_o.jpg",
    "id_image": "Dog_464836",
    "count_view": 0
  },
  {
    "link_thumb": "https://live.staticflickr.com/65535/50017084081_33926bf730_n.jpg",
    "id_album": "-422187261",
    "description": "Bear_803452",
    "title": "Bear_803452",
    "link_img": "https://live.staticflickr.com/65535/50017084081_e9a1ffd57e_o.jpg",
    "id_image": "Bear_803452",
    "count_view": 0
  },
  {
    "link_thumb": "https://live.staticflickr.com/65535/50020997701_76ff4ed948_n.jpg",
    "id_album": "-128218148",
    "description": "Fox_741833",
    "title": "Fox_741833",
    "link_img": "https://live.staticflickr.com/65535/50020997701_01707ff0d4_o.jpg",
    "id_image": "Fox_741833",
    "count_view": 0
  },
  {
    "link_thumb": "https://live.staticflickr.com/65535/50016962461_e60bc35807_n.jpg",
    "id_album": "231236068",
    "description": "BaldEagle_591523",
    "title": "BaldEagle_591523",
    "link_img": "https://live.staticflickr.com/65535/50016962461_04860920b8_o.jpg",
    "id_image": "BaldEagle_591523",
    "count_view": 0
  },
  {
    "link_thumb": "https://live.staticflickr.com/65535/50019132243_9c79e6e104_n.jpg",
    "id_album": "-766919393",
    "description": "Chameleon_765804",
    "title": "Chameleon_765804",
    "link_img": "https://live.staticflickr.com/65535/50019132243_74a95622cb_o.jpg",
    "id_image": "Chameleon_765804",
    "count_view": 0
  },
  {
    "link_thumb": "https://live.staticflickr.com/65535/50017582398_59d59f4d55_n.jpg",
    "id_album": "-462831702",
    "description": "Cat_383129",
    "title": "Cat_383129",
    "link_img": "https://live.staticflickr.com/65535/50017582398_8acfcc8884_o.jpg",
    "id_image": "Cat_383129",
    "count_view": 0
  },
  {
    "link_thumb": "https://live.staticflickr.com/65535/50020528338_e75a2ce01e_n.jpg",
    "id_album": "844170697",
    "description": "Frog_655353",
    "title": "Frog_655353",
    "link_img": "https://live.staticflickr.com/65535/50020528338_1c65e82288_o.jpg",
    "id_image": "Frog_655353",
    "count_view": 0
  },
  {
    "link_thumb": "https://live.staticflickr.com/65535/50017311043_75408ae29f_n.jpg",
    "id_album": "-462831705",
    "description": "Cat_199826",
    "title": "Cat_199826",
    "link_img": "https://live.staticflickr.com/65535/50017311043_97a7894649_o.jpg",
    "id_image": "Cat_199826",
    "count_view": 0
  },
  {
    "link_thumb": "https://live.staticflickr.com/65535/50021125946_faeebab683_n.jpg",
    "id_album": "-462831704",
    "description": "Cat_585265",
    "title": "Cat_585265",
    "link_img": "https://live.staticflickr.com/65535/50021125946_f41983de25_o.jpg",
    "id_image": "Cat_585265",
    "count_view": 0
  },
  {
    "link_thumb": "https://live.staticflickr.com/65535/50021814251_5d339cd57e_n.jpg",
    "id_album": "770105808",
    "description": "Kingfisher_949132",
    "title": "Kingfisher_949132",
    "link_img": "https://live.staticflickr.com/65535/50021814251_f46f412415_o.jpg",
    "id_image": "Kingfisher_949132",
    "count_view": 0
  },
  {
    "link_thumb": "https://live.staticflickr.com/65535/50021463187_7016dfc065_n.jpg",
    "id_album": "-462831704",
    "description": "Cat_728896",
    "title": "Cat_728896",
    "link_img": "https://live.staticflickr.com/65535/50021463187_a0fc015af8_o.jpg",
    "id_image": "Cat_728896",
    "count_view": 0
  },
  {
    "link_thumb": "https://live.staticflickr.com/65535/50017326553_3cca9104e9_n.jpg",
    "id_album": "-462831705",
    "description": "Cat_210121",
    "title": "Cat_210121",
    "link_img": "https://live.staticflickr.com/65535/50017326553_9d92739c0f_o.jpg",
    "id_image": "Cat_210121",
    "count_view": 0
  },
  {
    "link_thumb": "https://live.staticflickr.com/65535/50018009991_086d54fdf5_n.jpg",
    "id_album": "-462831702",
    "description": "Cat_339424",
    "title": "Cat_339424",
    "link_img": "https://live.staticflickr.com/65535/50018009991_1fc7aaaa85_o.jpg",
    "id_image": "Cat_339424",
    "count_view": 0
  },
  {
    "link_thumb": "https://live.staticflickr.com/65535/50017102493_740dfdb2f2_n.jpg",
    "id_album": "-401151552",
    "description": "Butterfly_570517",
    "title": "Butterfly_570517",
    "link_img": "https://live.staticflickr.com/65535/50017102493_08f7d1860f_o.jpg",
    "id_image": "Butterfly_570517",
    "count_view": 0
  },
  {
    "link_thumb": "https://live.staticflickr.com/65535/50019910998_837571d5bc_n.jpg",
    "id_album": "-149330231",
    "description": "Dog_503724",
    "title": "Dog_503724",
    "link_img": "https://live.staticflickr.com/65535/50019910998_d1e519e4cb_o.jpg",
    "id_image": "Dog_503724",
    "count_view": 0
  },
  {
    "link_thumb": "https://live.staticflickr.com/65535/50020883161_651c6ba46b_n.jpg",
    "id_album": "-1758557371",
    "description": "Flamingo_190992",
    "title": "Flamingo_190992",
    "link_img": "https://live.staticflickr.com/65535/50020883161_1e11bd05ca_o.jpg",
    "id_image": "Flamingo_190992",
    "count_view": 0
  },
  {
    "link_thumb": "https://live.staticflickr.com/65535/50017402771_2f9fcb5061_n.jpg",
    "id_album": "-1846011410",
    "description": "Bird_686740",
    "title": "Bird_686740",
    "link_img": "https://live.staticflickr.com/65535/50017402771_98440a6fd3_o.jpg",
    "id_image": "Bird_686740",
    "count_view": 0
  },
  {
    "link_thumb": "https://live.staticflickr.com/65535/50022371652_3ff6dea788_n.jpg",
    "id_album": "-656526748",
    "description": "Lizard_386537",
    "title": "Lizard_386537",
    "link_img": "https://live.staticflickr.com/65535/50022371652_aa84f3e80e_o.jpg",
    "id_image": "Lizard_386537",
    "count_view": 0
  },
  {
    "link_thumb": "https://live.staticflickr.com/65535/50020816832_c2dbd1eca4_n.jpg",
    "id_album": "-54509188",
    "description": "Dolphin_117021",
    "title": "Dolphin_117021",
    "link_img": "https://live.staticflickr.com/65535/50020816832_e14d49933f_o.jpg",
    "id_image": "Dolphin_117021",
    "count_view": 0
  },
  {
    "link_thumb": "https://live.staticflickr.com/65535/50017168252_9ce4bf6d5c_n.jpg",
    "id_album": "523598895",
    "description": "Artistic_47860",
    "title": "Artistic_47860",
    "link_img": "https://live.staticflickr.com/65535/50017168252_d3c7f1dc28_o.jpg",
    "id_image": "Artistic_47860",
    "count_view": 0
  },
  {
    "link_thumb": "https://live.staticflickr.com/65535/50021417223_7a41017cbf_n.jpg",
    "id_album": "1392348450",
    "description": "Leopard_925438",
    "title": "Leopard_925438",
    "link_img": "https://live.staticflickr.com/65535/50021417223_11963e53a7_o.jpg",
    "id_image": "Leopard_925438",
    "count_view": 0
  },
  {
    "link_thumb": "https://live.staticflickr.com/65535/50022078006_927e60e477_n.jpg",
    "id_album": "416744915",
    "description": "Lion_903778",
    "title": "Lion_903778",
    "link_img": "https://live.staticflickr.com/65535/50022078006_a635c060ca_o.jpg",
    "id_image": "Lion_903778",
    "count_view": 0
  },
  {
    "link_thumb": "https://live.staticflickr.com/65535/50021270072_c5ab2ef0c1_n.jpg",
    "id_album": "-128218148",
    "description": "Fox_886689",
    "title": "Fox_886689",
    "link_img": "https://live.staticflickr.com/65535/50021270072_030dd37b9e_o.jpg",
    "id_image": "Fox_886689",
    "count_view": 0
  },
  {
    "link_thumb": "https://live.staticflickr.com/65535/50021865156_b71cdf5318_n.jpg",
    "id_album": "-1882491687",
    "description": "Ladybug_800663",
    "title": "Ladybug_800663",
    "link_img": "https://live.staticflickr.com/65535/50021865156_e735b2deca_o.jpg",
    "id_image": "Ladybug_800663",
    "count_view": 0
  },
  {
    "link_thumb": "https://live.staticflickr.com/65535/50022550557_2ca8efc5e9_n.jpg",
    "id_album": "1957967135",
    "description": "Mouse_433152",
    "title": "Mouse_433152",
    "link_img": "https://live.staticflickr.com/65535/50022550557_e3aa4b0477_o.jpg",
    "id_image": "Mouse_433152",
    "count_view": 0
  },
  {
    "link_thumb": "https://live.staticflickr.com/65535/50017415623_cdfe841e4f_n.jpg",
    "id_album": "-462831702",
    "description": "Cat_292907",
    "title": "Cat_292907",
    "link_img": "https://live.staticflickr.com/65535/50017415623_9edf387851_o.jpg",
    "id_image": "Cat_292907",
    "count_view": 0
  },
  {
    "link_thumb": "https://live.staticflickr.com/65535/50017459561_5623b97f8e_n.jpg",
    "id_album": "-530283314",
    "description": "BlueandyellowMacaw_161651",
    "title": "BlueandyellowMacaw_161651",
    "link_img": "https://live.staticflickr.com/65535/50017459561_624bc92c72_o.jpg",
    "id_image": "BlueandyellowMacaw_161651",
    "count_view": 0
  },
  {
    "link_thumb": "https://live.staticflickr.com/65535/50020521301_422d9aa6e6_n.jpg",
    "id_album": "-149330231",
    "description": "Dog_842181",
    "title": "Dog_842181",
    "link_img": "https://live.staticflickr.com/65535/50020521301_a7cb618228_o.jpg",
    "id_image": "Dog_842181",
    "count_view": 0
  },
  {
    "link_thumb": "https://live.staticflickr.com/65535/50021934716_58685cdb71_n.jpg",
    "id_album": "1392348450",
    "description": "Leopard_550143",
    "title": "Leopard_550143",
    "link_img": "https://live.staticflickr.com/65535/50021934716_0f1f9ceebb_o.jpg",
    "id_image": "Leopard_550143",
    "count_view": 0
  },
  {
    "link_thumb": "https://live.staticflickr.com/65535/50021014386_78c1b6c61d_n.jpg",
    "id_album": "-128218148",
    "description": "Fox_865629",
    "title": "Fox_865629",
    "link_img": "https://live.staticflickr.com/65535/50021014386_e787c4f196_o.jpg",
    "id_image": "Fox_865629",
    "count_view": 0
  },
  {
    "link_thumb": "https://live.staticflickr.com/65535/50019576208_b4f40bd433_n.jpg",
    "id_album": "297232732",
    "description": "Dinosaur_875436",
    "title": "Dinosaur_875436",
    "link_img": "https://live.staticflickr.com/65535/50019576208_8362523994_o.jpg",
    "id_image": "Dinosaur_875436",
    "count_view": 0
  },
  {
    "link_thumb": "https://live.staticflickr.com/65535/50016993651_ac517cff60_n.jpg",
    "id_album": "809937717",
    "description": "Beagle_716339",
    "title": "Beagle_716339",
    "link_img": "https://live.staticflickr.com/65535/50016993651_1007083253_o.jpg",
    "id_image": "Beagle_716339",
    "count_view": 0
  },
  {
    "link_thumb": "https://live.staticflickr.com/65535/50017601838_f4298ff939_n.jpg",
    "id_album": "-462831702",
    "description": "Cat_396308",
    "title": "Cat_396308",
    "link_img": "https://live.staticflickr.com/65535/50017601838_a5db34512f_o.jpg",
    "id_image": "Cat_396308",
    "count_view": 0
  },
  {
    "link_thumb": "https://live.staticflickr.com/65535/50019971742_40426f1907_n.jpg",
    "id_album": "-1481843714",
    "description": "Cheetah_519338",
    "title": "Cheetah_519338",
    "link_img": "https://live.staticflickr.com/65535/50019971742_3cdbc7d630_o.jpg",
    "id_image": "Cheetah_519338",
    "count_view": 0
  },
  {
    "link_thumb": "https://live.staticflickr.com/65535/50017225896_e451a2a2e4_n.jpg",
    "id_album": "-1846011410",
    "description": "Bird_272308",
    "title": "Bird_272308",
    "link_img": "https://live.staticflickr.com/65535/50017225896_d2026e6593_o.jpg",
    "id_image": "Bird_272308",
    "count_view": 0
  },
  {
    "link_thumb": "https://live.staticflickr.com/65535/50019205278_8eb2556f7a_n.jpg",
    "id_album": "-1481843714",
    "description": "Cheetah_888189",
    "title": "Cheetah_888189",
    "link_img": "https://live.staticflickr.com/65535/50019205278_f68fc258cb_o.jpg",
    "id_image": "Cheetah_888189",
    "count_view": 0
  },
  {
    "link_thumb": "https://live.staticflickr.com/65535/50020748811_032923920e_n.jpg",
    "id_album": "1270947998",
    "description": "Elephant_359636",
    "title": "Elephant_359636",
    "link_img": "https://live.staticflickr.com/65535/50020748811_2e5675d232_o.jpg",
    "id_image": "Elephant_359636",
    "count_view": 0
  },
  {
    "link_thumb": "https://live.staticflickr.com/65535/50021717066_7d8f27d914_n.jpg",
    "id_album": "-843028318",
    "description": "Jaguar_219984",
    "title": "Jaguar_219984",
    "link_img": "https://live.staticflickr.com/65535/50021717066_0c7aa57f14_o.jpg",
    "id_image": "Jaguar_219984",
    "count_view": 0
  },
  {
    "link_thumb": "https://live.staticflickr.com/65535/50019875916_d8b30f3f54_n.jpg",
    "id_album": "815329026",
    "description": "Crab_325945",
    "title": "Crab_325945",
    "link_img": "https://live.staticflickr.com/65535/50019875916_0916a13736_o.jpg",
    "id_image": "Crab_325945",
    "count_view": 0
  },
  {
    "link_thumb": "https://live.staticflickr.com/65535/50019844212_828a5233e3_n.jpg",
    "id_album": "-1930903528",
    "description": "CatDog_772494",
    "title": "CatDog_772494",
    "link_img": "https://live.staticflickr.com/65535/50019844212_5c26c07968_o.jpg",
    "id_image": "CatDog_772494",
    "count_view": 0
  },
  {
    "link_thumb": "https://live.staticflickr.com/65535/50021975792_1ae3914e63_n.jpg",
    "id_album": "-843028318",
    "description": "Jaguar_375336",
    "title": "Jaguar_375336",
    "link_img": "https://live.staticflickr.com/65535/50021975792_96d08360e5_o.jpg",
    "id_image": "Jaguar_375336",
    "count_view": 0
  },
  {
    "link_thumb": "https://live.staticflickr.com/65535/50021343176_97e1fa669b_n.jpg",
    "id_album": "-804131074",
    "description": "Goat_593122",
    "title": "Goat_593122",
    "link_img": "https://live.staticflickr.com/65535/50021343176_ffa8f6ee7b_o.jpg",
    "id_image": "Goat_593122",
    "count_view": 0
  },
  {
    "link_thumb": "https://live.staticflickr.com/65535/50020548341_69e73d3a59_n.jpg",
    "id_album": "-149330231",
    "description": "Dog_941361",
    "title": "Dog_941361",
    "link_img": "https://live.staticflickr.com/65535/50020548341_4f7ca843b6_o.jpg",
    "id_image": "Dog_941361",
    "count_view": 0
  },
  {
    "link_thumb": "https://live.staticflickr.com/65535/50018215727_59e7da5d58_n.jpg",
    "id_album": "-462831702",
    "description": "Cat_311224",
    "title": "Cat_311224",
    "link_img": "https://live.staticflickr.com/65535/50018215727_7d2cc6088e_o.jpg",
    "id_image": "Cat_311224",
    "count_view": 0
  },
  {
    "link_thumb": "https://live.staticflickr.com/65535/50021298641_5dbb8d02c2_n.jpg",
    "id_album": "-405626519",
    "description": "GermanShepherd_735032",
    "title": "GermanShepherd_735032",
    "link_img": "https://live.staticflickr.com/65535/50021298641_850ff35cb7_o.jpg",
    "id_image": "GermanShepherd_735032",
    "count_view": 0
  },
  {
    "link_thumb": "https://live.staticflickr.com/65535/50020311827_2cfc9dd4ba_n.jpg",
    "id_album": "1903411565",
    "description": "Deer_796139",
    "title": "Deer_796139",
    "link_img": "https://live.staticflickr.com/65535/50020311827_5bdd86ebf9_o.jpg",
    "id_image": "Deer_796139",
    "count_view": 0
  },
  {
    "link_thumb": "https://live.staticflickr.com/65535/50020929122_34b94806c7_n.jpg",
    "id_album": "1168627767",
    "description": "Duck_771437",
    "title": "Duck_771437",
    "link_img": "https://live.staticflickr.com/65535/50020929122_8a220ca426_o.jpg",
    "id_image": "Duck_771437",
    "count_view": 0
  },
  {
    "link_thumb": "https://live.staticflickr.com/65535/50019718492_ef585cd8ae_n.jpg",
    "id_album": "-462831705",
    "description": "Cat_91515",
    "title": "Cat_91515",
    "link_img": "https://live.staticflickr.com/65535/50019718492_6276d3d2f0_o.jpg",
    "id_image": "Cat_91515",
    "count_view": 0
  },
  {
    "link_thumb": "https://live.staticflickr.com/65535/50022660513_330f50b926_n.jpg",
    "id_album": "332874268",
    "description": "RedPanda_28767",
    "title": "RedPanda_28767",
    "link_img": "https://live.staticflickr.com/65535/50022660513_dd25a35d2e_o.jpg",
    "id_image": "RedPanda_28767",
    "count_view": 0
  },
  {
    "link_thumb": "https://live.staticflickr.com/65535/50021814926_a46124a324_n.jpg",
    "id_album": "770105808",
    "description": "Kingfisher_991725",
    "title": "Kingfisher_991725",
    "link_img": "https://live.staticflickr.com/65535/50021814926_22bb115674_o.jpg",
    "id_image": "Kingfisher_991725",
    "count_view": 0
  },
  {
    "link_thumb": "https://live.staticflickr.com/65535/50022303211_ff62fa0920_n.jpg",
    "id_album": "1015034486",
    "description": "Muteswan_124999",
    "title": "Muteswan_124999",
    "link_img": "https://live.staticflickr.com/65535/50022303211_29ae79b64a_o.jpg",
    "id_image": "Muteswan_124999",
    "count_view": 0
  },
  {
    "link_thumb": "https://live.staticflickr.com/65535/50020392762_e56aa7ddb5_n.jpg",
    "id_album": "-149330232",
    "description": "Dog_177431",
    "title": "Dog_177431",
    "link_img": "https://live.staticflickr.com/65535/50020392762_7cd3caceb3_o.jpg",
    "id_image": "Dog_177431",
    "count_view": 0
  },
  {
    "link_thumb": "https://live.staticflickr.com/65535/50017609438_76a97960a2_n.jpg",
    "id_album": "-462831702",
    "description": "Cat_399157",
    "title": "Cat_399157",
    "link_img": "https://live.staticflickr.com/65535/50017609438_f35121edd8_o.jpg",
    "id_image": "Cat_399157",
    "count_view": 0
  },
  {
    "link_thumb": "https://live.staticflickr.com/65535/50017323397_04ca85257b_n.jpg",
    "id_album": "-422187261",
    "description": "Bear_596394",
    "title": "Bear_596394",
    "link_img": "https://live.staticflickr.com/65535/50017323397_74d008680e_o.jpg",
    "id_image": "Bear_596394",
    "count_view": 0
  },
  {
    "link_thumb": "https://live.staticflickr.com/65535/50017430412_58a836da5d_n.jpg",
    "id_album": "1699594607",
    "description": "Bee_926272",
    "title": "Bee_926272",
    "link_img": "https://live.staticflickr.com/65535/50017430412_878079a18d_o.jpg",
    "id_image": "Bee_926272",
    "count_view": 0
  },
  {
    "link_thumb": "https://live.staticflickr.com/65535/50020617417_f38ff40eed_n.jpg",
    "id_album": "-149330231",
    "description": "Dog_382686",
    "title": "Dog_382686",
    "link_img": "https://live.staticflickr.com/65535/50020617417_7f09830055_o.jpg",
    "id_image": "Dog_382686",
    "count_view": 0
  },
  {
    "link_thumb": "https://live.staticflickr.com/65535/50020020201_55b013f6bc_n.jpg",
    "id_album": "1903411565",
    "description": "Deer_529864",
    "title": "Deer_529864",
    "link_img": "https://live.staticflickr.com/65535/50020020201_bd8aa2137c_o.jpg",
    "id_image": "Deer_529864",
    "count_view": 0
  },
  {
    "link_thumb": "https://live.staticflickr.com/65535/50024254667_b7d94ce344_n.jpg",
    "id_album": "1244464375",
    "description": "Starfish_470092",
    "title": "Starfish_470092",
    "link_img": "https://live.staticflickr.com/65535/50024254667_4813df225b_o.jpg",
    "id_image": "Starfish_470092",
    "count_view": 0
  },
  {
    "link_thumb": "https://live.staticflickr.com/65535/50017488752_e6b0f54883_n.jpg",
    "id_album": "-1846011410",
    "description": "Bird_275257",
    "title": "Bird_275257",
    "link_img": "https://live.staticflickr.com/65535/50017488752_db68b6ed6a_o.jpg",
    "id_image": "Bird_275257",
    "count_view": 0
  },
  {
    "link_thumb": "https://live.staticflickr.com/65535/50022229462_a0141b609a_n.jpg",
    "id_album": "416744915",
    "description": "Lion_205232",
    "title": "Lion_205232",
    "link_img": "https://live.staticflickr.com/65535/50022229462_6cbe8b0c51_o.jpg",
    "id_image": "Lion_205232",
    "count_view": 0
  },
  {
    "link_thumb": "https://live.staticflickr.com/65535/50017780891_6f4767fa42_n.jpg",
    "id_album": "-462831705",
    "description": "Cat_144315",
    "title": "Cat_144315",
    "link_img": "https://live.staticflickr.com/65535/50017780891_c9bf137a59_o.jpg",
    "id_image": "Cat_144315",
    "count_view": 0
  },
  {
    "link_thumb": "https://live.staticflickr.com/65535/50021069881_e41eb95495_n.jpg",
    "id_album": "844170697",
    "description": "Frog_591469",
    "title": "Frog_591469",
    "link_img": "https://live.staticflickr.com/65535/50021069881_22d9af1b68_o.jpg",
    "id_image": "Frog_591469",
    "count_view": 0
  },
  {
    "link_thumb": "https://live.staticflickr.com/65535/50019934447_cd0b4d9b93_n.jpg",
    "id_album": "-1481843714",
    "description": "Cheetah_102207",
    "title": "Cheetah_102207",
    "link_img": "https://live.staticflickr.com/65535/50019934447_36fa57dc4d_o.jpg",
    "id_image": "Cheetah_102207",
    "count_view": 0
  },
  {
    "link_thumb": "https://live.staticflickr.com/65535/50021047052_499aa333fd_n.jpg",
    "id_album": "1270947998",
    "description": "Elephant_795820",
    "title": "Elephant_795820",
    "link_img": "https://live.staticflickr.com/65535/50021047052_d6db686378_o.jpg",
    "id_image": "Elephant_795820",
    "count_view": 0
  },
  {
    "link_thumb": "https://live.staticflickr.com/65535/50020733096_7104aac43c_n.jpg",
    "id_album": "1270947998",
    "description": "Elephant_178537",
    "title": "Elephant_178537",
    "link_img": "https://live.staticflickr.com/65535/50020733096_047ec90003_o.jpg",
    "id_image": "Elephant_178537",
    "count_view": 0
  },
  {
    "link_thumb": "https://live.staticflickr.com/65535/50019218128_9c81994514_n.jpg",
    "id_album": "1949822052",
    "description": "Chimpanzee_663081",
    "title": "Chimpanzee_663081",
    "link_img": "https://live.staticflickr.com/65535/50019218128_eaa27059bc_o.jpg",
    "id_image": "Chimpanzee_663081",
    "count_view": 0
  },
  {
    "link_thumb": "https://live.staticflickr.com/65535/50019742688_7cb8336a71_n.jpg",
    "id_album": "-149330232",
    "description": "Dog_338549",
    "title": "Dog_338549",
    "link_img": "https://live.staticflickr.com/65535/50019742688_4fd16ce20d_o.jpg",
    "id_image": "Dog_338549",
    "count_view": 0
  },
  {
    "link_thumb": "https://live.staticflickr.com/65535/50021551267_db91ca39d5_n.jpg",
    "id_album": "-405626519",
    "description": "GermanShepherd_716721",
    "title": "GermanShepherd_716721",
    "link_img": "https://live.staticflickr.com/65535/50021551267_1ac8551b85_o.jpg",
    "id_image": "GermanShepherd_716721",
    "count_view": 0
  },
  {
    "link_thumb": "https://live.staticflickr.com/65535/50017918771_c6bded6c28_n.jpg",
    "id_album": "-462831705",
    "description": "Cat_266534",
    "title": "Cat_266534",
    "link_img": "https://live.staticflickr.com/65535/50017918771_d3f9f15929_o.jpg",
    "id_image": "Cat_266534",
    "count_view": 0
  },
  {
    "link_thumb": "https://live.staticflickr.com/65535/50016786818_29dffb4af1_n.jpg",
    "id_album": "-1846011410",
    "description": "Bird_406929",
    "title": "Bird_406929",
    "link_img": "https://live.staticflickr.com/65535/50016786818_4fcbc22e47_o.jpg",
    "id_image": "Bird_406929",
    "count_view": 0
  },
  {
    "link_thumb": "https://live.staticflickr.com/65535/50022212658_87ab19c919_n.jpg",
    "id_album": "407660898",
    "description": "Pigeon_368301",
    "title": "Pigeon_368301",
    "link_img": "https://live.staticflickr.com/65535/50022212658_a01b01fb23_o.jpg",
    "id_image": "Pigeon_368301",
    "count_view": 0
  },
  {
    "link_thumb": "https://live.staticflickr.com/65535/50022557642_b765334be2_n.jpg",
    "id_album": "1957967135",
    "description": "Mouse_870026",
    "title": "Mouse_870026",
    "link_img": "https://live.staticflickr.com/65535/50022557642_6529bc3c18_o.jpg",
    "id_image": "Mouse_870026",
    "count_view": 0
  }
]