[
  {
    "link_thumb": "https://live.staticflickr.com/65535/50016746288_6473394548_n.jpg",
    "id_album": "-1846011410",
    "description": "Bird_361071",
    "title": "Bird_361071",
    "link_img": "https://live.staticflickr.com/65535/50016746288_ed0fa33d5b_o.jpg",
    "id_image": "Bird_361071",
    "count_view": 0
  },
  {
    "link_thumb": "https://live.staticflickr.com/65535/50017572381_62c771ae18_n.jpg",
    "id_album": "-401151552",
    "description": "Butterfly_367247",
    "title": "Butterfly_367247",
    "link_img": "https://live.staticflickr.com/65535/50017572381_4c067f531a_o.jpg",
    "id_image": "Butterfly_367247",
    "count_view": 0
  },
  {
    "link_thumb": "https://live.staticflickr.com/65535/50019397078_81b20bae03_n.jpg",
    "id_album": "1273365283",
    "description": "Cute_277738",
    "title": "Cute_277738",
    "link_img": "https://live.staticflickr.com/65535/50019397078_55ce115f8e_o.jpg",
    "id_image": "Cute_277738",
    "count_view": 0
  },
  {
    "link_thumb": "https://live.staticflickr.com/65535/50020322258_1886cba269_n.jpg",
    "id_album": "-1118073211",
    "description": "Fish_472562",
    "title": "Fish_472562",
    "link_img": "https://live.staticflickr.com/65535/50020322258_1ff9fdc4b6_o.jpg",
    "id_image": "Fish_472562",
    "count_view": 0
  },
  {
    "link_thumb": "https://live.staticflickr.com/65535/50019755682_8456990a10_n.jpg",
    "id_album": "-462831703",
    "description": "Cat_940638",
    "title": "Cat_940638",
    "link_img": "https://live.staticflickr.com/65535/50019755682_6f53b9c2f7_o.jpg",
    "id_image": "Cat_940638",
    "count_view": 0
  },
  {
    "link_thumb": "https://live.staticflickr.com/65535/50017375942_1a82982503_n.jpg",
    "id_album": "1699594607",
    "description": "Bee_105096",
    "title": "Bee_105096",
    "link_img": "https://live.staticflickr.com/65535/50017375942_ac28f8106d_o.jpg",
    "id_image": "Bee_105096",
    "count_view": 0
  },
  {
    "link_thumb": "https://live.staticflickr.com/65535/50020672478_ffa11eb208_n.jpg",
    "id_album": "-462831703",
    "description": "Cat_736154",
    "title": "Cat_736154",
    "link_img": "https://live.staticflickr.com/65535/50020672478_b4774c5976_o.jpg",
    "id_image": "Cat_736154",
    "count_view": 0
  },
  {
    "link_thumb": "https://live.staticflickr.com/65535/50019857817_807b7255fa_n.jpg",
    "id_album": "-420782796",
    "description": "Caterpillar_266548",
    "title": "Caterpillar_266548",
    "link_img": "https://live.staticflickr.com/65535/50019857817_b060e6078d_o.jpg",
    "id_image": "Caterpillar_266548",
    "count_view": 0
  },
  {
    "link_thumb": "https://live.staticflickr.com/65535/50019923601_e1eeabb168_n.jpg",
    "id_album": "1273365283",
    "description": "Cute_277079",
    "title": "Cute_277079",
    "link_img": "https://live.staticflickr.com/65535/50019923601_2640011e63_o.jpg",
    "id_image": "Cute_277079",
    "count_view": 0
  },
  {
    "link_thumb": "https://live.staticflickr.com/65535/50023012667_80a6407f71_n.jpg",
    "id_album": "407660898",
    "description": "Pigeon_359308",
    "title": "Pigeon_359308",
    "link_img": "https://live.staticflickr.com/65535/50023012667_055b3fdda7_o.jpg",
    "id_image": "Pigeon_359308",
    "count_view": 0
  },
  {
    "link_thumb": "https://live.staticflickr.com/65535/50023632196_0cc60dea4c_n.jpg",
    "id_album": "-1131363127",
    "description": "SnowLeopard_355786",
    "title": "SnowLeopard_355786",
    "link_img": "https://live.staticflickr.com/65535/50023632196_984128b554_o.jpg",
    "id_image": "SnowLeopard_355786",
    "count_view": 0
  },
  {
    "link_thumb": "https://live.staticflickr.com/65535/50024579862_7a93f76797_n.jpg",
    "id_album": "46520366",
    "description": "Turtle_542081",
    "title": "Turtle_542081",
    "link_img": "https://live.staticflickr.com/65535/50024579862_4fc3d1eb30_o.jpg",
    "id_image": "Turtle_542081",
    "count_view": 0
  },
  {
    "link_thumb": "https://live.staticflickr.com/65535/50352439076_4abab52389_n.jpg",
    "id_album": "-462831703",
    "description": "Cat_242725",
    "title": "Cat_242725",
    "link_img": "https://live.staticflickr.com/65535/50352439076_4a00cac7f1_o.jpg",
    "id_image": "Cat_242725",
    "count_view": 0
  },
  {
    "link_thumb": "https://live.staticflickr.com/65535/50021200301_e84aaa6d6b_n.jpg",
    "id_album": "-462831704",
    "description": "Cat_717197",
    "title": "Cat_717197",
    "link_img": "https://live.staticflickr.com/65535/50021200301_c0093f0015_o.jpg",
    "id_image": "Cat_717197",
    "count_view": 0
  },
  {
    "link_thumb": "https://live.staticflickr.com/65535/50023587677_e266704fd9_n.jpg",
    "id_album": "1512228924",
    "description": "ScarletMacaw_936935",
    "title": "ScarletMacaw_936935",
    "link_img": "https://live.staticflickr.com/65535/50023587677_5dd1a34c16_o.jpg",
    "id_image": "ScarletMacaw_936935",
    "count_view": 0
  },
  {
    "link_thumb": "https://live.staticflickr.com/65535/50021593878_acc86c2773_n.jpg",
    "id_album": "1894617400",
    "description": "Lynx_355217",
    "title": "Lynx_355217",
    "link_img": "https://live.staticflickr.com/65535/50021593878_712b065e0e_o.jpg",
    "id_image": "Lynx_355217",
    "count_view": 0
  },
  {
    "link_thumb": "https://live.staticflickr.com/65535/50017712407_ab83e650c3_n.jpg",
    "id_album": "-1561645279",
    "description": "BlackPanther_383943",
    "title": "BlackPanther_383943",
    "link_img": "https://live.staticflickr.com/65535/50017712407_4d1f06bab3_o.jpg",
    "id_image": "BlackPanther_383943",
    "count_view": 0
  },
  {
    "link_thumb": "https://live.staticflickr.com/65535/50019207706_2f8b49de56_n.jpg",
    "id_album": "-462831704",
    "description": "Cat_441228",
    "title": "Cat_441228",
    "link_img": "https://live.staticflickr.com/65535/50019207706_2e8ceb4f9b_o.jpg",
    "id_image": "Cat_441228",
    "count_view": 0
  },
  {
    "link_thumb": "https://live.staticflickr.com/65535/50021720702_e5a149d045_n.jpg",
    "id_album": "-1933715543",
    "description": "Horse_211866",
    "title": "Horse_211866",
    "link_img": "https://live.staticflickr.com/65535/50021720702_1e6f0d8074_o.jpg",
    "id_image": "Horse_211866",
    "count_view": 0
  },
  {
    "link_thumb": "https://live.staticflickr.com/65535/50352730227_7282e15cba_n.jpg",
    "id_album": "-462831703",
    "description": "Cat_499427",
    "title": "Cat_499427",
    "link_img": "https://live.staticflickr.com/65535/50352730227_33c3a3a861_o.jpg",
    "id_image": "Cat_499427",
    "count_view": 0
  },
  {
    "link_thumb": "https://live.staticflickr.com/65535/50022460367_06d622ca2e_n.jpg",
    "id_album": "-784970094",
    "description": "Monkey_333264",
    "title": "Monkey_333264",
    "link_img": "https://live.staticflickr.com/65535/50022460367_3f713f9c36_o.jpg",
    "id_image": "Monkey_333264",
    "count_view": 0
  },
  {
    "link_thumb": "https://live.staticflickr.com/65535/50022052732_0b85f4b110_n.jpg",
    "id_album": "770105808",
    "description": "Kingfisher_337152",
    "title": "Kingfisher_337152",
    "link_img": "https://live.staticflickr.com/65535/50022052732_74c370b713_o.jpg",
    "id_image": "Kingfisher_337152",
    "count_view": 0
  },
  {
    "link_thumb": "https://live.staticflickr.com/65535/50019610043_0703126b8b_n.jpg",
    "id_album": "-149330232",
    "description": "Dog_193527",
    "title": "Dog_193527",
    "link_img": "https://live.staticflickr.com/65535/50019610043_417aa288c0_o.jpg",
    "id_image": "Dog_193527",
    "count_view": 0
  },
  {
    "link_thumb": "https://live.staticflickr.com/65535/50020993431_aed4a1218e_n.jpg",
    "id_album": "-128218148",
    "description": "Fox_710398",
    "title": "Fox_710398",
    "link_img": "https://live.staticflickr.com/65535/50020993431_599833b232_o.jpg",
    "id_image": "Fox_710398",
    "count_view": 0
  },
  {
    "link_thumb": "https://live.staticflickr.com/65535/50019851632_2916d663e1_n.jpg",
    "id_album": "-1930903528",
    "description": "CatDog_863219",
    "title": "CatDog_863219",
    "link_img": "https://live.staticflickr.com/65535/50019851632_51cba9a865_o.jpg",
    "id_image": "CatDog_863219",
    "count_view": 0
  },
  {
    "link_thumb": "https://live.staticflickr.com/65535/50023323257_56421d5a0b_n.jpg",
    "id_album": "-353898617",
    "description": "Puppy_865188",
    "title": "Puppy_865188",
    "link_img": "https://live.staticflickr.com/65535/50023323257_e548d0a114_o.jpg",
    "id_image": "Puppy_865188",
    "count_view": 0
  },
  {
    "link_thumb": "https://live.staticflickr.com/65535/50020069972_19cae51eef_n.jpg",
    "id_album": "-1868680171",
    "description": "Cougar_376816",
    "title": "Cougar_376816",
    "link_img": "https://live.staticflickr.com/65535/50020069972_1038381774_o.jpg",
    "id_image": "Cougar_376816",
    "count_view": 0
  },
  {
    "link_thumb": "https://live.staticflickr.com/65535/50024420352_fe7732b5d1_n.jpg",
    "id_album": "405170427",
    "description": "Tiger_556319",
    "title": "Tiger_556319",
    "link_img": "https://live.staticflickr.com/65535/50024420352_6a78c7e9f0_o.jpg",
    "id_image": "Tiger_556319",
    "count_view": 0
  },
  {
    "link_thumb": "https://live.staticflickr.com/65535/50021129366_e04fd4c75e_n.jpg",
    "id_album": "-462831704",
    "description": "Cat_591593",
    "title": "Cat_591593",
    "link_img": "https://live.staticflickr.com/65535/50021129366_437eb1b50f_o.jpg",
    "id_image": "Cat_591593",
    "count_view": 0
  },
  {
    "link_thumb": "https://live.staticflickr.com/65535/50016769138_c98affc20e_n.jpg",
    "id_album": "-1846011410",
    "description": "Bird_390278",
    "title": "Bird_390278",
    "link_img": "https://live.staticflickr.com/65535/50016769138_f7fbf65f8f_o.jpg",
    "id_image": "Bird_390278",
    "count_view": 0
  },
  {
    "link_thumb": "https://live.staticflickr.com/65535/50020739632_b7c7928596_n.jpg",
    "id_album": "-149330231",
    "description": "Dog_691629",
    "title": "Dog_691629",
    "link_img": "https://live.staticflickr.com/65535/50020739632_e28153d2cd_o.jpg",
    "id_image": "Dog_691629",
    "count_view": 0
  },
  {
    "link_thumb": "https://live.staticflickr.com/65535/50018139787_7698e4f695_n.jpg",
    "id_album": "-462831705",
    "description": "Cat_233873",
    "title": "Cat_233873",
    "link_img": "https://live.staticflickr.com/65535/50018139787_0971b6be3b_o.jpg",
    "id_image": "Cat_233873",
    "count_view": 0
  },
  {
    "link_thumb": "https://live.staticflickr.com/65535/50017502916_eb19a28ca1_n.jpg",
    "id_album": "782930701",
    "description": "BorderCollie_870005",
    "title": "BorderCollie_870005",
    "link_img": "https://live.staticflickr.com/65535/50017502916_7838595459_o.jpg",
    "id_image": "BorderCollie_870005",
    "count_view": 0
  },
  {
    "link_thumb": "https://live.staticflickr.com/65535/50021477862_b05f9b77e0_n.jpg",
    "id_album": "-462831703",
    "description": "Cat_744536",
    "title": "Cat_744536",
    "link_img": "https://live.staticflickr.com/65535/50021477862_fb3a65071c_o.jpg",
    "id_image": "Cat_744536",
    "count_view": 0
  },
  {
    "link_thumb": "https://live.staticflickr.com/65535/50017812701_b4bd237443_n.jpg",
    "id_album": "-462831705",
    "description": "Cat_174955",
    "title": "Cat_174955",
    "link_img": "https://live.staticflickr.com/65535/50017812701_46d521d99a_o.jpg",
    "id_image": "Cat_174955",
    "count_view": 0
  },
  {
    "link_thumb": "https://live.staticflickr.com/65535/50021456827_16773a5f87_n.jpg",
    "id_album": "-462831704",
    "description": "Cat_722507",
    "title": "Cat_722507",
    "link_img": "https://live.staticflickr.com/65535/50021456827_71ac184e4e_o.jpg",
    "id_image": "Cat_722507",
    "count_view": 0
  },
  {
    "link_thumb": "https://live.staticflickr.com/65535/50020542136_bb3ff82231_n.jpg",
    "id_album": "-149330231",
    "description": "Dog_907248",
    "title": "Dog_907248",
    "link_img": "https://live.staticflickr.com/65535/50020542136_1b7ed75231_o.jpg",
    "id_image": "Dog_907248",
    "count_view": 0
  },
  {
    "link_thumb": "https://live.staticflickr.com/65535/50021342851_8e5e9dd338_n.jpg",
    "id_album": "-804131074",
    "description": "Goat_534899",
    "title": "Goat_534899",
    "link_img": "https://live.staticflickr.com/65535/50021342851_a2bea27c8e_o.jpg",
    "id_image": "Goat_534899",
    "count_view": 0
  },
  {
    "link_thumb": "https://live.staticflickr.com/65535/50023248428_9027c2f65d_n.jpg",
    "id_album": "-1082521515",
    "description": "Spider_837820",
    "title": "Spider_837820",
    "link_img": "https://live.staticflickr.com/65535/50023248428_c15c6f7c64_o.jpg",
    "id_image": "Spider_837820",
    "count_view": 0
  },
  {
    "link_thumb": "https://live.staticflickr.com/65535/50022234042_f3c5491286_n.jpg",
    "id_album": "416744915",
    "description": "Lion_235853",
    "title": "Lion_235853",
    "link_img": "https://live.staticflickr.com/65535/50022234042_fa3a1051d2_o.jpg",
    "id_image": "Lion_235853",
    "count_view": 0
  },
  {
    "link_thumb": "https://live.staticflickr.com/65535/50017443486_f3d01c5504_n.jpg",
    "id_album": "-1846011410",
    "description": "Bird_962528",
    "title": "Bird_962528",
    "link_img": "https://live.staticflickr.com/65535/50017443486_a8bf9caf73_o.jpg",
    "id_image": "Bird_962528",
    "count_view": 0
  },
  {
    "link_thumb": "https://live.staticflickr.com/65535/50019673292_bcaec2c519_n.jpg",
    "id_album": "-462831703",
    "description": "Cat_900814",
    "title": "Cat_900814",
    "link_img": "https://live.staticflickr.com/65535/50019673292_a84de3aa0d_o.jpg",
    "id_image": "Cat_900814",
    "count_view": 0
  },
  {
    "link_thumb": "https://live.staticflickr.com/65535/50020662671_f7edd82daf_n.jpg",
    "id_album": "1168627767",
    "description": "Duck_504647",
    "title": "Duck_504647",
    "link_img": "https://live.staticflickr.com/65535/50020662671_c275689bdb_o.jpg",
    "id_image": "Duck_504647",
    "count_view": 0
  },
  {
    "link_thumb": "https://live.staticflickr.com/65535/50017571051_d7a0bcabc1_n.jpg",
    "id_album": "-401151552",
    "description": "Butterfly_366100",
    "title": "Butterfly_366100",
    "link_img": "https://live.staticflickr.com/65535/50017571051_8182bb4b10_o.jpg",
    "id_image": "Butterfly_366100",
    "count_view": 0
  },
  {
    "link_thumb": "https://live.staticflickr.com/65535/50021129537_cd906f9503_n.jpg",
    "id_album": "-1118073211",
    "description": "Fish_789373",
    "title": "Fish_789373",
    "link_img": "https://live.staticflickr.com/65535/50021129537_a20f55cb84_o.jpg",
    "id_image": "Fish_789373",
    "count_view": 0
  },
  {
    "link_thumb": "https://live.staticflickr.com/65535/50021153048_2a7fafdf8d_n.jpg",
    "id_album": "1658866795",
    "description": "Insect_405556",
    "title": "Insect_405556",
    "link_img": "https://live.staticflickr.com/65535/50021153048_acb1628f33_o.jpg",
    "id_image": "Insect_405556",
    "count_view": 0
  },
  {
    "link_thumb": "https://live.staticflickr.com/65535/50017621726_10599f011e_n.jpg",
    "id_album": "-401151552",
    "description": "Butterfly_531404",
    "title": "Butterfly_531404",
    "link_img": "https://live.staticflickr.com/65535/50017621726_afd941e778_o.jpg",
    "id_image": "Butterfly_531404",
    "count_view": 0
  },
  {
    "link_thumb": "https://live.staticflickr.com/65535/50023990122_37d9d7d9a2_n.jpg",
    "id_album": "-1082521515",
    "description": "Spider_344220",
    "title": "Spider_344220",
    "link_img": "https://live.staticflickr.com/65535/50023990122_1ec4d6bef9_o.jpg",
    "id_image": "Spider_344220",
    "count_view": 0
  },
  {
    "link_thumb": "https://live.staticflickr.com/65535/50020452626_e206d5b993_n.jpg",
    "id_album": "-149330231",
    "description": "Dog_530609",
    "title": "Dog_530609",
    "link_img": "https://live.staticflickr.com/65535/50020452626_bf83ed6b74_o.jpg",
    "id_image": "Dog_530609",
    "count_view": 0
  },
  {
    "link_thumb": "https://live.staticflickr.com/65535/50021303998_f40a8ac6c7_n.jpg",
    "id_album": "-1882491687",
    "description": "Ladybug_380917",
    "title": "Ladybug_380917",
    "link_img": "https://live.staticflickr.com/65535/50021303998_4c4891a104_o.jpg",
    "id_image": "Ladybug_380917",
    "count_view": 0
  },
  {
    "link_thumb": "https://live.staticflickr.com/65535/50023452582_3fc0d0c059_n.jpg",
    "id_album": "-1862965835",
    "description": "RedEyedTreeFrog_874929",
    "title": "RedEyedTreeFrog_874929",
    "link_img": "https://live.staticflickr.com/65535/50023452582_ceea8c218b_o.jpg",
    "id_image": "RedEyedTreeFrog_874929",
    "count_view": 0
  },
  {
    "link_thumb": "https://live.staticflickr.com/65535/50016949556_176795640f_n.jpg",
    "id_album": "390697200",
    "description": "AustralianShepherd_959340",
    "title": "AustralianShepherd_959340",
    "link_img": "https://live.staticflickr.com/65535/50016949556_97fe1775e9_o.jpg",
    "id_image": "AustralianShepherd_959340",
    "count_view": 0
  },
  {
    "link_thumb": "https://live.staticflickr.com/65535/50022660347_5623d2b52e_n.jpg",
    "id_album": "-1384601601",
    "description": "Owl_350953",
    "title": "Owl_350953",
    "link_img": "https://live.staticflickr.com/65535/50022660347_636447a53c_o.jpg",
    "id_image": "Owl_350953",
    "count_view": 0
  },
  {
    "link_thumb": "https://live.staticflickr.com/65535/50020415422_b58c1d3f86_n.jpg",
    "id_album": "-149330232",
    "description": "Dog_217128",
    "title": "Dog_217128",
    "link_img": "https://live.staticflickr.com/65535/50020415422_393d44b3b6_o.jpg",
    "id_image": "Dog_217128",
    "count_view": 0
  },
  {
    "link_thumb": "https://live.staticflickr.com/65535/50016301588_b95fa5ced3_n.jpg",
    "id_album": "-1741290715",
    "description": "Ant_22489",
    "title": "Ant_22489",
    "link_img": "https://live.staticflickr.com/65535/50016301588_0f55a6d530_o.jpg",
    "id_image": "Ant_22489",
    "count_view": 0
  },
  {
    "link_thumb": "https://live.staticflickr.com/65535/50021263962_af033688e8_n.jpg",
    "id_album": "-128218148",
    "description": "Fox_831243",
    "title": "Fox_831243",
    "link_img": "https://live.staticflickr.com/65535/50021263962_c309aac5cc_o.jpg",
    "id_image": "Fox_831243",
    "count_view": 0
  },
  {
    "link_thumb": "https://live.staticflickr.com/65535/50022544637_cd24b44e31_n.jpg",
    "id_album": "1957967135",
    "description": "Mouse_225193",
    "title": "Mouse_225193",
    "link_img": "https://live.staticflickr.com/65535/50022544637_caaa53e38d_o.jpg",
    "id_image": "Mouse_225193",
    "count_view": 0
  },
  {
    "link_thumb": "https://live.staticflickr.com/65535/50018253962_77a08ac17e_n.jpg",
    "id_album": "-462831702",
    "description": "Cat_333131",
    "title": "Cat_333131",
    "link_img": "https://live.staticflickr.com/65535/50018253962_9da05a1842_o.jpg",
    "id_image": "Cat_333131",
    "count_view": 0
  },
  {
    "link_thumb": "https://live.staticflickr.com/65535/50016998773_f57ab750e0_n.jpg",
    "id_album": "368532157",
    "description": "Bulldog_388783",
    "title": "Bulldog_388783",
    "link_img": "https://live.staticflickr.com/65535/50016998773_7c680de45d_o.jpg",
    "id_image": "Bulldog_388783",
    "count_view": 0
  },
  {
    "link_thumb": "https://live.staticflickr.com/65535/50019160846_2be100eb7f_n.jpg",
    "id_album": "-462831702",
    "description": "Cat_423084",
    "title": "Cat_423084",
    "link_img": "https://live.staticflickr.com/65535/50019160846_ffeb9f4b50_o.jpg",
    "id_image": "Cat_423084",
    "count_view": 0
  },
  {
    "link_thumb": "https://live.staticflickr.com/65535/50352424376_f030170ecc_n.jpg",
    "id_album": "-462831703",
    "description": "Cat_206735",
    "title": "Cat_206735",
    "link_img": "https://live.staticflickr.com/65535/50352424376_571326d5fb_o.jpg",
    "id_image": "Cat_206735",
    "count_view": 0
  },
  {
    "link_thumb": "https://live.staticflickr.com/65535/50017501416_5a0ebef14d_n.jpg",
    "id_album": "782930701",
    "description": "BorderCollie_864876",
    "title": "BorderCollie_864876",
    "link_img": "https://live.staticflickr.com/65535/50017501416_96d63cfedb_o.jpg",
    "id_image": "BorderCollie_864876",
    "count_view": 0
  },
  {
    "link_thumb": "https://live.staticflickr.com/65535/50017251568_b7be8dd316_n.jpg",
    "id_album": "-462831705",
    "description": "Cat_131348",
    "title": "Cat_131348",
    "link_img": "https://live.staticflickr.com/65535/50017251568_5cf5454d16_o.jpg",
    "id_image": "Cat_131348",
    "count_view": 0
  },
  {
    "link_thumb": "https://live.staticflickr.com/65535/50021214211_bb01627bca_n.jpg",
    "id_album": "-462831703",
    "description": "Cat_735444",
    "title": "Cat_735444",
    "link_img": "https://live.staticflickr.com/65535/50021214211_ec4bd681a2_o.jpg",
    "id_image": "Cat_735444",
    "count_view": 0
  },
  {
    "link_thumb": "https://live.staticflickr.com/65535/50017094597_eb3831107c_n.jpg",
    "id_album": "-1741290715",
    "description": "Ant_415357",
    "title": "Ant_415357",
    "link_img": "https://live.staticflickr.com/65535/50017094597_c9d536d532_o.jpg",
    "id_image": "Ant_415357",
    "count_view": 0
  },
  {
    "link_thumb": "https://live.staticflickr.com/65535/50352592832_c97a8e2ce0_n.jpg",
    "id_album": "-462831703",
    "description": "Cat_235216",
    "title": "Cat_235216",
    "link_img": "https://live.staticflickr.com/65535/50352592832_01a6b85ba3_o.jpg",
    "id_image": "Cat_235216",
    "count_view": 0
  },
  {
    "link_thumb": "https://live.staticflickr.com/65535/50020943652_8966a52fcc_n.jpg",
    "id_album": "-39098563",
    "description": "Eagle_274782",
    "title": "Eagle_274782",
    "link_img": "https://live.staticflickr.com/65535/50020943652_eee975b9ca_o.jpg",
    "id_image": "Eagle_274782",
    "count_view": 0
  },
  {
    "link_thumb": "https://live.staticflickr.com/65535/50352655456_2239ff15ca_n.jpg",
    "id_album": "-462831703",
    "description": "Cat_705413",
    "title": "Cat_705413",
    "link_img": "https://live.staticflickr.com/65535/50352655456_462b0ebd68_o.jpg",
    "id_image": "Cat_705413",
    "count_view": 0
  },
  {
    "link_thumb": "https://live.staticflickr.com/65535/50020255071_0ec5fd96d6_n.jpg",
    "id_album": "-149330232",
    "description": "Dog_332063",
    "title": "Dog_332063",
    "link_img": "https://live.staticflickr.com/65535/50020255071_3ff9b050b3_o.jpg",
    "id_image": "Dog_332063",
    "count_view": 0
  },
  {
    "link_thumb": "https://live.staticflickr.com/65535/50017631333_750c2404af_n.jpg",
    "id_album": "-462831702",
    "description": "Cat_410671",
    "title": "Cat_410671",
    "link_img": "https://live.staticflickr.com/65535/50017631333_a078a2deb7_o.jpg",
    "id_image": "Cat_410671",
    "count_view": 0
  },
  {
    "link_thumb": "https://live.staticflickr.com/65535/50022570723_78850dc86e_n.jpg",
    "id_album": "-1940643173",
    "description": "Rabbit_466097",
    "title": "Rabbit_466097",
    "link_img": "https://live.staticflickr.com/65535/50022570723_3f9fc551db_o.jpg",
    "id_image": "Rabbit_466097",
    "count_view": 0
  },
  {
    "link_thumb": "https://live.staticflickr.com/65535/50022340137_557415796b_n.jpg",
    "id_album": "416744915",
    "description": "Lion_919904",
    "title": "Lion_919904",
    "link_img": "https://live.staticflickr.com/65535/50022340137_e0b2728724_o.jpg",
    "id_image": "Lion_919904",
    "count_view": 0
  },
  {
    "link_thumb": "https://live.staticflickr.com/65535/50019643148_b4ff49f230_n.jpg",
    "id_album": "-149330232",
    "description": "Dog_244083",
    "title": "Dog_244083",
    "link_img": "https://live.staticflickr.com/65535/50019643148_7192d05b7a_o.jpg",
    "id_image": "Dog_244083",
    "count_view": 0
  },
  {
    "link_thumb": "https://live.staticflickr.com/65535/50019621573_fd120f9241_n.jpg",
    "id_album": "-149330232",
    "description": "Dog_210904",
    "title": "Dog_210904",
    "link_img": "https://live.staticflickr.com/65535/50019621573_d723a98eba_o.jpg",
    "id_image": "Dog_210904",
    "count_view": 0
  },
  {
    "link_thumb": "https://live.staticflickr.com/65535/50352007333_87f73a68ab_n.jpg",
    "id_album": "-462831702",
    "description": "Cat_77501",
    "title": "Cat_77501",
    "link_img": "https://live.staticflickr.com/65535/50352007333_280984e190_o.jpg",
    "id_image": "Cat_77501",
    "count_view": 0
  },
  {
    "link_thumb": "https://live.staticflickr.com/65535/50017164192_37de9bd211_n.jpg",
    "id_album": "523598895",
    "description": "Artistic_421346",
    "title": "Artistic_421346",
    "link_img": "https://live.staticflickr.com/65535/50017164192_44806e7fdc_o.jpg",
    "id_image": "Artistic_421346",
    "count_view": 0
  },
  {
    "link_thumb": "https://live.staticflickr.com/65535/50019685742_e197e6d43e_n.jpg",
    "id_album": "-462831703",
    "description": "Cat_905438",
    "title": "Cat_905438",
    "link_img": "https://live.staticflickr.com/65535/50019685742_10db9f53a4_o.jpg",
    "id_image": "Cat_905438",
    "count_view": 0
  },
  {
    "link_thumb": "https://live.staticflickr.com/65535/50020605572_f12d5b05fa_n.jpg",
    "id_album": "-149330232",
    "description": "Dog_372728",
    "title": "Dog_372728",
    "link_img": "https://live.staticflickr.com/65535/50020605572_4c21eb43e8_o.jpg",
    "id_image": "Dog_372728",
    "count_view": 0
  },
  {
    "link_thumb": "https://live.staticflickr.com/65535/50351716863_435fe042ee_n.jpg",
    "id_album": "-462831703",
    "description": "Cat_185634",
    "title": "Cat_185634",
    "link_img": "https://live.staticflickr.com/65535/50351716863_d22d601b80_o.jpg",
    "id_image": "Cat_185634",
    "count_view": 0
  },
  {
    "link_thumb": "https://live.staticflickr.com/65535/50020350606_56b46fd559_n.jpg",
    "id_album": "-149330232",
    "description": "Dog_376123",
    "title": "Dog_376123",
    "link_img": "https://live.staticflickr.com/65535/50020350606_5259e70122_o.jpg",
    "id_image": "Dog_376123",
    "count_view": 0
  },
  {
    "link_thumb": "https://live.staticflickr.com/65535/50020438158_81f61aa53a_n.jpg",
    "id_album": "-128218148",
    "description": "Fox_593689",
    "title": "Fox_593689",
    "link_img": "https://live.staticflickr.com/65535/50020438158_7334a79986_o.jpg",
    "id_image": "Fox_593689",
    "count_view": 0
  },
  {
    "link_thumb": "https://live.staticflickr.com/65535/50016378933_68e2c07ea2_n.jpg",
    "id_album": "523598895",
    "description": "Artistic_437309",
    "title": "Artistic_437309",
    "link_img": "https://live.staticflickr.com/65535/50016378933_7634f5bdd5_o.jpg",
    "id_image": "Artistic_437309",
    "count_view": 0
  },
  {
    "link_thumb": "https://live.staticflickr.com/65535/50022182942_4aeabfc93c_n.jpg",
    "id_album": "1392348450",
    "description": "Leopard_427667",
    "title": "Leopard_427667",
    "link_img": "https://live.staticflickr.com/65535/50022182942_912dfd250d_o.jpg",
    "id_image": "Leopard_427667",
    "count_view": 0
  },
  {
    "link_thumb": "https://live.staticflickr.com/65535/50020970858_a3ca8fdd3d_n.jpg",
    "id_album": "-1933715543",
    "description": "Horse_408337",
    "title": "Horse_408337",
    "link_img": "https://live.staticflickr.com/65535/50020970858_32653a1bf9_o.jpg",
    "id_image": "Horse_408337",
    "count_view": 0
  },
  {
    "link_thumb": "https://live.staticflickr.com/65535/50022105242_307457e5f5_n.jpg",
    "id_album": "-1882491687",
    "description": "Ladybug_410609",
    "title": "Ladybug_410609",
    "link_img": "https://live.staticflickr.com/65535/50022105242_ff69355979_o.jpg",
    "id_image": "Ladybug_410609",
    "count_view": 0
  },
  {
    "link_thumb": "https://live.staticflickr.com/65535/50021078557_ceb4506e0c_n.jpg",
    "id_album": "-1118073211",
    "description": "Fish_152142",
    "title": "Fish_152142",
    "link_img": "https://live.staticflickr.com/65535/50021078557_885d7f5584_o.jpg",
    "id_image": "Fish_152142",
    "count_view": 0
  },
  {
    "link_thumb": "https://live.staticflickr.com/65535/50019945503_b1f1740973_n.jpg",
    "id_album": "-149330231",
    "description": "Dog_682668",
    "title": "Dog_682668",
    "link_img": "https://live.staticflickr.com/65535/50019945503_7c93489660_o.jpg",
    "id_image": "Dog_682668",
    "count_view": 0
  },
  {
    "link_thumb": "https://live.staticflickr.com/65535/50022691768_9105b2cf57_n.jpg",
    "id_album": "332874268",
    "description": "RedPanda_803367",
    "title": "RedPanda_803367",
    "link_img": "https://live.staticflickr.com/65535/50022691768_7aa9da9ed0_o.jpg",
    "id_image": "RedPanda_803367",
    "count_view": 0
  },
  {
    "link_thumb": "https://live.staticflickr.com/65535/50021393366_5b3e1b511b_n.jpg",
    "id_album": "1950225324",
    "description": "Gorilla_462221",
    "title": "Gorilla_462221",
    "link_img": "https://live.staticflickr.com/65535/50021393366_3d2c0e422d_o.jpg",
    "id_image": "Gorilla_462221",
    "count_view": 0
  },
  {
    "link_thumb": "https://live.staticflickr.com/65535/50020422956_bdc7244196_n.jpg",
    "id_album": "-149330231",
    "description": "Dog_457323",
    "title": "Dog_457323",
    "link_img": "https://live.staticflickr.com/65535/50020422956_71f9ccf9ce_o.jpg",
    "id_image": "Dog_457323",
    "count_view": 0
  },
  {
    "link_thumb": "https://live.staticflickr.com/65535/50020633312_4d0cb073e8_n.jpg",
    "id_album": "-149330231",
    "description": "Dog_400974",
    "title": "Dog_400974",
    "link_img": "https://live.staticflickr.com/65535/50020633312_35d29766ce_o.jpg",
    "id_image": "Dog_400974",
    "count_view": 0
  },
  {
    "link_thumb": "https://live.staticflickr.com/65535/50021927336_10f2c84cbf_n.jpg",
    "id_album": "1392348450",
    "description": "Leopard_436143",
    "title": "Leopard_436143",
    "link_img": "https://live.staticflickr.com/65535/50021927336_684369c3e5_o.jpg",
    "id_image": "Leopard_436143",
    "count_view": 0
  },
  {
    "link_thumb": "https://live.staticflickr.com/65535/50023474722_46832e2913_n.jpg",
    "id_album": "332874268",
    "description": "RedPanda_650159",
    "title": "RedPanda_650159",
    "link_img": "https://live.staticflickr.com/65535/50023474722_8a81da96b1_o.jpg",
    "id_image": "RedPanda_650159",
    "count_view": 0
  },
  {
    "link_thumb": "https://live.staticflickr.com/65535/50017443302_c9ebdd2319_n.jpg",
    "id_album": "325287329",
    "description": "Beetle_403423",
    "title": "Beetle_403423",
    "link_img": "https://live.staticflickr.com/65535/50017443302_9479a5480c_o.jpg",
    "id_image": "Beetle_403423",
    "count_view": 0
  },
  {
    "link_thumb": "https://live.staticflickr.com/65535/50024054091_0ffe131441_n.jpg",
    "id_album": "405170427",
    "description": "Tiger_268724",
    "title": "Tiger_268724",
    "link_img": "https://live.staticflickr.com/65535/50024054091_cf5e2d30ff_o.jpg",
    "id_image": "Tiger_268724",
    "count_view": 0
  },
  {
    "link_thumb": "https://live.staticflickr.com/65535/50017144803_835ac73e28_n.jpg",
    "id_album": "-401151552",
    "description": "Butterfly_801160",
    "title": "Butterfly_801160",
    "link_img": "https://live.staticflickr.com/65535/50017144803_3b61955d0a_o.jpg",
    "id_image": "Butterfly_801160",
    "count_view": 0
  },
  {
    "link_thumb": "https://live.staticflickr.com/65535/50020597237_5bc448cb5d_n.jpg",
    "id_album": "-149330232",
    "description": "Dog_369785",
    "title": "Dog_369785",
    "link_img": "https://live.staticflickr.com/65535/50020597237_79c565a17c_o.jpg",
    "id_image": "Dog_369785",
    "count_view": 0
  },
  {
    "link_thumb": "https://live.staticflickr.com/65535/50022977817_b198f5147d_n.jpg",
    "id_album": "392248205",
    "description": "Penguin_759626",
    "title": "Penguin_759626",
    "link_img": "https://live.staticflickr.com/65535/50022977817_7265daa511_o.jpg",
    "id_image": "Penguin_759626",
    "count_view": 0
  },
  {
    "link_thumb": "https://live.staticflickr.com/65535/50024283172_b5ce485a3a_n.jpg",
    "id_album": "405170427",
    "description": "Tiger_105984",
    "title": "Tiger_105984",
    "link_img": "https://live.staticflickr.com/65535/50024283172_9a1f370af2_o.jpg",
    "id_image": "Tiger_105984",
    "count_view": 0
  },
  {
    "link_thumb": "https://live.staticflickr.com/65535/50022641118_a3b1cd8fc7_n.jpg",
    "id_album": "-434874555",
    "description": "RainbowLorikeet_898512",
    "title": "RainbowLorikeet_898512",
    "link_img": "https://live.staticflickr.com/65535/50022641118_68353c12a4_o.jpg",
    "id_image": "RainbowLorikeet_898512",
    "count_view": 0
  },
  {
    "link_thumb": "https://live.staticflickr.com/65535/50018214627_0a3941280f_n.jpg",
    "id_album": "-462831702",
    "description": "Cat_310098",
    "title": "Cat_310098",
    "link_img": "https://live.staticflickr.com/65535/50018214627_c1bdbfd094_o.jpg",
    "id_image": "Cat_310098",
    "count_view": 0
  },
  {
    "link_thumb": "https://live.staticflickr.com/65535/50020930411_406d594a47_n.jpg",
    "id_album": "-1694105481",
    "description": "Fly_889065",
    "title": "Fly_889065",
    "link_img": "https://live.staticflickr.com/65535/50020930411_5625db2caf_o.jpg",
    "id_image": "Fly_889065",
    "count_view": 0
  },
  {
    "link_thumb": "https://live.staticflickr.com/65535/50017837656_648bd7ebf5_n.jpg",
    "id_album": "-462831705",
    "description": "Cat_195803",
    "title": "Cat_195803",
    "link_img": "https://live.staticflickr.com/65535/50017837656_40c19e0602_o.jpg",
    "id_image": "Cat_195803",
    "count_view": 0
  },
  {
    "link_thumb": "https://live.staticflickr.com/65535/50017849826_679bec1541_n.jpg",
    "id_album": "-462831705",
    "description": "Cat_207211",
    "title": "Cat_207211",
    "link_img": "https://live.staticflickr.com/65535/50017849826_f036fcd5ea_o.jpg",
    "id_image": "Cat_207211",
    "count_view": 0
  },
  {
    "link_thumb": "https://live.staticflickr.com/65535/50023518818_8fb1de7c4c_n.jpg",
    "id_album": "405170427",
    "description": "Tiger_331857",
    "title": "Tiger_331857",
    "link_img": "https://live.staticflickr.com/65535/50023518818_921697a781_o.jpg",
    "id_image": "Tiger_331857",
    "count_view": 0
  },
  {
    "link_thumb": "https://live.staticflickr.com/65535/50019545533_12d98f9dfc_n.jpg",
    "id_album": "297232732",
    "description": "Dinosaur_156627",
    "title": "Dinosaur_156627",
    "link_img": "https://live.staticflickr.com/65535/50019545533_b899ccc69b_o.jpg",
    "id_image": "Dinosaur_156627",
    "count_view": 0
  },
  {
    "link_thumb": "https://live.staticflickr.com/65535/50020780272_89d50514b3_n.jpg",
    "id_album": "-149330231",
    "description": "Dog_853205",
    "title": "Dog_853205",
    "link_img": "https://live.staticflickr.com/65535/50020780272_66be919ab0_o.jpg",
    "id_image": "Dog_853205",
    "count_view": 0
  },
  {
    "link_thumb": "https://live.staticflickr.com/65535/50017878857_0579a66b9f_n.jpg",
    "id_album": "-401151552",
    "description": "Butterfly_515652",
    "title": "Butterfly_515652",
    "link_img": "https://live.staticflickr.com/65535/50017878857_1f427fae84_o.jpg",
    "id_image": "Butterfly_515652",
    "count_view": 0
  },
  {
    "link_thumb": "https://live.staticflickr.com/65535/50020755863_4762bceace_n.jpg",
    "id_album": "-405626519",
    "description": "GermanShepherd_726789",
    "title": "GermanShepherd_726789",
    "link_img": "https://live.staticflickr.com/65535/50020755863_dcec5a0b72_o.jpg",
    "id_image": "GermanShepherd_726789",
    "count_view": 0
  },
  {
    "link_thumb": "https://live.staticflickr.com/65535/50024303737_05aa728e3b_n.jpg",
    "id_album": "405170427",
    "description": "Tiger_236807",
    "title": "Tiger_236807",
    "link_img": "https://live.staticflickr.com/65535/50024303737_c740435f94_o.jpg",
    "id_image": "Tiger_236807",
    "count_view": 0
  },
  {
    "link_thumb": "https://live.staticflickr.com/65535/50017226717_e1ce5db0cc_n.jpg",
    "id_album": "231236068",
    "description": "BaldEagle_692263",
    "title": "BaldEagle_692263",
    "link_img": "https://live.staticflickr.com/65535/50017226717_7170f91273_o.jpg",
    "id_image": "BaldEagle_692263",
    "count_view": 0
  },
  {
    "link_thumb": "https://live.staticflickr.com/65535/50020872678_699b828fc8_n.jpg",
    "id_album": "109779448",
    "description": "Hare_442868",
    "title": "Hare_442868",
    "link_img": "https://live.staticflickr.com/65535/50020872678_a20f2dea50_o.jpg",
    "id_image": "Hare_442868",
    "count_view": 0
  },
  {
    "link_thumb": "https://live.staticflickr.com/65535/50023437522_02afc302a8_n.jpg",
    "id_album": "-434874555",
    "description": "RainbowLorikeet_730461",
    "title": "RainbowLorikeet_730461",
    "link_img": "https://live.staticflickr.com/65535/50023437522_0b55fe3a7b_o.jpg",
    "id_image": "RainbowLorikeet_730461",
    "count_view": 0
  },
  {
    "link_thumb": "https://live.staticflickr.com/65535/50023087796_c445a777e2_n.jpg",
    "id_album": "-1940643173",
    "description": "Rabbit_182105",
    "title": "Rabbit_182105",
    "link_img": "https://live.staticflickr.com/65535/50023087796_a13aebcf54_o.jpg",
    "id_image": "Rabbit_182105",
    "count_view": 0
  },
  {
    "link_thumb": "https://live.staticflickr.com/65535/50020806353_505ab1d55d_n.jpg",
    "id_album": "2060159334",
    "description": "GoldenRetriever_455520",
    "title": "GoldenRetriever_455520",
    "link_img": "https://live.staticflickr.com/65535/50020806353_5d579f06d2_o.jpg",
    "id_image": "GoldenRetriever_455520",
    "count_view": 0
  },
  {
    "link_thumb": "https://live.staticflickr.com/65535/50020972691_6725df2296_n.jpg",
    "id_album": "-128218148",
    "description": "Fox_534697",
    "title": "Fox_534697",
    "link_img": "https://live.staticflickr.com/65535/50020972691_73594caf0f_o.jpg",
    "id_image": "Fox_534697",
    "count_view": 0
  },
  {
    "link_thumb": "https://live.staticflickr.com/65535/50019697236_034ea8cdd6_n.jpg",
    "id_album": "-1481843714",
    "description": "Cheetah_365008",
    "title": "Cheetah_365008",
    "link_img": "https://live.staticflickr.com/65535/50019697236_7ca45f5c6c_o.jpg",
    "id_image": "Cheetah_365008",
    "count_view": 0
  },
  {
    "link_thumb": "https://live.staticflickr.com/65535/50017925712_8156c36bb2_n.jpg",
    "id_album": "-401151552",
    "description": "Butterfly_774311",
    "title": "Butterfly_774311",
    "link_img": "https://live.staticflickr.com/65535/50017925712_fc6653cfdc_o.jpg",
    "id_image": "Butterfly_774311",
    "count_view": 0
  },
  {
    "link_thumb": "https://live.staticflickr.com/65535/50017229188_a9ea8f7de1_n.jpg",
    "id_album": "-462831705",
    "description": "Cat_113211",
    "title": "Cat_113211",
    "link_img": "https://live.staticflickr.com/65535/50017229188_d35932dd46_o.jpg",
    "id_image": "Cat_113211",
    "count_view": 0
  },
  {
    "link_thumb": "https://live.staticflickr.com/65535/50021421436_066f25187b_n.jpg",
    "id_album": "-1513987841",
    "description": "Hawk_437865",
    "title": "Hawk_437865",
    "link_img": "https://live.staticflickr.com/65535/50021421436_244a1eecb1_o.jpg",
    "id_image": "Hawk_437865",
    "count_view": 0
  },
  {
    "link_thumb": "https://live.staticflickr.com/65535/50018977718_ac74296af0_n.jpg",
    "id_album": "-462831703",
    "description": "Cat_946963",
    "title": "Cat_946963",
    "link_img": "https://live.staticflickr.com/65535/50018977718_4ba56bc930_o.jpg",
    "id_image": "Cat_946963",
    "count_view": 0
  },
  {
    "link_thumb": "https://live.staticflickr.com/65535/50018161607_fc364bf029_n.jpg",
    "id_album": "-462831705",
    "description": "Cat_246489",
    "title": "Cat_246489",
    "link_img": "https://live.staticflickr.com/65535/50018161607_9e2b14e84d_o.jpg",
    "id_image": "Cat_246489",
    "count_view": 0
  },
  {
    "link_thumb": "https://live.staticflickr.com/65535/50020232391_4404700d77_n.jpg",
    "id_album": "-149330232",
    "description": "Dog_307354",
    "title": "Dog_307354",
    "link_img": "https://live.staticflickr.com/65535/50020232391_619e8abb53_o.jpg",
    "id_image": "Dog_307354",
    "count_view": 0
  },
  {
    "link_thumb": "https://live.staticflickr.com/65535/50019340486_c5d03a33d8_n.jpg",
    "id_album": "-462831703",
    "description": "Cat_865186",
    "title": "Cat_865186",
    "link_img": "https://live.staticflickr.com/65535/50019340486_d6d36fdd82_o.jpg",
    "id_image": "Cat_865186",
    "count_view": 0
  },
  {
    "link_thumb": "https://live.staticflickr.com/65535/50024690372_1c1d9e678e_n.jpg",
    "id_album": "766572659",
    "description": "WhiteTiger_284432",
    "title": "WhiteTiger_284432",
    "link_img": "https://live.staticflickr.com/65535/50024690372_d5c8832995_o.jpg",
    "id_image": "WhiteTiger_284432",
    "count_view": 0
  },
  {
    "link_thumb": "https://live.staticflickr.com/65535/50022683866_a1ef6f5e96_n.jpg",
    "id_album": "392248205",
    "description": "Penguin_249158",
    "title": "Penguin_249158",
    "link_img": "https://live.staticflickr.com/65535/50022683866_c6a6d02ff7_o.jpg",
    "id_image": "Penguin_249158",
    "count_view": 0
  },
  {
    "link_thumb": "https://live.staticflickr.com/65535/50018655558_4dd5c0beaa_n.jpg",
    "id_album": "-462831702",
    "description": "Cat_431637",
    "title": "Cat_431637",
    "link_img": "https://live.staticflickr.com/65535/50018655558_6e5a7ddf71_o.jpg",
    "id_image": "Cat_431637",
    "count_view": 0
  },
  {
    "link_thumb": "https://live.staticflickr.com/65535/50352009503_829ce2201e_n.jpg",
    "id_album": "-462831702",
    "description": "Cat_86700",
    "title": "Cat_86700",
    "link_img": "https://live.staticflickr.com/65535/50352009503_646bde7cb2_o.jpg",
    "id_image": "Cat_86700",
    "count_view": 0
  },
  {
    "link_thumb": "https://live.staticflickr.com/65535/50022097572_ccf18bd00c_n.jpg",
    "id_album": "-1882491687",
    "description": "Ladybug_268477",
    "title": "Ladybug_268477",
    "link_img": "https://live.staticflickr.com/65535/50022097572_d70a13dc6a_o.jpg",
    "id_image": "Ladybug_268477",
    "count_view": 0
  },
  {
    "link_thumb": "https://live.staticflickr.com/65535/50018345412_7904d463dd_n.jpg",
    "id_album": "-1846011410",
    "description": "Bird_169748",
    "title": "Bird_169748",
    "link_img": "https://live.staticflickr.com/65535/50018345412_a75405591b_o.jpg",
    "id_image": "Bird_169748",
    "count_view": 0
  },
  {
    "link_thumb": "https://live.staticflickr.com/65535/50016498698_532f9f05cf_n.jpg",
    "id_album": "-422187261",
    "description": "Bear_344819",
    "title": "Bear_344819",
    "link_img": "https://live.staticflickr.com/65535/50016498698_0df977af6b_o.jpg",
    "id_image": "Bear_344819",
    "count_view": 0
  },
  {
    "link_thumb": "https://live.staticflickr.com/65535/50024052836_e07b81414a_n.jpg",
    "id_album": "405170427",
    "description": "Tiger_260832",
    "title": "Tiger_260832",
    "link_img": "https://live.staticflickr.com/65535/50024052836_ff76b1e7c5_o.jpg",
    "id_image": "Tiger_260832",
    "count_view": 0
  },
  {
    "link_thumb": "https://live.staticflickr.com/65535/50023318332_d73798bd92_n.jpg",
    "id_album": "-353898617",
    "description": "Puppy_794228",
    "title": "Puppy_794228",
    "link_img": "https://live.staticflickr.com/65535/50023318332_a491f3d71e_o.jpg",
    "id_image": "Puppy_794228",
    "count_view": 0
  },
  {
    "link_thumb": "https://live.staticflickr.com/65535/50019391526_602f87b21c_n.jpg",
    "id_album": "-462831703",
    "description": "Cat_882468",
    "title": "Cat_882468",
    "link_img": "https://live.staticflickr.com/65535/50019391526_9714e84494_o.jpg",
    "id_image": "Cat_882468",
    "count_view": 0
  },
  {
    "link_thumb": "https://live.staticflickr.com/65535/50020983036_c377668f6f_n.jpg",
    "id_album": "-128218148",
    "description": "Fox_612130",
    "title": "Fox_612130",
    "link_img": "https://live.staticflickr.com/65535/50020983036_c48929448a_o.jpg",
    "id_image": "Fox_612130",
    "count_view": 0
  },
  {
    "link_thumb": "https://live.staticflickr.com/65535/50019505458_73037bdca9_n.jpg",
    "id_album": "1903411565",
    "description": "Deer_662998",
    "title": "Deer_662998",
    "link_img": "https://live.staticflickr.com/65535/50019505458_9b87121db5_o.jpg",
    "id_image": "Deer_662998",
    "count_view": 0
  },
  {
    "link_thumb": "https://live.staticflickr.com/65535/50021518352_dd2dc8d955_n.jpg",
    "id_album": "-462831703",
    "description": "Cat_820265",
    "title": "Cat_820265",
    "link_img": "https://live.staticflickr.com/65535/50021518352_2c4c53766f_o.jpg",
    "id_image": "Cat_820265",
    "count_view": 0
  },
  {
    "link_thumb": "https://live.staticflickr.com/65535/50017724306_9b5a1a2798_n.jpg",
    "id_album": "-1131161368",
    "description": "Camel_313869",
    "title": "Camel_313869",
    "link_img": "https://live.staticflickr.com/65535/50017724306_7949e5e676_o.jpg",
    "id_image": "Camel_313869",
    "count_view": 0
  },
  {
    "link_thumb": "https://live.staticflickr.com/65535/50020561101_c3e1917f30_n.jpg",
    "id_album": "-54509188",
    "description": "Dolphin_172389",
    "title": "Dolphin_172389",
    "link_img": "https://live.staticflickr.com/65535/50020561101_b63b717426_o.jpg",
    "id_image": "Dolphin_172389",
    "count_view": 0
  },
  {
    "link_thumb": "https://live.staticflickr.com/65535/50019086948_601315f762_n.jpg",
    "id_album": "1889777354",
    "description": "CGI_105119",
    "title": "CGI_105119",
    "link_img": "https://live.staticflickr.com/65535/50019086948_553f2c717f_o.jpg",
    "id_image": "CGI_105119",
    "count_view": 0
  },
  {
    "link_thumb": "https://live.staticflickr.com/65535/50017097517_13770ba18f_n.jpg",
    "id_album": "-1741290715",
    "description": "Ant_499037",
    "title": "Ant_499037",
    "link_img": "https://live.staticflickr.com/65535/50017097517_83a5ec1634_o.jpg",
    "id_image": "Ant_499037",
    "count_view": 0
  },
  {
    "link_thumb": "https://live.staticflickr.com/65535/50024685407_76f671010c_n.jpg",
    "id_album": "545627045",
    "description": "Whitestork_857174",
    "title": "Whitestork_857174",
    "link_img": "https://live.staticflickr.com/65535/50024685407_76dc260d66_o.jpg",
    "id_image": "Whitestork_857174",
    "count_view": 0
  },
  {
    "link_thumb": "https://live.staticflickr.com/65535/50019900102_74d0cfbae7_n.jpg",
    "id_album": "-766919393",
    "description": "Chameleon_357089",
    "title": "Chameleon_357089",
    "link_img": "https://live.staticflickr.com/65535/50019900102_9cc49212e9_o.jpg",
    "id_image": "Chameleon_357089",
    "count_view": 0
  },
  {
    "link_thumb": "https://live.staticflickr.com/65535/50023314411_01a7553ab3_n.jpg",
    "id_album": "1926701726",
    "description": "Robin_707173",
    "title": "Robin_707173",
    "link_img": "https://live.staticflickr.com/65535/50023314411_ed49807fe9_o.jpg",
    "id_image": "Robin_707173",
    "count_view": 0
  },
  {
    "link_thumb": "https://live.staticflickr.com/65535/50021674511_13384b1d87_n.jpg",
    "id_album": "1658866795",
    "description": "Insect_403225",
    "title": "Insect_403225",
    "link_img": "https://live.staticflickr.com/65535/50021674511_fb0eedf95c_o.jpg",
    "id_image": "Insect_403225",
    "count_view": 0
  },
  {
    "link_thumb": "https://live.staticflickr.com/65535/50016911278_603f540dbf_n.jpg",
    "id_album": "-1846011410",
    "description": "Bird_878943",
    "title": "Bird_878943",
    "link_img": "https://live.staticflickr.com/65535/50016911278_d2252433a5_o.jpg",
    "id_image": "Bird_878943",
    "count_view": 0
  },
  {
    "link_thumb": "https://live.staticflickr.com/65535/50020221286_45e033ca35_n.jpg",
    "id_album": "-149330232",
    "description": "Dog_284532",
    "title": "Dog_284532",
    "link_img": "https://live.staticflickr.com/65535/50020221286_9cff6f3cdd_o.jpg",
    "id_image": "Dog_284532",
    "count_view": 0
  },
  {
    "link_thumb": "https://live.staticflickr.com/65535/50021253312_1854fd87f9_n.jpg",
    "id_album": "-128218148",
    "description": "Fox_749182",
    "title": "Fox_749182",
    "link_img": "https://live.staticflickr.com/65535/50021253312_2132428662_o.jpg",
    "id_image": "Fox_749182",
    "count_view": 0
  },
  {
    "link_thumb": "https://live.staticflickr.com/65535/50019379546_f34ef13685_n.jpg",
    "id_album": "-462831703",
    "description": "Cat_877986",
    "title": "Cat_877986",
    "link_img": "https://live.staticflickr.com/65535/50019379546_1a58142564_o.jpg",
    "id_image": "Cat_877986",
    "count_view": 0
  },
  {
    "link_thumb": "https://live.staticflickr.com/65535/50021607503_a4614e04cf_n.jpg",
    "id_album": "1894617400",
    "description": "Lynx_456939",
    "title": "Lynx_456939",
    "link_img": "https://live.staticflickr.com/65535/50021607503_7f7cb7f337_o.jpg",
    "id_image": "Lynx_456939",
    "count_view": 0
  },
  {
    "link_thumb": "https://live.staticflickr.com/65535/50351792063_4e47471df4_n.jpg",
    "id_album": "-462831703",
    "description": "Cat_388436",
    "title": "Cat_388436",
    "link_img": "https://live.staticflickr.com/65535/50351792063_c067e384d0_o.jpg",
    "id_image": "Cat_388436",
    "count_view": 0
  },
  {
    "link_thumb": "https://live.staticflickr.com/65535/50020230006_e920c07410_n.jpg",
    "id_album": "-149330232",
    "description": "Dog_303747",
    "title": "Dog_303747",
    "link_img": "https://live.staticflickr.com/65535/50020230006_09f289b901_o.jpg",
    "id_image": "Dog_303747",
    "count_view": 0
  },
  {
    "link_thumb": "https://live.staticflickr.com/65535/50021015336_df4f92b975_n.jpg",
    "id_album": "-128218148",
    "description": "Fox_877405",
    "title": "Fox_877405",
    "link_img": "https://live.staticflickr.com/65535/50021015336_c328f3d144_o.jpg",
    "id_image": "Fox_877405",
    "count_view": 0
  },
  {
    "link_thumb": "https://live.staticflickr.com/65535/50020763041_33dd6ba777_n.jpg",
    "id_album": "1270947998",
    "description": "Elephant_468353",
    "title": "Elephant_468353",
    "link_img": "https://live.staticflickr.com/65535/50020763041_c92fb90462_o.jpg",
    "id_image": "Elephant_468353",
    "count_view": 0
  },
  {
    "link_thumb": "https://live.staticflickr.com/65535/50020577781_24c9159e13_n.jpg",
    "id_album": "-54509188",
    "description": "Dolphin_469357",
    "title": "Dolphin_469357",
    "link_img": "https://live.staticflickr.com/65535/50020577781_ddd974019b_o.jpg",
    "id_image": "Dolphin_469357",
    "count_view": 0
  },
  {
    "link_thumb": "https://live.staticflickr.com/65535/50019380708_79cd828c99_n.jpg",
    "id_album": "-392100404",
    "description": "Crow_728713",
    "title": "Crow_728713",
    "link_img": "https://live.staticflickr.com/65535/50019380708_20557b06bc_o.jpg",
    "id_image": "Crow_728713",
    "count_view": 0
  },
  {
    "link_thumb": "https://live.staticflickr.com/65535/50019649218_e0992e4598_n.jpg",
    "id_album": "-149330232",
    "description": "Dog_249404",
    "title": "Dog_249404",
    "link_img": "https://live.staticflickr.com/65535/50019649218_15280575fd_o.jpg",
    "id_image": "Dog_249404",
    "count_view": 0
  },
  {
    "link_thumb": "https://live.staticflickr.com/65535/50020501133_02c239c92f_n.jpg",
    "id_album": "704811092",
    "description": "FrenchBulldog_673190",
    "title": "FrenchBulldog_673190",
    "link_img": "https://live.staticflickr.com/65535/50020501133_b31e14b39a_o.jpg",
    "id_image": "FrenchBulldog_673190",
    "count_view": 0
  },
  {
    "link_thumb": "https://live.staticflickr.com/65535/50351701218_9189fccfb6_n.jpg",
    "id_album": "-462831703",
    "description": "Cat_114810",
    "title": "Cat_114810",
    "link_img": "https://live.staticflickr.com/65535/50351701218_4d60e95f32_o.jpg",
    "id_image": "Cat_114810",
    "count_view": 0
  },
  {
    "link_thumb": "https://live.staticflickr.com/65535/50021407166_d2f3e033bd_n.jpg",
    "id_album": "82558972",
    "description": "GuineaPig_384987",
    "title": "GuineaPig_384987",
    "link_img": "https://live.staticflickr.com/65535/50021407166_e50c64a984_o.jpg",
    "id_image": "GuineaPig_384987",
    "count_view": 0
  },
  {
    "link_thumb": "https://live.staticflickr.com/65535/50020803113_618b2e0cbb_n.jpg",
    "id_album": "2060159334",
    "description": "GoldenRetriever_113926",
    "title": "GoldenRetriever_113926",
    "link_img": "https://live.staticflickr.com/65535/50020803113_3b35079515_o.jpg",
    "id_image": "GoldenRetriever_113926",
    "count_view": 0
  },
  {
    "link_thumb": "https://live.staticflickr.com/65535/50022212658_87ab19c919_n.jpg",
    "id_album": "407660898",
    "description": "Pigeon_368301",
    "title": "Pigeon_368301",
    "link_img": "https://live.staticflickr.com/65535/50022212658_a01b01fb23_o.jpg",
    "id_image": "Pigeon_368301",
    "count_view": 0
  },
  {
    "link_thumb": "https://live.staticflickr.com/65535/50021267986_0c30e17855_n.jpg",
    "id_album": "-462831703",
    "description": "Cat_829181",
    "title": "Cat_829181",
    "link_img": "https://live.staticflickr.com/65535/50021267986_3f3248f2a4_o.jpg",
    "id_image": "Cat_829181",
    "count_view": 0
  },
  {
    "link_thumb": "https://live.staticflickr.com/65535/50023234602_4e48bb481a_n.jpg",
    "id_album": "-353898617",
    "description": "Puppy_370336",
    "title": "Puppy_370336",
    "link_img": "https://live.staticflickr.com/65535/50023234602_c67e453991_o.jpg",
    "id_image": "Puppy_370336",
    "count_view": 0
  },
  {
    "link_thumb": "https://live.staticflickr.com/65535/50020285726_1a0c8c8b26_n.jpg",
    "id_album": "-149330232",
    "description": "Dog_343143",
    "title": "Dog_343143",
    "link_img": "https://live.staticflickr.com/65535/50020285726_3e587228b1_o.jpg",
    "id_image": "Dog_343143",
    "count_view": 0
  },
  {
    "link_thumb": "https://live.staticflickr.com/65535/50021260896_e1658bd5be_n.jpg",
    "id_album": "-462831703",
    "description": "Cat_812008",
    "title": "Cat_812008",
    "link_img": "https://live.staticflickr.com/65535/50021260896_fe50e3f872_o.jpg",
    "id_image": "Cat_812008",
    "count_view": 0
  },
  {
    "link_thumb": "https://live.staticflickr.com/65535/50022076867_d997a18c5a_n.jpg",
    "id_album": "771796001",
    "description": "Koala_625935",
    "title": "Koala_625935",
    "link_img": "https://live.staticflickr.com/65535/50022076867_29ef2fc4ac_o.jpg",
    "id_image": "Koala_625935",
    "count_view": 0
  },
  {
    "link_thumb": "https://live.staticflickr.com/65535/50022300291_d1c2b849fa_n.jpg",
    "id_album": "1957967135",
    "description": "Mouse_941103",
    "title": "Mouse_941103",
    "link_img": "https://live.staticflickr.com/65535/50022300291_5ab081659a_o.jpg",
    "id_image": "Mouse_941103",
    "count_view": 0
  },
  {
    "link_thumb": "https://live.staticflickr.com/65535/50016373738_f4126d13b3_n.jpg",
    "id_album": "523598895",
    "description": "Artistic_364241",
    "title": "Artistic_364241",
    "link_img": "https://live.staticflickr.com/65535/50016373738_0708b9ecec_o.jpg",
    "id_image": "Artistic_364241",
    "count_view": 0
  },
  {
    "link_thumb": "https://live.staticflickr.com/65535/50017155447_1eec331cfb_n.jpg",
    "id_album": "523598895",
    "description": "Artistic_318703",
    "title": "Artistic_318703",
    "link_img": "https://live.staticflickr.com/65535/50017155447_598b6f09dd_o.jpg",
    "id_image": "Artistic_318703",
    "count_view": 0
  },
  {
    "link_thumb": "https://live.staticflickr.com/65535/50023399921_886621d8c6_n.jpg",
    "id_album": "1961094930",
    "description": "Seal_244483",
    "title": "Seal_244483",
    "link_img": "https://live.staticflickr.com/65535/50023399921_6610a69739_o.jpg",
    "id_image": "Seal_244483",
    "count_view": 0
  },
  {
    "link_thumb": "https://live.staticflickr.com/65535/50020692766_7edec1aaf7_n.jpg",
    "id_album": "-39098563",
    "description": "Eagle_341628",
    "title": "Eagle_341628",
    "link_img": "https://live.staticflickr.com/65535/50020692766_e0c46d3983_o.jpg",
    "id_image": "Eagle_341628",
    "count_view": 0
  },
  {
    "link_thumb": "https://live.staticflickr.com/65535/50020794433_5969f4ba7f_n.jpg",
    "id_album": "713572662",
    "description": "Giraffe_985461",
    "title": "Giraffe_985461",
    "link_img": "https://live.staticflickr.com/65535/50020794433_bf6b7d8fe5_o.jpg",
    "id_image": "Giraffe_985461",
    "count_view": 0
  },
  {
    "link_thumb": "https://live.staticflickr.com/65535/50020014558_857bf010bc_n.jpg",
    "id_album": "-149330231",
    "description": "Dog_936923",
    "title": "Dog_936923",
    "link_img": "https://live.staticflickr.com/65535/50020014558_02b995c540_o.jpg",
    "id_image": "Dog_936923",
    "count_view": 0
  },
  {
    "link_thumb": "https://live.staticflickr.com/65535/50017573558_74c679dc89_n.jpg",
    "id_album": "-462831702",
    "description": "Cat_376803",
    "title": "Cat_376803",
    "link_img": "https://live.staticflickr.com/65535/50017573558_c6b30fe7c4_o.jpg",
    "id_image": "Cat_376803",
    "count_view": 0
  },
  {
    "link_thumb": "https://live.staticflickr.com/65535/50019238723_a8944cdd41_n.jpg",
    "id_album": "791455625",
    "description": "Chipmunk_721250",
    "title": "Chipmunk_721250",
    "link_img": "https://live.staticflickr.com/65535/50019238723_2b741b7fe8_o.jpg",
    "id_image": "Chipmunk_721250",
    "count_view": 0
  },
  {
    "link_thumb": "https://live.staticflickr.com/65535/50017376532_dd0e0bc460_n.jpg",
    "id_album": "1699594607",
    "description": "Bee_110519",
    "title": "Bee_110519",
    "link_img": "https://live.staticflickr.com/65535/50017376532_58bbe13651_o.jpg",
    "id_image": "Bee_110519",
    "count_view": 0
  },
  {
    "link_thumb": "https://live.staticflickr.com/65535/50019996801_3cebe2afc7_n.jpg",
    "id_album": "1903411565",
    "description": "Deer_359649",
    "title": "Deer_359649",
    "link_img": "https://live.staticflickr.com/65535/50019996801_106b824f52_o.jpg",
    "id_image": "Deer_359649",
    "count_view": 0
  },
  {
    "link_thumb": "https://live.staticflickr.com/65535/50020585418_9c21aca6d5_n.jpg",
    "id_album": "-462831704",
    "description": "Cat_589714",
    "title": "Cat_589714",
    "link_img": "https://live.staticflickr.com/65535/50020585418_90d1706e90_o.jpg",
    "id_image": "Cat_589714",
    "count_view": 0
  },
  {
    "link_thumb": "https://live.staticflickr.com/65535/50022695748_2d22f44d61_n.jpg",
    "id_album": "332874268",
    "description": "RedPanda_887837",
    "title": "RedPanda_887837",
    "link_img": "https://live.staticflickr.com/65535/50022695748_3c1c79d842_o.jpg",
    "id_image": "RedPanda_887837",
    "count_view": 0
  },
  {
    "link_thumb": "https://live.staticflickr.com/65535/50351706908_b60ab44edc_n.jpg",
    "id_album": "-462831703",
    "description": "Cat_168529",
    "title": "Cat_168529",
    "link_img": "https://live.staticflickr.com/65535/50351706908_8b87cb9728_o.jpg",
    "id_image": "Cat_168529",
    "count_view": 0
  },
  {
    "link_thumb": "https://live.staticflickr.com/65535/50020376062_954a610851_n.jpg",
    "id_album": "-149330232",
    "description": "Dog_113298",
    "title": "Dog_113298",
    "link_img": "https://live.staticflickr.com/65535/50020376062_64f31b2be2_o.jpg",
    "id_image": "Dog_113298",
    "count_view": 0
  },
  {
    "link_thumb": "https://live.staticflickr.com/65535/50019205278_8eb2556f7a_n.jpg",
    "id_album": "-1481843714",
    "description": "Cheetah_888189",
    "title": "Cheetah_888189",
    "link_img": "https://live.staticflickr.com/65535/50019205278_f68fc258cb_o.jpg",
    "id_image": "Cheetah_888189",
    "count_view": 0
  },
  {
    "link_thumb": "https://live.staticflickr.com/65535/50023194573_7ff3015ab3_n.jpg",
    "id_album": "-1082521515",
    "description": "Spider_381434",
    "title": "Spider_381434",
    "link_img": "https://live.staticflickr.com/65535/50023194573_b88247571e_o.jpg",
    "id_image": "Spider_381434",
    "count_view": 0
  },
  {
    "link_thumb": "https://live.staticflickr.com/65535/50016902143_7d6eecb374_n.jpg",
    "id_album": "-1846011410",
    "description": "Bird_811852",
    "title": "Bird_811852",
    "link_img": "https://live.staticflickr.com/65535/50016902143_a23c547151_o.jpg",
    "id_image": "Bird_811852",
    "count_view": 0
  },
  {
    "link_thumb": "https://live.staticflickr.com/65535/50021363863_5e8e73aa2d_n.jpg",
    "id_album": "1392348450",
    "description": "Leopard_364826",
    "title": "Leopard_364826",
    "link_img": "https://live.staticflickr.com/65535/50021363863_f1bf26cfe1_o.jpg",
    "id_image": "Leopard_364826",
    "count_view": 0
  },
  {
    "link_thumb": "https://live.staticflickr.com/65535/50021445082_1b6e78c5f2_n.jpg",
    "id_album": "-462831704",
    "description": "Cat_709001",
    "title": "Cat_709001",
    "link_img": "https://live.staticflickr.com/65535/50021445082_2ff127281f_o.jpg",
    "id_image": "Cat_709001",
    "count_view": 0
  },
  {
    "link_thumb": "https://live.staticflickr.com/65535/50018928668_50296c5ab5_n.jpg",
    "id_album": "-462831705",
    "description": "Cat_91489",
    "title": "Cat_91489",
    "link_img": "https://live.staticflickr.com/65535/50018928668_b5b21ba557_o.jpg",
    "id_image": "Cat_91489",
    "count_view": 0
  },
  {
    "link_thumb": "https://live.staticflickr.com/65535/50024538867_1055eb1e0d_n.jpg",
    "id_album": "-1103743486",
    "description": "Toucan_408092",
    "title": "Toucan_408092",
    "link_img": "https://live.staticflickr.com/65535/50024538867_f2ccda5d4e_o.jpg",
    "id_image": "Toucan_408092",
    "count_view": 0
  },
  {
    "link_thumb": "https://live.staticflickr.com/65535/50016823951_5e1f736c24_n.jpg",
    "id_album": "-229810103",
    "description": "AmericanBison_324117",
    "title": "AmericanBison_324117",
    "link_img": "https://live.staticflickr.com/65535/50016823951_331577da58_o.jpg",
    "id_image": "AmericanBison_324117",
    "count_view": 0
  },
  {
    "link_thumb": "https://live.staticflickr.com/65535/50021135098_b9c4d3670f_n.jpg",
    "id_album": "1658866795",
    "description": "Insect_403463",
    "title": "Insect_403463",
    "link_img": "https://live.staticflickr.com/65535/50021135098_736bd02a04_o.jpg",
    "id_image": "Insect_403463",
    "count_view": 0
  },
  {
    "link_thumb": "https://live.staticflickr.com/65535/50021376373_a0218e551e_n.jpg",
    "id_album": "1392348450",
    "description": "Leopard_397627",
    "title": "Leopard_397627",
    "link_img": "https://live.staticflickr.com/65535/50021376373_eba8d40466_o.jpg",
    "id_image": "Leopard_397627",
    "count_view": 0
  },
  {
    "link_thumb": "https://live.staticflickr.com/65535/50021392132_63ed6aa818_n.jpg",
    "id_album": "-462831704",
    "description": "Cat_596659",
    "title": "Cat_596659",
    "link_img": "https://live.staticflickr.com/65535/50021392132_0f6f22b06a_o.jpg",
    "id_image": "Cat_596659",
    "count_view": 0
  },
  {
    "link_thumb": "https://live.staticflickr.com/65535/50017393522_c705ea4c25_n.jpg",
    "id_album": "1699594607",
    "description": "Bee_378735",
    "title": "Bee_378735",
    "link_img": "https://live.staticflickr.com/65535/50017393522_c294b10f93_o.jpg",
    "id_image": "Bee_378735",
    "count_view": 0
  },
  {
    "link_thumb": "https://live.staticflickr.com/65535/50020596148_74dc1dbf1c_n.jpg",
    "id_album": "-462831704",
    "description": "Cat_596620",
    "title": "Cat_596620",
    "link_img": "https://live.staticflickr.com/65535/50020596148_b102046b92_o.jpg",
    "id_image": "Cat_596620",
    "count_view": 0
  },
  {
    "link_thumb": "https://live.staticflickr.com/65535/50018609088_b255ea519c_n.jpg",
    "id_album": "-462831702",
    "description": "Cat_411180",
    "title": "Cat_411180",
    "link_img": "https://live.staticflickr.com/65535/50018609088_e555c53660_o.jpg",
    "id_image": "Cat_411180",
    "count_view": 0
  },
  {
    "link_thumb": "https://live.staticflickr.com/65535/50017339548_c2de8e01d8_n.jpg",
    "id_album": "-462831705",
    "description": "Cat_218066",
    "title": "Cat_218066",
    "link_img": "https://live.staticflickr.com/65535/50017339548_d39122c314_o.jpg",
    "id_image": "Cat_218066",
    "count_view": 0
  },
  {
    "link_thumb": "https://live.staticflickr.com/65535/50016310293_338c326ed3_n.jpg",
    "id_album": "-1741290715",
    "description": "Ant_610072",
    "title": "Ant_610072",
    "link_img": "https://live.staticflickr.com/65535/50016310293_fa0132d442_o.jpg",
    "id_image": "Ant_610072",
    "count_view": 0
  },
  {
    "link_thumb": "https://live.staticflickr.com/65535/50019760488_0baa770bdf_n.jpg",
    "id_album": "-149330232",
    "description": "Dog_347354",
    "title": "Dog_347354",
    "link_img": "https://live.staticflickr.com/65535/50019760488_60ae9a2da9_o.jpg",
    "id_image": "Dog_347354",
    "count_view": 0
  },
  {
    "link_thumb": "https://live.staticflickr.com/65535/50019969127_726ba81767_n.jpg",
    "id_album": "-1481843714",
    "description": "Cheetah_464638",
    "title": "Cheetah_464638",
    "link_img": "https://live.staticflickr.com/65535/50019969127_d14b4b8a43_o.jpg",
    "id_image": "Cheetah_464638",
    "count_view": 0
  },
  {
    "link_thumb": "https://live.staticflickr.com/65535/50021181603_1c45ff42e6_n.jpg",
    "id_album": "-843028318",
    "description": "Jaguar_420922",
    "title": "Jaguar_420922",
    "link_img": "https://live.staticflickr.com/65535/50021181603_2f865e5235_o.jpg",
    "id_image": "Jaguar_420922",
    "count_view": 0
  },
  {
    "link_thumb": "https://live.staticflickr.com/65535/50352743982_96f2c9fc12_n.jpg",
    "id_album": "-462831703",
    "description": "Cat_523267",
    "title": "Cat_523267",
    "link_img": "https://live.staticflickr.com/65535/50352743982_d4290bf324_o.jpg",
    "id_image": "Cat_523267",
    "count_view": 0
  },
  {
    "link_thumb": "https://live.staticflickr.com/65535/50022189137_63054c2795_n.jpg",
    "id_album": "1392348450",
    "description": "Leopard_523612",
    "title": "Leopard_523612",
    "link_img": "https://live.staticflickr.com/65535/50022189137_6c67a898a1_o.jpg",
    "id_image": "Leopard_523612",
    "count_view": 0
  },
  {
    "link_thumb": "https://live.staticflickr.com/65535/50021336077_7cf2b5f53d_n.jpg",
    "id_album": "844170697",
    "description": "Frog_887843",
    "title": "Frog_887843",
    "link_img": "https://live.staticflickr.com/65535/50021336077_5aef103543_o.jpg",
    "id_image": "Frog_887843",
    "count_view": 0
  },
  {
    "link_thumb": "https://live.staticflickr.com/65535/50021475938_5141077568_n.jpg",
    "id_album": "416744915",
    "description": "Lion_430180",
    "title": "Lion_430180",
    "link_img": "https://live.staticflickr.com/65535/50021475938_88acf7b272_o.jpg",
    "id_image": "Lion_430180",
    "count_view": 0
  },
  {
    "link_thumb": "https://live.staticflickr.com/65535/50019152541_9b326fa0c8_n.jpg",
    "id_album": "-462831702",
    "description": "Cat_417929",
    "title": "Cat_417929",
    "link_img": "https://live.staticflickr.com/65535/50019152541_37d944bc56_o.jpg",
    "id_image": "Cat_417929",
    "count_view": 0
  },
  {
    "link_thumb": "https://live.staticflickr.com/65535/50024546666_6fb2ffecf4_n.jpg",
    "id_album": "-709711865",
    "description": "Wolf_81286",
    "title": "Wolf_81286",
    "link_img": "https://live.staticflickr.com/65535/50024546666_4b727ffd30_o.jpg",
    "id_image": "Wolf_81286",
    "count_view": 0
  },
  {
    "link_thumb": "https://live.staticflickr.com/65535/50020119908_92b8196e81_n.jpg",
    "id_album": "1168627767",
    "description": "Duck_368182",
    "title": "Duck_368182",
    "link_img": "https://live.staticflickr.com/65535/50020119908_2520b5a4da_o.jpg",
    "id_image": "Duck_368182",
    "count_view": 0
  },
  {
    "link_thumb": "https://live.staticflickr.com/65535/50020631811_a42af0d2de_n.jpg",
    "id_album": "-405058657",
    "description": "Dragonfly_588140",
    "title": "Dragonfly_588140",
    "link_img": "https://live.staticflickr.com/65535/50020631811_e83c7c95ca_o.jpg",
    "id_image": "Dragonfly_588140",
    "count_view": 0
  },
  {
    "link_thumb": "https://live.staticflickr.com/65535/50019437566_7d469b28dd_n.jpg",
    "id_album": "-462831703",
    "description": "Cat_911263",
    "title": "Cat_911263",
    "link_img": "https://live.staticflickr.com/65535/50019437566_ed275c4b11_o.jpg",
    "id_image": "Cat_911263",
    "count_view": 0
  },
  {
    "link_thumb": "https://live.staticflickr.com/65535/50020193906_0b4ceb9932_n.jpg",
    "id_album": "-149330232",
    "description": "Dog_264020",
    "title": "Dog_264020",
    "link_img": "https://live.staticflickr.com/65535/50020193906_0bded2bc0d_o.jpg",
    "id_image": "Dog_264020",
    "count_view": 0
  },
  {
    "link_thumb": "https://live.staticflickr.com/65535/50024162412_d591103cba_n.jpg",
    "id_album": "702283289",
    "description": "Squirrel_550994",
    "title": "Squirrel_550994",
    "link_img": "https://live.staticflickr.com/65535/50024162412_24e6ea1c4e_o.jpg",
    "id_image": "Squirrel_550994",
    "count_view": 0
  },
  {
    "link_thumb": "https://live.staticflickr.com/65535/50021375022_d65fe7c7b9_n.jpg",
    "id_album": "-462831704",
    "description": "Cat_572001",
    "title": "Cat_572001",
    "link_img": "https://live.staticflickr.com/65535/50021375022_9419238201_o.jpg",
    "id_image": "Cat_572001",
    "count_view": 0
  },
  {
    "link_thumb": "https://live.staticflickr.com/65535/50020715438_4315e449f9_n.jpg",
    "id_album": "-462831703",
    "description": "Cat_801787",
    "title": "Cat_801787",
    "link_img": "https://live.staticflickr.com/65535/50020715438_8ca8ca267e_o.jpg",
    "id_image": "Cat_801787",
    "count_view": 0
  },
  {
    "link_thumb": "https://live.staticflickr.com/65535/50019152578_b50b0168d2_n.jpg",
    "id_album": "-1481843714",
    "description": "Cheetah_219357",
    "title": "Cheetah_219357",
    "link_img": "https://live.staticflickr.com/65535/50019152578_d8cda1af31_o.jpg",
    "id_image": "Cheetah_219357",
    "count_view": 0
  },
  {
    "link_thumb": "https://live.staticflickr.com/65535/50021252052_de672682c9_n.jpg",
    "id_album": "-128218148",
    "description": "Fox_745658",
    "title": "Fox_745658",
    "link_img": "https://live.staticflickr.com/65535/50021252052_14c468181a_o.jpg",
    "id_image": "Fox_745658",
    "count_view": 0
  },
  {
    "link_thumb": "https://live.staticflickr.com/65535/50023682352_b08c4e5830_n.jpg",
    "id_album": "1961094930",
    "description": "Seal_902531",
    "title": "Seal_902531",
    "link_img": "https://live.staticflickr.com/65535/50023682352_c37c223c08_o.jpg",
    "id_image": "Seal_902531",
    "count_view": 0
  },
  {
    "link_thumb": "https://live.staticflickr.com/65535/50020481623_48cf4ed256_n.jpg",
    "id_album": "-128218148",
    "description": "Fox_914570",
    "title": "Fox_914570",
    "link_img": "https://live.staticflickr.com/65535/50020481623_4435f0e3cf_o.jpg",
    "id_image": "Fox_914570",
    "count_view": 0
  },
  {
    "link_thumb": "https://live.staticflickr.com/65535/50021381136_4b412f0b13_n.jpg",
    "id_album": "-817970789",
    "description": "Goose_351474",
    "title": "Goose_351474",
    "link_img": "https://live.staticflickr.com/65535/50021381136_f539afe358_o.jpg",
    "id_image": "Goose_351474",
    "count_view": 0
  },
  {
    "link_thumb": "https://live.staticflickr.com/65535/50021487297_681fbb272e_n.jpg",
    "id_album": "-462831703",
    "description": "Cat_769378",
    "title": "Cat_769378",
    "link_img": "https://live.staticflickr.com/65535/50021487297_119314b58a_o.jpg",
    "id_image": "Cat_769378",
    "count_view": 0
  },
  {
    "link_thumb": "https://live.staticflickr.com/65535/50017531793_528caaa99c_n.jpg",
    "id_album": "-462831702",
    "description": "Cat_362453",
    "title": "Cat_362453",
    "link_img": "https://live.staticflickr.com/65535/50017531793_0dbbd548bc_o.jpg",
    "id_image": "Cat_362453",
    "count_view": 0
  },
  {
    "link_thumb": "https://live.staticflickr.com/65535/50019701753_e3bdde58df_n.jpg",
    "id_album": "-149330232",
    "description": "Dog_310047",
    "title": "Dog_310047",
    "link_img": "https://live.staticflickr.com/65535/50019701753_c5b7907735_o.jpg",
    "id_image": "Dog_310047",
    "count_view": 0
  },
  {
    "link_thumb": "https://live.staticflickr.com/65535/50017072076_e5212a1e3b_n.jpg",
    "id_album": "-422187261",
    "description": "Bear_721916",
    "title": "Bear_721916",
    "link_img": "https://live.staticflickr.com/65535/50017072076_5ea8ac8f2d_o.jpg",
    "id_image": "Bear_721916",
    "count_view": 0
  },
  {
    "link_thumb": "https://live.staticflickr.com/65535/50019779771_9ab498dd68_n.jpg",
    "id_album": "643379324",
    "description": "Clownfish_340671",
    "title": "Clownfish_340671",
    "link_img": "https://live.staticflickr.com/65535/50019779771_c1d04686a4_o.jpg",
    "id_image": "Clownfish_340671",
    "count_view": 0
  },
  {
    "link_thumb": "https://live.staticflickr.com/65535/50023194126_1d44af40f7_n.jpg",
    "id_album": "-1862965835",
    "description": "RedEyedTreeFrog_81321",
    "title": "RedEyedTreeFrog_81321",
    "link_img": "https://live.staticflickr.com/65535/50023194126_59f4d8362e_o.jpg",
    "id_image": "RedEyedTreeFrog_81321",
    "count_view": 0
  },
  {
    "link_thumb": "https://live.staticflickr.com/65535/50023066286_c0b9a3bc9e_n.jpg",
    "id_album": "-353898617",
    "description": "Puppy_864318",
    "title": "Puppy_864318",
    "link_img": "https://live.staticflickr.com/65535/50023066286_cf4cb8b25b_o.jpg",
    "id_image": "Puppy_864318",
    "count_view": 0
  },
  {
    "link_thumb": "https://live.staticflickr.com/65535/50018363572_944568191b_n.jpg",
    "id_album": "-462831702",
    "description": "Cat_377115",
    "title": "Cat_377115",
    "link_img": "https://live.staticflickr.com/65535/50018363572_9f1e93d771_o.jpg",
    "id_image": "Cat_377115",
    "count_view": 0
  },
  {
    "link_thumb": "https://live.staticflickr.com/65535/50017669267_fafb46184a_n.jpg",
    "id_album": "-1846011410",
    "description": "Bird_706326",
    "title": "Bird_706326",
    "link_img": "https://live.staticflickr.com/65535/50017669267_3d37bd80f1_o.jpg",
    "id_image": "Bird_706326",
    "count_view": 0
  },
  {
    "link_thumb": "https://live.staticflickr.com/65535/50022067692_d114c4ba83_n.jpg",
    "id_album": "770105808",
    "description": "Kingfisher_887468",
    "title": "Kingfisher_887468",
    "link_img": "https://live.staticflickr.com/65535/50022067692_03e85e7aef_o.jpg",
    "id_image": "Kingfisher_887468",
    "count_view": 0
  },
  {
    "link_thumb": "https://live.staticflickr.com/65535/50020665587_ecb50a43dc_n.jpg",
    "id_album": "-149330231",
    "description": "Dog_430571",
    "title": "Dog_430571",
    "link_img": "https://live.staticflickr.com/65535/50020665587_f0f63099d1_o.jpg",
    "id_image": "Dog_430571",
    "count_view": 0
  },
  {
    "link_thumb": "https://live.staticflickr.com/65535/50351892608_327f8ffda4_n.jpg",
    "id_album": "-462831703",
    "description": "Cat_528322",
    "title": "Cat_528322",
    "link_img": "https://live.staticflickr.com/65535/50351892608_1c313c819b_o.jpg",
    "id_image": "Cat_528322",
    "count_view": 0
  },
  {
    "link_thumb": "https://live.staticflickr.com/65535/50017248741_1d4095c32e_n.jpg",
    "id_album": "-1846011410",
    "description": "Bird_339472",
    "title": "Bird_339472",
    "link_img": "https://live.staticflickr.com/65535/50017248741_1a288f37ff_o.jpg",
    "id_image": "Bird_339472",
    "count_view": 0
  },
  {
    "link_thumb": "https://live.staticflickr.com/65535/50020811611_e4c2a0e50d_n.jpg",
    "id_album": "822895535",
    "description": "Falcon_409114",
    "title": "Falcon_409114",
    "link_img": "https://live.staticflickr.com/65535/50020811611_039e006a97_o.jpg",
    "id_image": "Falcon_409114",
    "count_view": 0
  },
  {
    "link_thumb": "https://live.staticflickr.com/65535/50020222712_516b077637_n.jpg",
    "id_album": "-1783645069",
    "description": "Dalmatian_344068",
    "title": "Dalmatian_344068",
    "link_img": "https://live.staticflickr.com/65535/50020222712_683ca9fdcb_o.jpg",
    "id_image": "Dalmatian_344068",
    "count_view": 0
  },
  {
    "link_thumb": "https://live.staticflickr.com/65535/50021526327_d0426603bb_n.jpg",
    "id_album": "-462831703",
    "description": "Cat_836891",
    "title": "Cat_836891",
    "link_img": "https://live.staticflickr.com/65535/50021526327_c16180721e_o.jpg",
    "id_image": "Cat_836891",
    "count_view": 0
  },
  {
    "link_thumb": "https://live.staticflickr.com/65535/50018135702_457c4b046e_n.jpg",
    "id_album": "-462831705",
    "description": "Cat_225789",
    "title": "Cat_225789",
    "link_img": "https://live.staticflickr.com/65535/50018135702_69d4c67ef3_o.jpg",
    "id_image": "Cat_225789",
    "count_view": 0
  },
  {
    "link_thumb": "https://live.staticflickr.com/65535/50017563382_5d2ff34eff_n.jpg",
    "id_album": "-1846011410",
    "description": "Bird_397788",
    "title": "Bird_397788",
    "link_img": "https://live.staticflickr.com/65535/50017563382_6892723676_o.jpg",
    "id_image": "Bird_397788",
    "count_view": 0
  },
  {
    "link_thumb": "https://live.staticflickr.com/65535/50020469848_09f8c61a15_n.jpg",
    "id_album": "-128218148",
    "description": "Fox_840848",
    "title": "Fox_840848",
    "link_img": "https://live.staticflickr.com/65535/50020469848_dca51913e1_o.jpg",
    "id_image": "Fox_840848",
    "count_view": 0
  },
  {
    "link_thumb": "https://live.staticflickr.com/65535/50017828502_c22f33bd41_n.jpg",
    "id_album": "-401151552",
    "description": "Butterfly_346848",
    "title": "Butterfly_346848",
    "link_img": "https://live.staticflickr.com/65535/50017828502_fe72a90518_o.jpg",
    "id_image": "Butterfly_346848",
    "count_view": 0
  },
  {
    "link_thumb": "https://live.staticflickr.com/65535/50352556237_19b19c0688_n.jpg",
    "id_album": "-462831703",
    "description": "Cat_110516",
    "title": "Cat_110516",
    "link_img": "https://live.staticflickr.com/65535/50352556237_6b492c140d_o.jpg",
    "id_image": "Cat_110516",
    "count_view": 0
  },
  {
    "link_thumb": "https://live.staticflickr.com/65535/50018914808_07487eb4e4_n.jpg",
    "id_album": "-462831703",
    "description": "Cat_913804",
    "title": "Cat_913804",
    "link_img": "https://live.staticflickr.com/65535/50018914808_4b9135847a_o.jpg",
    "id_image": "Cat_913804",
    "count_view": 0
  },
  {
    "link_thumb": "https://live.staticflickr.com/65535/50017069073_fd618588fd_n.jpg",
    "id_album": "-401151552",
    "description": "Butterfly_431143",
    "title": "Butterfly_431143",
    "link_img": "https://live.staticflickr.com/65535/50017069073_3605d50ea8_o.jpg",
    "id_image": "Butterfly_431143",
    "count_view": 0
  },
  {
    "link_thumb": "https://live.staticflickr.com/65535/50020481978_a4906b93de_n.jpg",
    "id_album": "-128218148",
    "description": "Fox_915242",
    "title": "Fox_915242",
    "link_img": "https://live.staticflickr.com/65535/50020481978_13762cc848_o.jpg",
    "id_image": "Fox_915242",
    "count_view": 0
  },
  {
    "link_thumb": "https://live.staticflickr.com/65535/50021367108_1e75937041_n.jpg",
    "id_album": "1392348450",
    "description": "Leopard_367499",
    "title": "Leopard_367499",
    "link_img": "https://live.staticflickr.com/65535/50021367108_7afa492e9a_o.jpg",
    "id_image": "Leopard_367499",
    "count_view": 0
  },
  {
    "link_thumb": "https://live.staticflickr.com/65535/50352846457_520176da12_n.jpg",
    "id_album": "-462831702",
    "description": "Cat_118484",
    "title": "Cat_118484",
    "link_img": "https://live.staticflickr.com/65535/50352846457_e233009514_o.jpg",
    "id_image": "Cat_118484",
    "count_view": 0
  },
  {
    "link_thumb": "https://live.staticflickr.com/65535/50023190946_b2685b3567_n.jpg",
    "id_album": "-1862965835",
    "description": "RedEyedTreeFrog_602798",
    "title": "RedEyedTreeFrog_602798",
    "link_img": "https://live.staticflickr.com/65535/50023190946_5b72d0b5f6_o.jpg",
    "id_image": "RedEyedTreeFrog_602798",
    "count_view": 0
  },
  {
    "link_thumb": "https://live.staticflickr.com/65535/50019577566_e9d19dbbfa_n.jpg",
    "id_album": "-462831703",
    "description": "Cat_999944",
    "title": "Cat_999944",
    "link_img": "https://live.staticflickr.com/65535/50019577566_5419560dd3_o.jpg",
    "id_image": "Cat_999944",
    "count_view": 0
  },
  {
    "link_thumb": "https://live.staticflickr.com/65535/50017187546_87bd88f2a4_n.jpg",
    "id_album": "325287329",
    "description": "Beetle_690452",
    "title": "Beetle_690452",
    "link_img": "https://live.staticflickr.com/65535/50017187546_16fe3becd3_o.jpg",
    "id_image": "Beetle_690452",
    "count_view": 0
  },
  {
    "link_thumb": "https://live.staticflickr.com/65535/50016644318_43999b1f7e_n.jpg",
    "id_album": "1699594607",
    "description": "Bee_956587",
    "title": "Bee_956587",
    "link_img": "https://live.staticflickr.com/65535/50016644318_e6fc353462_o.jpg",
    "id_image": "Bee_956587",
    "count_view": 0
  },
  {
    "link_thumb": "https://live.staticflickr.com/65535/50021150732_762f59db50_n.jpg",
    "id_album": "-1758557371",
    "description": "Flamingo_446760",
    "title": "Flamingo_446760",
    "link_img": "https://live.staticflickr.com/65535/50021150732_a3dd91c796_o.jpg",
    "id_image": "Flamingo_446760",
    "count_view": 0
  }
]